{
  "experiment_name": "timing",
  "num_ranks": 2,
  "metrics": [
    {
      "identifier": "MPI: particle handling",
      "timers": { "rank_0": 617.04, "rank_1": 1037.41 }
    },
    {
      "identifier": "MPI: particle (overhead)",
      "timers": { "rank_0": 919.43, "rank_1": 854.91 }
    },
    {
      "identifier": "MPI: particle",
      "timers": { "rank_0": 27682.56, "rank_1": 4355.32 }
    },
    {
      "identifier": "CPU: particle handling",
      "timers": { "rank_0": 2454.02, "rank_1": 2784.79 }
    },
    {
      "identifier": "CPU: particle mapping",
      "timers": { "rank_0": 165867.41, "rank_1": 186256.57 }
    },
    {
      "identifier": "Copy: CPU -> GPU",
      "timers": { "rank_0": 300155.03, "rank_1": 169557.06 }
    },
    {
      "identifier": "CL: PartMapLP",
      "timers": { "rank_0": 149446.82, "rank_1": 175237.89 }
    },
    {
      "identifier": "Copy: GPU -> CPU",
      "timers": { "rank_0": 231368.71, "rank_1": 469645.47 }
    },
    {
      "identifier": "CL: LEGalilei",
      "timers": { "rank_0": 113954.48, "rank_1": 126382.31 }
    },
    {
      "identifier": "CL: LEShift",
      "timers": { "rank_0": 69097.51, "rank_1": 78344.97 }
    },
    {
      "identifier": "CL: PropagateCollide",
      "timers": { "rank_0": 618054.48, "rank_1": 291531.31 }
    },
    {
      "identifier": "OMP: part ext forces",
      "timers": { "rank_0": 139.60, "rank_1": 112.71 }
    },
    {
      "identifier": "OMP: part int forces",
      "timers": { "rank_0": 33844.26, "rank_1": 36006.51 }
    },
    {
      "identifier": "OMP: part-part forces",
      "timers": { "rank_0": 38952.17, "rank_1": 48275.40 }
    },
    {
      "identifier": "MPI: particle forces (overhead)",
      "timers": { "rank_0": 905.98, "rank_1": 868.32 }
    },
    {
      "identifier": "MPI: particle forces",
      "timers": { "rank_0": 8163.71, "rank_1": 393133.34 }
    },
    {
      "identifier": "OMP: particle dynamics",
      "timers": { "rank_0": 33075.11, "rank_1": 30565.17 }
    },
    {
      "identifier": "I/O: output",
      "timers": { "rank_0": 99188.46, "rank_1": 111672.19 }
    },
    {
      "identifier": "ALL: total time",
      "timers": { "rank_0": 3720868.58, "rank_1": 3720673.00 }
    }
  ]
}
