{
  "experiment_name": "timing",
  "num_ranks": 2,
  "metrics": [
    {
      "identifier": "MPI: particle handling",
      "timers": { "rank_0": 6003.20, "rank_1": 5941.09 }
    },
    {
      "identifier": "MPI: particle (overhead)",
      "timers": { "rank_0": 9569.12, "rank_1": 9555.95 }
    },
    {
      "identifier": "MPI: particle",
      "timers": { "rank_0": 170286.45, "rank_1": 160989.18 }
    },
    {
      "identifier": "CPU: particle handling",
      "timers": { "rank_0": 28679.90, "rank_1": 19119.56 }
    },
    {
      "identifier": "CPU: particle mapping",
      "timers": { "rank_0": 3092286.15, "rank_1": 3632420.92 }
    },
    {
      "identifier": "Copy: CPU -> GPU",
      "timers": { "rank_0": 6448025.51, "rank_1": 3458567.51 }
    },
    {
      "identifier": "CL: PartMapLP",
      "timers": { "rank_0": 2930748.10, "rank_1": 3988090.43 }
    },
    {
      "identifier": "Copy: GPU -> CPU",
      "timers": { "rank_0": 4780166.58, "rank_1": 4188413.96 }
    },
    {
      "identifier": "CL: LEGalilei",
      "timers": { "rank_0": 4134295.29, "rank_1": 1379966.12 }
    },
    {
      "identifier": "CL: LEShift",
      "timers": { "rank_0": 2070108.60, "rank_1": 686100.63 }
    },
    {
      "identifier": "CL: PropagateCollide",
      "timers": { "rank_0": 8085045.70, "rank_1": 5142304.48 }
    },
    {
      "identifier": "OMP: part ext forces",
      "timers": { "rank_0": 17356151.81, "rank_1": 12321735.47 }
    },
    {
      "identifier": "OMP: part int forces",
      "timers": { "rank_0": 3237244.53, "rank_1": 3765655.10 }
    },
    {
      "identifier": "OMP: part-part forces",
      "timers": { "rank_0": 1407171.07, "rank_1": 1604448.90 }
    },
    {
      "identifier": "MPI: particle forces (overhead)",
      "timers": { "rank_0": 9715.94, "rank_1": 8726.01 }
    },
    {
      "identifier": "MPI: particle forces",
      "timers": { "rank_0": 6830840.36, "rank_1": 20616277.09 }
    },
    {
      "identifier": "OMP: particle dynamics",
      "timers": { "rank_0": 3676471.02, "rank_1": 10737961.54 }
    },
    {
      "identifier": "I/O: output",
      "timers": { "rank_0": 143595.07, "rank_1": 148774.59 }
    },
    {
      "identifier": "ALL: total time",
      "timers": { "rank_0": 81711497.46, "rank_1": 81711457.78 }
    }
  ]
}
