{
  "experiment_name": "timing",
  "num_ranks": 2,
  "metrics": [
    {
      "identifier": "MPI: particle handling",
      "timers": { "rank_0": 3.67, "rank_1": 3.34 }
    },
    {
      "identifier": "MPI: particle (overhead)",
      "timers": { "rank_0": 13.82, "rank_1": 12.26 }
    },
    {
      "identifier": "MPI: particle",
      "timers": { "rank_0": 34.97, "rank_1": 51.57 }
    },
    {
      "identifier": "CPU: particle handling",
      "timers": { "rank_0": 43.01, "rank_1": 34.04 }
    },
    {
      "identifier": "CPU: particle mapping",
      "timers": { "rank_0": 2787.37, "rank_1": 2310.74 }
    },
    {
      "identifier": "Copy: CPU -> GPU",
      "timers": { "rank_0": 4566.54, "rank_1": 2178.41 }
    },
    {
      "identifier": "CL: PartMapLP",
      "timers": { "rank_0": 2650.46, "rank_1": 4256.98 }
    },
    {
      "identifier": "Copy: GPU -> CPU",
      "timers": { "rank_0": 6654.21, "rank_1": 6503.00 }
    },
    {
      "identifier": "CL: LEGalilei",
      "timers": { "rank_0": 531.79, "rank_1": 546.01 }
    },
    {
      "identifier": "CL: LEShift",
      "timers": { "rank_0": 392.27, "rank_1": 389.20 }
    },
    {
      "identifier": "CL: PropagateCollide",
      "timers": { "rank_0": 10304.66, "rank_1": 9198.65 }
    },
    {
      "identifier": "OMP: part ext forces",
      "timers": { "rank_0": 1.26, "rank_1": 0.91 }
    },
    {
      "identifier": "OMP: part int forces",
      "timers": { "rank_0": 230.69, "rank_1": 218.80 }
    },
    {
      "identifier": "OMP: part-part forces",
      "timers": { "rank_0": 816.33, "rank_1": 812.50 }
    },
    {
      "identifier": "MPI: particle forces (overhead)",
      "timers": { "rank_0": 14.80, "rank_1": 18.55 }
    },
    {
      "identifier": "MPI: particle forces",
      "timers": { "rank_0": 71.39, "rank_1": 3640.21 }
    },
    {
      "identifier": "OMP: particle dynamics",
      "timers": { "rank_0": 253.27, "rank_1": 169.44 }
    },
    {
      "identifier": "I/O: output",
      "timers": { "rank_0": 249446.83, "rank_1": 249605.75 }
    },
    {
      "identifier": "ALL: total time",
      "timers": { "rank_0": 297755.32, "rank_1": 297633.95 }
    }
  ]
}
