{
  "experiment_name": "timing",
  "num_ranks": 2,
  "metrics": [
    {
      "identifier": "MPI: particle handling",
      "timers": { "rank_0": 67.66, "rank_1": 87.18 }
    },
    {
      "identifier": "MPI: particle (overhead)",
      "timers": { "rank_0": 1011.80, "rank_1": 670.38 }
    },
    {
      "identifier": "MPI: particle",
      "timers": { "rank_0": 1803.83, "rank_1": 3464.35 }
    },
    {
      "identifier": "CPU: particle handling",
      "timers": { "rank_0": 1124.16, "rank_1": 873.13 }
    },
    {
      "identifier": "CPU: particle mapping",
      "timers": { "rank_0": 69450.44, "rank_1": 57522.79 }
    },
    {
      "identifier": "Copy: CPU -> GPU",
      "timers": { "rank_0": 120124.07, "rank_1": 116193.60 }
    },
    {
      "identifier": "CL: PartMapLP",
      "timers": { "rank_0": 65939.84, "rank_1": 54384.15 }
    },
    {
      "identifier": "Copy: GPU -> CPU",
      "timers": { "rank_0": 386713.64, "rank_1": 146851.81 }
    },
    {
      "identifier": "CL: LEGalilei",
      "timers": { "rank_0": 64955.23, "rank_1": 81539.09 }
    },
    {
      "identifier": "CL: LEShift",
      "timers": { "rank_0": 38503.00, "rank_1": 39489.37 }
    },
    {
      "identifier": "CL: PropagateCollide",
      "timers": { "rank_0": 254833.04, "rank_1": 240818.22 }
    },
    {
      "identifier": "OMP: part ext forces",
      "timers": { "rank_0": 18.93, "rank_1": 11.92 }
    },
    {
      "identifier": "OMP: part int forces",
      "timers": { "rank_0": 5811.08, "rank_1": 5901.02 }
    },
    {
      "identifier": "OMP: part-part forces",
      "timers": { "rank_0": 24340.70, "rank_1": 28582.04 }
    },
    {
      "identifier": "MPI: particle forces (overhead)",
      "timers": { "rank_0": 534.51, "rank_1": 639.90 }
    },
    {
      "identifier": "MPI: particle forces",
      "timers": { "rank_0": 2034.98, "rank_1": 64242.55 }
    },
    {
      "identifier": "OMP: particle dynamics",
      "timers": { "rank_0": 4402.86, "rank_1": 4415.90 }
    },
    {
      "identifier": "I/O: output",
      "timers": { "rank_0": 1224816.93, "rank_1": 1266115.79 }
    },
    {
      "identifier": "ALL: total time",
      "timers": { "rank_0": 2967463.44, "rank_1": 2966987.73 }
    }
  ]
}
