{
  "experiment_name": "timing",
  "num_ranks": 2,
  "metrics": [
    {
      "identifier": "MPI: particle handling",
      "timers": { "rank_0": 6.67, "rank_1": 10.91 }
    },
    {
      "identifier": "MPI: particle (overhead)",
      "timers": { "rank_0": 9.42, "rank_1": 8.40 }
    },
    {
      "identifier": "MPI: particle",
      "timers": { "rank_0": 81.12, "rank_1": 50.79 }
    },
    {
      "identifier": "CPU: particle handling",
      "timers": { "rank_0": 27.06, "rank_1": 19.27 }
    },
    {
      "identifier": "CPU: particle mapping",
      "timers": { "rank_0": 1370.47, "rank_1": 1647.52 }
    },
    {
      "identifier": "Copy: CPU -> GPU",
      "timers": { "rank_0": 2799.41, "rank_1": 1474.00 }
    },
    {
      "identifier": "CL: PartMapLP",
      "timers": { "rank_0": 1198.32, "rank_1": 1700.79 }
    },
    {
      "identifier": "Copy: GPU -> CPU",
      "timers": { "rank_0": 2629.35, "rank_1": 2482.84 }
    },
    {
      "identifier": "CL: LEGalilei",
      "timers": { "rank_0": 1073.74, "rank_1": 1090.69 }
    },
    {
      "identifier": "CL: LEShift",
      "timers": { "rank_0": 551.24, "rank_1": 491.52 }
    },
    {
      "identifier": "CL: PropagateCollide",
      "timers": { "rank_0": 5894.16, "rank_1": 2623.47 }
    },
    {
      "identifier": "OMP: part ext forces",
      "timers": { "rank_0": 1.40, "rank_1": 1.11 }
    },
    {
      "identifier": "OMP: part int forces",
      "timers": { "rank_0": 319.74, "rank_1": 351.07 }
    },
    {
      "identifier": "OMP: part-part forces",
      "timers": { "rank_0": 383.55, "rank_1": 467.98 }
    },
    {
      "identifier": "MPI: particle forces (overhead)",
      "timers": { "rank_0": 8.95, "rank_1": 8.60 }
    },
    {
      "identifier": "MPI: particle forces",
      "timers": { "rank_0": 81.99, "rank_1": 4609.56 }
    },
    {
      "identifier": "OMP: particle dynamics",
      "timers": { "rank_0": 348.63, "rank_1": 289.07 }
    },
    {
      "identifier": "I/O: output",
      "timers": { "rank_0": 99620.76, "rank_1": 108825.27 }
    },
    {
      "identifier": "ALL: total time",
      "timers": { "rank_0": 138805.12, "rank_1": 138596.53 }
    }
  ]
}
