{
  "experiment_name": "timing",
  "num_ranks": 2,
  "metrics": [
    {
      "identifier": "MPI: particle handling",
      "timers": { "rank_0": 6.89, "rank_1": 11.21 }
    },
    {
      "identifier": "MPI: particle (overhead)",
      "timers": { "rank_0": 11.25, "rank_1": 11.35 }
    },
    {
      "identifier": "MPI: particle",
      "timers": { "rank_0": 128.75, "rank_1": 51.95 }
    },
    {
      "identifier": "CPU: particle handling",
      "timers": { "rank_0": 31.82, "rank_1": 26.27 }
    },
    {
      "identifier": "CPU: particle mapping",
      "timers": { "rank_0": 1898.06, "rank_1": 2964.82 }
    },
    {
      "identifier": "Copy: CPU -> GPU",
      "timers": { "rank_0": 5439.69, "rank_1": 2789.57 }
    },
    {
      "identifier": "CL: PartMapLP",
      "timers": { "rank_0": 1712.07, "rank_1": 2269.03 }
    },
    {
      "identifier": "Copy: GPU -> CPU",
      "timers": { "rank_0": 3434.47, "rank_1": 3854.82 }
    },
    {
      "identifier": "CL: LEGalilei",
      "timers": { "rank_0": 1648.07, "rank_1": 1265.87 }
    },
    {
      "identifier": "CL: LEShift",
      "timers": { "rank_0": 1188.27, "rank_1": 914.60 }
    },
    {
      "identifier": "CL: PropagateCollide",
      "timers": { "rank_0": 7038.76, "rank_1": 3924.03 }
    },
    {
      "identifier": "OMP: part ext forces",
      "timers": { "rank_0": 1.57, "rank_1": 1.26 }
    },
    {
      "identifier": "OMP: part int forces",
      "timers": { "rank_0": 372.31, "rank_1": 424.83 }
    },
    {
      "identifier": "OMP: part-part forces",
      "timers": { "rank_0": 536.05, "rank_1": 738.00 }
    },
    {
      "identifier": "MPI: particle forces (overhead)",
      "timers": { "rank_0": 11.32, "rank_1": 11.81 }
    },
    {
      "identifier": "MPI: particle forces",
      "timers": { "rank_0": 197.04, "rank_1": 5156.94 }
    },
    {
      "identifier": "OMP: particle dynamics",
      "timers": { "rank_0": 392.49, "rank_1": 368.04 }
    },
    {
      "identifier": "I/O: output",
      "timers": { "rank_0": 142074.56, "rank_1": 159367.81 }
    },
    {
      "identifier": "ALL: total time",
      "timers": { "rank_0": 200792.88, "rank_1": 200655.16 }
    }
  ]
}
