{
  "experiment_name": "timing",
  "num_ranks": 2,
  "metrics": [
    {
      "identifier": "MPI: particle handling",
      "timers": { "rank_0": 55.82, "rank_1": 92.29 }
    },
    {
      "identifier": "MPI: particle (overhead)",
      "timers": { "rank_0": 101.71, "rank_1": 93.82 }
    },
    {
      "identifier": "MPI: particle",
      "timers": { "rank_0": 531.53, "rank_1": 558.28 }
    },
    {
      "identifier": "CPU: particle handling",
      "timers": { "rank_0": 270.79, "rank_1": 202.54 }
    },
    {
      "identifier": "CPU: particle mapping",
      "timers": { "rank_0": 14351.65, "rank_1": 17526.32 }
    },
    {
      "identifier": "Copy: CPU -> GPU",
      "timers": { "rank_0": 35161.39, "rank_1": 15852.80 }
    },
    {
      "identifier": "CL: PartMapLP",
      "timers": { "rank_0": 12496.38, "rank_1": 22143.87 }
    },
    {
      "identifier": "Copy: GPU -> CPU",
      "timers": { "rank_0": 31063.35, "rank_1": 25195.17 }
    },
    {
      "identifier": "CL: LEGalilei",
      "timers": { "rank_0": 16766.23, "rank_1": 13932.80 }
    },
    {
      "identifier": "CL: LEShift",
      "timers": { "rank_0": 7601.35, "rank_1": 5617.54 }
    },
    {
      "identifier": "CL: PropagateCollide",
      "timers": { "rank_0": 65174.79, "rank_1": 38041.75 }
    },
    {
      "identifier": "OMP: part ext forces",
      "timers": { "rank_0": 15.32, "rank_1": 10.46 }
    },
    {
      "identifier": "OMP: part int forces",
      "timers": { "rank_0": 3071.40, "rank_1": 3658.82 }
    },
    {
      "identifier": "OMP: part-part forces",
      "timers": { "rank_0": 4145.41, "rank_1": 5992.29 }
    },
    {
      "identifier": "MPI: particle forces (overhead)",
      "timers": { "rank_0": 110.53, "rank_1": 99.72 }
    },
    {
      "identifier": "MPI: particle forces",
      "timers": { "rank_0": 1892.55, "rank_1": 47528.41 }
    },
    {
      "identifier": "OMP: particle dynamics",
      "timers": { "rank_0": 2984.59, "rank_1": 3061.48 }
    },
    {
      "identifier": "I/O: output",
      "timers": { "rank_0": 146242.14, "rank_1": 157939.10 }
    },
    {
      "identifier": "ALL: total time",
      "timers": { "rank_0": 521211.48, "rank_1": 520992.34 }
    }
  ]
}
