{
  "experiment_name": "timing",
  "num_ranks": 2,
  "metrics": [
    {
      "identifier": "MPI: particle handling",
      "timers": { "rank_0": 3171.25, "rank_1": 3403.19 }
    },
    {
      "identifier": "MPI: particle (overhead)",
      "timers": { "rank_0": 36184.88, "rank_1": 13131.28 }
    },
    {
      "identifier": "MPI: particle",
      "timers": { "rank_0": 91500.10, "rank_1": 167343.93 }
    },
    {
      "identifier": "CPU: particle handling",
      "timers": { "rank_0": 18588.45, "rank_1": 13199.97 }
    },
    {
      "identifier": "CPU: particle mapping",
      "timers": { "rank_0": 415331.29, "rank_1": 383924.14 }
    },
    {
      "identifier": "Copy: CPU -> GPU",
      "timers": { "rank_0": 1265281.27, "rank_1": 1202172.18 }
    },
    {
      "identifier": "CL: PartMapLP",
      "timers": { "rank_0": 341340.03, "rank_1": 309608.35 }
    },
    {
      "identifier": "Copy: GPU -> CPU",
      "timers": { "rank_0": 976800.14, "rank_1": 1012637.16 }
    },
    {
      "identifier": "CL: LEGalilei",
      "timers": { "rank_0": 431824.45, "rank_1": 387929.39 }
    },
    {
      "identifier": "CL: LEShift",
      "timers": { "rank_0": 257470.52, "rank_1": 217588.19 }
    },
    {
      "identifier": "CL: PropagateCollide",
      "timers": { "rank_0": 1787877.24, "rank_1": 732585.39 }
    },
    {
      "identifier": "OMP: part ext forces",
      "timers": { "rank_0": 701.10, "rank_1": 572.12 }
    },
    {
      "identifier": "OMP: part int forces",
      "timers": { "rank_0": 128685.88, "rank_1": 145576.44 }
    },
    {
      "identifier": "OMP: part-part forces",
      "timers": { "rank_0": 156799.42, "rank_1": 188493.65 }
    },
    {
      "identifier": "MPI: particle forces (overhead)",
      "timers": { "rank_0": 7672.09, "rank_1": 22487.84 }
    },
    {
      "identifier": "MPI: particle forces",
      "timers": { "rank_0": 111570.81, "rank_1": 1575832.84 }
    },
    {
      "identifier": "OMP: particle dynamics",
      "timers": { "rank_0": 147682.38, "rank_1": 131047.91 }
    },
    {
      "identifier": "I/O: output",
      "timers": { "rank_0": 33118.82, "rank_1": 35230.14 }
    },
    {
      "identifier": "ALL: total time",
      "timers": { "rank_0": 13226629.36, "rank_1": 13226481.99 }
    }
  ]
}
