{
  "experiment_name": "timing",
  "num_ranks": 2,
  "metrics": [
    {
      "identifier": "MPI: particle handling",
      "timers": { "rank_0": 2698.55, "rank_1": 3829.90 }
    },
    {
      "identifier": "MPI: particle (overhead)",
      "timers": { "rank_0": 11795.31, "rank_1": 15343.08 }
    },
    {
      "identifier": "MPI: particle",
      "timers": { "rank_0": 213350.89, "rank_1": 29626.90 }
    },
    {
      "identifier": "CPU: particle handling",
      "timers": { "rank_0": 36302.99, "rank_1": 26394.70 }
    },
    {
      "identifier": "CPU: particle mapping",
      "timers": { "rank_0": 2546137.27, "rank_1": 2221051.73 }
    },
    {
      "identifier": "Copy: CPU -> GPU",
      "timers": { "rank_0": 4250582.40, "rank_1": 2034739.99 }
    },
    {
      "identifier": "CL: PartMapLP",
      "timers": { "rank_0": 2410575.39, "rank_1": 3967315.70 }
    },
    {
      "identifier": "Copy: GPU -> CPU",
      "timers": { "rank_0": 4851922.07, "rank_1": 15059415.79 }
    },
    {
      "identifier": "CL: LEGalilei",
      "timers": { "rank_0": 519668.22, "rank_1": 595225.39 }
    },
    {
      "identifier": "CL: LEShift",
      "timers": { "rank_0": 380805.17, "rank_1": 421345.25 }
    },
    {
      "identifier": "CL: PropagateCollide",
      "timers": { "rank_0": 9807599.40, "rank_1": 8294926.75 }
    },
    {
      "identifier": "OMP: part ext forces",
      "timers": { "rank_0": 1200.40, "rank_1": 1234.76 }
    },
    {
      "identifier": "OMP: part int forces",
      "timers": { "rank_0": 229814.54, "rank_1": 340708.76 }
    },
    {
      "identifier": "OMP: part-part forces",
      "timers": { "rank_0": 598518.21, "rank_1": 961178.77 }
    },
    {
      "identifier": "MPI: particle forces (overhead)",
      "timers": { "rank_0": 12080.19, "rank_1": 16592.75 }
    },
    {
      "identifier": "MPI: particle forces",
      "timers": { "rank_0": 64373.62, "rank_1": 2250807.26 }
    },
    {
      "identifier": "OMP: particle dynamics",
      "timers": { "rank_0": 234826.47, "rank_1": 276372.74 }
    },
    {
      "identifier": "I/O: output",
      "timers": { "rank_0": 228257.46, "rank_1": 409647.96 }
    },
    {
      "identifier": "ALL: total time",
      "timers": { "rank_0": 64738029.59, "rank_1": 64738032.46 }
    }
  ]
}
