0.00023929921	1.65e-05	1.2498123e-05
0.00023809399	1.65e-05	1.2490614e-05
0.00023688552	1.65e-05	1.2484099e-05
0.00023567767	1.65e-05	1.2480859e-05
0.00023447019	1.65e-05	1.2480508e-05
0.0002332632	1.65e-05	1.2484827e-05
0.00023206022	1.65e-05	1.2492892e-05
0.00023086106	1.65e-05	1.250034e-05
0.00022966281	1.65e-05	1.2506381e-05
0.00022846455	1.6499999e-05	1.251248e-05
0.0002272661	1.6499999e-05	1.251969e-05
0.00022606813	1.6499999e-05	1.2530004e-05
0.00022487485	1.6499999e-05	1.2544076e-05
0.0002236899	1.6499999e-05	1.2557175e-05
0.00022251045	1.6499999e-05	1.2563676e-05
0.00022133158	1.6499999e-05	1.2563892e-05
0.00022015287	1.6499999e-05	1.2559547e-05
0.00021897318	1.6499998e-05	1.2547748e-05
0.00021778575	1.6499998e-05	1.2526851e-05
0.00021658429	1.6499998e-05	1.2502602e-05
0.0002153715	1.6499998e-05	1.2484999e-05
0.00021415617	1.6499998e-05	1.2479347e-05
0.00021294592	1.6499998e-05	1.2484677e-05
0.00021174441	1.6499998e-05	1.2495598e-05
0.00021055025	1.6499998e-05	1.2506391e-05
0.00020936078	1.6499998e-05	1.2514761e-05
0.00020817408	1.6499998e-05	1.2519103e-05
0.00020698639	1.6499998e-05	1.2518169e-05
0.00020579411	1.6499998e-05	1.2515077e-05
0.00020459878	1.6499998e-05	1.251467e-05
0.00020340423	1.6499997e-05	1.251788e-05
0.00020221138	1.6499997e-05	1.2523488e-05
0.00020102093	1.6499997e-05	1.2532025e-05
0.00019983632	1.6499997e-05	1.2543584e-05
0.000198662	1.6499997e-05	1.2554179e-05
0.00019749786	1.6499997e-05	1.2554502e-05
0.00019633297	1.6499997e-05	1.2536528e-05
0.0001951522	1.6499997e-05	1.2505536e-05
0.00019395398	1.6499997e-05	1.2478356e-05
0.00019275297	1.6499997e-05	1.246446e-05
0.00019156115	1.6499997e-05	1.2457989e-05
0.00019038	1.6499997e-05	1.2449885e-05
0.00018920698	1.6499996e-05	1.2434377e-05
0.0001880406	1.6499996e-05	1.2407154e-05
0.00018688054	1.6499996e-05	1.2362945e-05
0.00018572563	1.6499996e-05	1.2292299e-05
0.00018456749	1.6499996e-05	1.2181723e-05
0.00018338212	1.6499996e-05	1.2025017e-05
0.00018213074	1.6499996e-05	1.185141e-05
0.0001807949	1.6499996e-05	1.1748031e-05
0.00017943591	1.6499996e-05	1.1788415e-05
0.00017814167	1.6499996e-05	1.1940826e-05
0.00017692697	1.6499996e-05	1.2108425e-05
0.00017575104	1.6499996e-05	1.2236549e-05
0.0001745828	1.6499996e-05	1.232613e-05
0.00017341491	1.6499995e-05	1.2395071e-05
0.00017225531	1.6499995e-05	1.244863e-05
0.0001711011	1.6499995e-05	1.248038e-05
0.00016994022	1.6499995e-05	1.2493203e-05
0.00016876878	1.6499995e-05	1.249722e-05
0.00016758973	1.6499995e-05	1.2498798e-05
0.00016640653	1.6499995e-05	1.2500273e-05
0.00016522117	1.6499995e-05	1.250175e-05
0.00016403378	1.6499995e-05	1.2502935e-05
0.00016284462	1.6499995e-05	1.2505735e-05
0.0001616575	1.6499995e-05	1.2510984e-05
0.0001604744	1.6499995e-05	1.2514441e-05
0.00015929145	1.6499994e-05	1.251295e-05
0.00015810604	1.6499994e-05	1.2507972e-05
0.00015691781	1.6499994e-05	1.2499783e-05
0.0001557242	1.6499994e-05	1.2488354e-05
0.00015452183	1.6499994e-05	1.2477361e-05
0.00015331137	1.6499994e-05	1.2473529e-05
0.00015209877	1.6499994e-05	1.2482065e-05
0.00015089342	1.6499994e-05	1.2503899e-05
0.00014970419	1.6499994e-05	1.2532497e-05
0.00014853037	1.6499994e-05	1.255598e-05
0.00014736292	1.6499994e-05	1.2567024e-05
0.00014619304	1.6499994e-05	1.2564478e-05
0.0001450142	1.6499993e-05	1.2552358e-05
0.00014382558	1.6499993e-05	1.2538156e-05
0.00014263047	1.6499993e-05	1.2526605e-05
0.00014143276	1.6499993e-05	1.2519514e-05
0.00014023563	1.6499993e-05	1.2516147e-05
0.00013904078	1.6499993e-05	1.2514316e-05
0.00013784839	1.6499993e-05	1.2511117e-05
0.00013665613	1.6499993e-05	1.2503701e-05
0.00013545922	1.6499993e-05	1.2492597e-05
0.0001342557	1.6499993e-05	1.2482996e-05
0.00013304924	1.6499993e-05	1.2478386e-05
0.00013184247	1.6499992e-05	1.2477097e-05
0.00013063456	1.6499992e-05	1.2478561e-05
0.00012942645	1.6499992e-05	1.248541e-05
0.00012822287	1.6499992e-05	1.2499105e-05
0.0001270285	1.6499992e-05	1.2516344e-05
0.00012584196	1.6499992e-05	1.2530573e-05
0.00012465669	1.6499992e-05	1.2538475e-05
0.00012346881	1.6499992e-05	1.2542858e-05
0.00012228096	1.6499992e-05	1.2546536e-05
0.00012109595	1.6499992e-05	1.2546776e-05
0.00012109589	1.6499992e-05	1.2546776e-05
