{
  "experiment_name": "timing",
  "num_ranks": 2,
  "metrics": [
    {
      "identifier": "MPI: particle handling",
      "timers": { "rank_0": 1092.63, "rank_1": 1475.59 }
    },
    {
      "identifier": "MPI: particle (overhead)",
      "timers": { "rank_0": 4550.21, "rank_1": 4185.99 }
    },
    {
      "identifier": "MPI: particle",
      "timers": { "rank_0": 47352.23, "rank_1": 7734.14 }
    },
    {
      "identifier": "CPU: particle handling",
      "timers": { "rank_0": 10249.03, "rank_1": 7651.76 }
    },
    {
      "identifier": "CPU: particle mapping",
      "timers": { "rank_0": 806420.14, "rank_1": 1053542.72 }
    },
    {
      "identifier": "Copy: CPU -> GPU",
      "timers": { "rank_0": 1749042.81, "rank_1": 1010575.76 }
    },
    {
      "identifier": "CL: PartMapLP",
      "timers": { "rank_0": 760171.00, "rank_1": 1248495.54 }
    },
    {
      "identifier": "Copy: GPU -> CPU",
      "timers": { "rank_0": 1502395.17, "rank_1": 3788746.94 }
    },
    {
      "identifier": "CL: LEGalilei",
      "timers": { "rank_0": 497909.63, "rank_1": 460597.03 }
    },
    {
      "identifier": "CL: LEShift",
      "timers": { "rank_0": 111356.48, "rank_1": 102559.12 }
    },
    {
      "identifier": "CL: PropagateCollide",
      "timers": { "rank_0": 2451657.76, "rank_1": 2389344.43 }
    },
    {
      "identifier": "OMP: part ext forces",
      "timers": { "rank_0": 304.51, "rank_1": 228.22 }
    },
    {
      "identifier": "OMP: part int forces",
      "timers": { "rank_0": 67296.81, "rank_1": 71192.39 }
    },
    {
      "identifier": "OMP: part-part forces",
      "timers": { "rank_0": 233565.78, "rank_1": 262191.73 }
    },
    {
      "identifier": "MPI: particle forces (overhead)",
      "timers": { "rank_0": 4976.48, "rank_1": 5138.37 }
    },
    {
      "identifier": "MPI: particle forces",
      "timers": { "rank_0": 18324.11, "rank_1": 570833.45 }
    },
    {
      "identifier": "OMP: particle dynamics",
      "timers": { "rank_0": 65777.44, "rank_1": 61996.42 }
    },
    {
      "identifier": "I/O: output",
      "timers": { "rank_0": 519536.81, "rank_1": 550268.93 }
    },
    {
      "identifier": "ALL: total time",
      "timers": { "rank_0": 18618938.64, "rank_1": 18618571.96 }
    }
  ]
}
