{
  "experiment_name": "timing",
  "num_ranks": 2,
  "metrics": [
    {
      "identifier": "MPI: particle handling",
      "timers": { "rank_0": 4.92, "rank_1": 6.17 }
    },
    {
      "identifier": "MPI: particle (overhead)",
      "timers": { "rank_0": 11.65, "rank_1": 10.86 }
    },
    {
      "identifier": "MPI: particle",
      "timers": { "rank_0": 54.53, "rank_1": 70.84 }
    },
    {
      "identifier": "CPU: particle handling",
      "timers": { "rank_0": 35.55, "rank_1": 27.48 }
    },
    {
      "identifier": "CPU: particle mapping",
      "timers": { "rank_0": 1042.24, "rank_1": 1742.85 }
    },
    {
      "identifier": "Copy: CPU -> GPU",
      "timers": { "rank_0": 3749.18, "rank_1": 1642.38 }
    },
    {
      "identifier": "CL: PartMapLP",
      "timers": { "rank_0": 928.78, "rank_1": 1878.87 }
    },
    {
      "identifier": "Copy: GPU -> CPU",
      "timers": { "rank_0": 3429.78, "rank_1": 5410.52 }
    },
    {
      "identifier": "CL: LEGalilei",
      "timers": { "rank_0": 1284.78, "rank_1": 1181.13 }
    },
    {
      "identifier": "CL: LEShift",
      "timers": { "rank_0": 291.59, "rank_1": 240.10 }
    },
    {
      "identifier": "CL: PropagateCollide",
      "timers": { "rank_0": 3850.60, "rank_1": 3146.55 }
    },
    {
      "identifier": "OMP: part ext forces",
      "timers": { "rank_0": 1.13, "rank_1": 0.92 }
    },
    {
      "identifier": "OMP: part int forces",
      "timers": { "rank_0": 254.71, "rank_1": 286.33 }
    },
    {
      "identifier": "OMP: part-part forces",
      "timers": { "rank_0": 553.27, "rank_1": 687.34 }
    },
    {
      "identifier": "MPI: particle forces (overhead)",
      "timers": { "rank_0": 12.12, "rank_1": 12.38 }
    },
    {
      "identifier": "MPI: particle forces",
      "timers": { "rank_0": 135.18, "rank_1": 1850.40 }
    },
    {
      "identifier": "OMP: particle dynamics",
      "timers": { "rank_0": 271.73, "rank_1": 244.83 }
    },
    {
      "identifier": "I/O: output",
      "timers": { "rank_0": 292937.22, "rank_1": 317467.62 }
    },
    {
      "identifier": "ALL: total time",
      "timers": { "rank_0": 347474.82, "rank_1": 347191.38 }
    }
  ]
}
