{
  "experiment_name": "timing",
  "num_ranks": 2,
  "metrics": [
    {
      "identifier": "MPI: particle handling",
      "timers": { "rank_0": 500.07, "rank_1": 774.97 }
    },
    {
      "identifier": "MPI: particle (overhead)",
      "timers": { "rank_0": 1378.58, "rank_1": 1431.09 }
    },
    {
      "identifier": "MPI: particle",
      "timers": { "rank_0": 5220.89, "rank_1": 4575.48 }
    },
    {
      "identifier": "CPU: particle handling",
      "timers": { "rank_0": 3290.79, "rank_1": 3027.75 }
    },
    {
      "identifier": "CPU: particle mapping",
      "timers": { "rank_0": 236848.15, "rank_1": 250860.05 }
    },
    {
      "identifier": "Copy: CPU -> GPU",
      "timers": { "rank_0": 476254.00, "rank_1": 232495.76 }
    },
    {
      "identifier": "CL: PartMapLP",
      "timers": { "rank_0": 217999.79, "rank_1": 333128.11 }
    },
    {
      "identifier": "Copy: GPU -> CPU",
      "timers": { "rank_0": 448393.29, "rank_1": 405031.66 }
    },
    {
      "identifier": "CL: LEGalilei",
      "timers": { "rank_0": 121136.32, "rank_1": 120012.94 }
    },
    {
      "identifier": "CL: LEShift",
      "timers": { "rank_0": 67170.06, "rank_1": 48910.78 }
    },
    {
      "identifier": "CL: PropagateCollide",
      "timers": { "rank_0": 798449.07, "rank_1": 627456.51 }
    },
    {
      "identifier": "OMP: part ext forces",
      "timers": { "rank_0": 157.42, "rank_1": 107.52 }
    },
    {
      "identifier": "OMP: part int forces",
      "timers": { "rank_0": 32016.50, "rank_1": 38408.69 }
    },
    {
      "identifier": "OMP: part-part forces",
      "timers": { "rank_0": 64796.08, "rank_1": 91572.38 }
    },
    {
      "identifier": "MPI: particle forces (overhead)",
      "timers": { "rank_0": 1617.17, "rank_1": 1483.66 }
    },
    {
      "identifier": "MPI: particle forces",
      "timers": { "rank_0": 7759.39, "rank_1": 395424.74 }
    },
    {
      "identifier": "OMP: particle dynamics",
      "timers": { "rank_0": 32805.44, "rank_1": 29857.87 }
    },
    {
      "identifier": "I/O: output",
      "timers": { "rank_0": 282968.56, "rank_1": 320927.86 }
    },
    {
      "identifier": "ALL: total time",
      "timers": { "rank_0": 4740265.16, "rank_1": 4739782.79 }
    }
  ]
}
