{
  "experiment_name": "timing",
  "num_ranks": 2,
  "metrics": [
    {
      "identifier": "MPI: particle handling",
      "timers": { "rank_0": 4.57, "rank_1": 6.76 }
    },
    {
      "identifier": "MPI: particle (overhead)",
      "timers": { "rank_0": 8.48, "rank_1": 7.94 }
    },
    {
      "identifier": "MPI: particle",
      "timers": { "rank_0": 38.06, "rank_1": 36.14 }
    },
    {
      "identifier": "CPU: particle handling",
      "timers": { "rank_0": 23.16, "rank_1": 17.02 }
    },
    {
      "identifier": "CPU: particle mapping",
      "timers": { "rank_0": 885.60, "rank_1": 1165.52 }
    },
    {
      "identifier": "Copy: CPU -> GPU",
      "timers": { "rank_0": 2275.56, "rank_1": 1073.38 }
    },
    {
      "identifier": "CL: PartMapLP",
      "timers": { "rank_0": 787.00, "rank_1": 1355.27 }
    },
    {
      "identifier": "Copy: GPU -> CPU",
      "timers": { "rank_0": 2406.88, "rank_1": 2142.81 }
    },
    {
      "identifier": "CL: LEGalilei",
      "timers": { "rank_0": 957.77, "rank_1": 725.69 }
    },
    {
      "identifier": "CL: LEShift",
      "timers": { "rank_0": 401.56, "rank_1": 316.09 }
    },
    {
      "identifier": "CL: PropagateCollide",
      "timers": { "rank_0": 3613.95, "rank_1": 2416.84 }
    },
    {
      "identifier": "OMP: part ext forces",
      "timers": { "rank_0": 0.95, "rank_1": 0.87 }
    },
    {
      "identifier": "OMP: part int forces",
      "timers": { "rank_0": 225.73, "rank_1": 269.55 }
    },
    {
      "identifier": "OMP: part-part forces",
      "timers": { "rank_0": 428.22, "rank_1": 541.60 }
    },
    {
      "identifier": "MPI: particle forces (overhead)",
      "timers": { "rank_0": 8.82, "rank_1": 8.17 }
    },
    {
      "identifier": "MPI: particle forces",
      "timers": { "rank_0": 110.15, "rank_1": 2406.56 }
    },
    {
      "identifier": "OMP: particle dynamics",
      "timers": { "rank_0": 256.59, "rank_1": 236.79 }
    },
    {
      "identifier": "I/O: output",
      "timers": { "rank_0": 194858.79, "rank_1": 211540.63 }
    },
    {
      "identifier": "ALL: total time",
      "timers": { "rank_0": 231209.38, "rank_1": 230927.51 }
    }
  ]
}
