{
  "experiment_name": "timing",
  "num_ranks": 2,
  "metrics": [
    {
      "identifier": "MPI: particle handling",
      "timers": { "rank_0": 5010.69, "rank_1": 12458.95 }
    },
    {
      "identifier": "MPI: particle (overhead)",
      "timers": { "rank_0": 9671.57, "rank_1": 10394.70 }
    },
    {
      "identifier": "MPI: particle",
      "timers": { "rank_0": 280747.23, "rank_1": 43225.72 }
    },
    {
      "identifier": "CPU: particle handling",
      "timers": { "rank_0": 25710.47, "rank_1": 28961.63 }
    },
    {
      "identifier": "CPU: particle mapping",
      "timers": { "rank_0": 1477840.47, "rank_1": 2269536.52 }
    },
    {
      "identifier": "Copy: CPU -> GPU",
      "timers": { "rank_0": 4191097.60, "rank_1": 2102916.48 }
    },
    {
      "identifier": "CL: PartMapLP",
      "timers": { "rank_0": 1304111.61, "rank_1": 2234710.82 }
    },
    {
      "identifier": "Copy: GPU -> CPU",
      "timers": { "rank_0": 2924584.35, "rank_1": 6259144.31 }
    },
    {
      "identifier": "CL: LEGalilei",
      "timers": { "rank_0": 1448848.39, "rank_1": 1752297.13 }
    },
    {
      "identifier": "CL: LEShift",
      "timers": { "rank_0": 586221.30, "rank_1": 479048.19 }
    },
    {
      "identifier": "CL: PropagateCollide",
      "timers": { "rank_0": 6581245.22, "rank_1": 3639298.84 }
    },
    {
      "identifier": "OMP: part ext forces",
      "timers": { "rank_0": 1549.37, "rank_1": 1153.66 }
    },
    {
      "identifier": "OMP: part int forces",
      "timers": { "rank_0": 350680.20, "rank_1": 363560.43 }
    },
    {
      "identifier": "OMP: part-part forces",
      "timers": { "rank_0": 446620.53, "rank_1": 588690.61 }
    },
    {
      "identifier": "MPI: particle forces (overhead)",
      "timers": { "rank_0": 10986.08, "rank_1": 10694.41 }
    },
    {
      "identifier": "MPI: particle forces",
      "timers": { "rank_0": 155659.76, "rank_1": 3743988.26 }
    },
    {
      "identifier": "OMP: particle dynamics",
      "timers": { "rank_0": 309999.03, "rank_1": 318821.00 }
    },
    {
      "identifier": "I/O: output",
      "timers": { "rank_0": 153170.40, "rank_1": 161178.39 }
    },
    {
      "identifier": "ALL: total time",
      "timers": { "rank_0": 43845284.79, "rank_1": 43845110.87 }
    }
  ]
}
