6.1098801e-05	1.65e-05	1.8499977e-05
6.16976e-05	1.65e-05	1.8499955e-05
6.229642e-05	1.65e-05	1.8499891e-05
6.289529e-05	1.65e-05	1.8499793e-05
6.3494203e-05	1.65e-05	1.8499622e-05
6.4093173e-05	1.65e-05	1.849933e-05
6.469217e-05	1.65e-05	1.8498912e-05
6.5291182e-05	1.65e-05	1.8498329e-05
6.5890189e-05	1.65e-05	1.8497583e-05
6.648916e-05	1.65e-05	1.8496659e-05
6.7088077e-05	1.65e-05	1.8495565e-05
6.7686974e-05	1.65e-05	1.8494321e-05
6.8285906e-05	1.65e-05	1.8492874e-05
6.8884894e-05	1.65e-05	1.8491219e-05
6.9483967e-05	1.65e-05	1.8489272e-05
7.0083134e-05	1.65e-05	1.848695e-05
7.0682358e-05	1.65e-05	1.8484148e-05
7.1281522e-05	1.65e-05	1.8480743e-05
7.1880443e-05	1.65e-05	1.8476706e-05
7.2478913e-05	1.65e-05	1.8472065e-05
7.3076825e-05	1.65e-05	1.8466905e-05
7.3674255e-05	1.65e-05	1.8461264e-05
7.4271211e-05	1.65e-05	1.8455139e-05
7.4867674e-05	1.65e-05	1.8448548e-05
7.5463681e-05	1.65e-05	1.8441414e-05
7.6059188e-05	1.65e-05	1.8433659e-05
7.6654113e-05	1.65e-05	1.8425199e-05
7.724826e-05	1.65e-05	1.8415916e-05
7.7841373e-05	1.65e-05	1.8405857e-05
7.8433272e-05	1.65e-05	1.8395092e-05
7.9023875e-05	1.65e-05	1.8383673e-05
7.9613179e-05	1.65e-05	1.8371624e-05
8.0201022e-05	1.65e-05	1.8358968e-05
8.0787325e-05	1.65e-05	1.8345705e-05
8.1371927e-05	1.65e-05	1.8331849e-05
8.195463e-05	1.65e-05	1.8317379e-05
8.2535121e-05	1.65e-05	1.8302313e-05
8.3112929e-05	1.65e-05	1.8286742e-05
8.3687504e-05	1.65e-05	1.8270944e-05
8.4258238e-05	1.65e-05	1.8255223e-05
8.4824339e-05	1.65e-05	1.8240097e-05
8.5384501e-05	1.65e-05	1.8226344e-05
8.5936536e-05	1.65e-05	1.8215335e-05
8.6472365e-05	1.65e-05	1.8210182e-05
