0.00023929806	1.65e-05	1.2494339e-05
0.00023808986	1.65e-05	1.2483721e-05
0.00023688009	1.65e-05	1.2477986e-05
0.00023567195	1.65e-05	1.2476003e-05
0.00023446395	1.65e-05	1.2476437e-05
0.00023325626	1.65e-05	1.2481285e-05
0.00023205259	1.65e-05	1.248953e-05
0.00023085255	1.65e-05	1.2496974e-05
0.00022965332	1.6499999e-05	1.2503058e-05
0.00022845411	1.6499999e-05	1.2509244e-05
0.00022725469	1.6499999e-05	1.2516526e-05
0.00022605585	1.6499999e-05	1.2526951e-05
0.00022486196	1.6499999e-05	1.2541014e-05
0.00022367652	1.6499999e-05	1.2553667e-05
0.0002224965	1.6499999e-05	1.2559428e-05
0.00022131714	1.6499999e-05	1.2558477e-05
0.00022013795	1.6499999e-05	1.2551843e-05
0.00021895679	1.6499999e-05	1.2536046e-05
0.00021776548	1.6499998e-05	1.2510588e-05
0.00021655842	1.6499998e-05	1.2484357e-05
0.00021534123	1.6499998e-05	1.2468306e-05
0.00021412345	1.6499998e-05	1.2465294e-05
0.00021291126	1.6499998e-05	1.2472321e-05
0.00021170746	1.6499998e-05	1.2483801e-05
0.00021051058	1.6499998e-05	1.2494656e-05
0.00020931818	1.6499998e-05	1.2502787e-05
0.00020812836	1.6499998e-05	1.2506563e-05
0.00020693716	1.6499998e-05	1.2504981e-05
0.00020574116	1.6499998e-05	1.2501762e-05
0.00020454242	1.6499998e-05	1.2501796e-05
0.00020334472	1.6499997e-05	1.2505278e-05
0.00020214869	1.6499997e-05	1.2511015e-05
0.00020095518	1.6499997e-05	1.2519529e-05
0.00019976766	1.6499997e-05	1.2530787e-05
0.00019859061	1.6499997e-05	1.2540452e-05
0.00019742345	1.6499997e-05	1.2538691e-05
0.00019625433	1.6499997e-05	1.2517577e-05
0.0001950677	1.6499997e-05	1.2484041e-05
0.00019386355	1.6499997e-05	1.2456831e-05
0.00019265798	1.6499997e-05	1.2444316e-05
0.00019146253	1.6499997e-05	1.2438903e-05
0.00019027761	1.6499997e-05	1.2430795e-05
0.00018910061	1.6499997e-05	1.241442e-05
0.00018793006	1.6499996e-05	1.2385578e-05
0.00018676539	1.6499996e-05	1.2338842e-05
0.00018560508	1.6499996e-05	1.2264253e-05
0.00018443909	1.6499996e-05	1.2148597e-05
0.00018324151	1.6499996e-05	1.198798e-05
0.0001819726	1.6499996e-05	1.1818889e-05
0.00018062308	1.6499996e-05	1.1733009e-05
0.00017926433	1.6499996e-05	1.1792724e-05
0.00017797835	1.6499996e-05	1.195174e-05
0.00017676747	1.6499996e-05	1.2114301e-05
0.00017558917	1.6499996e-05	1.2235127e-05
0.0001744153	1.6499996e-05	1.2320208e-05
0.00017324176	1.6499995e-05	1.2387336e-05
0.00017207755	1.6499995e-05	1.2439644e-05
0.0001709187	1.6499995e-05	1.2469478e-05
0.0001697525	1.6499995e-05	1.2480335e-05
0.00016857543	1.6499995e-05	1.2483023e-05
0.00016739095	1.6499995e-05	1.2484063e-05
0.00016620255	1.6499995e-05	1.2485365e-05
0.00016501217	1.6499995e-05	1.2486631e-05
0.00016381974	1.6499995e-05	1.2487754e-05
0.0001626257	1.6499995e-05	1.2490799e-05
0.00016143414	1.6499995e-05	1.2496382e-05
0.00016024655	1.6499995e-05	1.2499542e-05
0.00015905876	1.6499994e-05	1.2497544e-05
0.00015786844	1.6499994e-05	1.2492094e-05
0.00015667517	1.6499994e-05	1.2483516e-05
0.00015547613	1.6499994e-05	1.2472199e-05
0.00015426804	1.6499994e-05	1.2462224e-05
0.00015305199	1.6499994e-05	1.246059e-05
0.00015183471	1.6499994e-05	1.2472648e-05
0.00015062687	1.6499994e-05	1.2498779e-05
0.00014943723	1.6499994e-05	1.2529911e-05
0.00014826227	1.6499994e-05	1.2552518e-05
0.00014709161	1.6499994e-05	1.2561249e-05
0.00014591789	1.6499994e-05	1.25569e-05
0.00014473573	1.6499993e-05	1.2543885e-05
0.00014354414	1.6499993e-05	1.2529362e-05
0.00014234626	1.6499993e-05	1.2517981e-05
0.00014114597	1.6499993e-05	1.2511243e-05
0.00013994647	1.6499993e-05	1.2507967e-05
0.00013874934	1.6499993e-05	1.2505914e-05
0.00013755452	1.6499993e-05	1.2502319e-05
0.00013635952	1.6499993e-05	1.249467e-05
0.00013515959	1.6499993e-05	1.2483733e-05
0.00013395318	1.6499993e-05	1.2474642e-05
0.00013274404	1.6499992e-05	1.2470639e-05
0.00013153442	1.6499992e-05	1.2470284e-05
0.00013032363	1.6499992e-05	1.2473821e-05
0.00012911353	1.6499992e-05	1.2484195e-05
0.00012791	1.6499992e-05	1.2501848e-05
0.00012671733	1.6499992e-05	1.2521026e-05
0.00012553162	1.6499992e-05	1.2534142e-05
0.00012434542	1.6499992e-05	1.2540005e-05
0.00012315623	1.6499992e-05	1.2543209e-05
0.00012196754	1.6499992e-05	1.2546363e-05
0.00012078215	1.6499992e-05	1.2546292e-05
0.00012078211	1.6499992e-05	1.2546291e-05
