{
  "experiment_name": "timing",
  "num_ranks": 2,
  "metrics": [
    {
      "identifier": "MPI: particle handling",
      "timers": { "rank_0": 617.84, "rank_1": 779.69 }
    },
    {
      "identifier": "MPI: particle (overhead)",
      "timers": { "rank_0": 1015.94, "rank_1": 1028.68 }
    },
    {
      "identifier": "MPI: particle",
      "timers": { "rank_0": 30092.81, "rank_1": 4737.82 }
    },
    {
      "identifier": "CPU: particle handling",
      "timers": { "rank_0": 2967.81, "rank_1": 2032.19 }
    },
    {
      "identifier": "CPU: particle mapping",
      "timers": { "rank_0": 191963.81, "rank_1": 309002.78 }
    },
    {
      "identifier": "Copy: CPU -> GPU",
      "timers": { "rank_0": 464844.60, "rank_1": 291626.78 }
    },
    {
      "identifier": "CL: PartMapLP",
      "timers": { "rank_0": 173809.61, "rank_1": 234289.67 }
    },
    {
      "identifier": "Copy: GPU -> CPU",
      "timers": { "rank_0": 306900.98, "rank_1": 620966.73 }
    },
    {
      "identifier": "CL: LEGalilei",
      "timers": { "rank_0": 201735.83, "rank_1": 230175.66 }
    },
    {
      "identifier": "CL: LEShift",
      "timers": { "rank_0": 74081.41, "rank_1": 93195.08 }
    },
    {
      "identifier": "CL: PropagateCollide",
      "timers": { "rank_0": 727491.91, "rank_1": 434288.64 }
    },
    {
      "identifier": "OMP: part ext forces",
      "timers": { "rank_0": 119.88, "rank_1": 112.79 }
    },
    {
      "identifier": "OMP: part int forces",
      "timers": { "rank_0": 35994.72, "rank_1": 49952.51 }
    },
    {
      "identifier": "OMP: part-part forces",
      "timers": { "rank_0": 41639.33, "rank_1": 60242.81 }
    },
    {
      "identifier": "MPI: particle forces (overhead)",
      "timers": { "rank_0": 1073.96, "rank_1": 1076.37 }
    },
    {
      "identifier": "MPI: particle forces",
      "timers": { "rank_0": 94555.64, "rank_1": 419395.87 }
    },
    {
      "identifier": "OMP: particle dynamics",
      "timers": { "rank_0": 59778.22, "rank_1": 34864.59 }
    },
    {
      "identifier": "I/O: output",
      "timers": { "rank_0": 146034.01, "rank_1": 159328.61 }
    },
    {
      "identifier": "ALL: total time",
      "timers": { "rank_0": 4947018.62, "rank_1": 4946781.20 }
    }
  ]
}
