{
  "experiment_name": "timing",
  "num_ranks": 2,
  "metrics": [
    {
      "identifier": "MPI: particle handling",
      "timers": { "rank_0": 139.67, "rank_1": 171.31 }
    },
    {
      "identifier": "MPI: particle (overhead)",
      "timers": { "rank_0": 318.19, "rank_1": 307.40 }
    },
    {
      "identifier": "MPI: particle",
      "timers": { "rank_0": 5319.03, "rank_1": 896.66 }
    },
    {
      "identifier": "CPU: particle handling",
      "timers": { "rank_0": 820.49, "rank_1": 720.80 }
    },
    {
      "identifier": "CPU: particle mapping",
      "timers": { "rank_0": 41196.24, "rank_1": 63745.60 }
    },
    {
      "identifier": "Copy: CPU -> GPU",
      "timers": { "rank_0": 132472.85, "rank_1": 59732.54 }
    },
    {
      "identifier": "CL: PartMapLP",
      "timers": { "rank_0": 36888.94, "rank_1": 72345.51 }
    },
    {
      "identifier": "Copy: GPU -> CPU",
      "timers": { "rank_0": 94605.23, "rank_1": 225402.13 }
    },
    {
      "identifier": "CL: LEGalilei",
      "timers": { "rank_0": 27517.11, "rank_1": 27251.12 }
    },
    {
      "identifier": "CL: LEShift",
      "timers": { "rank_0": 9794.78, "rank_1": 9429.38 }
    },
    {
      "identifier": "CL: PropagateCollide",
      "timers": { "rank_0": 151277.65, "rank_1": 126979.98 }
    },
    {
      "identifier": "OMP: part ext forces",
      "timers": { "rank_0": 31.97, "rank_1": 24.10 }
    },
    {
      "identifier": "OMP: part int forces",
      "timers": { "rank_0": 7215.50, "rank_1": 7893.84 }
    },
    {
      "identifier": "OMP: part-part forces",
      "timers": { "rank_0": 15323.00, "rank_1": 17874.76 }
    },
    {
      "identifier": "MPI: particle forces (overhead)",
      "timers": { "rank_0": 338.65, "rank_1": 347.77 }
    },
    {
      "identifier": "MPI: particle forces",
      "timers": { "rank_0": 2951.98, "rank_1": 54022.02 }
    },
    {
      "identifier": "OMP: particle dynamics",
      "timers": { "rank_0": 6960.25, "rank_1": 6535.15 }
    },
    {
      "identifier": "I/O: output",
      "timers": { "rank_0": 312393.75, "rank_1": 328172.11 }
    },
    {
      "identifier": "ALL: total time",
      "timers": { "rank_0": 1536639.69, "rank_1": 1536329.17 }
    }
  ]
}
