{
  "experiment_name": "timing",
  "num_ranks": 2,
  "metrics": [
    {
      "identifier": "MPI: particle handling",
      "timers": { "rank_0": 127.29, "rank_1": 176.56 }
    },
    {
      "identifier": "MPI: particle (overhead)",
      "timers": { "rank_0": 312.09, "rank_1": 292.42 }
    },
    {
      "identifier": "MPI: particle",
      "timers": { "rank_0": 1138.55, "rank_1": 1167.03 }
    },
    {
      "identifier": "CPU: particle handling",
      "timers": { "rank_0": 796.24, "rank_1": 583.07 }
    },
    {
      "identifier": "CPU: particle mapping",
      "timers": { "rank_0": 48523.31, "rank_1": 59823.70 }
    },
    {
      "identifier": "Copy: CPU -> GPU",
      "timers": { "rank_0": 108761.82, "rank_1": 55846.21 }
    },
    {
      "identifier": "CL: PartMapLP",
      "timers": { "rank_0": 44451.23, "rank_1": 72426.08 }
    },
    {
      "identifier": "Copy: GPU -> CPU",
      "timers": { "rank_0": 92620.52, "rank_1": 88323.25 }
    },
    {
      "identifier": "CL: LEGalilei",
      "timers": { "rank_0": 25454.04, "rank_1": 23272.24 }
    },
    {
      "identifier": "CL: LEShift",
      "timers": { "rank_0": 12733.16, "rank_1": 14376.81 }
    },
    {
      "identifier": "CL: PropagateCollide",
      "timers": { "rank_0": 169240.12, "rank_1": 141186.01 }
    },
    {
      "identifier": "OMP: part ext forces",
      "timers": { "rank_0": 28.46, "rank_1": 22.07 }
    },
    {
      "identifier": "OMP: part int forces",
      "timers": { "rank_0": 6604.04, "rank_1": 7585.05 }
    },
    {
      "identifier": "OMP: part-part forces",
      "timers": { "rank_0": 13644.45, "rank_1": 17684.92 }
    },
    {
      "identifier": "MPI: particle forces (overhead)",
      "timers": { "rank_0": 339.66, "rank_1": 310.50 }
    },
    {
      "identifier": "MPI: particle forces",
      "timers": { "rank_0": 3307.15, "rank_1": 75133.47 }
    },
    {
      "identifier": "OMP: particle dynamics",
      "timers": { "rank_0": 7252.17, "rank_1": 6250.87 }
    },
    {
      "identifier": "I/O: output",
      "timers": { "rank_0": 313766.43, "rank_1": 328841.43 }
    },
    {
      "identifier": "ALL: total time",
      "timers": { "rank_0": 1280849.31, "rank_1": 1280458.61 }
    }
  ]
}
