{
  "experiment_name": "timing",
  "num_ranks": 2,
  "metrics": [
    {
      "identifier": "MPI: particle handling",
      "timers": { "rank_0": 1097.85, "rank_1": 1499.91 }
    },
    {
      "identifier": "MPI: particle (overhead)",
      "timers": { "rank_0": 2005.45, "rank_1": 1881.01 }
    },
    {
      "identifier": "MPI: particle",
      "timers": { "rank_0": 11198.05, "rank_1": 10659.72 }
    },
    {
      "identifier": "CPU: particle handling",
      "timers": { "rank_0": 5456.97, "rank_1": 4046.25 }
    },
    {
      "identifier": "CPU: particle mapping",
      "timers": { "rank_0": 287933.20, "rank_1": 374949.43 }
    },
    {
      "identifier": "Copy: CPU -> GPU",
      "timers": { "rank_0": 684149.21, "rank_1": 341060.82 }
    },
    {
      "identifier": "CL: PartMapLP",
      "timers": { "rank_0": 252963.90, "rank_1": 450052.83 }
    },
    {
      "identifier": "Copy: GPU -> CPU",
      "timers": { "rank_0": 595626.85, "rank_1": 485963.75 }
    },
    {
      "identifier": "CL: LEGalilei",
      "timers": { "rank_0": 381702.92, "rank_1": 302861.22 }
    },
    {
      "identifier": "CL: LEShift",
      "timers": { "rank_0": 138769.39, "rank_1": 117550.56 }
    },
    {
      "identifier": "CL: PropagateCollide",
      "timers": { "rank_0": 1327325.34, "rank_1": 726322.98 }
    },
    {
      "identifier": "OMP: part ext forces",
      "timers": { "rank_0": 296.05, "rank_1": 215.03 }
    },
    {
      "identifier": "OMP: part int forces",
      "timers": { "rank_0": 64291.51, "rank_1": 73343.78 }
    },
    {
      "identifier": "OMP: part-part forces",
      "timers": { "rank_0": 84623.87, "rank_1": 117248.60 }
    },
    {
      "identifier": "MPI: particle forces (overhead)",
      "timers": { "rank_0": 2194.05, "rank_1": 2007.16 }
    },
    {
      "identifier": "MPI: particle forces",
      "timers": { "rank_0": 31624.27, "rank_1": 1007368.09 }
    },
    {
      "identifier": "OMP: particle dynamics",
      "timers": { "rank_0": 62904.26, "rank_1": 64246.04 }
    },
    {
      "identifier": "I/O: output",
      "timers": { "rank_0": 149768.09, "rank_1": 159553.39 }
    },
    {
      "identifier": "ALL: total time",
      "timers": { "rank_0": 7403186.13, "rank_1": 7403186.05 }
    }
  ]
}
