{
  "experiment_name": "timing",
  "num_ranks": 2,
  "metrics": [
    {
      "identifier": "MPI: particle handling",
      "timers": { "rank_0": 548.73, "rank_1": 773.50 }
    },
    {
      "identifier": "MPI: particle (overhead)",
      "timers": { "rank_0": 1161.87, "rank_1": 1183.59 }
    },
    {
      "identifier": "MPI: particle",
      "timers": { "rank_0": 26155.68, "rank_1": 4524.44 }
    },
    {
      "identifier": "CPU: particle handling",
      "timers": { "rank_0": 3238.45, "rank_1": 2359.08 }
    },
    {
      "identifier": "CPU: particle mapping",
      "timers": { "rank_0": 157193.21, "rank_1": 213331.88 }
    },
    {
      "identifier": "Copy: CPU -> GPU",
      "timers": { "rank_0": 426339.67, "rank_1": 194717.86 }
    },
    {
      "identifier": "CL: PartMapLP",
      "timers": { "rank_0": 139868.42, "rank_1": 266062.52 }
    },
    {
      "identifier": "Copy: GPU -> CPU",
      "timers": { "rank_0": 362085.20, "rank_1": 663899.42 }
    },
    {
      "identifier": "CL: LEGalilei",
      "timers": { "rank_0": 119118.66, "rank_1": 120557.92 }
    },
    {
      "identifier": "CL: LEShift",
      "timers": { "rank_0": 41131.29, "rank_1": 40736.20 }
    },
    {
      "identifier": "CL: PropagateCollide",
      "timers": { "rank_0": 670584.92, "rank_1": 430462.01 }
    },
    {
      "identifier": "OMP: part ext forces",
      "timers": { "rank_0": 147.47, "rank_1": 109.27 }
    },
    {
      "identifier": "OMP: part int forces",
      "timers": { "rank_0": 32903.48, "rank_1": 36175.94 }
    },
    {
      "identifier": "OMP: part-part forces",
      "timers": { "rank_0": 55025.95, "rank_1": 65481.04 }
    },
    {
      "identifier": "MPI: particle forces (overhead)",
      "timers": { "rank_0": 1290.81, "rank_1": 1253.46 }
    },
    {
      "identifier": "MPI: particle forces",
      "timers": { "rank_0": 8660.39, "rank_1": 355384.63 }
    },
    {
      "identifier": "OMP: particle dynamics",
      "timers": { "rank_0": 31146.84, "rank_1": 31176.64 }
    },
    {
      "identifier": "I/O: output",
      "timers": { "rank_0": 193325.13, "rank_1": 211893.48 }
    },
    {
      "identifier": "ALL: total time",
      "timers": { "rank_0": 4671744.87, "rank_1": 4671501.67 }
    }
  ]
}
