{
  "experiment_name": "timing",
  "num_ranks": 2,
  "metrics": [
    {
      "identifier": "MPI: particle handling",
      "timers": { "rank_0": 1134.25, "rank_1": 1444.58 }
    },
    {
      "identifier": "MPI: particle (overhead)",
      "timers": { "rank_0": 4987.32, "rank_1": 4818.78 }
    },
    {
      "identifier": "MPI: particle",
      "timers": { "rank_0": 54576.95, "rank_1": 8847.20 }
    },
    {
      "identifier": "CPU: particle handling",
      "timers": { "rank_0": 9897.46, "rank_1": 8030.65 }
    },
    {
      "identifier": "CPU: particle mapping",
      "timers": { "rank_0": 679182.40, "rank_1": 772989.24 }
    },
    {
      "identifier": "Copy: CPU -> GPU",
      "timers": { "rank_0": 1675374.34, "rank_1": 725545.00 }
    },
    {
      "identifier": "CL: PartMapLP",
      "timers": { "rank_0": 628740.82, "rank_1": 1271735.38 }
    },
    {
      "identifier": "Copy: GPU -> CPU",
      "timers": { "rank_0": 1661835.46, "rank_1": 4025345.84 }
    },
    {
      "identifier": "CL: LEGalilei",
      "timers": { "rank_0": 370048.96, "rank_1": 358940.41 }
    },
    {
      "identifier": "CL: LEShift",
      "timers": { "rank_0": 119428.96, "rank_1": 117399.37 }
    },
    {
      "identifier": "CL: PropagateCollide",
      "timers": { "rank_0": 2391079.12, "rank_1": 2370913.90 }
    },
    {
      "identifier": "OMP: part ext forces",
      "timers": { "rank_0": 337.87, "rank_1": 258.74 }
    },
    {
      "identifier": "OMP: part int forces",
      "timers": { "rank_0": 77832.53, "rank_1": 84679.15 }
    },
    {
      "identifier": "OMP: part-part forces",
      "timers": { "rank_0": 259666.33, "rank_1": 290067.54 }
    },
    {
      "identifier": "MPI: particle forces (overhead)",
      "timers": { "rank_0": 5168.13, "rank_1": 5216.84 }
    },
    {
      "identifier": "MPI: particle forces",
      "timers": { "rank_0": 20118.02, "rank_1": 501800.38 }
    },
    {
      "identifier": "OMP: particle dynamics",
      "timers": { "rank_0": 72182.02, "rank_1": 70154.48 }
    },
    {
      "identifier": "I/O: output",
      "timers": { "rank_0": 611782.15, "rank_1": 648850.88 }
    },
    {
      "identifier": "ALL: total time",
      "timers": { "rank_0": 19100647.55, "rank_1": 19100309.10 }
    }
  ]
}
