{
  "experiment_name": "timing",
  "num_ranks": 2,
  "metrics": [
    {
      "identifier": "MPI: particle handling",
      "timers": { "rank_0": 6.77, "rank_1": 8.96 }
    },
    {
      "identifier": "MPI: particle (overhead)",
      "timers": { "rank_0": 13.79, "rank_1": 11.01 }
    },
    {
      "identifier": "MPI: particle",
      "timers": { "rank_0": 53.19, "rank_1": 274.29 }
    },
    {
      "identifier": "CPU: particle handling",
      "timers": { "rank_0": 41.01, "rank_1": 23.83 }
    },
    {
      "identifier": "CPU: particle mapping",
      "timers": { "rank_0": 1654.95, "rank_1": 1970.23 }
    },
    {
      "identifier": "Copy: CPU -> GPU",
      "timers": { "rank_0": 3874.84, "rank_1": 1793.22 }
    },
    {
      "identifier": "CL: PartMapLP",
      "timers": { "rank_0": 1467.38, "rank_1": 2673.29 }
    },
    {
      "identifier": "Copy: GPU -> CPU",
      "timers": { "rank_0": 8237.10, "rank_1": 3594.97 }
    },
    {
      "identifier": "CL: LEGalilei",
      "timers": { "rank_0": 1076.06, "rank_1": 1105.66 }
    },
    {
      "identifier": "CL: LEShift",
      "timers": { "rank_0": 440.28, "rank_1": 468.11 }
    },
    {
      "identifier": "CL: PropagateCollide",
      "timers": { "rank_0": 6778.29, "rank_1": 4521.08 }
    },
    {
      "identifier": "OMP: part ext forces",
      "timers": { "rank_0": 1.46, "rank_1": 1.15 }
    },
    {
      "identifier": "OMP: part int forces",
      "timers": { "rank_0": 338.65, "rank_1": 382.83 }
    },
    {
      "identifier": "OMP: part-part forces",
      "timers": { "rank_0": 610.66, "rank_1": 698.24 }
    },
    {
      "identifier": "MPI: particle forces (overhead)",
      "timers": { "rank_0": 13.87, "rank_1": 11.75 }
    },
    {
      "identifier": "MPI: particle forces",
      "timers": { "rank_0": 90.93, "rank_1": 4593.32 }
    },
    {
      "identifier": "OMP: particle dynamics",
      "timers": { "rank_0": 366.78, "rank_1": 305.82 }
    },
    {
      "identifier": "I/O: output",
      "timers": { "rank_0": 202560.97, "rank_1": 215484.27 }
    },
    {
      "identifier": "ALL: total time",
      "timers": { "rank_0": 260582.52, "rank_1": 260363.36 }
    }
  ]
}
