{
  "experiment_name": "timing",
  "num_ranks": 2,
  "metrics": [
    {
      "identifier": "MPI: particle handling",
      "timers": { "rank_0": 57.72, "rank_1": 75.60 }
    },
    {
      "identifier": "MPI: particle (overhead)",
      "timers": { "rank_0": 104.74, "rank_1": 94.49 }
    },
    {
      "identifier": "MPI: particle",
      "timers": { "rank_0": 529.36, "rank_1": 2135.08 }
    },
    {
      "identifier": "CPU: particle handling",
      "timers": { "rank_0": 381.56, "rank_1": 191.67 }
    },
    {
      "identifier": "CPU: particle mapping",
      "timers": { "rank_0": 16330.34, "rank_1": 30400.69 }
    },
    {
      "identifier": "Copy: CPU -> GPU",
      "timers": { "rank_0": 57661.16, "rank_1": 28748.73 }
    },
    {
      "identifier": "CL: PartMapLP",
      "timers": { "rank_0": 14424.40, "rank_1": 22002.41 }
    },
    {
      "identifier": "Copy: GPU -> CPU",
      "timers": { "rank_0": 29458.88, "rank_1": 24086.28 }
    },
    {
      "identifier": "CL: LEGalilei",
      "timers": { "rank_0": 15974.48, "rank_1": 12399.89 }
    },
    {
      "identifier": "CL: LEShift",
      "timers": { "rank_0": 13735.33, "rank_1": 10923.96 }
    },
    {
      "identifier": "CL: PropagateCollide",
      "timers": { "rank_0": 74386.81, "rank_1": 40876.42 }
    },
    {
      "identifier": "OMP: part ext forces",
      "timers": { "rank_0": 15.52, "rank_1": 10.48 }
    },
    {
      "identifier": "OMP: part int forces",
      "timers": { "rank_0": 3224.92, "rank_1": 3651.43 }
    },
    {
      "identifier": "OMP: part-part forces",
      "timers": { "rank_0": 4163.55, "rank_1": 6087.05 }
    },
    {
      "identifier": "MPI: particle forces (overhead)",
      "timers": { "rank_0": 105.04, "rank_1": 98.63 }
    },
    {
      "identifier": "MPI: particle forces",
      "timers": { "rank_0": 1786.10, "rank_1": 56981.73 }
    },
    {
      "identifier": "OMP: particle dynamics",
      "timers": { "rank_0": 4153.26, "rank_1": 3135.28 }
    },
    {
      "identifier": "I/O: output",
      "timers": { "rank_0": 142002.97, "rank_1": 159088.74 }
    },
    {
      "identifier": "ALL: total time",
      "timers": { "rank_0": 569920.38, "rank_1": 569796.15 }
    }
  ]
}
