./plots
./quant
./result
./rhor10000_yd10000_distz4e-06
./rhor10000_yd10000_distz8e-06
./rhor10000_yd1000_distz2e-06
./rhor10000_yd1000_distz4e-06
./rhor10000_yd1000_distz6e-06
./rhor10000_yd1000_distz8e-06
./rhor10000_yd100_distz2e-06
./rhor10000_yd100_distz4e-06
./rhor10000_yd100_distz6e-06
./rhor10000_yd100_distz8e-06
./rhor10000_yd10_distz4e-06
./rhor10000_yd10_distz6e-06
./rhor10000_yd10_distz8e-06
./rhor10000_yd20000_distz4e-06
./rhor10000_yd20000_distz6e-06
./rhor10000_yd20000_distz8e-06
./rhor100_yd10000_distz2e-06
./rhor100_yd10000_distz6e-06
./rhor100_yd10000_distz8e-06
./rhor100_yd1000_distz2e-06
./rhor100_yd1000_distz4e-06
./rhor100_yd1000_distz6e-06
./rhor100_yd1000_distz8e-06
./rhor100_yd100_distz4e-06
./rhor100_yd100_distz6e-06
./rhor100_yd100_distz8e-06
./rhor100_yd10_distz2e-06
./rhor100_yd10_distz4e-06
./rhor100_yd10_distz6e-06
./rhor100_yd10_distz8e-06
./rhor100_yd20000_distz2e-06
./rhor100_yd20000_distz4e-06
./rhor100_yd20000_distz6e-06
./rhor100_yd20000_distz8e-06
./rhor10_yd10000_distz4e-06
./rhor10_yd10000_distz6e-06
./rhor10_yd10000_distz8e-06
./rhor10_yd1000_distz4e-06
./rhor10_yd1000_distz6e-06
./rhor10_yd100_distz6e-06
./rhor10_yd100_distz8e-06
./rhor10_yd20000_distz2e-06
./rhor10_yd20000_distz4e-06
./rhor10_yd20000_distz6e-06
./rhor10_yd20000_distz8e-06
./rhor1_yd10000_distz4e-06
./rhor1_yd10000_distz6e-06
./rhor1_yd10000_distz8e-06
./rhor1_yd20000_distz4e-06
./rhor1_yd20000_distz6e-06
./rhor1_yd20000_distz8e-06
