{
  "experiment_name": "timing",
  "num_ranks": 2,
  "metrics": [
    {
      "identifier": "MPI: particle handling",
      "timers": { "rank_0": 3.71, "rank_1": 3.47 }
    },
    {
      "identifier": "MPI: particle (overhead)",
      "timers": { "rank_0": 10.81, "rank_1": 9.91 }
    },
    {
      "identifier": "MPI: particle",
      "timers": { "rank_0": 31.20, "rank_1": 46.47 }
    },
    {
      "identifier": "CPU: particle handling",
      "timers": { "rank_0": 26.38, "rank_1": 21.88 }
    },
    {
      "identifier": "CPU: particle mapping",
      "timers": { "rank_0": 1117.81, "rank_1": 913.51 }
    },
    {
      "identifier": "Copy: CPU -> GPU",
      "timers": { "rank_0": 1851.11, "rank_1": 809.22 }
    },
    {
      "identifier": "CL: PartMapLP",
      "timers": { "rank_0": 1005.77, "rank_1": 1626.39 }
    },
    {
      "identifier": "Copy: GPU -> CPU",
      "timers": { "rank_0": 3013.50, "rank_1": 2672.17 }
    },
    {
      "identifier": "CL: LEGalilei",
      "timers": { "rank_0": 260.23, "rank_1": 261.61 }
    },
    {
      "identifier": "CL: LEShift",
      "timers": { "rank_0": 215.45, "rank_1": 211.52 }
    },
    {
      "identifier": "CL: PropagateCollide",
      "timers": { "rank_0": 4241.16, "rank_1": 3207.70 }
    },
    {
      "identifier": "OMP: part ext forces",
      "timers": { "rank_0": 1.07, "rank_1": 1.01 }
    },
    {
      "identifier": "OMP: part int forces",
      "timers": { "rank_0": 302.39, "rank_1": 349.25 }
    },
    {
      "identifier": "OMP: part-part forces",
      "timers": { "rank_0": 784.77, "rank_1": 811.25 }
    },
    {
      "identifier": "MPI: particle forces (overhead)",
      "timers": { "rank_0": 12.16, "rank_1": 11.13 }
    },
    {
      "identifier": "MPI: particle forces",
      "timers": { "rank_0": 123.87, "rank_1": 2122.41 }
    },
    {
      "identifier": "OMP: particle dynamics",
      "timers": { "rank_0": 308.85, "rank_1": 263.25 }
    },
    {
      "identifier": "I/O: output",
      "timers": { "rank_0": 317149.45, "rank_1": 312943.01 }
    },
    {
      "identifier": "ALL: total time",
      "timers": { "rank_0": 338075.13, "rank_1": 338250.06 }
    }
  ]
}
