1.5793453e-05	1.65e-05	1.7499511e-05
1.6084844e-05	1.65e-05	1.7499093e-05
1.6376183e-05	1.65e-05	1.750009e-05
1.6668206e-05	1.65e-05	1.7500761e-05
1.6959925e-05	1.65e-05	1.7500293e-05
1.7250982e-05	1.65e-05	1.750112e-05
1.7542981e-05	1.65e-05	1.7502936e-05
1.7835147e-05	1.65e-05	1.7502966e-05
1.8126099e-05	1.65e-05	1.7503744e-05
1.8417944e-05	1.65e-05	1.7506352e-05
1.8710574e-05	1.65e-05	1.7507492e-05
1.900168e-05	1.65e-05	1.750816e-05
1.9293275e-05	1.65e-05	1.7511352e-05
1.9586339e-05	1.65e-05	1.7513803e-05
1.9877861e-05	1.6499999e-05	1.7515042e-05
2.0169241e-05	1.6499999e-05	1.7518857e-05
2.0462603e-05	1.6499999e-05	1.7522891e-05
2.0754718e-05	1.6499999e-05	1.7525466e-05
2.1046121e-05	1.6499999e-05	1.7530174e-05
2.1339617e-05	1.6499999e-05	1.7536081e-05
2.1632439e-05	1.6499999e-05	1.7540737e-05
2.1924304e-05	1.6499999e-05	1.75473e-05
2.2217984e-05	1.6499999e-05	1.7555711e-05
2.2511715e-05	1.6499999e-05	1.7563846e-05
2.2804399e-05	1.6499999e-05	1.757389e-05
2.309822e-05	1.6499998e-05	1.7586672e-05
2.3392338e-05	1.6499998e-05	1.7600246e-05
2.3686112e-05	1.6499998e-05	1.7616895e-05
2.3980584e-05	1.6499998e-05	1.7637405e-05
2.4274573e-05	1.6499998e-05	1.766092e-05
2.4568023e-05	1.6499998e-05	1.769022e-05
2.4862383e-05	1.6499998e-05	1.7726174e-05
2.5155124e-05	1.6499998e-05	1.7770621e-05
2.5445228e-05	1.6499998e-05	1.7827363e-05
2.5736206e-05	1.6499998e-05	1.7897943e-05
2.602072e-05	1.6499998e-05	1.7990671e-05
2.6297885e-05	1.6499997e-05	1.8116409e-05
2.6572777e-05	1.6499997e-05	1.8285472e-05
2.6839126e-05	1.6499997e-05	1.851209e-05
2.7115577e-05	1.6499997e-05	1.8806901e-05
2.7452308e-05	1.6499997e-05	1.9163613e-05
2.7893382e-05	1.6499997e-05	1.956053e-05
2.846384e-05	1.6499997e-05	1.9960799e-05
2.9203831e-05	1.6499997e-05	2.0297707e-05
3.0102096e-05	1.6499996e-05	2.049275e-05
3.1100427e-05	1.6499996e-05	2.046847e-05
3.1988017e-05	1.6499996e-05	2.0229272e-05
3.2711725e-05	1.6499996e-05	1.9856378e-05
3.3264938e-05	1.6499996e-05	1.943377e-05
3.3690129e-05	1.6499996e-05	1.9032547e-05
3.4019282e-05	1.6499996e-05	1.8685964e-05
3.4305765e-05	1.6499996e-05	1.8414532e-05
3.459028e-05	1.6499996e-05	1.821105e-05
3.4876948e-05	1.6499996e-05	1.8058342e-05
3.5163152e-05	1.6499996e-05	1.7945748e-05
3.5456331e-05	1.6499996e-05	1.7863626e-05
3.575057e-05	1.6499995e-05	1.7797339e-05
3.6043223e-05	1.6499995e-05	1.7745248e-05
3.6338143e-05	1.6499995e-05	1.7705145e-05
3.6633363e-05	1.6499995e-05	1.7671362e-05
3.6926346e-05	1.6499995e-05	1.7643734e-05
3.7219872e-05	1.6499995e-05	1.762212e-05
3.7514178e-05	1.6499995e-05	1.7602913e-05
3.7806534e-05	1.6499995e-05	1.7586716e-05
3.8098952e-05	1.6499995e-05	1.7574228e-05
3.8391578e-05	1.6499995e-05	1.7562435e-05
3.8682474e-05	1.6499994e-05	1.7552422e-05
3.8974091e-05	1.6499994e-05	1.754469e-05
3.9265806e-05	1.6499994e-05	1.7536836e-05
3.955565e-05	1.6499994e-05	1.7530337e-05
3.9846235e-05	1.6499994e-05	1.7525568e-05
4.0137379e-05	1.6499994e-05	1.7520207e-05
4.0426626e-05	1.6499994e-05	1.7515621e-05
4.071633e-05	1.6499994e-05	1.7512938e-05
4.1007199e-05	1.6499994e-05	1.750906e-05
4.1296248e-05	1.6499994e-05	1.7505457e-05
4.1585241e-05	1.6499993e-05	1.7504018e-05
4.1875711e-05	1.6499993e-05	1.7501527e-05
4.2164833e-05	1.6499993e-05	1.7498502e-05
4.2453355e-05	1.6499993e-05	1.7497738e-05
4.2743286e-05	1.6499993e-05	1.7496576e-05
4.3032557e-05	1.6499993e-05	1.7493979e-05
4.332091e-05	1.6499993e-05	1.7493313e-05
4.3610291e-05	1.6499993e-05	1.7493094e-05
4.3899609e-05	1.6499993e-05	1.7491269e-05
4.4188048e-05	1.6499993e-05	1.7490371e-05
4.4476959e-05	1.6499993e-05	1.7490804e-05
4.4766195e-05	1.6499992e-05	1.7490041e-05
4.5054871e-05	1.6499992e-05	1.7489037e-05
4.5343498e-05	1.6499992e-05	1.7489511e-05
4.5632542e-05	1.6499992e-05	1.748979e-05
4.5921507e-05	1.6499992e-05	1.7489067e-05
4.6210035e-05	1.6499992e-05	1.748914e-05
4.6498813e-05	1.6499992e-05	1.7490368e-05
4.6788067e-05	1.6499992e-05	1.7490435e-05
4.7076684e-05	1.6499992e-05	1.749027e-05
4.7365205e-05	1.6499991e-05	1.7491879e-05
4.7654696e-05	1.6499991e-05	1.7493071e-05
4.7943602e-05	1.6499991e-05	1.7492888e-05
4.8231891e-05	1.6499991e-05	1.7494435e-05
4.8231907e-05	1.6499991e-05	1.7494435e-05
