{
  "experiment_name": "timing",
  "num_ranks": 2,
  "metrics": [
    {
      "identifier": "MPI: particle handling",
      "timers": { "rank_0": 122.28, "rank_1": 225.37 }
    },
    {
      "identifier": "MPI: particle (overhead)",
      "timers": { "rank_0": 409.27, "rank_1": 395.06 }
    },
    {
      "identifier": "MPI: particle",
      "timers": { "rank_0": 5446.41, "rank_1": 888.31 }
    },
    {
      "identifier": "CPU: particle handling",
      "timers": { "rank_0": 948.94, "rank_1": 868.93 }
    },
    {
      "identifier": "CPU: particle mapping",
      "timers": { "rank_0": 54896.27, "rank_1": 61381.35 }
    },
    {
      "identifier": "Copy: CPU -> GPU",
      "timers": { "rank_0": 123834.24, "rank_1": 56975.40 }
    },
    {
      "identifier": "CL: PartMapLP",
      "timers": { "rank_0": 50273.94, "rank_1": 99593.60 }
    },
    {
      "identifier": "Copy: GPU -> CPU",
      "timers": { "rank_0": 128786.60, "rank_1": 314076.21 }
    },
    {
      "identifier": "CL: LEGalilei",
      "timers": { "rank_0": 31986.53, "rank_1": 30392.29 }
    },
    {
      "identifier": "CL: LEShift",
      "timers": { "rank_0": 16743.68, "rank_1": 14530.97 }
    },
    {
      "identifier": "CL: PropagateCollide",
      "timers": { "rank_0": 191541.29, "rank_1": 182040.28 }
    },
    {
      "identifier": "OMP: part ext forces",
      "timers": { "rank_0": 30.10, "rank_1": 23.66 }
    },
    {
      "identifier": "OMP: part int forces",
      "timers": { "rank_0": 7119.15, "rank_1": 8126.35 }
    },
    {
      "identifier": "OMP: part-part forces",
      "timers": { "rank_0": 19458.79, "rank_1": 23848.39 }
    },
    {
      "identifier": "MPI: particle forces (overhead)",
      "timers": { "rank_0": 448.90, "rank_1": 411.25 }
    },
    {
      "identifier": "MPI: particle forces",
      "timers": { "rank_0": 2331.13, "rank_1": 47217.08 }
    },
    {
      "identifier": "OMP: particle dynamics",
      "timers": { "rank_0": 6728.81, "rank_1": 6698.43 }
    },
    {
      "identifier": "I/O: output",
      "timers": { "rank_0": 460013.38, "rank_1": 492131.27 }
    },
    {
      "identifier": "ALL: total time",
      "timers": { "rank_0": 1994666.23, "rank_1": 1994134.98 }
    }
  ]
}
