{
  "experiment_name": "timing",
  "num_ranks": 2,
  "metrics": [
    {
      "identifier": "MPI: particle handling",
      "timers": { "rank_0": 6171.46, "rank_1": 5803.04 }
    },
    {
      "identifier": "MPI: particle (overhead)",
      "timers": { "rank_0": 9262.31, "rank_1": 9624.16 }
    },
    {
      "identifier": "MPI: particle",
      "timers": { "rank_0": 168493.00, "rank_1": 161774.46 }
    },
    {
      "identifier": "CPU: particle handling",
      "timers": { "rank_0": 29178.99, "rank_1": 19681.62 }
    },
    {
      "identifier": "CPU: particle mapping",
      "timers": { "rank_0": 3080915.73, "rank_1": 3632801.69 }
    },
    {
      "identifier": "Copy: CPU -> GPU",
      "timers": { "rank_0": 6400872.06, "rank_1": 3460460.55 }
    },
    {
      "identifier": "CL: PartMapLP",
      "timers": { "rank_0": 2922203.25, "rank_1": 3953585.41 }
    },
    {
      "identifier": "Copy: GPU -> CPU",
      "timers": { "rank_0": 4793110.23, "rank_1": 4228610.14 }
    },
    {
      "identifier": "CL: LEGalilei",
      "timers": { "rank_0": 4157594.11, "rank_1": 1367530.28 }
    },
    {
      "identifier": "CL: LEShift",
      "timers": { "rank_0": 2057002.56, "rank_1": 685684.82 }
    },
    {
      "identifier": "CL: PropagateCollide",
      "timers": { "rank_0": 8033935.39, "rank_1": 5128572.68 }
    },
    {
      "identifier": "OMP: part ext forces",
      "timers": { "rank_0": 17395211.58, "rank_1": 12268859.63 }
    },
    {
      "identifier": "OMP: part int forces",
      "timers": { "rank_0": 3243589.70, "rank_1": 3747946.76 }
    },
    {
      "identifier": "OMP: part-part forces",
      "timers": { "rank_0": 1410555.78, "rank_1": 1604212.38 }
    },
    {
      "identifier": "MPI: particle forces (overhead)",
      "timers": { "rank_0": 9624.57, "rank_1": 8571.27 }
    },
    {
      "identifier": "MPI: particle forces",
      "timers": { "rank_0": 6800925.22, "rank_1": 20680617.85 }
    },
    {
      "identifier": "OMP: particle dynamics",
      "timers": { "rank_0": 3679032.55, "rank_1": 10731737.09 }
    },
    {
      "identifier": "I/O: output",
      "timers": { "rank_0": 145000.26, "rank_1": 144890.15 }
    },
    {
      "identifier": "ALL: total time",
      "timers": { "rank_0": 81639104.19, "rank_1": 81639093.97 }
    }
  ]
}
