{
  "experiment_name": "timing",
  "num_ranks": 2,
  "metrics": [
    {
      "identifier": "MPI: particle handling",
      "timers": { "rank_0": 112.21, "rank_1": 144.62 }
    },
    {
      "identifier": "MPI: particle (overhead)",
      "timers": { "rank_0": 386.78, "rank_1": 362.53 }
    },
    {
      "identifier": "MPI: particle",
      "timers": { "rank_0": 1020.79, "rank_1": 1092.92 }
    },
    {
      "identifier": "CPU: particle handling",
      "timers": { "rank_0": 850.98, "rank_1": 650.26 }
    },
    {
      "identifier": "CPU: particle mapping",
      "timers": { "rank_0": 57338.16, "rank_1": 111761.00 }
    },
    {
      "identifier": "Copy: CPU -> GPU",
      "timers": { "rank_0": 203205.75, "rank_1": 107574.52 }
    },
    {
      "identifier": "CL: PartMapLP",
      "timers": { "rank_0": 52844.49, "rank_1": 98455.27 }
    },
    {
      "identifier": "Copy: GPU -> CPU",
      "timers": { "rank_0": 124329.66, "rank_1": 115578.60 }
    },
    {
      "identifier": "CL: LEGalilei",
      "timers": { "rank_0": 24578.55, "rank_1": 44697.50 }
    },
    {
      "identifier": "CL: LEShift",
      "timers": { "rank_0": 12580.62, "rank_1": 12478.65 }
    },
    {
      "identifier": "CL: PropagateCollide",
      "timers": { "rank_0": 212439.60, "rank_1": 178492.89 }
    },
    {
      "identifier": "OMP: part ext forces",
      "timers": { "rank_0": 31.60, "rank_1": 24.78 }
    },
    {
      "identifier": "OMP: part int forces",
      "timers": { "rank_0": 7612.59, "rank_1": 8447.02 }
    },
    {
      "identifier": "OMP: part-part forces",
      "timers": { "rank_0": 20055.47, "rank_1": 24732.47 }
    },
    {
      "identifier": "MPI: particle forces (overhead)",
      "timers": { "rank_0": 440.32, "rank_1": 477.48 }
    },
    {
      "identifier": "MPI: particle forces",
      "timers": { "rank_0": 2477.92, "rank_1": 72933.34 }
    },
    {
      "identifier": "OMP: particle dynamics",
      "timers": { "rank_0": 6996.86, "rank_1": 6677.93 }
    },
    {
      "identifier": "I/O: output",
      "timers": { "rank_0": 469824.66, "rank_1": 493389.78 }
    },
    {
      "identifier": "ALL: total time",
      "timers": { "rank_0": 1711997.53, "rank_1": 1711587.99 }
    }
  ]
}
