3.109956e-05	1.65e-05	1.849934e-05
3.1698369e-05	1.65e-05	1.8498055e-05
3.2295893e-05	1.65e-05	1.849508e-05
3.2891034e-05	1.65e-05	1.8491913e-05
3.3484935e-05	1.65e-05	1.8491166e-05
3.4079729e-05	1.65e-05	1.8491961e-05
3.4677032e-05	1.65e-05	1.8494541e-05
3.5277436e-05	1.65e-05	1.8495696e-05
3.5878344e-05	1.65e-05	1.8492534e-05
3.6474172e-05	1.65e-05	1.848588e-05
3.7064034e-05	1.65e-05	1.8480476e-05
3.7653013e-05	1.65e-05	1.8480863e-05
3.8245936e-05	1.65e-05	1.8484801e-05
3.88448e-05	1.65e-05	1.8489012e-05
3.9446738e-05	1.65e-05	1.8488108e-05
4.0043624e-05	1.65e-05	1.8479545e-05
4.0630972e-05	1.65e-05	1.8470889e-05
4.1213854e-05	1.65e-05	1.846812e-05
4.1800041e-05	1.65e-05	1.8472819e-05
4.2394576e-05	1.65e-05	1.8479939e-05
4.2994489e-05	1.65e-05	1.8481305e-05
4.3590853e-05	1.65e-05	1.8474796e-05
4.4177081e-05	1.65e-05	1.8464059e-05
4.4754821e-05	1.65e-05	1.8458697e-05
4.5333475e-05	1.65e-05	1.8462669e-05
4.5920806e-05	1.65e-05	1.8471416e-05
4.6515637e-05	1.65e-05	1.847677e-05
4.7108632e-05	1.65e-05	1.8473282e-05
4.7692701e-05	1.65e-05	1.8465382e-05
4.826706e-05	1.65e-05	1.8459182e-05
4.8837902e-05	1.65e-05	1.8462281e-05
4.9415711e-05	1.65e-05	1.8473879e-05
5.0001357e-05	1.65e-05	1.8483776e-05
5.0586263e-05	1.65e-05	1.8488118e-05
5.1163735e-05	1.65e-05	1.848807e-05
5.1731787e-05	1.65e-05	1.8489741e-05
5.2292767e-05	1.65e-05	1.8499637e-05
5.2855251e-05	1.65e-05	1.8521124e-05
5.3421971e-05	1.65e-05	1.8549139e-05
5.3986142e-05	1.65e-05	1.8578461e-05
5.4540917e-05	1.65e-05	1.8615264e-05
5.5082995e-05	1.65e-05	1.8665067e-05
5.561233e-05	1.65e-05	1.8740879e-05
5.6131303e-05	1.65e-05	1.8856873e-05
5.6648656e-05	1.65e-05	1.9028663e-05
5.717177e-05	1.65e-05	1.9269724e-05
5.7721824e-05	1.65e-05	1.9596617e-05
5.8364016e-05	1.65e-05	1.9976788e-05
5.9122499e-05	1.65e-05	2.0326736e-05
6.0072912e-05	1.65e-05	2.0533111e-05
6.111369e-05	1.65e-05	2.0512252e-05
6.2049626e-05	1.65e-05	2.0272379e-05
6.2810473e-05	1.65e-05	1.9911733e-05
6.3451634e-05	1.65e-05	1.9552874e-05
6.402638e-05	1.65e-05	1.9267374e-05
6.4581132e-05	1.65e-05	1.906257e-05
6.5130163e-05	1.65e-05	1.8916083e-05
6.5686276e-05	1.65e-05	1.8820699e-05
6.6251373e-05	1.65e-05	1.8757475e-05
6.6829141e-05	1.65e-05	1.8717229e-05
6.7418003e-05	1.65e-05	1.8689984e-05
6.8016095e-05	1.65e-05	1.866638e-05
6.8614587e-05	1.65e-05	1.8643291e-05
6.9207703e-05	1.65e-05	1.8624756e-05
6.9803078e-05	1.65e-05	1.8616615e-05
7.0404642e-05	1.65e-05	1.8616047e-05
7.1015759e-05	1.65e-05	1.8617547e-05
7.1633954e-05	1.65e-05	1.861631e-05
7.2250173e-05	1.65e-05	1.8606852e-05
7.2858226e-05	1.65e-05	1.8595526e-05
7.3460714e-05	1.65e-05	1.859215e-05
7.4068732e-05	1.65e-05	1.859674e-05
7.4686832e-05	1.65e-05	1.8605191e-05
7.531214e-05	1.65e-05	1.8609516e-05
7.5938613e-05	1.65e-05	1.8605047e-05
7.6556146e-05	1.65e-05	1.8595747e-05
7.7165074e-05	1.65e-05	1.8589841e-05
7.777609e-05	1.65e-05	1.8593916e-05
7.8395901e-05	1.65e-05	1.8603527e-05
7.9025295e-05	1.65e-05	1.8609907e-05
7.9656614e-05	1.65e-05	1.8609411e-05
8.0281476e-05	1.65e-05	1.860218e-05
8.0898773e-05	1.65e-05	1.8595126e-05
8.1512795e-05	1.65e-05	1.8596023e-05
8.2133729e-05	1.65e-05	1.8603272e-05
8.2764048e-05	1.65e-05	1.8610339e-05
8.3396355e-05	1.65e-05	1.8611841e-05
8.4026454e-05	1.6499999e-05	1.8607578e-05
8.4650768e-05	1.6499999e-05	1.860214e-05
8.5270194e-05	1.6499999e-05	1.8599589e-05
8.5892919e-05	1.6499999e-05	1.8602907e-05
8.6521279e-05	1.6499999e-05	1.8608196e-05
8.7152666e-05	1.6499999e-05	1.8609932e-05
8.7784158e-05	1.6499999e-05	1.8608963e-05
8.8412423e-05	1.6499999e-05	1.860624e-05
8.903869e-05	1.6499999e-05	1.8602966e-05
8.9664144e-05	1.6499999e-05	1.8602264e-05
9.0290153e-05	1.6499999e-05	1.8602956e-05
9.0918591e-05	1.6499999e-05	1.860387e-05
9.1533786e-05	1.6499999e-05	1.8605025e-05
