{
  "experiment_name": "timing",
  "num_ranks": 2,
  "metrics": [
    {
      "identifier": "MPI: particle handling",
      "timers": { "rank_0": 15.31, "rank_1": 17.36 }
    },
    {
      "identifier": "MPI: particle (overhead)",
      "timers": { "rank_0": 45.95, "rank_1": 46.17 }
    },
    {
      "identifier": "MPI: particle",
      "timers": { "rank_0": 147.00, "rank_1": 104.40 }
    },
    {
      "identifier": "CPU: particle handling",
      "timers": { "rank_0": 110.33, "rank_1": 89.50 }
    },
    {
      "identifier": "CPU: particle mapping",
      "timers": { "rank_0": 1349.84, "rank_1": 1936.49 }
    },
    {
      "identifier": "Copy: CPU -> GPU",
      "timers": { "rank_0": 3714.98, "rank_1": 1828.98 }
    },
    {
      "identifier": "CL: PartMapLP",
      "timers": { "rank_0": 1243.20, "rank_1": 2218.08 }
    },
    {
      "identifier": "Copy: GPU -> CPU",
      "timers": { "rank_0": 4112.32, "rank_1": 3887.80 }
    },
    {
      "identifier": "CL: LEGalilei",
      "timers": { "rank_0": 861.12, "rank_1": 828.65 }
    },
    {
      "identifier": "CL: LEShift",
      "timers": { "rank_0": 299.31, "rank_1": 310.14 }
    },
    {
      "identifier": "CL: PropagateCollide",
      "timers": { "rank_0": 4635.78, "rank_1": 4170.12 }
    },
    {
      "identifier": "OMP: part ext forces",
      "timers": { "rank_0": 3.12, "rank_1": 3.35 }
    },
    {
      "identifier": "OMP: part int forces",
      "timers": { "rank_0": 821.66, "rank_1": 971.08 }
    },
    {
      "identifier": "OMP: part-part forces",
      "timers": { "rank_0": 2693.62, "rank_1": 3376.37 }
    },
    {
      "identifier": "MPI: particle forces (overhead)",
      "timers": { "rank_0": 54.10, "rank_1": 51.40 }
    },
    {
      "identifier": "MPI: particle forces",
      "timers": { "rank_0": 909.21, "rank_1": 1970.08 }
    },
    {
      "identifier": "OMP: particle dynamics",
      "timers": { "rank_0": 1056.57, "rank_1": 937.19 }
    },
    {
      "identifier": "I/O: output",
      "timers": { "rank_0": 390693.05, "rank_1": 415053.40 }
    },
    {
      "identifier": "ALL: total time",
      "timers": { "rank_0": 447282.93, "rank_1": 447329.72 }
    }
  ]
}
