1.5793241e-05	1.65e-05	1.7499532e-05
1.6084621e-05	1.65e-05	1.7499143e-05
1.6375963e-05	1.65e-05	1.7500184e-05
1.6667994e-05	1.65e-05	1.7500873e-05
1.6959702e-05	1.65e-05	1.7500425e-05
1.7250756e-05	1.65e-05	1.7501298e-05
1.7542774e-05	1.65e-05	1.7503142e-05
1.783493e-05	1.65e-05	1.7503176e-05
1.8125872e-05	1.65e-05	1.7504009e-05
1.8417743e-05	1.65e-05	1.7506651e-05
1.871037e-05	1.65e-05	1.7507784e-05
1.9001459e-05	1.65e-05	1.7508503e-05
1.9293085e-05	1.65e-05	1.7511733e-05
1.9586155e-05	1.65e-05	1.7514172e-05
1.9877657e-05	1.65e-05	1.751545e-05
2.0169067e-05	1.65e-05	1.7519324e-05
2.0462445e-05	1.65e-05	1.7523335e-05
2.0754535e-05	1.65e-05	1.7525941e-05
2.104597e-05	1.65e-05	1.7530713e-05
2.1339496e-05	1.65e-05	1.7536594e-05
2.1632291e-05	1.65e-05	1.7541262e-05
2.1924187e-05	1.65e-05	1.7547892e-05
2.22179e-05	1.65e-05	1.7556278e-05
2.2511605e-05	1.65e-05	1.7564407e-05
2.2804314e-05	1.65e-05	1.7574512e-05
2.309817e-05	1.65e-05	1.7587275e-05
2.3392259e-05	1.65e-05	1.7600821e-05
2.3686039e-05	1.65e-05	1.7617521e-05
2.3980549e-05	1.65e-05	1.7638011e-05
2.4274509e-05	1.65e-05	1.766147e-05
2.456794e-05	1.65e-05	1.76908e-05
2.4862312e-05	1.65e-05	1.7726725e-05
2.5155007e-05	1.65e-05	1.7771093e-05
2.5445068e-05	1.65e-05	1.7827822e-05
2.5736028e-05	1.65e-05	1.789835e-05
2.6020461e-05	1.65e-05	1.7990955e-05
2.6297551e-05	1.65e-05	1.81166e-05
2.6572408e-05	1.65e-05	1.8285531e-05
2.6838695e-05	1.65e-05	1.8511883e-05
2.7115037e-05	1.65e-05	1.8806438e-05
2.7451336e-05	1.65e-05	1.9163174e-05
2.7874148e-05	1.65e-05	1.9580149e-05
2.845217e-05	1.65e-05	1.9992515e-05
2.920217e-05	1.65e-05	2.0335561e-05
3.0138018e-05	1.65e-05	2.053287e-05
3.1172223e-05	1.65e-05	2.0499428e-05
3.2089206e-05	1.65e-05	2.0245677e-05
3.2818445e-05	1.65e-05	1.9871339e-05
3.3435505e-05	1.65e-05	1.9490271e-05
3.3968004e-05	1.65e-05	1.9173311e-05
3.4472433e-05	1.65e-05	1.8945258e-05
3.4970997e-05	1.65e-05	1.8785164e-05
3.5476281e-05	1.65e-05	1.8673971e-05
3.5989205e-05	1.65e-05	1.8594668e-05
3.650852e-05	1.65e-05	1.8540699e-05
3.7036502e-05	1.65e-05	1.850038e-05
3.7567812e-05	1.65e-05	1.8469545e-05
3.8102052e-05	1.65e-05	1.8447549e-05
3.8641206e-05	1.65e-05	1.8431679e-05
3.918194e-05	1.65e-05	1.8416649e-05
3.9722376e-05	1.65e-05	1.8406933e-05
4.0266844e-05	1.65e-05	1.8399592e-05
4.081149e-05	1.65e-05	1.8392195e-05
4.1356062e-05	1.65e-05	1.8386743e-05
4.1901734e-05	1.65e-05	1.8383618e-05
4.2449395e-05	1.65e-05	1.8380013e-05
4.2995226e-05	1.65e-05	1.8376589e-05
4.3542277e-05	1.65e-05	1.8375713e-05
4.4090298e-05	1.65e-05	1.8373938e-05
4.4637583e-05	1.65e-05	1.8372747e-05
4.5184919e-05	1.65e-05	1.8372033e-05
4.5732434e-05	1.65e-05	1.8372674e-05
4.6280849e-05	1.65e-05	1.8372419e-05
4.6827458e-05	1.65e-05	1.8372835e-05
4.7374874e-05	1.65e-05	1.8374588e-05
4.7922235e-05	1.65e-05	1.8376323e-05
4.8469269e-05	1.65e-05	1.8377934e-05
4.9014451e-05	1.65e-05	1.8380823e-05
4.9561007e-05	1.65e-05	1.8385606e-05
5.0106594e-05	1.65e-05	1.838879e-05
5.0649363e-05	1.65e-05	1.8394792e-05
5.1193093e-05	1.65e-05	1.8402875e-05
5.1735388e-05	1.65e-05	1.8411398e-05
5.2274275e-05	1.65e-05	1.842218e-05
5.2811567e-05	1.65e-05	1.8438549e-05
5.3347401e-05	1.65e-05	1.8457567e-05
5.3877076e-05	1.65e-05	1.8481998e-05
5.440184e-05	1.65e-05	1.8518117e-05
5.4921681e-05	1.65e-05	1.8564645e-05
5.5429492e-05	1.65e-05	1.8629966e-05
5.5927739e-05	1.65e-05	1.8722846e-05
5.6412823e-05	1.65e-05	1.8859498e-05
5.6892133e-05	1.65e-05	1.9050604e-05
5.7373929e-05	1.65e-05	1.9326016e-05
5.7907287e-05	1.65e-05	1.967799e-05
5.8541345e-05	1.65e-05	2.0061933e-05
5.9317249e-05	1.65e-05	2.0382466e-05
6.0287234e-05	1.65e-05	2.0544732e-05
1.3186288e-06	1.65e-05	2.0475335e-05
2.2069816e-06	1.65e-05	2.0196658e-05
2.2069859e-06	1.65e-05	2.0196656e-05
