6.0201222e-05	1.65e-05	1.5495984e-05
5.9900534e-05	1.65e-05	1.5496593e-05
5.9605227e-05	1.65e-05	1.5500998e-05
5.9315673e-05	1.65e-05	1.5501399e-05
5.9023242e-05	1.65e-05	1.5495337e-05
5.8723417e-05	1.65e-05	1.5489751e-05
5.8422902e-05	1.6499999e-05	1.5491516e-05
5.8129582e-05	1.6499999e-05	1.5496369e-05
5.7840458e-05	1.6499999e-05	1.5493935e-05
5.7545432e-05	1.6499999e-05	1.5485057e-05
5.7243575e-05	1.6499999e-05	1.5481134e-05
5.6944703e-05	1.6499999e-05	1.5484785e-05
5.6653429e-05	1.6499999e-05	1.5486528e-05
5.6362915e-05	1.6499999e-05	1.5480271e-05
5.6064878e-05	1.6499999e-05	1.5471527e-05
5.5762937e-05	1.6499999e-05	1.5468696e-05
5.5465771e-05	1.6499999e-05	1.5470522e-05
5.517497e-05	1.6499999e-05	1.5469231e-05
5.4882492e-05	1.6499998e-05	1.5459413e-05
5.4581837e-05	1.6499998e-05	1.5448707e-05
5.4279802e-05	1.6499998e-05	1.5445371e-05
5.3984565e-05	1.6499998e-05	1.5444528e-05
5.3693651e-05	1.6499998e-05	1.5436049e-05
5.3396976e-05	1.6499998e-05	1.5420384e-05
5.3094456e-05	1.6499998e-05	1.5407627e-05
5.2794922e-05	1.6499998e-05	1.5398908e-05
5.2500042e-05	1.6499998e-05	1.5387235e-05
5.220584e-05	1.6499998e-05	1.5367595e-05
5.1907657e-05	1.6499998e-05	1.5341053e-05
5.1606135e-05	1.6499998e-05	1.5314062e-05
5.1307463e-05	1.6499997e-05	1.5286703e-05
5.1014622e-05	1.6499997e-05	1.5250308e-05
5.0722254e-05	1.6499997e-05	1.5196622e-05
5.042538e-05	1.6499997e-05	1.5130175e-05
5.0131735e-05	1.6499997e-05	1.5053301e-05
4.9849982e-05	1.6499997e-05	1.4948819e-05
4.9572713e-05	1.6499997e-05	1.4804859e-05
4.9299662e-05	1.6499997e-05	1.4607719e-05
4.9027707e-05	1.6499997e-05	1.4345529e-05
4.8724727e-05	1.6499997e-05	1.401734e-05
4.8352347e-05	1.6499997e-05	1.3628342e-05
4.7852553e-05	1.6499996e-05	1.3205335e-05
4.7183486e-05	1.6499996e-05	1.2817713e-05
4.6335664e-05	1.6499996e-05	1.2538335e-05
4.5316362e-05	1.6499996e-05	1.245369e-05
4.4312939e-05	1.6499996e-05	1.2613019e-05
4.3504268e-05	1.6499996e-05	1.2948245e-05
4.2835859e-05	1.6499997e-05	1.3341309e-05
4.2274474e-05	1.6499997e-05	1.3692569e-05
4.1760244e-05	1.6499997e-05	1.3960435e-05
4.1255853e-05	1.6499996e-05	1.4151003e-05
4.0754895e-05	1.6499996e-05	1.4289328e-05
4.0248291e-05	1.6499996e-05	1.43808e-05
3.9734413e-05	1.6499996e-05	1.444235e-05
3.9207502e-05	1.6499996e-05	1.4484798e-05
3.8673513e-05	1.6499996e-05	1.452164e-05
3.8140332e-05	1.6499996e-05	1.4552993e-05
3.7608381e-05	1.6499996e-05	1.4572608e-05
3.7070522e-05	1.6499996e-05	1.4582216e-05
3.6523775e-05	1.6499996e-05	1.4590603e-05
3.597603e-05	1.6499996e-05	1.4604826e-05
3.543451e-05	1.6499996e-05	1.4617959e-05
3.4895036e-05	1.6499995e-05	1.4622677e-05
3.4348637e-05	1.6499995e-05	1.4620893e-05
3.3795084e-05	1.6499995e-05	1.4624006e-05
3.3244739e-05	1.6499995e-05	1.4633298e-05
3.2701145e-05	1.6499995e-05	1.4640987e-05
3.2158366e-05	1.6499995e-05	1.4639766e-05
3.160705e-05	1.6499995e-05	1.4636013e-05
3.1052405e-05	1.6499995e-05	1.4638718e-05
3.0501926e-05	1.6499995e-05	1.4646065e-05
2.995791e-05	1.6499995e-05	1.4650138e-05
2.9411614e-05	1.6499995e-05	1.4646592e-05
2.8858673e-05	1.6499995e-05	1.4643989e-05
2.8304666e-05	1.6499994e-05	1.4646465e-05
2.7754975e-05	1.6499994e-05	1.4652086e-05
2.7209406e-05	1.6499994e-05	1.4653157e-05
2.6660459e-05	1.6499994e-05	1.4650319e-05
2.6108155e-05	1.6499994e-05	1.4648728e-05
2.5555184e-05	1.6499994e-05	1.4650555e-05
2.5005763e-05	1.6499994e-05	1.4653619e-05
2.4457521e-05	1.6499994e-05	1.4653805e-05
2.3908209e-05	1.6499994e-05	1.4652721e-05
2.3357181e-05	1.6499994e-05	1.4651115e-05
2.2805283e-05	1.6499994e-05	1.4651516e-05
2.2254414e-05	1.6499994e-05	1.4652333e-05
2.1704421e-05	1.6499993e-05	1.4653942e-05
2.1156451e-05	1.6499993e-05	1.4653674e-05
2.0606715e-05	1.6499993e-05	1.4651239e-05
2.0054916e-05	1.6499993e-05	1.4649214e-05
1.9501698e-05	1.6499993e-05	1.4649914e-05
1.8952301e-05	1.6499993e-05	1.4653178e-05
1.8406067e-05	1.6499993e-05	1.4652461e-05
1.7857434e-05	1.6499993e-05	1.4648143e-05
1.7304056e-05	1.6499993e-05	1.464422e-05
1.6750008e-05	1.6499993e-05	1.4646628e-05
1.6202806e-05	1.6499993e-05	1.4650115e-05
1.5658357e-05	1.6499993e-05	1.4647883e-05
1.5109849e-05	1.6499992e-05	1.4640626e-05
1.4554694e-05	1.6499992e-05	1.463678e-05
1.4554691e-05	1.6499992e-05	1.463678e-05
