{
  "experiment_name": "timing",
  "num_ranks": 2,
  "metrics": [
    {
      "identifier": "MPI: particle handling",
      "timers": { "rank_0": 6.52, "rank_1": 5.57 }
    },
    {
      "identifier": "MPI: particle (overhead)",
      "timers": { "rank_0": 25.65, "rank_1": 22.73 }
    },
    {
      "identifier": "MPI: particle",
      "timers": { "rank_0": 236.48, "rank_1": 47.63 }
    },
    {
      "identifier": "CPU: particle handling",
      "timers": { "rank_0": 80.71, "rank_1": 59.21 }
    },
    {
      "identifier": "CPU: particle mapping",
      "timers": { "rank_0": 5588.85, "rank_1": 4695.65 }
    },
    {
      "identifier": "Copy: CPU -> GPU",
      "timers": { "rank_0": 9244.85, "rank_1": 4391.88 }
    },
    {
      "identifier": "CL: PartMapLP",
      "timers": { "rank_0": 5308.64, "rank_1": 8603.01 }
    },
    {
      "identifier": "Copy: GPU -> CPU",
      "timers": { "rank_0": 11932.34, "rank_1": 11387.69 }
    },
    {
      "identifier": "CL: LEGalilei",
      "timers": { "rank_0": 1069.37, "rank_1": 1094.75 }
    },
    {
      "identifier": "CL: LEShift",
      "timers": { "rank_0": 787.98, "rank_1": 786.85 }
    },
    {
      "identifier": "CL: PropagateCollide",
      "timers": { "rank_0": 20558.16, "rank_1": 18380.94 }
    },
    {
      "identifier": "OMP: part ext forces",
      "timers": { "rank_0": 2.35, "rank_1": 1.92 }
    },
    {
      "identifier": "OMP: part int forces",
      "timers": { "rank_0": 416.42, "rank_1": 415.51 }
    },
    {
      "identifier": "OMP: part-part forces",
      "timers": { "rank_0": 1462.14, "rank_1": 1469.09 }
    },
    {
      "identifier": "MPI: particle forces (overhead)",
      "timers": { "rank_0": 26.40, "rank_1": 24.53 }
    },
    {
      "identifier": "MPI: particle forces",
      "timers": { "rank_0": 131.20, "rank_1": 6925.46 }
    },
    {
      "identifier": "OMP: particle dynamics",
      "timers": { "rank_0": 450.25, "rank_1": 363.50 }
    },
    {
      "identifier": "I/O: output",
      "timers": { "rank_0": 254182.12, "rank_1": 254145.19 }
    },
    {
      "identifier": "ALL: total time",
      "timers": { "rank_0": 350556.48, "rank_1": 350556.61 }
    }
  ]
}
