{
  "experiment_name": "timing",
  "num_ranks": 2,
  "metrics": [
    {
      "identifier": "MPI: particle handling",
      "timers": { "rank_0": 3043.01, "rank_1": 4526.21 }
    },
    {
      "identifier": "MPI: particle (overhead)",
      "timers": { "rank_0": 12580.77, "rank_1": 14918.87 }
    },
    {
      "identifier": "MPI: particle",
      "timers": { "rank_0": 37652.39, "rank_1": 43326.84 }
    },
    {
      "identifier": "CPU: particle handling",
      "timers": { "rank_0": 37385.59, "rank_1": 28394.75 }
    },
    {
      "identifier": "CPU: particle mapping",
      "timers": { "rank_0": 2590149.75, "rank_1": 2313214.17 }
    },
    {
      "identifier": "Copy: CPU -> GPU",
      "timers": { "rank_0": 4498329.54, "rank_1": 2137486.90 }
    },
    {
      "identifier": "CL: PartMapLP",
      "timers": { "rank_0": 2439828.06, "rank_1": 4073411.26 }
    },
    {
      "identifier": "Copy: GPU -> CPU",
      "timers": { "rank_0": 6400699.82, "rank_1": 4724023.97 }
    },
    {
      "identifier": "CL: LEGalilei",
      "timers": { "rank_0": 755260.29, "rank_1": 721427.49 }
    },
    {
      "identifier": "CL: LEShift",
      "timers": { "rank_0": 485492.48, "rank_1": 443381.10 }
    },
    {
      "identifier": "CL: PropagateCollide",
      "timers": { "rank_0": 9717340.78, "rank_1": 8281719.58 }
    },
    {
      "identifier": "OMP: part ext forces",
      "timers": { "rank_0": 1226.82, "rank_1": 1094.66 }
    },
    {
      "identifier": "OMP: part int forces",
      "timers": { "rank_0": 250435.29, "rank_1": 340552.07 }
    },
    {
      "identifier": "OMP: part-part forces",
      "timers": { "rank_0": 631141.67, "rank_1": 971809.17 }
    },
    {
      "identifier": "MPI: particle forces (overhead)",
      "timers": { "rank_0": 13604.06, "rank_1": 16642.59 }
    },
    {
      "identifier": "MPI: particle forces",
      "timers": { "rank_0": 67284.36, "rank_1": 3466800.93 }
    },
    {
      "identifier": "OMP: particle dynamics",
      "timers": { "rank_0": 254440.13, "rank_1": 263467.09 }
    },
    {
      "identifier": "I/O: output",
      "timers": { "rank_0": 253999.61, "rank_1": 414160.03 }
    },
    {
      "identifier": "ALL: total time",
      "timers": { "rank_0": 49535240.02, "rank_1": 49535239.93 }
    }
  ]
}
