{
  "experiment_name": "timing",
  "num_ranks": 2,
  "metrics": [
    {
      "identifier": "MPI: particle handling",
      "timers": { "rank_0": 27.81, "rank_1": 25.67 }
    },
    {
      "identifier": "MPI: particle (overhead)",
      "timers": { "rank_0": 54.18, "rank_1": 42.70 }
    },
    {
      "identifier": "MPI: particle",
      "timers": { "rank_0": 281.04, "rank_1": 444.50 }
    },
    {
      "identifier": "CPU: particle handling",
      "timers": { "rank_0": 178.80, "rank_1": 101.82 }
    },
    {
      "identifier": "CPU: particle mapping",
      "timers": { "rank_0": 11176.77, "rank_1": 8045.21 }
    },
    {
      "identifier": "Copy: CPU -> GPU",
      "timers": { "rank_0": 16581.70, "rank_1": 7068.49 }
    },
    {
      "identifier": "CL: PartMapLP",
      "timers": { "rank_0": 10123.72, "rank_1": 13390.75 }
    },
    {
      "identifier": "Copy: GPU -> CPU",
      "timers": { "rank_0": 18366.22, "rank_1": 14811.51 }
    },
    {
      "identifier": "CL: LEGalilei",
      "timers": { "rank_0": 4066.45, "rank_1": 4099.10 }
    },
    {
      "identifier": "CL: LEShift",
      "timers": { "rank_0": 3394.69, "rank_1": 3353.44 }
    },
    {
      "identifier": "CL: PropagateCollide",
      "timers": { "rank_0": 65292.99, "rank_1": 24567.37 }
    },
    {
      "identifier": "OMP: part ext forces",
      "timers": { "rank_0": 10.53, "rank_1": 7.00 }
    },
    {
      "identifier": "OMP: part int forces",
      "timers": { "rank_0": 1748.84, "rank_1": 1637.57 }
    },
    {
      "identifier": "OMP: part-part forces",
      "timers": { "rank_0": 2918.18, "rank_1": 2854.12 }
    },
    {
      "identifier": "MPI: particle forces (overhead)",
      "timers": { "rank_0": 57.32, "rank_1": 64.98 }
    },
    {
      "identifier": "MPI: particle forces",
      "timers": { "rank_0": 531.18, "rank_1": 51504.36 }
    },
    {
      "identifier": "OMP: particle dynamics",
      "timers": { "rank_0": 2088.36, "rank_1": 1211.19 }
    },
    {
      "identifier": "I/O: output",
      "timers": { "rank_0": 55724.16, "rank_1": 55779.50 }
    },
    {
      "identifier": "ALL: total time",
      "timers": { "rank_0": 312415.03, "rank_1": 312552.01 }
    }
  ]
}
