{
    "charge": {
        "type": "none"
    },
    "coating": {
        "type": "none"
    },
    "deform": {
        "type": "rigid"
    },
    "density": {
        "constant": {
            "rho": 1000000.0
        },
        "type": "constant"
    },
    "friction": {
        "standard": {
            "ks": 1.0,
            "muk": 0.1,
            "mus": 0.1
        },
        "type": "standard"
    },
    "magnetic": {
        "type": "none"
    },
    "repulsion": {
        "simple": {
            "c0": 0.0001,
            "dmax": 1e-07
        },
        "type": "simple"
    },
    "shape": {
        "type": "monoball"
    },
    "size": {
        "mono": {
            "diam": 8e-06
        },
        "normal": {
            "max": 7e-06,
            "min": 3e-06,
            "n": 1,
            "peak": {
                "0": {
                    "c": 1.0,
                    "mu": 5e-06,
                    "sigma": 1e-06
                }
            }
        },
        "type": "normal"
    },
    "vdWaals": {
        "type": "none"
    }
}