9.1402787e-05	1.65e-05	1.9508873e-05
9.2312357e-05	1.65e-05	1.9519867e-05
9.32237e-05	1.65e-05	1.9524335e-05
9.4134689e-05	1.65e-05	1.9523338e-05
9.5043708e-05	1.65e-05	1.9516956e-05
9.59487e-05	1.65e-05	1.9507194e-05
9.6850041e-05	1.65e-05	1.9496115e-05
9.7748184e-05	1.65e-05	1.9484062e-05
9.8642083e-05	1.65e-05	1.9470816e-05
9.9529067e-05	1.65e-05	1.9458568e-05
0.00010040987	1.65e-05	1.9452666e-05
0.00010128904	1.65e-05	1.9455273e-05
0.00010216995	1.65e-05	1.9466951e-05
0.00010305879	1.65e-05	1.9488371e-05
0.0001039622	1.65e-05	1.9512703e-05
0.0001048772	1.65e-05	1.9528751e-05
0.00010579446	1.65e-05	1.9531969e-05
0.00010670656	1.65e-05	1.95249e-05
0.00010761007	1.65e-05	1.9513622e-05
0.00010850705	1.65e-05	1.9504547e-05
0.00010940278	1.65e-05	1.9499525e-05
0.00011030066	1.65e-05	1.9495311e-05
0.00011119908	1.65e-05	1.9487603e-05
0.00011209346	1.65e-05	1.9475706e-05
0.00011297915	1.65e-05	1.9462703e-05
0.00011385457	1.65e-05	1.9456431e-05
0.00011472636	1.65e-05	1.9465468e-05
0.00011560791	1.65e-05	1.9490457e-05
0.00011650903	1.65e-05	1.951945e-05
0.00011742385	1.65e-05	1.9535866e-05
0.00011833694	1.65e-05	1.953622e-05
0.00011924028	1.65e-05	1.9529048e-05
0.00012013543	1.65e-05	1.9522416e-05
0.00012102581	1.65e-05	1.9519378e-05
0.00012191478	1.65e-05	1.9521119e-05
0.00012280543	1.65e-05	1.9525432e-05
0.00012369629	1.65e-05	1.9528924e-05
0.0001245843	1.65e-05	1.9531297e-05
0.00012546708	1.65e-05	1.953382e-05
0.00012634116	1.65e-05	1.9539433e-05
0.00012720501	1.65e-05	1.9556165e-05
0.00012806618	1.65e-05	1.959341e-05
0.00012893448	1.65e-05	1.9648224e-05
0.00012980337	1.65e-05	1.9713986e-05
0.00013066189	1.65e-05	1.9801143e-05
0.00013151133	1.65e-05	1.993175e-05
0.00013237158	1.65e-05	2.0124518e-05
0.00013328744	1.65e-05	2.037153e-05
0.00013430217	1.65e-05	2.0613326e-05
0.00013541789	1.65e-05	2.0730826e-05
0.00013654393	1.65e-05	2.0642452e-05
0.00013757844	1.65e-05	2.0411183e-05
0.00013851051	1.65e-05	2.0159964e-05
0.00013938081	1.65e-05	1.9955736e-05
0.00014023598	1.65e-05	1.9811061e-05
0.00014109122	1.65e-05	1.9707389e-05
0.00014194312	1.65e-05	1.9633619e-05
0.00014279505	1.65e-05	1.958908e-05
0.00014365622	1.65e-05	1.9566018e-05
0.00014452831	1.65e-05	1.9553081e-05
0.00014540804	1.65e-05	1.9544261e-05
0.00014629252	1.65e-05	1.9537166e-05
0.00014717933	1.65e-05	1.9530136e-05
0.00014806544	1.65e-05	1.9524343e-05
0.0001489515	1.65e-05	1.9522926e-05
0.00014984069	1.65e-05	1.9526214e-05
0.00015073578	1.65e-05	1.9532836e-05
0.00015164008	1.65e-05	1.9538409e-05
0.00015255241	1.65e-05	1.9533831e-05
0.00015346111	1.65e-05	1.9512625e-05
0.00015435196	1.65e-05	1.9482673e-05
0.00015522519	1.65e-05	1.9462008e-05
0.00015609538	1.65e-05	1.9459662e-05
0.00015697456	1.65e-05	1.9469399e-05
0.00015786395	1.65e-05	1.9481381e-05
0.00015875945	1.65e-05	1.9490425e-05
0.00015965647	1.65e-05	1.9495325e-05
0.00016055135	1.65e-05	1.9498453e-05
0.00016144484	1.65e-05	1.9504601e-05
0.00016234193	1.65e-05	1.9515225e-05
0.00016324694	1.65e-05	1.9526337e-05
0.00016415978	1.65e-05	1.9531534e-05
0.00016507547	1.65e-05	1.9525853e-05
0.00016598617	1.65e-05	1.9507648e-05
0.00016688313	1.65e-05	1.9481955e-05
0.0001677656	1.65e-05	1.9460457e-05
0.00016864159	1.65e-05	1.9450244e-05
0.00016951793	1.65e-05	1.9451383e-05
0.00017039996	1.65e-05	1.9461549e-05
0.00017129024	1.65e-05	1.9474658e-05
0.00017218569	1.65e-05	1.9486303e-05
0.00017308365	1.65e-05	1.949686e-05
0.00017398419	1.65e-05	1.9507204e-05
0.00017488885	1.65e-05	1.9516672e-05
0.00017579749	1.65e-05	1.9522121e-05
0.00017670739	1.65e-05	1.9522454e-05
0.00017761728	1.65e-05	1.9517363e-05
0.00017852438	1.65e-05	1.9505345e-05
0.00017942331	1.65e-05	1.9488166e-05
0.00018031306	1.65e-05	1.9472919e-05
0.00018031308	1.65e-05	1.9472919e-05
