0.0001216976	1.65e-05	2.0499978e-05
0.00012289521	1.65e-05	2.0499943e-05
0.00012409281	1.65e-05	2.0499903e-05
0.0001252904	1.65e-05	2.0499858e-05
0.00012648802	1.65e-05	2.0499808e-05
0.00012768565	1.65e-05	2.0499769e-05
0.00012888333	1.65e-05	2.0499735e-05
0.00013008104	1.65e-05	2.0499684e-05
0.00013127878	1.65e-05	2.0499624e-05
0.00013247657	1.65e-05	2.0499573e-05
0.00013367444	1.65e-05	2.0499521e-05
0.00013487241	1.65e-05	2.0499487e-05
0.00013607056	1.65e-05	2.0499439e-05
0.00013726892	1.65e-05	2.0499329e-05
0.00013846749	1.65e-05	2.0499084e-05
0.00013966626	1.65e-05	2.0498651e-05
0.0001408652	1.65e-05	2.0497981e-05
0.00014206426	1.65e-05	2.0497012e-05
0.00014326334	1.65e-05	2.049571e-05
0.00014446226	1.65e-05	2.0494107e-05
0.00014566078	1.65e-05	2.0492324e-05
0.00014685879	1.65e-05	2.049049e-05
0.00014805642	1.65e-05	2.048856e-05
0.00014925397	1.65e-05	2.0486286e-05
0.0001504515	1.65e-05	2.0483733e-05
0.00015164878	1.65e-05	2.048125e-05
0.00015284593	1.65e-05	2.0478445e-05
0.000154043	1.65e-05	2.0475164e-05
0.00015523973	1.65e-05	2.0471798e-05
0.00015643621	1.65e-05	2.0467856e-05
0.00015763231	1.65e-05	2.04638e-05
0.00015882815	1.65e-05	2.0459199e-05
0.00016002364	1.65e-05	2.0454371e-05
0.00016121888	1.65e-05	2.0449045e-05
0.00016241384	1.65e-05	2.0443132e-05
0.00016360843	1.65e-05	2.0436565e-05
0.00016480246	1.65e-05	2.0429146e-05
0.00016599564	1.65e-05	2.0420801e-05
0.00016718757	1.65e-05	2.0411635e-05
0.00016837792	1.65e-05	2.0401831e-05
0.00016956648	1.65e-05	2.0391504e-05
0.00017075315	1.65e-05	2.0380631e-05
0.00017193785	1.65e-05	2.0369138e-05
0.00017312009	1.65e-05	2.0357485e-05
0.00017429899	1.65e-05	2.0346489e-05
0.0001754737	1.65e-05	2.0336819e-05
0.00017664261	1.65e-05	2.0330682e-05
0.00017780286	1.65e-05	2.0332557e-05
0.00017893812	1.65e-05	2.0351337e-05
0.00018003328	1.65e-05	2.0495282e-05
0.00018109173	1.65e-05	2.0682884e-05
0.00018214632	1.65e-05	2.0831139e-05
0.00018320502	1.65e-05	2.0958471e-05
0.00018426167	1.65e-05	2.107307e-05
0.00018532417	1.65e-05	2.1181044e-05
0.00018639459	1.65e-05	2.1285353e-05
0.00018747459	1.65e-05	2.1387541e-05
0.00018856535	1.65e-05	2.1488447e-05
0.00018966767	1.65e-05	2.1588615e-05
0.00019078219	1.65e-05	2.1688471e-05
0.00019190946	1.65e-05	2.1788395e-05
0.00019305003	1.65e-05	2.1888712e-05
0.00019420454	1.65e-05	2.1989574e-05
0.00019537353	1.65e-05	2.2091145e-05
0.00019655746	1.65e-05	2.2193688e-05
0.00019775693	1.65e-05	2.229733e-05
0.00019897253	1.65e-05	2.2402132e-05
0.0002002047	1.65e-05	2.2508113e-05
0.00020145364	1.65e-05	2.261538e-05
0.0002027197	1.65e-05	2.2723998e-05
0.00020400314	1.65e-05	2.2834021e-05
0.00020530411	1.65e-05	2.2945746e-05
0.0002066228	1.65e-05	2.3059571e-05
0.00020795973	1.65e-05	2.3176192e-05
0.00020931615	1.65e-05	2.329631e-05
0.00021069414	1.65e-05	2.3419862e-05
0.00021209563	1.65e-05	2.3545761e-05
0.00021352127	1.65e-05	2.3672757e-05
0.00021497049	1.65e-05	2.3800414e-05
0.00021644213	1.65e-05	2.3929489e-05
0.00021793548	1.65e-05	2.4060902e-05
0.00021945166	1.65e-05	2.4193411e-05
0.00022099119	1.65e-05	2.4327441e-05
0.0002225538	1.65e-05	2.4464829e-05
0.00022414091	1.65e-05	2.4604055e-05
0.00022575322	1.65e-05	2.4745995e-05
0.00022739122	1.65e-05	2.4889736e-05
0.00022905439	1.65e-05	2.5035713e-05
0.00023074274	1.65e-05	2.5183499e-05
0.00023245597	1.65e-05	2.5334209e-05
0.00023419412	1.65e-05	2.5488146e-05
0.00023595736	1.65e-05	2.5646687e-05
0.00023774681	1.65e-05	2.5811153e-05
0.00023956499	1.65e-05	2.5982488e-05
0.00024141597	1.65e-05	2.6160195e-05
0.00024330414	1.65e-05	2.6341861e-05
0.00024523201	1.65e-05	2.6524756e-05
0.0002471984	1.65e-05	2.6708805e-05
0.00024919947	1.65e-05	2.6897374e-05
0.00025123402	1.65e-05	2.7090459e-05
0.00025166821	1.65e-05	2.7131064e-05
