{
  "experiment_name": "timing",
  "num_ranks": 2,
  "metrics": [
    {
      "identifier": "MPI: particle handling",
      "timers": { "rank_0": 564.18, "rank_1": 837.64 }
    },
    {
      "identifier": "MPI: particle (overhead)",
      "timers": { "rank_0": 6917.60, "rank_1": 6479.88 }
    },
    {
      "identifier": "MPI: particle",
      "timers": { "rank_0": 18320.86, "rank_1": 19870.87 }
    },
    {
      "identifier": "CPU: particle handling",
      "timers": { "rank_0": 8116.16, "rank_1": 8628.06 }
    },
    {
      "identifier": "CPU: particle mapping",
      "timers": { "rank_0": 777624.47, "rank_1": 769283.90 }
    },
    {
      "identifier": "Copy: CPU -> GPU",
      "timers": { "rank_0": 1370106.95, "rank_1": 1327337.86 }
    },
    {
      "identifier": "CL: PartMapLP",
      "timers": { "rank_0": 744926.03, "rank_1": 737029.03 }
    },
    {
      "identifier": "Copy: GPU -> CPU",
      "timers": { "rank_0": 4675730.40, "rank_1": 4539589.23 }
    },
    {
      "identifier": "CL: LEGalilei",
      "timers": { "rank_0": 216103.65, "rank_1": 212715.37 }
    },
    {
      "identifier": "CL: LEShift",
      "timers": { "rank_0": 119411.52, "rank_1": 116366.26 }
    },
    {
      "identifier": "CL: PropagateCollide",
      "timers": { "rank_0": 2455718.37, "rank_1": 2402281.60 }
    },
    {
      "identifier": "OMP: part ext forces",
      "timers": { "rank_0": 165.03, "rank_1": 139.21 }
    },
    {
      "identifier": "OMP: part int forces",
      "timers": { "rank_0": 55306.63, "rank_1": 73082.05 }
    },
    {
      "identifier": "OMP: part-part forces",
      "timers": { "rank_0": 246556.01, "rank_1": 292500.59 }
    },
    {
      "identifier": "MPI: particle forces (overhead)",
      "timers": { "rank_0": 5836.54, "rank_1": 7803.47 }
    },
    {
      "identifier": "MPI: particle forces",
      "timers": { "rank_0": 32232.20, "rank_1": 493489.59 }
    },
    {
      "identifier": "OMP: particle dynamics",
      "timers": { "rank_0": 44431.76, "rank_1": 46522.25 }
    },
    {
      "identifier": "I/O: output",
      "timers": { "rank_0": 1246175.82, "rank_1": 1294113.07 }
    },
    {
      "identifier": "ALL: total time",
      "timers": { "rank_0": 24151816.89, "rank_1": 24151494.72 }
    }
  ]
}
