{
  "experiment_name": "timing",
  "num_ranks": 2,
  "metrics": [
    {
      "identifier": "MPI: particle handling",
      "timers": { "rank_0": 6.70, "rank_1": 10.89 }
    },
    {
      "identifier": "MPI: particle (overhead)",
      "timers": { "rank_0": 13.56, "rank_1": 12.37 }
    },
    {
      "identifier": "MPI: particle",
      "timers": { "rank_0": 60.69, "rank_1": 310.94 }
    },
    {
      "identifier": "CPU: particle handling",
      "timers": { "rank_0": 46.97, "rank_1": 25.60 }
    },
    {
      "identifier": "CPU: particle mapping",
      "timers": { "rank_0": 1899.06, "rank_1": 2291.45 }
    },
    {
      "identifier": "Copy: CPU -> GPU",
      "timers": { "rank_0": 4183.78, "rank_1": 2104.20 }
    },
    {
      "identifier": "CL: PartMapLP",
      "timers": { "rank_0": 1718.60, "rank_1": 2723.64 }
    },
    {
      "identifier": "Copy: GPU -> CPU",
      "timers": { "rank_0": 9149.02, "rank_1": 3657.39 }
    },
    {
      "identifier": "CL: LEGalilei",
      "timers": { "rank_0": 1421.98, "rank_1": 1206.61 }
    },
    {
      "identifier": "CL: LEShift",
      "timers": { "rank_0": 668.17, "rank_1": 755.73 }
    },
    {
      "identifier": "CL: PropagateCollide",
      "timers": { "rank_0": 7134.39, "rank_1": 4783.26 }
    },
    {
      "identifier": "OMP: part ext forces",
      "timers": { "rank_0": 1.63, "rank_1": 1.31 }
    },
    {
      "identifier": "OMP: part int forces",
      "timers": { "rank_0": 383.38, "rank_1": 420.62 }
    },
    {
      "identifier": "OMP: part-part forces",
      "timers": { "rank_0": 670.86, "rank_1": 808.88 }
    },
    {
      "identifier": "MPI: particle forces (overhead)",
      "timers": { "rank_0": 14.76, "rank_1": 13.63 }
    },
    {
      "identifier": "MPI: particle forces",
      "timers": { "rank_0": 104.99, "rank_1": 4882.40 }
    },
    {
      "identifier": "OMP: particle dynamics",
      "timers": { "rank_0": 437.45, "rank_1": 357.25 }
    },
    {
      "identifier": "I/O: output",
      "timers": { "rank_0": 201471.38, "rank_1": 214711.24 }
    },
    {
      "identifier": "ALL: total time",
      "timers": { "rank_0": 263595.30, "rank_1": 263718.28 }
    }
  ]
}
