{
  "experiment_name": "timing",
  "num_ranks": 2,
  "metrics": [
    {
      "identifier": "MPI: particle handling",
      "timers": { "rank_0": 51.02, "rank_1": 90.32 }
    },
    {
      "identifier": "MPI: particle (overhead)",
      "timers": { "rank_0": 169.24, "rank_1": 182.39 }
    },
    {
      "identifier": "MPI: particle",
      "timers": { "rank_0": 2462.67, "rank_1": 447.40 }
    },
    {
      "identifier": "CPU: particle handling",
      "timers": { "rank_0": 398.43, "rank_1": 332.72 }
    },
    {
      "identifier": "CPU: particle mapping",
      "timers": { "rank_0": 24189.08, "rank_1": 28502.28 }
    },
    {
      "identifier": "Copy: CPU -> GPU",
      "timers": { "rank_0": 59872.15, "rank_1": 26361.72 }
    },
    {
      "identifier": "CL: PartMapLP",
      "timers": { "rank_0": 22138.98, "rank_1": 43968.31 }
    },
    {
      "identifier": "Copy: GPU -> CPU",
      "timers": { "rank_0": 57803.95, "rank_1": 114933.53 }
    },
    {
      "identifier": "CL: LEGalilei",
      "timers": { "rank_0": 14728.30, "rank_1": 13485.63 }
    },
    {
      "identifier": "CL: LEShift",
      "timers": { "rank_0": 4770.95, "rank_1": 4380.28 }
    },
    {
      "identifier": "CL: PropagateCollide",
      "timers": { "rank_0": 89268.01, "rank_1": 81995.14 }
    },
    {
      "identifier": "OMP: part ext forces",
      "timers": { "rank_0": 14.14, "rank_1": 11.01 }
    },
    {
      "identifier": "OMP: part int forces",
      "timers": { "rank_0": 3305.88, "rank_1": 3955.71 }
    },
    {
      "identifier": "OMP: part-part forces",
      "timers": { "rank_0": 8446.81, "rank_1": 10501.10 }
    },
    {
      "identifier": "MPI: particle forces (overhead)",
      "timers": { "rank_0": 197.36, "rank_1": 192.83 }
    },
    {
      "identifier": "MPI: particle forces",
      "timers": { "rank_0": 934.24, "rank_1": 28649.76 }
    },
    {
      "identifier": "OMP: particle dynamics",
      "timers": { "rank_0": 3235.83, "rank_1": 3243.60 }
    },
    {
      "identifier": "I/O: output",
      "timers": { "rank_0": 380699.92, "rank_1": 417321.69 }
    },
    {
      "identifier": "ALL: total time",
      "timers": { "rank_0": 1047379.06, "rank_1": 1046960.23 }
    }
  ]
}
