{
  "experiment_name": "timing",
  "num_ranks": 2,
  "metrics": [
    {
      "identifier": "MPI: particle handling",
      "timers": { "rank_0": 12.73, "rank_1": 14.70 }
    },
    {
      "identifier": "MPI: particle (overhead)",
      "timers": { "rank_0": 31.53, "rank_1": 30.31 }
    },
    {
      "identifier": "MPI: particle",
      "timers": { "rank_0": 517.81, "rank_1": 91.37 }
    },
    {
      "identifier": "CPU: particle handling",
      "timers": { "rank_0": 78.87, "rank_1": 75.92 }
    },
    {
      "identifier": "CPU: particle mapping",
      "timers": { "rank_0": 4162.70, "rank_1": 9792.62 }
    },
    {
      "identifier": "Copy: CPU -> GPU",
      "timers": { "rank_0": 20688.41, "rank_1": 9397.66 }
    },
    {
      "identifier": "CL: PartMapLP",
      "timers": { "rank_0": 3721.12, "rank_1": 7449.73 }
    },
    {
      "identifier": "Copy: GPU -> CPU",
      "timers": { "rank_0": 10781.16, "rank_1": 23210.09 }
    },
    {
      "identifier": "CL: LEGalilei",
      "timers": { "rank_0": 5433.16, "rank_1": 4864.86 }
    },
    {
      "identifier": "CL: LEShift",
      "timers": { "rank_0": 981.71, "rank_1": 959.14 }
    },
    {
      "identifier": "CL: PropagateCollide",
      "timers": { "rank_0": 15093.73, "rank_1": 12497.81 }
    },
    {
      "identifier": "OMP: part ext forces",
      "timers": { "rank_0": 3.40, "rank_1": 2.70 }
    },
    {
      "identifier": "OMP: part int forces",
      "timers": { "rank_0": 745.15, "rank_1": 893.62 }
    },
    {
      "identifier": "OMP: part-part forces",
      "timers": { "rank_0": 1597.82, "rank_1": 1966.33 }
    },
    {
      "identifier": "MPI: particle forces (overhead)",
      "timers": { "rank_0": 35.99, "rank_1": 38.15 }
    },
    {
      "identifier": "MPI: particle forces",
      "timers": { "rank_0": 224.22, "rank_1": 6038.63 }
    },
    {
      "identifier": "OMP: particle dynamics",
      "timers": { "rank_0": 734.83, "rank_1": 751.16 }
    },
    {
      "identifier": "I/O: output",
      "timers": { "rank_0": 298231.82, "rank_1": 320346.12 }
    },
    {
      "identifier": "ALL: total time",
      "timers": { "rank_0": 450165.71, "rank_1": 450165.62 }
    }
  ]
}
