{
  "experiment_name": "timing",
  "num_ranks": 2,
  "metrics": [
    {
      "identifier": "MPI: particle handling",
      "timers": { "rank_0": 30.34, "rank_1": 29.53 }
    },
    {
      "identifier": "MPI: particle (overhead)",
      "timers": { "rank_0": 92.80, "rank_1": 79.29 }
    },
    {
      "identifier": "MPI: particle",
      "timers": { "rank_0": 287.88, "rank_1": 422.84 }
    },
    {
      "identifier": "CPU: particle handling",
      "timers": { "rank_0": 299.59, "rank_1": 230.20 }
    },
    {
      "identifier": "CPU: particle mapping",
      "timers": { "rank_0": 20522.80, "rank_1": 16630.96 }
    },
    {
      "identifier": "Copy: CPU -> GPU",
      "timers": { "rank_0": 33437.90, "rank_1": 15491.06 }
    },
    {
      "identifier": "CL: PartMapLP",
      "timers": { "rank_0": 19324.67, "rank_1": 30104.16 }
    },
    {
      "identifier": "Copy: GPU -> CPU",
      "timers": { "rank_0": 38147.83, "rank_1": 34984.24 }
    },
    {
      "identifier": "CL: LEGalilei",
      "timers": { "rank_0": 4387.71, "rank_1": 4418.32 }
    },
    {
      "identifier": "CL: LEShift",
      "timers": { "rank_0": 3594.65, "rank_1": 3560.23 }
    },
    {
      "identifier": "CL: PropagateCollide",
      "timers": { "rank_0": 84817.84, "rank_1": 63218.96 }
    },
    {
      "identifier": "OMP: part ext forces",
      "timers": { "rank_0": 9.61, "rank_1": 7.82 }
    },
    {
      "identifier": "OMP: part int forces",
      "timers": { "rank_0": 1900.72, "rank_1": 1789.29 }
    },
    {
      "identifier": "OMP: part-part forces",
      "timers": { "rank_0": 5247.68, "rank_1": 5212.74 }
    },
    {
      "identifier": "MPI: particle forces (overhead)",
      "timers": { "rank_0": 96.51, "rank_1": 120.34 }
    },
    {
      "identifier": "MPI: particle forces",
      "timers": { "rank_0": 616.47, "rank_1": 40873.31 }
    },
    {
      "identifier": "OMP: particle dynamics",
      "timers": { "rank_0": 2018.90, "rank_1": 1303.57 }
    },
    {
      "identifier": "I/O: output",
      "timers": { "rank_0": 166331.32, "rank_1": 166234.81 }
    },
    {
      "identifier": "ALL: total time",
      "timers": { "rank_0": 544813.64, "rank_1": 544813.52 }
    }
  ]
}
