{
  "experiment_name": "timing",
  "num_ranks": 2,
  "metrics": [
    {
      "identifier": "MPI: particle handling",
      "timers": { "rank_0": 7.32, "rank_1": 6.21 }
    },
    {
      "identifier": "MPI: particle (overhead)",
      "timers": { "rank_0": 76.90, "rank_1": 69.24 }
    },
    {
      "identifier": "MPI: particle",
      "timers": { "rank_0": 213.99, "rank_1": 255.61 }
    },
    {
      "identifier": "CPU: particle handling",
      "timers": { "rank_0": 120.63, "rank_1": 120.53 }
    },
    {
      "identifier": "CPU: particle mapping",
      "timers": { "rank_0": 3122.25, "rank_1": 3113.00 }
    },
    {
      "identifier": "Copy: CPU -> GPU",
      "timers": { "rank_0": 4479.84, "rank_1": 4465.49 }
    },
    {
      "identifier": "CL: PartMapLP",
      "timers": { "rank_0": 3017.26, "rank_1": 3013.10 }
    },
    {
      "identifier": "Copy: GPU -> CPU",
      "timers": { "rank_0": 17508.59, "rank_1": 8623.25 }
    },
    {
      "identifier": "CL: LEGalilei",
      "timers": { "rank_0": 436.95, "rank_1": 430.90 }
    },
    {
      "identifier": "CL: LEShift",
      "timers": { "rank_0": 431.78, "rank_1": 427.91 }
    },
    {
      "identifier": "CL: PropagateCollide",
      "timers": { "rank_0": 12087.79, "rank_1": 11702.77 }
    },
    {
      "identifier": "OMP: part ext forces",
      "timers": { "rank_0": 1.83, "rank_1": 1.66 }
    },
    {
      "identifier": "OMP: part int forces",
      "timers": { "rank_0": 493.64, "rank_1": 459.58 }
    },
    {
      "identifier": "OMP: part-part forces",
      "timers": { "rank_0": 3449.02, "rank_1": 3421.19 }
    },
    {
      "identifier": "MPI: particle forces (overhead)",
      "timers": { "rank_0": 72.56, "rank_1": 94.12 }
    },
    {
      "identifier": "MPI: particle forces",
      "timers": { "rank_0": 302.16, "rank_1": 3675.49 }
    },
    {
      "identifier": "OMP: particle dynamics",
      "timers": { "rank_0": 559.93, "rank_1": 425.49 }
    },
    {
      "identifier": "I/O: output",
      "timers": { "rank_0": 672992.03, "rank_1": 673226.65 }
    },
    {
      "identifier": "ALL: total time",
      "timers": { "rank_0": 740768.52, "rank_1": 740768.45 }
    }
  ]
}
