{
  "experiment_name": "timing",
  "num_ranks": 2,
  "metrics": [
    {
      "identifier": "MPI: particle handling",
      "timers": { "rank_0": 4338.54, "rank_1": 5619.05 }
    },
    {
      "identifier": "MPI: particle (overhead)",
      "timers": { "rank_0": 9312.42, "rank_1": 6417.27 }
    },
    {
      "identifier": "MPI: particle",
      "timers": { "rank_0": 69102.33, "rank_1": 295508.72 }
    },
    {
      "identifier": "CPU: particle handling",
      "timers": { "rank_0": 24887.13, "rank_1": 13977.49 }
    },
    {
      "identifier": "CPU: particle mapping",
      "timers": { "rank_0": 1357454.92, "rank_1": 926826.16 }
    },
    {
      "identifier": "Copy: CPU -> GPU",
      "timers": { "rank_0": 2554153.34, "rank_1": 780166.56 }
    },
    {
      "identifier": "CL: PartMapLP",
      "timers": { "rank_0": 1167215.15, "rank_1": 1578882.29 }
    },
    {
      "identifier": "Copy: GPU -> CPU",
      "timers": { "rank_0": 5268423.49, "rank_1": 1739380.92 }
    },
    {
      "identifier": "CL: LEGalilei",
      "timers": { "rank_0": 593930.47, "rank_1": 487499.63 }
    },
    {
      "identifier": "CL: LEShift",
      "timers": { "rank_0": 486734.32, "rank_1": 401363.13 }
    },
    {
      "identifier": "CL: PropagateCollide",
      "timers": { "rank_0": 6829210.15, "rank_1": 2532834.79 }
    },
    {
      "identifier": "OMP: part ext forces",
      "timers": { "rank_0": 1368.08, "rank_1": 1012.25 }
    },
    {
      "identifier": "OMP: part int forces",
      "timers": { "rank_0": 552945.97, "rank_1": 330513.51 }
    },
    {
      "identifier": "OMP: part-part forces",
      "timers": { "rank_0": 531033.29, "rank_1": 475773.27 }
    },
    {
      "identifier": "MPI: particle forces (overhead)",
      "timers": { "rank_0": 10235.58, "rank_1": 7444.22 }
    },
    {
      "identifier": "MPI: particle forces",
      "timers": { "rank_0": 87913.23, "rank_1": 7205659.57 }
    },
    {
      "identifier": "OMP: particle dynamics",
      "timers": { "rank_0": 595976.95, "rank_1": 285559.96 }
    },
    {
      "identifier": "I/O: output",
      "timers": { "rank_0": 128223.23, "rank_1": 128670.98 }
    },
    {
      "identifier": "ALL: total time",
      "timers": { "rank_0": 40119724.93, "rank_1": 40120125.37 }
    }
  ]
}
