{
  "experiment_name": "timing",
  "num_ranks": 2,
  "metrics": [
    {
      "identifier": "MPI: particle handling",
      "timers": { "rank_0": 627.96, "rank_1": 823.91 }
    },
    {
      "identifier": "MPI: particle (overhead)",
      "timers": { "rank_0": 2551.76, "rank_1": 2215.83 }
    },
    {
      "identifier": "MPI: particle",
      "timers": { "rank_0": 5063.02, "rank_1": 6255.93 }
    },
    {
      "identifier": "CPU: particle handling",
      "timers": { "rank_0": 5129.63, "rank_1": 3891.10 }
    },
    {
      "identifier": "CPU: particle mapping",
      "timers": { "rank_0": 329122.22, "rank_1": 361591.68 }
    },
    {
      "identifier": "Copy: CPU -> GPU",
      "timers": { "rank_0": 735232.51, "rank_1": 338649.85 }
    },
    {
      "identifier": "CL: PartMapLP",
      "timers": { "rank_0": 304039.81, "rank_1": 634026.46 }
    },
    {
      "identifier": "Copy: GPU -> CPU",
      "timers": { "rank_0": 819193.26, "rank_1": 697675.81 }
    },
    {
      "identifier": "CL: LEGalilei",
      "timers": { "rank_0": 133211.59, "rank_1": 138173.99 }
    },
    {
      "identifier": "CL: LEShift",
      "timers": { "rank_0": 52631.68, "rank_1": 49103.60 }
    },
    {
      "identifier": "CL: PropagateCollide",
      "timers": { "rank_0": 1186928.84, "rank_1": 1175107.99 }
    },
    {
      "identifier": "OMP: part ext forces",
      "timers": { "rank_0": 160.83, "rank_1": 109.89 }
    },
    {
      "identifier": "OMP: part int forces",
      "timers": { "rank_0": 37410.80, "rank_1": 42189.87 }
    },
    {
      "identifier": "OMP: part-part forces",
      "timers": { "rank_0": 125650.44, "rank_1": 156347.61 }
    },
    {
      "identifier": "MPI: particle forces (overhead)",
      "timers": { "rank_0": 2672.99, "rank_1": 2312.21 }
    },
    {
      "identifier": "MPI: particle forces",
      "timers": { "rank_0": 8978.99, "rank_1": 339320.30 }
    },
    {
      "identifier": "OMP: particle dynamics",
      "timers": { "rank_0": 34377.08, "rank_1": 30967.98 }
    },
    {
      "identifier": "I/O: output",
      "timers": { "rank_0": 590586.01, "rank_1": 636082.39 }
    },
    {
      "identifier": "ALL: total time",
      "timers": { "rank_0": 7229382.44, "rank_1": 7228560.35 }
    }
  ]
}
