{
  "experiment_name": "timing",
  "num_ranks": 2,
  "metrics": [
    {
      "identifier": "MPI: particle handling",
      "timers": { "rank_0": 5343.72, "rank_1": 6934.11 }
    },
    {
      "identifier": "MPI: particle (overhead)",
      "timers": { "rank_0": 14919.40, "rank_1": 13884.53 }
    },
    {
      "identifier": "MPI: particle",
      "timers": { "rank_0": 53605.59, "rank_1": 283906.22 }
    },
    {
      "identifier": "CPU: particle handling",
      "timers": { "rank_0": 34205.73, "rank_1": 28232.64 }
    },
    {
      "identifier": "CPU: particle mapping",
      "timers": { "rank_0": 2047869.98, "rank_1": 2807807.68 }
    },
    {
      "identifier": "Copy: CPU -> GPU",
      "timers": { "rank_0": 5907527.01, "rank_1": 2621265.37 }
    },
    {
      "identifier": "CL: PartMapLP",
      "timers": { "rank_0": 1849371.91, "rank_1": 3652159.94 }
    },
    {
      "identifier": "Copy: GPU -> CPU",
      "timers": { "rank_0": 11224044.33, "rank_1": 4137185.52 }
    },
    {
      "identifier": "CL: LEGalilei",
      "timers": { "rank_0": 1412353.18, "rank_1": 1309057.70 }
    },
    {
      "identifier": "CL: LEShift",
      "timers": { "rank_0": 436568.14, "rank_1": 436875.42 }
    },
    {
      "identifier": "CL: PropagateCollide",
      "timers": { "rank_0": 7467127.93, "rank_1": 6245759.45 }
    },
    {
      "identifier": "OMP: part ext forces",
      "timers": { "rank_0": 1518.01, "rank_1": 1138.69 }
    },
    {
      "identifier": "OMP: part int forces",
      "timers": { "rank_0": 350422.11, "rank_1": 383564.27 }
    },
    {
      "identifier": "OMP: part-part forces",
      "timers": { "rank_0": 696242.20, "rank_1": 875663.17 }
    },
    {
      "identifier": "MPI: particle forces (overhead)",
      "timers": { "rank_0": 16514.61, "rank_1": 15856.18 }
    },
    {
      "identifier": "MPI: particle forces",
      "timers": { "rank_0": 93907.33, "rank_1": 4337396.31 }
    },
    {
      "identifier": "OMP: particle dynamics",
      "timers": { "rank_0": 403500.29, "rank_1": 313020.80 }
    },
    {
      "identifier": "I/O: output",
      "timers": { "rank_0": 298732.82, "rank_1": 321914.18 }
    },
    {
      "identifier": "ALL: total time",
      "timers": { "rank_0": 59986214.95, "rank_1": 59985931.06 }
    }
  ]
}
