{
  "experiment_name": "timing",
  "num_ranks": 2,
  "metrics": [
    {
      "identifier": "MPI: particle handling",
      "timers": { "rank_0": 42.72, "rank_1": 75.20 }
    },
    {
      "identifier": "MPI: particle (overhead)",
      "timers": { "rank_0": 86.80, "rank_1": 84.07 }
    },
    {
      "identifier": "MPI: particle",
      "timers": { "rank_0": 785.93, "rank_1": 2705.50 }
    },
    {
      "identifier": "CPU: particle handling",
      "timers": { "rank_0": 393.37, "rank_1": 174.34 }
    },
    {
      "identifier": "CPU: particle mapping",
      "timers": { "rank_0": 16523.23, "rank_1": 11793.29 }
    },
    {
      "identifier": "Copy: CPU -> GPU",
      "timers": { "rank_0": 32020.83, "rank_1": 10086.95 }
    },
    {
      "identifier": "CL: PartMapLP",
      "timers": { "rank_0": 14478.35, "rank_1": 20922.60 }
    },
    {
      "identifier": "Copy: GPU -> CPU",
      "timers": { "rank_0": 77021.52, "rank_1": 23362.08 }
    },
    {
      "identifier": "CL: LEGalilei",
      "timers": { "rank_0": 5865.89, "rank_1": 5156.88 }
    },
    {
      "identifier": "CL: LEShift",
      "timers": { "rank_0": 5442.77, "rank_1": 4216.04 }
    },
    {
      "identifier": "CL: PropagateCollide",
      "timers": { "rank_0": 73499.25, "rank_1": 35448.09 }
    },
    {
      "identifier": "OMP: part ext forces",
      "timers": { "rank_0": 12.78, "rank_1": 10.11 }
    },
    {
      "identifier": "OMP: part int forces",
      "timers": { "rank_0": 7679.02, "rank_1": 3462.30 }
    },
    {
      "identifier": "OMP: part-part forces",
      "timers": { "rank_0": 6167.60, "rank_1": 5873.19 }
    },
    {
      "identifier": "MPI: particle forces (overhead)",
      "timers": { "rank_0": 123.75, "rank_1": 91.44 }
    },
    {
      "identifier": "MPI: particle forces",
      "timers": { "rank_0": 885.21, "rank_1": 73036.37 }
    },
    {
      "identifier": "OMP: particle dynamics",
      "timers": { "rank_0": 4864.08, "rank_1": 2988.85 }
    },
    {
      "identifier": "I/O: output",
      "timers": { "rank_0": 228997.49, "rank_1": 224633.56 }
    },
    {
      "identifier": "ALL: total time",
      "timers": { "rank_0": 737129.88, "rank_1": 737135.29 }
    }
  ]
}
