0.000121000474	1.65e-05	2.0499962e-05
0.000121001106	1.65e-05	2.0499856e-05
0.000121002412	1.65e-05	2.0500058e-05
0.00012100673	1.65e-05	2.0500427e-05
0.000121016396	1.65e-05	2.0498007e-05
0.0001210229	1.65e-05	2.04889e-05
0.000121011978	1.65e-05	2.0477569e-05
0.000120989244	1.65e-05	2.0473211e-05
0.000120970244	1.65e-05	2.0475073e-05
0.000120955248	1.65e-05	2.0478215e-05
0.000120939598	1.65e-05	2.0483257e-05
0.000120927222	1.65e-05	2.0492668e-05
0.00012092674	1.65e-05	2.0505083e-05
0.000120939168	1.65e-05	2.0515113e-05
0.000120957158	1.65e-05	2.0519981e-05
0.000120976202	1.65e-05	2.0520339e-05
0.000120995226	1.65e-05	2.0515893e-05
0.000121009686	1.65e-05	2.0506063e-05
0.000121013726	1.65e-05	2.0492271e-05
0.00012100393	1.65e-05	2.0477236e-05
0.000120978688	1.65e-05	2.0464439e-05
0.000120940894	1.65e-05	2.045861e-05
0.000120899746	1.65e-05	2.046237e-05
0.00012086378	1.65e-05	2.0476144e-05
0.000120846306	1.65e-05	2.0498831e-05
0.000120857984	1.65e-05	2.0521337e-05
0.000120888718	1.65e-05	2.0533286e-05
0.000120919424	1.65e-05	2.0532838e-05
0.000120936514	1.65e-05	2.0524352e-05
0.000120937444	1.65e-05	2.0514906e-05
0.00012093067	1.65e-05	2.0508723e-05
0.000120924876	1.65e-05	2.0503921e-05
0.00012091822	1.65e-05	2.0496635e-05
0.00012090128	1.65e-05	2.0486164e-05
0.00012086454	1.65e-05	2.0477005e-05
0.0001208087	1.65e-05	2.0478817e-05
0.00012075662	1.65e-05	2.0498931e-05
0.00012073748	1.65e-05	2.0529526e-05
0.00012074906	1.65e-05	2.0552455e-05
0.00012076034	1.65e-05	2.0561767e-05
0.0001207517	1.65e-05	2.0565957e-05
0.0001207234	1.65e-05	2.0574091e-05
0.00012068006	1.65e-05	2.0591515e-05
0.00012062628	1.65e-05	2.0622561e-05
0.00012056496	1.65e-05	2.0671365e-05
0.00012049728	1.65e-05	2.0746279e-05
0.00012044008	1.65e-05	2.085974e-05
0.00012044154	1.65e-05	2.1016406e-05
0.00012058184	1.65e-05	2.1179908e-05
0.00012087792	1.65e-05	2.125897e-05
0.00012118668	1.65e-05	2.1194212e-05
0.0001213499	1.65e-05	2.1034662e-05
0.00012136598	1.65e-05	2.0873908e-05
0.00012131426	1.65e-05	2.0755376e-05
0.00012124714	1.65e-05	2.0676808e-05
0.00012118492	1.65e-05	2.0625447e-05
0.00012112962	1.65e-05	2.0592645e-05
0.00012108404	1.65e-05	2.0573959e-05
0.00012105304	1.65e-05	2.056517e-05
0.00012104152	1.65e-05	2.0560963e-05
0.00012105044	1.65e-05	2.0552553e-05
0.0001210618	1.65e-05	2.0530712e-05
0.00012104416	1.65e-05	2.0499963e-05
0.00012099232	1.65e-05	2.0478435e-05
0.00012093458	1.65e-05	2.0475416e-05
0.00012089518	1.65e-05	2.0484134e-05
0.00012087588	1.65e-05	2.0494469e-05
0.00012086748	1.65e-05	2.0501811e-05
0.00012086028	1.65e-05	2.0506493e-05
0.00012085184	1.65e-05	2.0512544e-05
0.00012085038	1.65e-05	2.0521986e-05
0.00012086482	1.65e-05	2.0530858e-05
0.00012089336	1.65e-05	2.0532322e-05
0.00012092334	1.65e-05	2.0521746e-05
0.00012093634	1.65e-05	2.0500124e-05
0.00012092016	1.65e-05	2.0476759e-05
0.00012088352	1.65e-05	2.0461582e-05
0.00012084068	1.65e-05	2.0456839e-05
0.00012080086	1.65e-05	2.0462001e-05
0.0001207734	1.65e-05	2.0474613e-05
0.00012076136	1.65e-05	2.0489613e-05
0.00012076316	1.65e-05	2.0503515e-05
0.00012077568	1.65e-05	2.0513613e-05
0.00012079318	1.65e-05	2.0518401e-05
0.00012081098	1.65e-05	2.051861e-05
0.00012082794	1.65e-05	2.0514485e-05
0.00012084028	1.65e-05	2.0505083e-05
0.00012084026	1.65e-05	2.0492505e-05
0.00012082754	1.65e-05	2.0482198e-05
0.00012081056	1.65e-05	2.0476623e-05
0.00012079422	1.65e-05	2.0473303e-05
0.00012077408	1.65e-05	2.0471221e-05
0.00012074976	1.65e-05	2.0475158e-05
0.00012073656	1.65e-05	2.0486361e-05
0.0001207413	1.65e-05	2.0495982e-05
0.00012075018	1.65e-05	2.0498777e-05
0.00012075386	1.65e-05	2.0498441e-05
0.00012075434	1.65e-05	2.0498113e-05
0.00012075408	1.65e-05	2.0498052e-05
0.00012075356	1.65e-05	2.0498085e-05
0.000120753566693	1.65e-05	2.0498085e-05
