{
  "experiment_name": "timing",
  "num_ranks": 2,
  "metrics": [
    {
      "identifier": "MPI: particle handling",
      "timers": { "rank_0": 5273.03, "rank_1": 12385.00 }
    },
    {
      "identifier": "MPI: particle (overhead)",
      "timers": { "rank_0": 10861.58, "rank_1": 10847.89 }
    },
    {
      "identifier": "MPI: particle",
      "timers": { "rank_0": 51229.02, "rank_1": 151166.66 }
    },
    {
      "identifier": "CPU: particle handling",
      "timers": { "rank_0": 29058.94, "rank_1": 23249.43 }
    },
    {
      "identifier": "CPU: particle mapping",
      "timers": { "rank_0": 1732920.38, "rank_1": 2277775.62 }
    },
    {
      "identifier": "Copy: CPU -> GPU",
      "timers": { "rank_0": 4537371.47, "rank_1": 2050495.49 }
    },
    {
      "identifier": "CL: PartMapLP",
      "timers": { "rank_0": 1477954.93, "rank_1": 2696240.93 }
    },
    {
      "identifier": "Copy: GPU -> CPU",
      "timers": { "rank_0": 3489095.34, "rank_1": 3066984.36 }
    },
    {
      "identifier": "CL: LEGalilei",
      "timers": { "rank_0": 1760189.62, "rank_1": 1497317.48 }
    },
    {
      "identifier": "CL: LEShift",
      "timers": { "rank_0": 555739.33, "rank_1": 542081.57 }
    },
    {
      "identifier": "CL: PropagateCollide",
      "timers": { "rank_0": 6828928.40, "rank_1": 4526732.27 }
    },
    {
      "identifier": "OMP: part ext forces",
      "timers": { "rank_0": 1710.34, "rank_1": 1479.79 }
    },
    {
      "identifier": "OMP: part int forces",
      "timers": { "rank_0": 335708.36, "rank_1": 379852.20 }
    },
    {
      "identifier": "OMP: part-part forces",
      "timers": { "rank_0": 533364.84, "rank_1": 691057.32 }
    },
    {
      "identifier": "MPI: particle forces (overhead)",
      "timers": { "rank_0": 12633.48, "rank_1": 12124.19 }
    },
    {
      "identifier": "MPI: particle forces",
      "timers": { "rank_0": 93256.56, "rank_1": 4474394.02 }
    },
    {
      "identifier": "OMP: particle dynamics",
      "timers": { "rank_0": 381947.22, "rank_1": 314975.72 }
    },
    {
      "identifier": "I/O: output",
      "timers": { "rank_0": 187665.26, "rank_1": 211824.75 }
    },
    {
      "identifier": "ALL: total time",
      "timers": { "rank_0": 40193701.26, "rank_1": 40193404.69 }
    }
  ]
}
