9.04000217312e-05	1.65e-05	1.9499855e-05
8.98003314624e-05	1.65e-05	1.9499518e-05
8.92017891936e-05	1.65e-05	1.9498652e-05
8.86044109248e-05	1.65e-05	1.9495974e-05
8.8003058656e-05	1.65e-05	1.9490258e-05
8.73927503872e-05	1.65e-05	1.9484376e-05
8.67784781184e-05	1.65e-05	1.948136e-05
8.61650358496e-05	1.65e-05	1.9480212e-05
8.55520955808e-05	1.65e-05	1.9479936e-05
8.4940303312e-05	1.65e-05	1.948091e-05
8.43324830432e-05	1.65e-05	1.9483205e-05
8.37313947745e-05	1.65e-05	1.9485671e-05
8.31367265057e-05	1.65e-05	1.9485267e-05
8.25402162369e-05	1.65e-05	1.9478134e-05
8.19285199681e-05	1.65e-05	1.9465167e-05
8.12981196993e-05	1.65e-05	1.9452909e-05
8.06587514305e-05	1.6499999e-05	1.9445918e-05
8.00188151617e-05	1.6499999e-05	1.9443551e-05
7.93817748929e-05	1.6499999e-05	1.94449e-05
7.87525206241e-05	1.6499999e-05	1.9449291e-05
7.81349983553e-05	1.6499999e-05	1.9454049e-05
7.75254280865e-05	1.6499999e-05	1.9454815e-05
7.69125358177e-05	1.6499999e-05	1.9449178e-05
7.62877495489e-05	1.6499999e-05	1.9438236e-05
7.56470532801e-05	1.6499999e-05	1.9423991e-05
7.49880730113e-05	1.6499999e-05	1.9410256e-05
7.43159247425e-05	1.6499999e-05	1.9402298e-05
7.36427504737e-05	1.6499999e-05	1.9402473e-05
7.29807342049e-05	1.6499999e-05	1.9409003e-05
7.23355099361e-05	1.6499998e-05	1.9416483e-05
7.16988616673e-05	1.6499998e-05	1.9419007e-05
7.10560733985e-05	1.6499998e-05	1.9415804e-05
7.04016031297e-05	1.6499998e-05	1.9409963e-05
6.97376308609e-05	1.6499998e-05	1.9402692e-05
6.90619705921e-05	1.6499998e-05	1.9393254e-05
6.83678223234e-05	1.6499998e-05	1.9384375e-05
6.76584560546e-05	1.6499998e-05	1.9383243e-05
6.69525997858e-05	1.6499998e-05	1.9393294e-05
6.6262883517e-05	1.6499998e-05	1.940836e-05
6.55793112482e-05	1.6499997e-05	1.9421426e-05
6.48853529794e-05	1.6499997e-05	1.9433056e-05
6.41741867106e-05	1.6499997e-05	1.9448041e-05
6.34461924418e-05	1.6499997e-05	1.9470779e-05
6.2699958173e-05	1.6499997e-05	1.9504797e-05
6.19282559042e-05	1.6499997e-05	1.9556171e-05
6.11247456354e-05	1.6499997e-05	1.9638155e-05
6.02985333666e-05	1.6499997e-05	1.9771409e-05
5.94922850978e-05	1.6499997e-05	1.9973421e-05
5.8788920829e-05	1.6499997e-05	2.0236214e-05
5.82789465602e-05	1.6499996e-05	2.0509932e-05
5.80095542914e-05	1.6499996e-05	2.0673025e-05
5.78357100226e-05	1.6499996e-05	2.062712e-05
5.75168917538e-05	1.6499996e-05	2.0404067e-05
5.6976123485e-05	1.6499996e-05	2.013174e-05
5.62737532162e-05	1.6499996e-05	1.989553e-05
5.55028429474e-05	1.6499996e-05	1.9723015e-05
5.47103646786e-05	1.6499996e-05	1.9604602e-05
5.39163144098e-05	1.6499995e-05	1.952782e-05
5.31375981411e-05	1.6499995e-05	1.948091e-05
5.23789638723e-05	1.6499995e-05	1.9452172e-05
5.16365116035e-05	1.6499995e-05	1.9434023e-05
5.09053253347e-05	1.6499995e-05	1.9423134e-05
5.01857870659e-05	1.6499995e-05	1.9418864e-05
4.94831547971e-05	1.6499995e-05	1.9418853e-05
4.87970225283e-05	1.6499995e-05	1.9416755e-05
4.81115902595e-05	1.6499994e-05	1.9407243e-05
4.74092379907e-05	1.6499994e-05	1.9394601e-05
4.66939657219e-05	1.6499994e-05	1.9388035e-05
4.59836934531e-05	1.6499994e-05	1.9389768e-05
4.52866611843e-05	1.6499994e-05	1.9395696e-05
4.46003089155e-05	1.6499994e-05	1.9403021e-05
4.39231966467e-05	1.6499994e-05	1.9412215e-05
4.32598643779e-05	1.6499993e-05	1.9422526e-05
4.26108721091e-05	1.6499993e-05	1.9429441e-05
4.19657798403e-05	1.6499993e-05	1.9428816e-05
4.13101075715e-05	1.6499993e-05	1.9421142e-05
4.06356753027e-05	1.6499993e-05	1.9411965e-05
3.99493030339e-05	1.6499993e-05	1.9408573e-05
3.92676707651e-05	1.6499993e-05	1.9413535e-05
3.86007384963e-05	1.6499993e-05	1.9423802e-05
3.79497462275e-05	1.6499993e-05	1.9436065e-05
3.73133739587e-05	1.6499992e-05	1.944738e-05
3.668664169e-05	1.6499992e-05	1.9454793e-05
3.60629294212e-05	1.6499992e-05	1.9457283e-05
3.54362171524e-05	1.6499992e-05	1.9454932e-05
3.48002248836e-05	1.6499992e-05	1.9448692e-05
3.41510726148e-05	1.6499992e-05	1.9441671e-05
3.3492440346e-05	1.6499992e-05	1.9439195e-05
3.28381280772e-05	1.6499992e-05	1.9445106e-05
3.22018158084e-05	1.6499991e-05	1.9456439e-05
3.15824435396e-05	1.6499991e-05	1.9466253e-05
3.09689512708e-05	1.6499991e-05	1.9471727e-05
3.0355619002e-05	1.6499991e-05	1.9474148e-05
2.97415467332e-05	1.6499991e-05	1.9474366e-05
2.91250544644e-05	1.6499991e-05	1.9472367e-05
2.85037421956e-05	1.6499991e-05	1.9468571e-05
2.78760699268e-05	1.6499991e-05	1.946426e-05
2.7243617658e-05	1.6499991e-05	1.9462488e-05
2.66150253892e-05	1.649999e-05	1.9465512e-05
2.6009649328e-05	1.649999e-05	1.9469936e-05
