{
  "experiment_name": "timing",
  "num_ranks": 2,
  "metrics": [
    {
      "identifier": "MPI: particle handling",
      "timers": { "rank_0": 2.32, "rank_1": 2.20 }
    },
    {
      "identifier": "MPI: particle (overhead)",
      "timers": { "rank_0": 4.05, "rank_1": 3.23 }
    },
    {
      "identifier": "MPI: particle",
      "timers": { "rank_0": 21.32, "rank_1": 107.70 }
    },
    {
      "identifier": "CPU: particle handling",
      "timers": { "rank_0": 21.97, "rank_1": 7.78 }
    },
    {
      "identifier": "CPU: particle mapping",
      "timers": { "rank_0": 574.30, "rank_1": 433.87 }
    },
    {
      "identifier": "Copy: CPU -> GPU",
      "timers": { "rank_0": 906.28, "rank_1": 379.53 }
    },
    {
      "identifier": "CL: PartMapLP",
      "timers": { "rank_0": 513.98, "rank_1": 737.14 }
    },
    {
      "identifier": "Copy: GPU -> CPU",
      "timers": { "rank_0": 1287.38, "rank_1": 1104.19 }
    },
    {
      "identifier": "CL: LEGalilei",
      "timers": { "rank_0": 209.05, "rank_1": 210.97 }
    },
    {
      "identifier": "CL: LEShift",
      "timers": { "rank_0": 174.97, "rank_1": 173.02 }
    },
    {
      "identifier": "CL: PropagateCollide",
      "timers": { "rank_0": 3400.55, "rank_1": 1281.15 }
    },
    {
      "identifier": "OMP: part ext forces",
      "timers": { "rank_0": 0.74, "rank_1": 0.57 }
    },
    {
      "identifier": "OMP: part int forces",
      "timers": { "rank_0": 132.59, "rank_1": 119.28 }
    },
    {
      "identifier": "OMP: part-part forces",
      "timers": { "rank_0": 221.59, "rank_1": 208.35 }
    },
    {
      "identifier": "MPI: particle forces (overhead)",
      "timers": { "rank_0": 4.03, "rank_1": 4.67 }
    },
    {
      "identifier": "MPI: particle forces",
      "timers": { "rank_0": 39.77, "rank_1": 2833.46 }
    },
    {
      "identifier": "OMP: particle dynamics",
      "timers": { "rank_0": 165.60, "rank_1": 96.45 }
    },
    {
      "identifier": "I/O: output",
      "timers": { "rank_0": 61253.86, "rank_1": 61260.40 }
    },
    {
      "identifier": "ALL: total time",
      "timers": { "rank_0": 74932.38, "rank_1": 74877.72 }
    }
  ]
}
