0.000121000105731	1.65e-05	2.0499962e-05
0.000121000387462	1.65e-05	2.0499915e-05
0.000121000863194	1.65e-05	2.0499901e-05
0.000121001906925	1.65e-05	2.050004e-05
0.000121004770656	1.65e-05	2.0500136e-05
0.000121010170387	1.65e-05	2.0498778e-05
0.000121014974118	1.65e-05	2.0494474e-05
0.00012101494985	1.65e-05	2.0488498e-05
0.000121010815581	1.65e-05	2.0483378e-05
0.000121005589312	1.65e-05	2.0479578e-05
0.000120999813043	1.65e-05	2.0476173e-05
0.000120992200774	1.65e-05	2.0472653e-05
0.000120981668506	1.65e-05	2.046923e-05
0.000120968244237	1.65e-05	2.0466476e-05
0.000120953199968	1.65e-05	2.0464892e-05
0.000120938555699	1.65e-05	2.0464518e-05
0.00012092606543	1.65e-05	2.0464515e-05
0.000120915625162	1.65e-05	2.0463241e-05
0.000120905120893	1.6499999e-05	2.0459338e-05
0.000120891842624	1.6499999e-05	2.0452249e-05
0.000120872802355	1.6499999e-05	2.0442241e-05
0.000120845664086	1.6499999e-05	2.0430922e-05
0.000120810919818	1.6499999e-05	2.0420395e-05
0.000120770285549	1.6499999e-05	2.0411432e-05
0.00012072417928	1.6499999e-05	2.0404104e-05
0.000120673285011	1.6499999e-05	2.0398874e-05
0.000120620274743	1.6499999e-05	2.0396039e-05
0.000120568310474	1.6499999e-05	2.0394648e-05
0.000120517618205	1.6499999e-05	2.0392694e-05
0.000120464899936	1.6499999e-05	2.0388941e-05
0.000120407097667	1.6499999e-05	2.0383829e-05
0.000120344083399	1.6499999e-05	2.037824e-05
0.00012027736913	1.6499999e-05	2.0372136e-05
0.000120207082861	1.6499998e-05	2.0364497e-05
0.000120130190592	1.6499998e-05	2.0354534e-05
0.000120041898323	1.6499998e-05	2.0343359e-05
0.000119940286055	1.6499998e-05	2.0334209e-05
0.000119829233786	1.6499998e-05	2.0329959e-05
0.000119715581517	1.6499998e-05	2.0330782e-05
0.000119602769248	1.6499998e-05	2.033426e-05
0.000119487956979	1.6499998e-05	2.0338231e-05
0.000119365844711	1.6499998e-05	2.0342698e-05
0.000119232192442	1.6499998e-05	2.0349209e-05
0.000119083840173	1.6499998e-05	2.036018e-05
0.000118918247904	1.6499997e-05	2.0378782e-05
0.000118731975635	1.6499997e-05	2.0409299e-05
0.000118519483367	1.6499997e-05	2.0458647e-05
0.000118275591098	1.6499997e-05	2.0538084e-05
0.000118005518829	1.6499997e-05	2.0661827e-05
0.00011775192656	1.6499997e-05	2.0829845e-05
0.000117597614291	1.6499997e-05	2.0990494e-05
0.000117578542023	1.6499997e-05	2.1058147e-05
0.000117630089754	1.6499997e-05	2.1003089e-05
0.000117667517485	1.6499997e-05	2.0867981e-05
0.000117652965216	1.6499997e-05	2.0711375e-05
0.000117585972947	1.6499996e-05	2.0569483e-05
0.000117476640679	1.6499996e-05	2.045467e-05
0.00011733440841	1.6499996e-05	2.0367203e-05
0.000117166656141	1.6499996e-05	2.030334e-05
0.000116980743872	1.6499996e-05	2.0258656e-05
0.000116784471603	1.6499996e-05	2.0228537e-05
0.000116583639335	1.6499996e-05	2.0207218e-05
0.000116377107066	1.6499996e-05	2.0188851e-05
0.000116158674797	1.6499996e-05	2.0171307e-05
0.000115926322528	1.6499996e-05	2.0156849e-05
0.000115685570259	1.6499996e-05	2.0147828e-05
0.000115443157991	1.6499996e-05	2.0143969e-05
0.000115202625722	1.6499995e-05	2.014357e-05
0.000114964593453	1.6499995e-05	2.0144996e-05
0.000114727921184	1.6499995e-05	2.0147501e-05
0.000114491968916	1.6499995e-05	2.0151602e-05
0.000114259036647	1.6499995e-05	2.0158176e-05
0.000114033144378	1.6499995e-05	2.0166915e-05
0.000113816632109	1.6499995e-05	2.0176052e-05
0.00011360899984	1.6499995e-05	2.0183581e-05
0.000113407487572	1.6499995e-05	2.0187985e-05
0.000113207575303	1.6499995e-05	2.0188742e-05
0.000113004743034	1.6499994e-05	2.0187117e-05
0.000112798010765	1.6499994e-05	2.0186045e-05
0.000112591138496	1.6499994e-05	2.018783e-05
0.000112388266228	1.6499994e-05	2.0192474e-05
0.000112190833959	1.6499994e-05	2.0199073e-05
0.00011199908169	1.6499994e-05	2.0207131e-05
0.000111813789421	1.6499994e-05	2.0216177e-05
0.000111635137152	1.6499994e-05	2.0225231e-05
0.000111462244884	1.6499994e-05	2.0233616e-05
0.000111294792615	1.6499994e-05	2.0241282e-05
0.000111133320346	1.6499993e-05	2.0247981e-05
0.000110977448077	1.6499993e-05	2.0253008e-05
0.000110825375808	1.6499993e-05	2.0255685e-05
0.00011067446354	1.6499993e-05	2.0255773e-05
0.000110521731271	1.6499993e-05	2.0253984e-05
0.000110365739002	1.6499993e-05	2.0252797e-05
0.000110209606733	1.6499993e-05	2.0255061e-05
0.000110059094464	1.6499993e-05	2.0260947e-05
0.000109916442196	1.6499993e-05	2.0267891e-05
0.000109778889927	1.6499992e-05	2.0273705e-05
0.000109643377658	1.6499992e-05	2.0278254e-05
0.000109509325389	1.6499992e-05	2.0282177e-05
0.000109380289328	1.6499992e-05	2.0285727e-05
