{
  "experiment_name": "timing",
  "num_ranks": 2,
  "metrics": [
    {
      "identifier": "MPI: particle handling",
      "timers": { "rank_0": 6.69, "rank_1": 9.01 }
    },
    {
      "identifier": "MPI: particle (overhead)",
      "timers": { "rank_0": 9.41, "rank_1": 8.69 }
    },
    {
      "identifier": "MPI: particle",
      "timers": { "rank_0": 56.37, "rank_1": 61.82 }
    },
    {
      "identifier": "CPU: particle handling",
      "timers": { "rank_0": 29.61, "rank_1": 18.83 }
    },
    {
      "identifier": "CPU: particle mapping",
      "timers": { "rank_0": 1740.90, "rank_1": 2528.39 }
    },
    {
      "identifier": "Copy: CPU -> GPU",
      "timers": { "rank_0": 3877.10, "rank_1": 2365.27 }
    },
    {
      "identifier": "CL: PartMapLP",
      "timers": { "rank_0": 1558.09, "rank_1": 1804.01 }
    },
    {
      "identifier": "Copy: GPU -> CPU",
      "timers": { "rank_0": 2993.76, "rank_1": 3110.00 }
    },
    {
      "identifier": "CL: LEGalilei",
      "timers": { "rank_0": 1745.17, "rank_1": 1603.13 }
    },
    {
      "identifier": "CL: LEShift",
      "timers": { "rank_0": 1200.41, "rank_1": 679.97 }
    },
    {
      "identifier": "CL: PropagateCollide",
      "timers": { "rank_0": 6479.91, "rank_1": 2946.12 }
    },
    {
      "identifier": "OMP: part ext forces",
      "timers": { "rank_0": 1.49, "rank_1": 1.20 }
    },
    {
      "identifier": "OMP: part int forces",
      "timers": { "rank_0": 376.68, "rank_1": 381.83 }
    },
    {
      "identifier": "OMP: part-part forces",
      "timers": { "rank_0": 418.98, "rank_1": 528.46 }
    },
    {
      "identifier": "MPI: particle forces (overhead)",
      "timers": { "rank_0": 9.19, "rank_1": 8.81 }
    },
    {
      "identifier": "MPI: particle forces",
      "timers": { "rank_0": 128.85, "rank_1": 5643.04 }
    },
    {
      "identifier": "OMP: particle dynamics",
      "timers": { "rank_0": 409.13, "rank_1": 338.47 }
    },
    {
      "identifier": "I/O: output",
      "timers": { "rank_0": 94518.97, "rank_1": 105859.24 }
    },
    {
      "identifier": "ALL: total time",
      "timers": { "rank_0": 142208.62, "rank_1": 141934.72 }
    }
  ]
}
