{
  "experiment_name": "timing",
  "num_ranks": 2,
  "metrics": [
    {
      "identifier": "MPI: particle handling",
      "timers": { "rank_0": 14.83, "rank_1": 16.02 }
    },
    {
      "identifier": "MPI: particle (overhead)",
      "timers": { "rank_0": 187.34, "rank_1": 98.16 }
    },
    {
      "identifier": "MPI: particle",
      "timers": { "rank_0": 691.71, "rank_1": 782.35 }
    },
    {
      "identifier": "CPU: particle handling",
      "timers": { "rank_0": 122.83, "rank_1": 142.57 }
    },
    {
      "identifier": "CPU: particle mapping",
      "timers": { "rank_0": 3823.72, "rank_1": 3446.34 }
    },
    {
      "identifier": "Copy: CPU -> GPU",
      "timers": { "rank_0": 7696.72, "rank_1": 7577.96 }
    },
    {
      "identifier": "CL: PartMapLP",
      "timers": { "rank_0": 3263.41, "rank_1": 2905.01 }
    },
    {
      "identifier": "Copy: GPU -> CPU",
      "timers": { "rank_0": 8358.08, "rank_1": 8277.60 }
    },
    {
      "identifier": "CL: LEGalilei",
      "timers": { "rank_0": 2046.09, "rank_1": 2064.16 }
    },
    {
      "identifier": "CL: LEShift",
      "timers": { "rank_0": 1714.83, "rank_1": 1683.58 }
    },
    {
      "identifier": "CL: PropagateCollide",
      "timers": { "rank_0": 18268.32, "rank_1": 6502.29 }
    },
    {
      "identifier": "OMP: part ext forces",
      "timers": { "rank_0": 5.45, "rank_1": 4.70 }
    },
    {
      "identifier": "OMP: part int forces",
      "timers": { "rank_0": 903.47, "rank_1": 899.62 }
    },
    {
      "identifier": "OMP: part-part forces",
      "timers": { "rank_0": 1378.21, "rank_1": 1283.61 }
    },
    {
      "identifier": "MPI: particle forces (overhead)",
      "timers": { "rank_0": 52.33, "rank_1": 271.25 }
    },
    {
      "identifier": "MPI: particle forces",
      "timers": { "rank_0": 711.74, "rank_1": 15271.49 }
    },
    {
      "identifier": "OMP: particle dynamics",
      "timers": { "rank_0": 1144.71, "rank_1": 770.94 }
    },
    {
      "identifier": "I/O: output",
      "timers": { "rank_0": 22656.37, "rank_1": 22721.64 }
    },
    {
      "identifier": "ALL: total time",
      "timers": { "rank_0": 134418.94, "rank_1": 134490.91 }
    }
  ]
}
