{
  "experiment_name": "timing",
  "num_ranks": 2,
  "metrics": [
    {
      "identifier": "MPI: particle handling",
      "timers": { "rank_0": 591.94, "rank_1": 783.41 }
    },
    {
      "identifier": "MPI: particle (overhead)",
      "timers": { "rank_0": 1121.43, "rank_1": 1179.27 }
    },
    {
      "identifier": "MPI: particle",
      "timers": { "rank_0": 28405.02, "rank_1": 4484.27 }
    },
    {
      "identifier": "CPU: particle handling",
      "timers": { "rank_0": 3104.81, "rank_1": 2314.95 }
    },
    {
      "identifier": "CPU: particle mapping",
      "timers": { "rank_0": 163705.62, "rank_1": 198462.97 }
    },
    {
      "identifier": "Copy: CPU -> GPU",
      "timers": { "rank_0": 409558.54, "rank_1": 179757.45 }
    },
    {
      "identifier": "CL: PartMapLP",
      "timers": { "rank_0": 144849.62, "rank_1": 260601.71 }
    },
    {
      "identifier": "Copy: GPU -> CPU",
      "timers": { "rank_0": 342590.16, "rank_1": 749117.29 }
    },
    {
      "identifier": "CL: LEGalilei",
      "timers": { "rank_0": 147932.36, "rank_1": 146484.38 }
    },
    {
      "identifier": "CL: LEShift",
      "timers": { "rank_0": 109587.78, "rank_1": 86571.60 }
    },
    {
      "identifier": "CL: PropagateCollide",
      "timers": { "rank_0": 773659.29, "rank_1": 491688.26 }
    },
    {
      "identifier": "OMP: part ext forces",
      "timers": { "rank_0": 144.64, "rank_1": 114.42 }
    },
    {
      "identifier": "OMP: part int forces",
      "timers": { "rank_0": 32607.96, "rank_1": 38131.32 }
    },
    {
      "identifier": "OMP: part-part forces",
      "timers": { "rank_0": 49456.55, "rank_1": 71272.43 }
    },
    {
      "identifier": "MPI: particle forces (overhead)",
      "timers": { "rank_0": 1279.08, "rank_1": 1256.23 }
    },
    {
      "identifier": "MPI: particle forces",
      "timers": { "rank_0": 9846.51, "rank_1": 411521.06 }
    },
    {
      "identifier": "OMP: particle dynamics",
      "timers": { "rank_0": 36968.67, "rank_1": 32827.39 }
    },
    {
      "identifier": "I/O: output",
      "timers": { "rank_0": 194508.90, "rank_1": 218996.11 }
    },
    {
      "identifier": "ALL: total time",
      "timers": { "rank_0": 5097746.80, "rank_1": 5097385.90 }
    }
  ]
}
