{
  "experiment_name": "timing",
  "num_ranks": 2,
  "metrics": [
    {
      "identifier": "MPI: particle handling",
      "timers": { "rank_0": 61.86, "rank_1": 58.85 }
    },
    {
      "identifier": "MPI: particle (overhead)",
      "timers": { "rank_0": 180.85, "rank_1": 152.48 }
    },
    {
      "identifier": "MPI: particle",
      "timers": { "rank_0": 586.07, "rank_1": 915.85 }
    },
    {
      "identifier": "CPU: particle handling",
      "timers": { "rank_0": 616.50, "rank_1": 464.10 }
    },
    {
      "identifier": "CPU: particle mapping",
      "timers": { "rank_0": 40992.91, "rank_1": 33127.39 }
    },
    {
      "identifier": "Copy: CPU -> GPU",
      "timers": { "rank_0": 66696.00, "rank_1": 30847.04 }
    },
    {
      "identifier": "CL: PartMapLP",
      "timers": { "rank_0": 38588.90, "rank_1": 60377.62 }
    },
    {
      "identifier": "Copy: GPU -> CPU",
      "timers": { "rank_0": 75247.21, "rank_1": 69011.90 }
    },
    {
      "identifier": "CL: LEGalilei",
      "timers": { "rank_0": 8717.01, "rank_1": 8720.73 }
    },
    {
      "identifier": "CL: LEShift",
      "timers": { "rank_0": 7169.05, "rank_1": 7042.56 }
    },
    {
      "identifier": "CL: PropagateCollide",
      "timers": { "rank_0": 169183.41, "rank_1": 126384.40 }
    },
    {
      "identifier": "OMP: part ext forces",
      "timers": { "rank_0": 20.55, "rank_1": 15.60 }
    },
    {
      "identifier": "OMP: part int forces",
      "timers": { "rank_0": 3726.82, "rank_1": 3525.21 }
    },
    {
      "identifier": "OMP: part-part forces",
      "timers": { "rank_0": 10436.56, "rank_1": 10328.62 }
    },
    {
      "identifier": "MPI: particle forces (overhead)",
      "timers": { "rank_0": 199.80, "rank_1": 235.76 }
    },
    {
      "identifier": "MPI: particle forces",
      "timers": { "rank_0": 1199.05, "rank_1": 81417.91 }
    },
    {
      "identifier": "OMP: particle dynamics",
      "timers": { "rank_0": 4266.87, "rank_1": 2660.93 }
    },
    {
      "identifier": "I/O: output",
      "timers": { "rank_0": 167910.62, "rank_1": 167867.67 }
    },
    {
      "identifier": "ALL: total time",
      "timers": { "rank_0": 924206.68, "rank_1": 924206.79 }
    }
  ]
}
