{
  "experiment_name": "timing",
  "num_ranks": 2,
  "metrics": [
    {
      "identifier": "MPI: particle handling",
      "timers": { "rank_0": 0.19, "rank_1": 0.22 }
    },
    {
      "identifier": "MPI: particle (overhead)",
      "timers": { "rank_0": 0.94, "rank_1": 1.03 }
    },
    {
      "identifier": "MPI: particle",
      "timers": { "rank_0": 6.05, "rank_1": 6.43 }
    },
    {
      "identifier": "CPU: particle handling",
      "timers": { "rank_0": 0.99, "rank_1": 1.03 }
    },
    {
      "identifier": "CPU: particle mapping",
      "timers": { "rank_0": 129.80, "rank_1": 136.86 }
    },
    {
      "identifier": "Copy: CPU -> GPU",
      "timers": { "rank_0": 358.09, "rank_1": 463.22 }
    },
    {
      "identifier": "CL: PartMapLP",
      "timers": { "rank_0": 123.42, "rank_1": 129.64 }
    },
    {
      "identifier": "Copy: GPU -> CPU",
      "timers": { "rank_0": 465.52, "rank_1": 487.00 }
    },
    {
      "identifier": "CL: LEGalilei",
      "timers": { "rank_0": 62.29, "rank_1": 38.84 }
    },
    {
      "identifier": "CL: LEShift",
      "timers": { "rank_0": 122.34, "rank_1": 47.08 }
    },
    {
      "identifier": "CL: PropagateCollide",
      "timers": { "rank_0": 192.61, "rank_1": 161.46 }
    },
    {
      "identifier": "OMP: particle-particle forces",
      "timers": { "rank_0": 74.49, "rank_1": 45.56 }
    },
    {
      "identifier": "CL: DirectIndexing",
      "timers": { "rank_0": 186.79, "rank_1": 167.27 }
    },
    {
      "identifier": "CL: FHDIntegration",
      "timers": { "rank_0": 119.75, "rank_1": 95.84 }
    },
    {
      "identifier": "MPI: particle forces (overhead)",
      "timers": { "rank_0": 0.78, "rank_1": 1.13 }
    },
    {
      "identifier": "MPI: particle forces",
      "timers": { "rank_0": 8.21, "rank_1": 142.45 }
    },
    {
      "identifier": "OMP: particle dynamics",
      "timers": { "rank_0": 17.20, "rank_1": 25.27 }
    },
    {
      "identifier": "CL: FHDIntegrationNormShear",
      "timers": { "rank_0": 17.75, "rank_1": 21.79 }
    },
    {
      "identifier": "CL: SoAtoAoS",
      "timers": { "rank_0": 64.18, "rank_1": 50.94 }
    },
    {
      "identifier": "I/O: output",
      "timers": { "rank_0": 24614.76, "rank_1": 24216.93 }
    },
    {
      "identifier": "ALL: total time",
      "timers": { "rank_0": 27561.29, "rank_1": 27552.97 }
    }
  ]
}
