{
  "experiment_name": "timing",
  "num_ranks": 2,
  "metrics": [
    {
      "identifier": "MPI: particle handling",
      "timers": { "rank_0": 55.23, "rank_1": 82.62 }
    },
    {
      "identifier": "MPI: particle (overhead)",
      "timers": { "rank_0": 116.31, "rank_1": 107.52 }
    },
    {
      "identifier": "MPI: particle",
      "timers": { "rank_0": 519.69, "rank_1": 1820.22 }
    },
    {
      "identifier": "CPU: particle handling",
      "timers": { "rank_0": 377.50, "rank_1": 210.83 }
    },
    {
      "identifier": "CPU: particle mapping",
      "timers": { "rank_0": 22769.24, "rank_1": 27450.29 }
    },
    {
      "identifier": "Copy: CPU -> GPU",
      "timers": { "rank_0": 48208.89, "rank_1": 25609.12 }
    },
    {
      "identifier": "CL: PartMapLP",
      "timers": { "rank_0": 20743.54, "rank_1": 26948.99 }
    },
    {
      "identifier": "Copy: GPU -> CPU",
      "timers": { "rank_0": 34122.35, "rank_1": 30220.33 }
    },
    {
      "identifier": "CL: LEGalilei",
      "timers": { "rank_0": 15882.73, "rank_1": 14417.36 }
    },
    {
      "identifier": "CL: LEShift",
      "timers": { "rank_0": 11639.10, "rank_1": 8881.12 }
    },
    {
      "identifier": "CL: PropagateCollide",
      "timers": { "rank_0": 77591.69, "rank_1": 49179.38 }
    },
    {
      "identifier": "OMP: part ext forces",
      "timers": { "rank_0": 13.74, "rank_1": 10.87 }
    },
    {
      "identifier": "OMP: part int forces",
      "timers": { "rank_0": 3119.44, "rank_1": 3785.55 }
    },
    {
      "identifier": "OMP: part-part forces",
      "timers": { "rank_0": 4797.58, "rank_1": 7014.38 }
    },
    {
      "identifier": "MPI: particle forces (overhead)",
      "timers": { "rank_0": 123.48, "rank_1": 116.66 }
    },
    {
      "identifier": "MPI: particle forces",
      "timers": { "rank_0": 826.71, "rank_1": 50790.93 }
    },
    {
      "identifier": "OMP: particle dynamics",
      "timers": { "rank_0": 4266.29, "rank_1": 3259.83 }
    },
    {
      "identifier": "I/O: output",
      "timers": { "rank_0": 192209.71, "rank_1": 212703.21 }
    },
    {
      "identifier": "ALL: total time",
      "timers": { "rank_0": 637607.71, "rank_1": 637239.41 }
    }
  ]
}
