100
1804
3608
5412
7216
9020
10824
12628
14432
16236
18040
19844
21648
23452
25256
27060
28864
30668
32472
34276
36080
37884
39688
41492
43296
45100
46904
48708
50512
52316
54120
55924
57728
59532
61336
63140
64944
66748
68552
70356
72160
73964
75768
77572
79376
81180
82984
84788
86592
88396
90200
92004
93808
95612
97416
99220
101024
102828
104632
106436
108240
110044
111848
113652
115456
117260
119064
120868
122672
124476
126280
128084
129888
131692
133496
135300
137104
138908
140712
142516
144320
146124
147928
149732
151536
153340
155144
156948
158752
160556
162360
164164
165968
167772
169576
171380
173184
174988
176792
178596
180361
