0.00023929585	1.65e-05	1.2486731e-05
0.00023808579	1.65e-05	1.2476583e-05
0.00023687552	1.65e-05	1.2472559e-05
0.00023566684	1.65e-05	1.2471444e-05
0.00023445796	1.65e-05	1.2472272e-05
0.00023324928	1.65e-05	1.2477375e-05
0.00023204459	1.65e-05	1.2485711e-05
0.00023084344	1.65e-05	1.249318e-05
0.0002296431	1.65e-05	1.2499311e-05
0.00022844279	1.65e-05	1.250551e-05
0.00022724223	1.65e-05	1.251277e-05
0.00022604229	1.65e-05	1.2523193e-05
0.00022484737	1.65e-05	1.2537176e-05
0.00022366098	1.65e-05	1.2549536e-05
0.0002224801	1.65e-05	1.2554784e-05
0.0002213001	1.65e-05	1.2552827e-05
0.00022012034	1.65e-05	1.2544061e-05
0.0002189377	1.65e-05	1.2524778e-05
0.00021774301	1.65e-05	1.2496424e-05
0.00021653212	1.65e-05	1.2470812e-05
0.00021531276	1.65e-05	1.2457547e-05
0.00021409372	1.65e-05	1.2456611e-05
0.00021288008	1.65e-05	1.2464575e-05
0.00021167458	1.65e-05	1.2476342e-05
0.00021047582	1.65e-05	1.2487224e-05
0.00020928148	1.65e-05	1.2495201e-05
0.00020808962	1.65e-05	1.2498585e-05
0.00020689618	1.65e-05	1.2496631e-05
0.00020569786	1.65e-05	1.2493429e-05
0.00020449699	1.65e-05	1.2493781e-05
0.00020329727	1.65e-05	1.2497432e-05
0.00020209921	1.65e-05	1.2503175e-05
0.00020090374	1.65e-05	1.2511611e-05
0.00019971436	1.65e-05	1.2522525e-05
0.00019853555	1.65e-05	1.2531455e-05
0.00019736654	1.65e-05	1.2528034e-05
0.00019619473	1.65e-05	1.2504614e-05
0.00019500433	1.65e-05	1.2469811e-05
0.00019379671	1.65e-05	1.2443666e-05
0.00019258883	1.65e-05	1.2432806e-05
0.00019139137	1.65e-05	1.2428159e-05
0.00019020429	1.65e-05	1.2420077e-05
0.00018902503	1.65e-05	1.2403124e-05
0.00018785205	1.65e-05	1.2373348e-05
0.00018668479	1.65e-05	1.2325087e-05
0.00018552158	1.65e-05	1.2248279e-05
0.00018435129	1.65e-05	1.212975e-05
0.00018314687	1.65e-05	1.1967001e-05
0.00018186831	1.65e-05	1.1801503e-05
0.00018051196	1.65e-05	1.1726591e-05
0.00017915428	1.65e-05	1.1797228e-05
0.00017787272	1.65e-05	1.1959292e-05
0.00017666327	1.65e-05	1.2118749e-05
0.00017548311	1.65e-05	1.223589e-05
0.00017430596	1.65e-05	1.2319113e-05
0.00017312948	1.65e-05	1.2385656e-05
0.00017196299	1.65e-05	1.2437198e-05
0.00017080161	1.65e-05	1.2465504e-05
0.00016963243	1.65e-05	1.2474917e-05
0.00016845242	1.65e-05	1.2476911e-05
0.00016726514	1.65e-05	1.2477668e-05
0.00016607409	1.65e-05	1.2478799e-05
0.0001648811	1.65e-05	1.2479979e-05
0.00016368602	1.65e-05	1.2481103e-05
0.00016248947	1.65e-05	1.2484536e-05
0.00016129565	1.65e-05	1.249027e-05
0.00016010574	1.65e-05	1.2493153e-05
0.00015891544	1.65e-05	1.2490781e-05
0.00015772256	1.65e-05	1.2485089e-05
0.00015652661	1.65e-05	1.2476504e-05
0.00015532471	1.65e-05	1.2465428e-05
0.00015411353	1.65e-05	1.2456308e-05
0.00015289434	1.65e-05	1.2456441e-05
0.00015167455	1.65e-05	1.247159e-05
0.00015046605	1.65e-05	1.250102e-05
0.00014927672	1.65e-05	1.2532431e-05
0.0001481005	1.65e-05	1.2552615e-05
0.00014692736	1.65e-05	1.2559113e-05
0.00014575138	1.65e-05	1.255373e-05
0.0001445674	1.65e-05	1.254037e-05
0.00014337413	1.65e-05	1.2525803e-05
0.00014217463	1.65e-05	1.2514603e-05
0.0001409728	1.65e-05	1.2507919e-05
0.00013977187	1.65e-05	1.2504713e-05
0.00013857332	1.65e-05	1.2502605e-05
0.00013737697	1.65e-05	1.2498951e-05
0.00013618029	1.65e-05	1.2491322e-05
0.00013497862	1.65e-05	1.2480393e-05
0.00013377045	1.65e-05	1.2471655e-05
0.00013255947	1.65e-05	1.2468246e-05
