{
  "experiment_name": "timing",
  "num_ranks": 2,
  "metrics": [
    {
      "identifier": "MPI: particle handling",
      "timers": { "rank_0": 7.15, "rank_1": 10.52 }
    },
    {
      "identifier": "MPI: particle (overhead)",
      "timers": { "rank_0": 67.57, "rank_1": 74.59 }
    },
    {
      "identifier": "MPI: particle",
      "timers": { "rank_0": 183.58, "rank_1": 179.69 }
    },
    {
      "identifier": "CPU: particle handling",
      "timers": { "rank_0": 89.99, "rank_1": 100.57 }
    },
    {
      "identifier": "CPU: particle mapping",
      "timers": { "rank_0": 5927.13, "rank_1": 5845.02 }
    },
    {
      "identifier": "Copy: CPU -> GPU",
      "timers": { "rank_0": 10981.04, "rank_1": 9860.29 }
    },
    {
      "identifier": "CL: PartMapLP",
      "timers": { "rank_0": 5595.37, "rank_1": 5517.70 }
    },
    {
      "identifier": "Copy: GPU -> CPU",
      "timers": { "rank_0": 19059.42, "rank_1": 20916.35 }
    },
    {
      "identifier": "CL: LEGalilei",
      "timers": { "rank_0": 2024.61, "rank_1": 2070.25 }
    },
    {
      "identifier": "CL: LEShift",
      "timers": { "rank_0": 1008.90, "rank_1": 1012.54 }
    },
    {
      "identifier": "CL: PropagateCollide",
      "timers": { "rank_0": 26074.34, "rank_1": 25719.54 }
    },
    {
      "identifier": "OMP: part ext forces",
      "timers": { "rank_0": 1.64, "rank_1": 1.07 }
    },
    {
      "identifier": "OMP: part int forces",
      "timers": { "rank_0": 430.73, "rank_1": 503.49 }
    },
    {
      "identifier": "OMP: part-part forces",
      "timers": { "rank_0": 2229.72, "rank_1": 2630.10 }
    },
    {
      "identifier": "MPI: particle forces (overhead)",
      "timers": { "rank_0": 71.32, "rank_1": 56.68 }
    },
    {
      "identifier": "MPI: particle forces",
      "timers": { "rank_0": 229.54, "rank_1": 4985.14 }
    },
    {
      "identifier": "OMP: particle dynamics",
      "timers": { "rank_0": 442.76, "rank_1": 456.79 }
    },
    {
      "identifier": "I/O: output",
      "timers": { "rank_0": 1149673.05, "rank_1": 1269263.20 }
    },
    {
      "identifier": "ALL: total time",
      "timers": { "rank_0": 1384130.32, "rank_1": 1382766.61 }
    }
  ]
}
