9.1400026e-05	1.65e-05	1.9499914e-05
9.2300516e-05	1.65e-05	1.9500391e-05
9.3202576e-05	1.65e-05	1.9502265e-05
9.4107055e-05	1.65e-05	1.9504539e-05
9.5013284e-05	1.65e-05	1.9504629e-05
9.591898e-05	1.65e-05	1.9500981e-05
9.6822546e-05	1.65e-05	1.9494276e-05
9.7723782e-05	1.65e-05	1.9485306e-05
9.862238e-05	1.65e-05	1.9474077e-05
9.9516935e-05	1.65e-05	1.9461064e-05
0.00010040615	1.65e-05	1.9448755e-05
0.00010129109	1.65e-05	1.9439714e-05
0.00010217333	1.6500001e-05	1.9434244e-05
0.0001030537	1.6500001e-05	1.9432396e-05
0.00010393411	1.6500001e-05	1.943478e-05
0.00010481765	1.6500001e-05	1.9440699e-05
0.00010570624	1.6500001e-05	1.9447099e-05
0.00010659838	1.6500001e-05	1.9449889e-05
0.00010748977	1.6500001e-05	1.9447217e-05
0.00010837689	1.6500001e-05	1.9440906e-05
0.00010925955	1.6500001e-05	1.9434078e-05
0.00011014006	1.6500001e-05	1.9428201e-05
0.00011102038	1.6500001e-05	1.9422164e-05
0.00011190007	1.6500001e-05	1.9413742e-05
0.00011277635	1.6500002e-05	1.9401943e-05
0.00011364585	1.6500002e-05	1.9388845e-05
0.00011450776	1.6500002e-05	1.9379201e-05
0.00011536538	1.6500002e-05	1.9377001e-05
0.0001162246	1.6500002e-05	1.9382835e-05
0.00011709053	1.6500002e-05	1.9392727e-05
0.00011796286	1.6500002e-05	1.9400332e-05
0.00011883634	1.6500002e-05	1.9402457e-05
0.00011970633	1.6500002e-05	1.9400408e-05
0.00012057123	1.6500003e-05	1.9396871e-05
0.00012143151	1.6500003e-05	1.9394209e-05
0.00012228916	1.6500003e-05	1.9393833e-05
0.00012314613	1.6500003e-05	1.9395164e-05
0.00012400227	1.6500003e-05	1.939667e-05
0.00012485594	1.6500003e-05	1.9397449e-05
0.00012570442	1.6500003e-05	1.9397669e-05
0.00012654414	1.6500003e-05	1.9400181e-05
0.00012737424	1.6500003e-05	1.9411491e-05
0.00012819979	1.6500003e-05	1.9436419e-05
0.00012902456	1.6500004e-05	1.9473393e-05
0.00012984329	1.6500004e-05	1.9521786e-05
0.00013064713	1.6500004e-05	1.9589314e-05
0.00013143027	1.6500004e-05	1.9691321e-05
0.00013219457	1.6500004e-05	1.9848292e-05
0.00013296177	1.6500004e-05	2.0073968e-05
0.00013378105	1.6500004e-05	2.0348687e-05
0.00013471108	1.6500004e-05	2.0584728e-05
0.00013575752	1.6500004e-05	2.0664125e-05
0.00013683616	1.6500004e-05	2.0544057e-05
0.00013785779	1.6500005e-05	2.0291912e-05
0.00013879584	1.6500005e-05	2.001612e-05
0.00013966347	1.6500005e-05	1.9777886e-05
0.00014048804	1.6500005e-05	1.9598313e-05
0.00014128864	1.6500005e-05	1.9473474e-05
0.00014207938	1.6500005e-05	1.9391794e-05
0.00014286871	1.6500005e-05	1.933955e-05
0.00014365983	1.6500005e-05	1.9305667e-05
0.00014445351	1.6500005e-05	1.9282992e-05
0.0001452497	1.6500005e-05	1.9267134e-05
0.00014604733	1.6500006e-05	1.9255321e-05
0.00014684502	1.6500006e-05	1.9246843e-05
0.00014764305	1.6500006e-05	1.9242338e-05
0.00014844295	1.6500006e-05	1.9242237e-05
0.00014924714	1.6500006e-05	1.9246287e-05
0.00015005838	1.6500006e-05	1.9251728e-05
0.00015087613	1.6500006e-05	1.9252839e-05
0.00015169418	1.6500006e-05	1.9245706e-05
0.00015250527	1.6500006e-05	1.9233406e-05
0.00015330857	1.6500006e-05	1.9223793e-05
0.00015410974	1.6500007e-05	1.9221493e-05
0.00015491406	1.6500007e-05	1.92251e-05
0.00015572321	1.6500007e-05	1.9231233e-05
0.0001565365	1.6500007e-05	1.9237219e-05
0.00015735189	1.6500007e-05	1.9241742e-05
0.00015816717	1.6500007e-05	1.9245763e-05
0.00015898244	1.6500007e-05	1.9251737e-05
0.00015980026	1.6500007e-05	1.9261069e-05
0.00016062367	1.6500007e-05	1.92724e-05
0.00016145368	1.6500007e-05	1.9282187e-05
0.00016228849	1.6500008e-05	1.9287238e-05
0.00016312464	1.6500008e-05	1.9285882e-05
0.00016395765	1.6500008e-05	1.9278694e-05
0.00016478432	1.6500008e-05	1.9269284e-05
0.00016560521	1.6500008e-05	1.9263008e-05
0.00016642485	1.6500008e-05	1.926344e-05
0.00016724811	1.6500008e-05	1.9269587e-05
0.00016807633	1.6500008e-05	1.927797e-05
0.00016890803	1.6500008e-05	1.9286345e-05
0.0001697416	1.6500009e-05	1.9294791e-05
0.00017057723	1.6500009e-05	1.9304411e-05
0.00017141663	1.6500009e-05	1.9314938e-05
0.0001722603	1.6500009e-05	1.9324268e-05
0.00017310712	1.6500009e-05	1.9331251e-05
0.00017395645	1.6500009e-05	1.9335695e-05
0.00017480753	1.6500009e-05	1.933694e-05
0.00017565839	1.6500009e-05	1.9334431e-05
0.00017566333	1.6500009e-05	1.9334406e-05
