{
  "experiment_name": "timing",
  "num_ranks": 2,
  "metrics": [
    {
      "identifier": "MPI: particle handling",
      "timers": { "rank_0": 113.95, "rank_1": 188.36 }
    },
    {
      "identifier": "MPI: particle (overhead)",
      "timers": { "rank_0": 375.86, "rank_1": 376.20 }
    },
    {
      "identifier": "MPI: particle",
      "timers": { "rank_0": 1223.07, "rank_1": 1074.31 }
    },
    {
      "identifier": "CPU: particle handling",
      "timers": { "rank_0": 856.36, "rank_1": 672.52 }
    },
    {
      "identifier": "CPU: particle mapping",
      "timers": { "rank_0": 60745.53, "rank_1": 63360.34 }
    },
    {
      "identifier": "Copy: CPU -> GPU",
      "timers": { "rank_0": 128085.17, "rank_1": 59033.25 }
    },
    {
      "identifier": "CL: PartMapLP",
      "timers": { "rank_0": 56459.56, "rank_1": 96702.04 }
    },
    {
      "identifier": "Copy: GPU -> CPU",
      "timers": { "rank_0": 121280.94, "rank_1": 115140.62 }
    },
    {
      "identifier": "CL: LEGalilei",
      "timers": { "rank_0": 32704.45, "rank_1": 26769.30 }
    },
    {
      "identifier": "CL: LEShift",
      "timers": { "rank_0": 12643.43, "rank_1": 12790.80 }
    },
    {
      "identifier": "CL: PropagateCollide",
      "timers": { "rank_0": 190388.62, "rank_1": 180865.44 }
    },
    {
      "identifier": "OMP: part ext forces",
      "timers": { "rank_0": 29.88, "rank_1": 22.57 }
    },
    {
      "identifier": "OMP: part int forces",
      "timers": { "rank_0": 7403.04, "rank_1": 8327.76 }
    },
    {
      "identifier": "OMP: part-part forces",
      "timers": { "rank_0": 18748.63, "rank_1": 24642.10 }
    },
    {
      "identifier": "MPI: particle forces (overhead)",
      "timers": { "rank_0": 445.39, "rank_1": 406.21 }
    },
    {
      "identifier": "MPI: particle forces",
      "timers": { "rank_0": 2121.54, "rank_1": 70639.25 }
    },
    {
      "identifier": "OMP: particle dynamics",
      "timers": { "rank_0": 7056.63, "rank_1": 6771.93 }
    },
    {
      "identifier": "I/O: output",
      "timers": { "rank_0": 447343.76, "rank_1": 491267.22 }
    },
    {
      "identifier": "ALL: total time",
      "timers": { "rank_0": 1616603.14, "rank_1": 1616599.92 }
    }
  ]
}
