9.1400695e-05	1.65e-05	1.9499838e-05
9.230154e-05	1.65e-05	1.949965e-05
9.3202711e-05	1.65e-05	1.9499585e-05
9.4104887e-05	1.65e-05	1.9499731e-05
9.5008496e-05	1.65e-05	1.9499242e-05
9.5912744e-05	1.65e-05	1.9497501e-05
9.681693e-05	1.65e-05	1.9494596e-05
9.7721024e-05	1.65e-05	1.9490381e-05
9.8624533e-05	1.65e-05	1.9483794e-05
9.9525521e-05	1.65e-05	1.9474081e-05
0.00010042197	1.65e-05	1.9461971e-05
0.0001013139	1.65e-05	1.9448349e-05
0.00010220097	1.65e-05	1.943261e-05
0.00010308079	1.65e-05	1.9414945e-05
0.00010395173	1.65e-05	1.939741e-05
0.00010481548	1.65e-05	1.9382402e-05
0.00010567557	1.65e-05	1.9370396e-05
0.00010653418	1.65e-05	1.9359698e-05
0.00010739101	1.65e-05	1.9348812e-05
0.00010824509	1.65e-05	1.933755e-05
0.00010909642	1.65e-05	1.9326433e-05
0.00010994572	1.65e-05	1.9315449e-05
0.00011079364	1.65e-05	1.9303906e-05
0.00011163986	1.65e-05	1.9290347e-05
0.0001124823	1.65e-05	1.9273099e-05
0.00011331742	1.65e-05	1.9251891e-05
0.00011414291	1.65e-05	1.9228502e-05
0.00011495798	1.65e-05	1.9204833e-05
0.00011576303	1.65e-05	1.9182847e-05
0.0001165608	1.65e-05	1.9163539e-05
0.00011735366	1.65e-05	1.9145508e-05
0.00011814174	1.65e-05	1.9128126e-05
0.00011892482	1.65e-05	1.9111352e-05
0.00011970262	1.65e-05	1.9095162e-05
0.00012047518	1.65e-05	1.9079411e-05
0.00012124284	1.65e-05	1.9063998e-05
0.00012200618	1.65e-05	1.9049552e-05
0.00012276527	1.65e-05	1.9035527e-05
0.00012351962	1.65e-05	1.902115e-05
0.00012426744	1.65e-05	1.9004614e-05
0.00012500506	1.65e-05	1.8987365e-05
0.00012573034	1.65e-05	1.8972671e-05
0.00012644578	1.65e-05	1.8963592e-05
0.00012715409	1.65e-05	1.8959893e-05
0.00012785471	1.65e-05	1.8962753e-05
0.00012854595	1.65e-05	1.8974512e-05
0.00012922701	1.65e-05	1.8997636e-05
0.00012989675	1.65e-05	1.9038843e-05
0.00013055251	1.65e-05	1.9107548e-05
0.00013119459	1.65e-05	1.9214666e-05
0.00013182642	1.65e-05	1.9380918e-05
0.00013246539	1.65e-05	1.9623518e-05
0.00013314412	1.65e-05	1.9948657e-05
0.00013393826	1.65e-05	2.0292114e-05
0.00013488255	1.65e-05	2.0531106e-05
0.00013593336	1.65e-05	2.0558924e-05
0.00013693528	1.65e-05	2.0363108e-05
0.00013779498	1.65e-05	2.0042812e-05
0.00013853515	1.65e-05	1.973122e-05
0.00013921552	1.65e-05	1.9493115e-05
0.00013987512	1.65e-05	1.932875e-05
0.00014053849	1.65e-05	1.9222481e-05
0.00014121188	1.65e-05	1.9155178e-05
0.00014189709	1.65e-05	1.9114924e-05
0.00014259281	1.65e-05	1.9092148e-05
0.00014329822	1.65e-05	1.9080647e-05
0.00014401261	1.65e-05	1.9078385e-05
0.00014473608	1.65e-05	1.9084086e-05
0.00014547083	1.65e-05	1.9096164e-05
0.00014621894	1.65e-05	1.9110781e-05
0.00014697838	1.65e-05	1.9124985e-05
0.00014774473	1.65e-05	1.9138168e-05
0.00014851681	1.65e-05	1.9151686e-05
0.00014929536	1.65e-05	1.91652e-05
0.00015008018	1.65e-05	1.9178876e-05
0.00015087066	1.65e-05	1.9192602e-05
0.0001516663	1.65e-05	1.9206347e-05
0.00015246651	1.65e-05	1.921951e-05
0.0001532704	1.65e-05	1.923231e-05
0.0001540778	1.65e-05	1.9246086e-05
0.00015488922	1.65e-05	1.9262071e-05
0.00015570666	1.65e-05	1.9281231e-05
0.00015653316	1.65e-05	1.930295e-05
0.00015737076	1.65e-05	1.9325511e-05
0.00015821954	1.65e-05	1.9346431e-05
0.00015907651	1.65e-05	1.9363398e-05
0.00015993712	1.65e-05	1.9376502e-05
0.00016079959	1.65e-05	1.9388139e-05
0.00016166503	1.65e-05	1.9399641e-05
0.0001625341	1.65e-05	1.9410589e-05
0.00016340616	1.65e-05	1.9420606e-05
0.00016428015	1.65e-05	1.9429731e-05
0.00016515523	1.65e-05	1.9438766e-05
0.00016603157	1.65e-05	1.9449043e-05
0.00016691081	1.65e-05	1.9461436e-05
0.00016779461	1.65e-05	1.947578e-05
0.00016868402	1.65e-05	1.949204e-05
0.00016958079	1.65e-05	1.9510053e-05
0.00017048687	1.65e-05	1.9528169e-05
0.00017133303	1.65e-05	1.9542526e-05
