path,sep_ratio,rhor,yd,Stp,snorm_tot,snorm_hd,snorm_lub,snorm_rep
rhor10000_yd10_distz8e-06 , 1.0 , 10000.0 , 10 , 6.3872e+00 , 0.0 , 0.0 , 0.0 , 0.0
rhor1_yd10_distz2e-06 , 0.25 , 1.0 , 10 , 6.3872e-04 , 0.473343361789 , 0.0 , 0.473343361789 , 0.0
rhor10_yd20000_distz8e-06 , 1.0 , 10.0 , 20000 , 1.2774e+01 , 60.7008494632 , 0.0 , 60.7008494632 , 0.0
rhor10_yd20000_distz6e-06 , 0.75 , 10.0 , 20000 , 1.2774e+01 , 382.555996526 , 0.0 , 382.555996526 , 0.0
rhor10_yd1000_distz4e-06 , 0.5 , 10.0 , 1000 , 6.3872e-01 , 8.20082240948 , 0.0 , 8.20082240948 , 0.0
rhor100_yd10000_distz8e-06 , 1.0 , 100.0 , 10000 , 6.3872e+01 , 134.722491364 , 0.0 , 134.722491364 , 0.0
rhor10_yd1000_distz8e-06 , 1.0 , 10.0 , 1000 , 6.3872e-01 , 0.0 , 0.0 , 0.0 , 0.0
rhor1000_yd100_distz4e-06 , 0.5 , 1000.0 , 100 , 6.3872e+00 , 0.982454445033 , 0.0 , 0.982454445033 , 0.0
rhor1_yd100_distz6e-06 , 0.75 , 1.0 , 100 , 6.3872e-03 , 0.0758575092694 , 0.0 , 0.0758575092694 , 0.0
rhor100_yd10_distz8e-06 , 1.0 , 100.0 , 10 , 6.3872e-02 , 0.0 , 0.0 , 0.0 , 0.0
rhor10_yd10000_distz8e-06 , 1.0 , 10.0 , 10000 , 6.3872e+00 , 6.33585679103 , 0.0 , 6.33585679103 , 0.0
rhor100_yd100_distz8e-06 , 1.0 , 100.0 , 100 , 6.3872e-01 , 0.0 , 0.0 , 0.0 , 0.0
rhor1000_yd1000_distz8e-06 , 1.0 , 1000.0 , 1000 , 6.3872e+01 , 2.40676779925 , 0.0 , 2.40676779925 , 0.0
rhor10_yd20000_distz2e-06 , 0.25 , 10.0 , 20000 , 1.2774e+01 , 521.453590954 , 0.0 , 521.453590954 , 0.0
rhor1_yd1000_distz8e-06 , 1.0 , 1.0 , 1000 , 6.3872e-02 , 0.0 , 0.0 , 0.0 , 0.0
rhor1_yd10000_distz8e-06 , 1.0 , 1.0 , 10000 , 6.3872e-01 , 0.979321074503 , 0.0 , 0.979321074503 , 0.0
rhor1_yd100_distz8e-06 , 1.0 , 1.0 , 100 , 6.3872e-03 , 0.0 , 0.0 , 0.0 , 0.0
rhor1_yd1000_distz4e-06 , 0.5 , 1.0 , 1000 , 6.3872e-02 , 7.88023145935 , 0.0 , 7.88023145935 , 0.0
rhor1_yd20000_distz8e-06 , 1.0 , 1.0 , 20000 , 1.2774e+00 , 8.34832945362 , 0.0 , 8.34832945362 , 0.0
rhor10_yd100_distz4e-06 , 0.5 , 10.0 , 100 , 6.3872e-02 , 0.773213145587 , 0.0 , 0.773213145587 , 0.0
rhor100_yd10_distz2e-06 , 0.25 , 100.0 , 10 , 6.3872e-02 , 0.166550968497 , 0.0 , 0.166550968497 , 0.0
rhor10_yd10_distz4e-06 , 0.5 , 10.0 , 10 , 6.3872e-03 , 0.0788561319565 , 0.0 , 0.0788561319565 , 0.0
rhor100_yd10_distz6e-06 , 0.75 , 100.0 , 10 , 6.3872e-02 , 0.00742511645023 , 0.0 , 0.00742511645023 , 0.0
rhor100_yd100_distz4e-06 , 0.5 , 100.0 , 100 , 6.3872e-01 , 0.760791278435 , 0.0 , 0.760791278435 , 0.0
rhor1000_yd10000_distz8e-06 , 1.0 , 1000.0 , 10000 , 6.3872e+02 , 339.176948689 , 0.0 , 339.176948689 , 0.0
rhor10_yd10_distz6e-06 , 0.75 , 10.0 , 10 , 6.3872e-03 , 0.00737971275982 , 0.0 , 0.00737971275982 , 0.0
rhor1_yd10000_distz2e-06 , 0.25 , 1.0 , 10000 , 6.3872e-01 , 255.714796135 , 0.0 , 255.714796135 , 0.0
rhor10_yd20000_distz4e-06 , 0.5 , 10.0 , 20000 , 1.2774e+01 , 495.470960488 , 0.0 , 495.470960488 , 0.0
rhor1000_yd20000_distz2e-06 , 0.25 , 1000.0 , 20000 , 1.2774e+03 , 307.903227182 , 0.0 , 307.903227182 , 0.0
rhor1000_yd10_distz8e-06 , 1.0 , 1000.0 , 10 , 6.3872e-01 , 0.0 , 0.0 , 0.0 , 0.0
rhor1_yd10_distz6e-06 , 0.75 , 1.0 , 10 , 6.3872e-04 , 0.00737546447118 , 0.0 , 0.00737546447118 , 0.0
rhor1_yd10000_distz6e-06 , 0.75 , 1.0 , 10000 , 6.3872e-01 , 66.3369109875 , 0.0 , 66.3369109875 , 0.0
rhor1_yd10_distz8e-06 , 1.0 , 1.0 , 10 , 6.3872e-04 , 0.0 , 0.0 , 0.0 , 0.0
rhor1_yd100_distz4e-06 , 0.5 , 1.0 , 100 , 6.3872e-03 , 0.78111459655 , 0.0 , 0.78111459655 , 0.0
rhor1_yd20000_distz6e-06 , 0.75 , 1.0 , 20000 , 1.2774e+00 , 203.305288145 , 0.0 , 203.305288145 , 0.0
rhor10000_yd1000_distz8e-06 , 1.0 , 10000.0 , 1000 , 6.3872e+02 , 11.8949589536 , 0.0 , 11.8949589536 , 0.0
rhor1000_yd10_distz4e-06 , 0.5 , 1000.0 , 10 , 6.3872e-01 , 0.0762745027875 , 0.0 , 0.0762745027875 , 0.0
rhor1000_yd100_distz6e-06 , 0.75 , 1000.0 , 100 , 6.3872e+00 , 0.235405949763 , 0.0 , 0.235405949763 , 0.0
rhor10_yd10000_distz6e-06 , 0.75 , 10.0 , 10000 , 6.3872e+00 , 94.896005712 , 0.0 , 94.896005712 , 0.0
rhor1000_yd10_distz2e-06 , 0.25 , 1000.0 , 10 , 6.3872e-01 , 0.192635281734 , 0.0 , 0.192635281734 , 0.0
rhor1000_yd1000_distz4e-06 , 0.5 , 1000.0 , 1000 , 6.3872e+01 , 50.9663974051 , 0.0 , 50.9663974051 , 0.0
rhor1_yd20000_distz2e-06 , 0.25 , 1.0 , 20000 , 1.2774e+00 , 584.311639975 , 0.0 , 584.311639975 , 0.0
rhor1000_yd100_distz8e-06 , 1.0 , 1000.0 , 100 , 6.3872e+00 , 0.0 , 0.0 , 0.0 , 0.0
rhor100_yd1000_distz2e-06 , 0.25 , 100.0 , 1000 , 6.3872e+00 , 20.194554151 , 0.0 , 20.194554151 , 0.0
rhor1000_yd1000_distz6e-06 , 0.75 , 1000.0 , 1000 , 6.3872e+01 , 21.5863883267 , 0.0 , 21.5863883267 , 0.0
rhor10000_yd10_distz6e-06 , 0.75 , 10000.0 , 10 , 6.3872e+00 , 0.0230799473481 , 0.0 , 0.0230799473481 , 0.0
rhor10000_yd100_distz6e-06 , 0.75 , 10000.0 , 100 , 6.3872e+01 , 0.985407575332 , 0.0 , 0.985407575332 , 0.0
rhor100_yd100_distz2e-06 , 0.25 , 100.0 , 100 , 6.3872e-01 , 1.93386559743 , 0.0 , 1.93386559743 , 0.0
rhor1_yd1000_distz2e-06 , 0.25 , 1.0 , 1000 , 6.3872e-02 , 18.6974125748 , 0.0 , 18.6974125748 , 0.0
rhor100_yd1000_distz8e-06 , 1.0 , 100.0 , 1000 , 6.3872e+00 , 0.0 , 0.0 , 0.0 , 0.0
rhor1_yd10_distz4e-06 , 0.5 , 1.0 , 10 , 6.3872e-04 , 0.0789093883611 , 0.0 , 0.0789093883611 , 0.0
rhor100_yd20000_distz4e-06 , 0.5 , 100.0 , 20000 , 1.2774e+02 , 484.645064193 , 0.0 , 484.645064193 , 0.0
rhor1000_yd100_distz2e-06 , 0.25 , 1000.0 , 100 , 6.3872e+00 , 1.97551410592 , 0.0 , 1.97551410592 , 0.0
rhor1_yd20000_distz4e-06 , 0.5 , 1.0 , 20000 , 1.2774e+00 , 540.379559779 , 0.0 , 540.379559779 , 0.0
rhor10_yd100_distz8e-06 , 1.0 , 10.0 , 100 , 6.3872e-02 , 0.0 , 0.0 , 0.0 , 0.0
rhor100_yd1000_distz6e-06 , 0.75 , 100.0 , 1000 , 6.3872e+00 , 3.23749526956 , 0.0 , 3.23749526956 , 0.0
rhor1_yd100_distz2e-06 , 0.25 , 1.0 , 100 , 6.3872e-03 , 1.62258200604 , 0.0 , 1.62258200604 , 0.0
rhor100_yd1000_distz4e-06 , 0.5 , 100.0 , 1000 , 6.3872e+00 , 10.7963818953 , 0.0 , 10.7963818953 , 0.0
rhor1000_yd10_distz6e-06 , 0.75 , 1000.0 , 10 , 6.3872e-01 , 0.00814061455686 , 0.0 , 0.00814061455686 , 0.0
rhor10_yd10000_distz2e-06 , 0.25 , 10.0 , 10000 , 6.3872e+00 , 237.851066786 , 0.0 , 237.851066786 , 0.0
rhor1000_yd1000_distz2e-06 , 0.25 , 1000.0 , 1000 , 6.3872e+01 , 34.1520759283 , 0.0 , 34.1520759283 , 0.0
rhor10_yd10_distz2e-06 , 0.25 , 10.0 , 10 , 6.3872e-03 , 0.166302691514 , 0.0 , 0.166302691514 , 0.0
rhor10_yd1000_distz6e-06 , 0.75 , 10.0 , 1000 , 6.3872e-01 , 1.61843517891 , 0.0 , 1.61843517891 , 0.0
rhor100_yd20000_distz2e-06 , 0.25 , 100.0 , 20000 , 1.2774e+02 , 674.452507631 , 0.0 , 674.452507631 , 0.0
rhor10000_yd100_distz4e-06 , 0.5 , 10000.0 , 100 , 6.3872e+01 , 4.71740530201 , 0.0 , 4.71740530201 , 0.0
rhor10000_yd10_distz2e-06 , 0.25 , 10000.0 , 10 , 6.3872e+00 , 0.197461408809 , 0.0 , 0.197461408809 , 0.0
rhor1_yd10000_distz4e-06 , 0.5 , 1.0 , 10000 , 6.3872e-01 , 217.872475785 , 0.0 , 217.872475785 , 0.0
rhor1_yd1000_distz6e-06 , 0.75 , 1.0 , 1000 , 6.3872e-02 , 1.47200169958 , 0.0 , 1.47200169958 , 0.0
rhor10000_yd1000_distz2e-06 , 0.25 , 10000.0 , 1000 , 6.3872e+02 , 13.4264453057 , 0.0 , 13.4264453057 , 0.0
rhor10_yd10000_distz4e-06 , 0.5 , 10.0 , 10000 , 6.3872e+00 , 243.666298321 , 0.0 , 243.666298321 , 0.0
rhor10000_yd100_distz8e-06 , 1.0 , 10000.0 , 100 , 6.3872e+01 , 0.0937190568648 , 0.0 , 0.0937190568648 , 0.0
rhor100_yd10_distz4e-06 , 0.5 , 100.0 , 10 , 6.3872e-02 , 0.077926933786 , 0.0 , 0.077926933786 , 0.0
rhor100_yd10000_distz4e-06 , 0.5 , 100.0 , 10000 , 6.3872e+01 , 290.480032604 , 0.0 , 290.480032604 , 0.0
rhor100_yd10000_distz6e-06 , 0.75 , 100.0 , 10000 , 6.3872e+01 , 239.017209424 , 0.0 , 239.017209424 , 0.0
rhor10_yd100_distz2e-06 , 0.25 , 10.0 , 100 , 6.3872e-02 , 1.66680627376 , 0.0 , 1.66680627376 , 0.0
rhor10_yd1000_distz2e-06 , 0.25 , 10.0 , 1000 , 6.3872e-01 , 20.1571229157 , 0.0 , 20.1571229157 , 0.0
rhor10_yd100_distz6e-06 , 0.75 , 10.0 , 100 , 6.3872e-02 , 0.076496139561 , 0.0 , 0.076496139561 , 0.0
rhor100_yd10000_distz2e-06 , 0.25 , 100.0 , 10000 , 6.3872e+01 , 468.03857171 , 0.0 , 468.03857171 , 0.0
rhor100_yd100_distz6e-06 , 0.75 , 100.0 , 100 , 6.3872e-01 , 0.0851785190803 , 0.0 , 0.0851785190803 , 0.0
rhor10000_yd10_distz4e-06 , 0.5 , 10000.0 , 10 , 6.3872e+00 , 0.0961388552012 , 0.0 , 0.0961388552012 , 0.0
rhor10_yd10_distz8e-06 , 1.0 , 10.0 , 10 , 6.3872e-03 , 0.0 , 0.0 , 0.0 , 0.0
rhor10000_yd100_distz2e-06 , 0.25 , 10000.0 , 100 , 6.3872e+01 , 3.42533001989 , 0.0 , 3.42533001989 , 0.0
