{
  "experiment_name": "timing",
  "num_ranks": 2,
  "metrics": [
    {
      "identifier": "MPI: particle handling",
      "timers": { "rank_0": 467.47, "rank_1": 404.02 }
    },
    {
      "identifier": "MPI: particle (overhead)",
      "timers": { "rank_0": 1307.27, "rank_1": 1262.32 }
    },
    {
      "identifier": "MPI: particle",
      "timers": { "rank_0": 16461.90, "rank_1": 4252.57 }
    },
    {
      "identifier": "CPU: particle handling",
      "timers": { "rank_0": 3502.02, "rank_1": 3247.06 }
    },
    {
      "identifier": "CPU: particle mapping",
      "timers": { "rank_0": 223251.25, "rank_1": 185193.55 }
    },
    {
      "identifier": "Copy: CPU -> GPU",
      "timers": { "rank_0": 378781.47, "rank_1": 163828.53 }
    },
    {
      "identifier": "CL: PartMapLP",
      "timers": { "rank_0": 200602.41, "rank_1": 325914.16 }
    },
    {
      "identifier": "Copy: GPU -> CPU",
      "timers": { "rank_0": 430174.25, "rank_1": 924842.53 }
    },
    {
      "identifier": "CL: LEGalilei",
      "timers": { "rank_0": 52248.43, "rank_1": 54189.83 }
    },
    {
      "identifier": "CL: LEShift",
      "timers": { "rank_0": 43158.64, "rank_1": 42351.72 }
    },
    {
      "identifier": "CL: PropagateCollide",
      "timers": { "rank_0": 844018.64, "rank_1": 640447.50 }
    },
    {
      "identifier": "OMP: part ext forces",
      "timers": { "rank_0": 155.60, "rank_1": 136.99 }
    },
    {
      "identifier": "OMP: part int forces",
      "timers": { "rank_0": 33475.51, "rank_1": 34557.33 }
    },
    {
      "identifier": "OMP: part-part forces",
      "timers": { "rank_0": 72210.60, "rank_1": 81513.72 }
    },
    {
      "identifier": "MPI: particle forces (overhead)",
      "timers": { "rank_0": 1646.71, "rank_1": 1420.90 }
    },
    {
      "identifier": "MPI: particle forces",
      "timers": { "rank_0": 7780.41, "rank_1": 346667.14 }
    },
    {
      "identifier": "OMP: particle dynamics",
      "timers": { "rank_0": 29746.46, "rank_1": 27737.19 }
    },
    {
      "identifier": "I/O: output",
      "timers": { "rank_0": 323703.61, "rank_1": 319200.80 }
    },
    {
      "identifier": "ALL: total time",
      "timers": { "rank_0": 5538128.15, "rank_1": 5538132.71 }
    }
  ]
}
