{
  "experiment_name": "timing",
  "num_ranks": 2,
  "metrics": [
    {
      "identifier": "MPI: particle handling",
      "timers": { "rank_0": 477.36, "rank_1": 850.67 }
    },
    {
      "identifier": "MPI: particle (overhead)",
      "timers": { "rank_0": 845.56, "rank_1": 662.99 }
    },
    {
      "identifier": "MPI: particle",
      "timers": { "rank_0": 5148.30, "rank_1": 26321.89 }
    },
    {
      "identifier": "CPU: particle handling",
      "timers": { "rank_0": 2434.48, "rank_1": 1380.76 }
    },
    {
      "identifier": "CPU: particle mapping",
      "timers": { "rank_0": 120661.01, "rank_1": 176178.12 }
    },
    {
      "identifier": "Copy: CPU -> GPU",
      "timers": { "rank_0": 468772.96, "rank_1": 160651.32 }
    },
    {
      "identifier": "CL: PartMapLP",
      "timers": { "rank_0": 104281.29, "rank_1": 148780.87 }
    },
    {
      "identifier": "Copy: GPU -> CPU",
      "timers": { "rank_0": 219637.02, "rank_1": 157756.02 }
    },
    {
      "identifier": "CL: LEGalilei",
      "timers": { "rank_0": 69011.67, "rank_1": 76685.51 }
    },
    {
      "identifier": "CL: LEShift",
      "timers": { "rank_0": 43129.66, "rank_1": 44345.66 }
    },
    {
      "identifier": "CL: PropagateCollide",
      "timers": { "rank_0": 541950.09, "rank_1": 217596.26 }
    },
    {
      "identifier": "OMP: part ext forces",
      "timers": { "rank_0": 147.42, "rank_1": 104.39 }
    },
    {
      "identifier": "OMP: part int forces",
      "timers": { "rank_0": 30461.03, "rank_1": 34988.09 }
    },
    {
      "identifier": "OMP: part-part forces",
      "timers": { "rank_0": 31078.99, "rank_1": 40410.77 }
    },
    {
      "identifier": "MPI: particle forces (overhead)",
      "timers": { "rank_0": 784.28, "rank_1": 687.49 }
    },
    {
      "identifier": "MPI: particle forces",
      "timers": { "rank_0": 7707.30, "rank_1": 450943.75 }
    },
    {
      "identifier": "OMP: particle dynamics",
      "timers": { "rank_0": 36932.40, "rank_1": 27956.05 }
    },
    {
      "identifier": "I/O: output",
      "timers": { "rank_0": 73868.56, "rank_1": 86081.64 }
    },
    {
      "identifier": "ALL: total time",
      "timers": { "rank_0": 3201635.60, "rank_1": 3201389.89 }
    }
  ]
}
