path,sep_ratio,rhor,yd,Stp,deviation
rhor10000_yd10_distz8e-06 ,1.0 ,10000.0 ,10 ,6.3872e+00 ,0.230123243225
rhor100_yd20000_distz8e-06 ,1.0 ,100.0 ,20000 ,1.2774e+02 ,4.21632255161
rhor1_yd10_distz2e-06 ,0.25 ,1.0 ,10 ,6.3872e-04 ,1.31902429342
rhor10_yd20000_distz8e-06 ,1.0 ,10.0 ,20000 ,1.2774e+01 ,0.40434773952
rhor10_yd20000_distz6e-06 ,0.75 ,10.0 ,20000 ,1.2774e+01 ,0.659426036005
rhor10_yd1000_distz4e-06 ,0.5 ,10.0 ,1000 ,6.3872e-01 ,0.673312752885
rhor100_yd10000_distz8e-06 ,1.0 ,100.0 ,10000 ,6.3872e+01 ,1.44217746422
rhor10_yd1000_distz8e-06 ,1.0 ,10.0 ,1000 ,6.3872e-01 ,0.248075401903
rhor1000_yd100_distz4e-06 ,0.5 ,1000.0 ,100 ,6.3872e+00 ,0.655077673379
rhor1_yd100_distz6e-06 ,0.75 ,1.0 ,100 ,6.3872e-03 ,0.386741188481
rhor100_yd10_distz8e-06 ,1.0 ,100.0 ,10 ,6.3872e-02 ,0.230554606269
rhor10_yd10000_distz8e-06 ,1.0 ,10.0 ,10000 ,6.3872e+00 ,0.3398944047
rhor100_yd100_distz8e-06 ,1.0 ,100.0 ,100 ,6.3872e-01 ,0.232461526023
rhor1000_yd1000_distz8e-06 ,1.0 ,1000.0 ,1000 ,6.3872e+01 ,0.353179517704
rhor10_yd20000_distz2e-06 ,0.25 ,10.0 ,20000 ,1.2774e+01 ,1.16845444812
rhor1_yd1000_distz8e-06 ,1.0 ,1.0 ,1000 ,6.3872e-02 ,0.247776923119
rhor1_yd10000_distz8e-06 ,1.0 ,1.0 ,10000 ,6.3872e-01 ,0.321727147725
rhor1_yd100_distz8e-06 ,1.0 ,1.0 ,100 ,6.3872e-03 ,0.2323706926
rhor1_yd1000_distz4e-06 ,0.5 ,1.0 ,1000 ,6.3872e-02 ,0.679948457888
rhor1_yd20000_distz8e-06 ,1.0 ,1.0 ,20000 ,1.2774e+00 ,0.341102684701
rhor10_yd100_distz4e-06 ,0.5 ,10.0 ,100 ,6.3872e-02 ,0.667715912346
rhor100_yd10_distz2e-06 ,0.25 ,100.0 ,10 ,6.3872e-02 ,1.31996988908
rhor10_yd10_distz4e-06 ,0.5 ,10.0 ,10 ,6.3872e-03 ,0.67172449557
rhor100_yd10_distz6e-06 ,0.75 ,100.0 ,10 ,6.3872e-02 ,0.384871848811
rhor100_yd100_distz4e-06 ,0.5 ,100.0 ,100 ,6.3872e-01 ,0.658211083572
rhor1000_yd10000_distz8e-06 ,1.0 ,1000.0 ,10000 ,6.3872e+02 ,7.61259629958
rhor10_yd10_distz6e-06 ,0.75 ,10.0 ,10 ,6.3872e-03 ,0.384438339453
rhor1_yd10000_distz2e-06 ,0.25 ,1.0 ,10000 ,6.3872e-01 ,1.14665628478
rhor10_yd20000_distz4e-06 ,0.5 ,10.0 ,20000 ,1.2774e+01 ,0.908824012594
rhor1000_yd20000_distz2e-06 ,0.25 ,1000.0 ,20000 ,1.2774e+03 ,13.5773239798
rhor1000_yd10_distz8e-06 ,1.0 ,1000.0 ,10 ,6.3872e-01 ,0.23084253198
rhor1_yd10_distz6e-06 ,0.75 ,1.0 ,10 ,6.3872e-04 ,0.38453983261
rhor1_yd10000_distz6e-06 ,0.75 ,1.0 ,10000 ,6.3872e-01 ,0.56824970347
rhor1_yd10_distz8e-06 ,1.0 ,1.0 ,10 ,6.3872e-04 ,0.230963226213
rhor1_yd100_distz4e-06 ,0.5 ,1.0 ,100 ,6.3872e-03 ,0.670792541223
rhor1_yd20000_distz6e-06 ,0.75 ,1.0 ,20000 ,1.2774e+00 ,0.624283546795
rhor10000_yd1000_distz8e-06 ,1.0 ,10000.0 ,1000 ,6.3872e+02 ,0.598371074142
rhor1000_yd10_distz4e-06 ,0.5 ,1000.0 ,10 ,6.3872e-01 ,0.657519290691
rhor1000_yd100_distz6e-06 ,0.75 ,1000.0 ,100 ,6.3872e+00 ,0.400068882421
rhor10_yd10000_distz6e-06 ,0.75 ,10.0 ,10000 ,6.3872e+00 ,0.588135602809
rhor1000_yd10_distz2e-06 ,0.25 ,1000.0 ,10 ,6.3872e-01 ,1.33240511117
rhor1000_yd1000_distz4e-06 ,0.5 ,1000.0 ,1000 ,6.3872e+01 ,3.01706936384
rhor1_yd20000_distz2e-06 ,0.25 ,1.0 ,20000 ,1.2774e+00 ,1.00958729965
rhor1000_yd20000_distz8e-06 ,1.0 ,1000.0 ,20000 ,1.2774e+03 ,7.3498396069
rhor1000_yd20000_distz4e-06 ,0.5 ,1000.0 ,20000 ,1.2774e+03 ,16.7240482326
rhor1000_yd100_distz8e-06 ,1.0 ,1000.0 ,100 ,6.3872e+00 ,0.231063355558
rhor100_yd1000_distz2e-06 ,0.25 ,100.0 ,1000 ,6.3872e+00 ,1.43186332762
rhor1000_yd1000_distz6e-06 ,0.75 ,1000.0 ,1000 ,6.3872e+01 ,4.54047200679
rhor10000_yd10_distz6e-06 ,0.75 ,10000.0 ,10 ,6.3872e+00 ,0.398782588224
rhor10000_yd100_distz6e-06 ,0.75 ,10000.0 ,100 ,6.3872e+01 ,5.25786120582
rhor100_yd100_distz2e-06 ,0.25 ,100.0 ,100 ,6.3872e-01 ,1.32305510452
rhor1_yd1000_distz2e-06 ,0.25 ,1.0 ,1000 ,6.3872e-02 ,1.28648197742
rhor100_yd1000_distz8e-06 ,1.0 ,100.0 ,1000 ,6.3872e+00 ,0.247534663325
rhor1_yd10_distz4e-06 ,0.5 ,1.0 ,10 ,6.3872e-04 ,0.671991133005
rhor100_yd20000_distz4e-06 ,0.5 ,100.0 ,20000 ,1.2774e+02 ,7.29417592658
rhor1000_yd100_distz2e-06 ,0.25 ,1000.0 ,100 ,6.3872e+00 ,1.44386069105
rhor1_yd20000_distz4e-06 ,0.5 ,1.0 ,20000 ,1.2774e+00 ,0.890252687923
rhor10_yd100_distz8e-06 ,1.0 ,10.0 ,100 ,6.3872e-02 ,0.232354413624
rhor100_yd1000_distz6e-06 ,0.75 ,100.0 ,1000 ,6.3872e+00 ,0.424424401627
rhor1_yd100_distz2e-06 ,0.25 ,1.0 ,100 ,6.3872e-03 ,1.30957897095
rhor100_yd1000_distz4e-06 ,0.5 ,100.0 ,1000 ,6.3872e+00 ,0.663139072394
rhor1000_yd10_distz6e-06 ,0.75 ,1000.0 ,10 ,6.3872e-01 ,0.386199984941
rhor10_yd10000_distz2e-06 ,0.25 ,10.0 ,10000 ,6.3872e+00 ,1.30690414407
rhor1000_yd1000_distz2e-06 ,0.25 ,1000.0 ,1000 ,6.3872e+01 ,3.03341100952
rhor10_yd10_distz2e-06 ,0.25 ,10.0 ,10 ,6.3872e-03 ,1.31901226776
rhor10_yd1000_distz6e-06 ,0.75 ,10.0 ,1000 ,6.3872e-01 ,0.413351171412
rhor100_yd20000_distz2e-06 ,0.25 ,100.0 ,20000 ,1.2774e+02 ,6.01596250102
rhor10000_yd100_distz4e-06 ,0.5 ,10000.0 ,100 ,6.3872e+01 ,3.04091196504
rhor10000_yd10_distz2e-06 ,0.25 ,10000.0 ,10 ,6.3872e+00 ,1.44419263918
rhor1_yd10000_distz4e-06 ,0.5 ,1.0 ,10000 ,6.3872e-01 ,0.83917773484
rhor1_yd1000_distz6e-06 ,0.75 ,1.0 ,1000 ,6.3872e-02 ,0.411208485055
rhor10000_yd1000_distz2e-06 ,0.25 ,10000.0 ,1000 ,6.3872e+02 ,10.3684806119
rhor10_yd10000_distz4e-06 ,0.5 ,10.0 ,10000 ,6.3872e+00 ,0.810783189459
rhor10000_yd100_distz8e-06 ,1.0 ,10000.0 ,100 ,6.3872e+01 ,0.312392201279
rhor100_yd10_distz4e-06 ,0.5 ,100.0 ,10 ,6.3872e-02 ,0.668387368985
rhor100_yd10000_distz4e-06 ,0.5 ,100.0 ,10000 ,6.3872e+01 ,3.42768030309
rhor100_yd10000_distz6e-06 ,0.75 ,100.0 ,10000 ,6.3872e+01 ,4.07073306706
rhor10_yd100_distz2e-06 ,0.25 ,10.0 ,100 ,6.3872e-02 ,1.31062752813
rhor10_yd1000_distz2e-06 ,0.25 ,10.0 ,1000 ,6.3872e-01 ,1.29620810427
rhor10_yd100_distz6e-06 ,0.75 ,10.0 ,100 ,6.3872e-02 ,0.38685067138
rhor100_yd10000_distz2e-06 ,0.25 ,100.0 ,10000 ,6.3872e+01 ,3.33634710613
rhor100_yd100_distz6e-06 ,0.75 ,100.0 ,100 ,6.3872e-01 ,0.388016686986
rhor10000_yd10_distz4e-06 ,0.5 ,10000.0 ,10 ,6.3872e+00 ,0.654599041967
rhor10_yd10_distz8e-06 ,1.0 ,10.0 ,10 ,6.3872e-03 ,0.230513649457
rhor10000_yd100_distz2e-06 ,0.25 ,10000.0 ,100 ,6.3872e+01 ,3.01357535341
