path,sep_ratio,rhor,yd,Stp,F_tot,F_hd,F_lub,F_rep
rhor10000_yd10_distz8e-06 , 1.0 , 10000.0 , 10 , 6.3872e+00 , 8.8016132907e-12 , 8.8016132907e-12 , 0.0 , 0.0
rhor100_yd20000_distz8e-06 , 1.0 , 100.0 , 20000 , 1.2774e+02 , 4.35847158503e-07 , 4.02645184956e-07 , 4.01151995677e-08 , 1.35451233418e-09
rhor1_yd10_distz2e-06 , 0.25 , 1.0 , 10 , 6.3872e-04 , 5.04724709469e-15 , 2.00710786662e-11 , 1.16323738182e-11 , 8.82752943024e-12
rhor10_yd20000_distz8e-06 , 1.0 , 10.0 , 20000 , 1.2774e+01 , 4.24606615103e-08 , 3.94148125501e-08 , 4.42687438009e-09 , 0.0
rhor10_yd20000_distz6e-06 , 0.75 , 10.0 , 20000 , 1.2774e+01 , 6.52944199391e-08 , 6.0656527151e-08 , 2.69287283804e-08 , 3.98480047338e-09
rhor10_yd1000_distz4e-06 , 0.5 , 10.0 , 1000 , 6.3872e-01 , 2.1746685515e-10 , 7.79509182819e-10 , 6.92306542709e-10 , 0.0
rhor100_yd10000_distz8e-06 , 1.0 , 100.0 , 10000 , 6.3872e+01 , 8.94618193867e-08 , 7.77889547397e-08 , 7.40637334417e-09 , 7.14995190024e-09
rhor10_yd1000_distz8e-06 , 1.0 , 10.0 , 1000 , 6.3872e-01 , 1.26840923992e-10 , 1.26840923992e-10 , 0.0 , 0.0
rhor1000_yd100_distz4e-06 , 0.5 , 1000.0 , 100 , 6.3872e+00 , 1.75390100997e-10 , 1.57078547071e-10 , 7.27422425239e-11 , 1.1612907127e-11
rhor1_yd100_distz6e-06 , 0.75 , 1.0 , 100 , 6.3872e-03 , 2.26048482761e-13 , 5.66660704212e-12 , 5.49038427243e-12 , 0.0
rhor100_yd10_distz8e-06 , 1.0 , 100.0 , 10 , 6.3872e-02 , 1.72880910831e-13 , 1.72880910831e-13 , 0.0 , 0.0
rhor10_yd10000_distz8e-06 , 1.0 , 10.0 , 10000 , 6.3872e+00 , 1.12653601376e-08 , 1.11746870746e-08 , 4.49591064304e-10 , 0.0
rhor100_yd100_distz8e-06 , 1.0 , 100.0 , 100 , 6.3872e-01 , 1.35331111508e-11 , 1.35331111508e-11 , 0.0 , 0.0
rhor1000_yd1000_distz8e-06 , 1.0 , 1000.0 , 1000 , 6.3872e+01 , 2.91817343397e-09 , 2.78147774355e-09 , 1.70159142369e-10 , 0.0
rhor10_yd20000_distz2e-06 , 0.25 , 10.0 , 20000 , 1.2774e+01 , 8.07641168183e-08 , 8.61169333095e-08 , 4.31327290634e-08 , 9.17979566084e-09
rhor1_yd1000_distz8e-06 , 1.0 , 1.0 , 1000 , 6.3872e-02 , 1.50860491189e-11 , 1.50860491189e-11 , 0.0 , 0.0
rhor1_yd10000_distz8e-06 , 1.0 , 1.0 , 10000 , 6.3872e-01 , 1.43420702672e-09 , 1.42869149298e-09 , 7.01086422289e-11 , 0.0
rhor1_yd100_distz8e-06 , 1.0 , 1.0 , 100 , 6.3872e-03 , 2.08718973095e-13 , 2.08718973095e-13 , 0.0 , 0.0
rhor1_yd1000_distz4e-06 , 0.5 , 1.0 , 1000 , 6.3872e-02 , 2.2896931231e-11 , 6.80413458786e-10 , 6.70412422921e-10 , 0.0
rhor1_yd20000_distz8e-06 , 1.0 , 1.0 , 20000 , 1.2774e+00 , 6.32739873238e-09 , 6.25641845816e-09 , 5.94943824681e-10 , 0.0
rhor10_yd100_distz4e-06 , 0.5 , 10.0 , 100 , 6.3872e-02 , 2.43348917207e-12 , 6.62834982163e-11 , 6.52774329303e-11 , 0.0
rhor100_yd10_distz2e-06 , 0.25 , 100.0 , 10 , 6.3872e-02 , 4.18217957351e-13 , 2.00724717903e-11 , 1.15124332522e-11 , 8.8465011055e-12
rhor10_yd10_distz4e-06 , 0.5 , 10.0 , 10 , 6.3872e-03 , 2.64510630587e-14 , 6.68990240312e-12 , 6.67834449073e-12 , 0.0
rhor100_yd10_distz6e-06 , 0.75 , 100.0 , 10 , 6.3872e-02 , 2.04970285369e-13 , 6.96745322869e-13 , 5.3762595792e-13 , 0.0
rhor100_yd100_distz4e-06 , 0.5 , 100.0 , 100 , 6.3872e-01 , 2.31930196953e-11 , 7.40281762547e-11 , 6.38265437869e-11 , 0.0
rhor1000_yd10000_distz8e-06 , 1.0 , 1000.0 , 10000 , 6.3872e+02 , 3.58363832447e-07 , 3.37633089215e-07 , 2.29633602993e-08 , 8.43108207563e-10
rhor10_yd10_distz6e-06 , 0.75 , 10.0 , 10 , 6.3872e-03 , 2.25343768324e-14 , 5.51962551572e-13 , 5.34189702427e-13 , 0.0
rhor1_yd10000_distz2e-06 , 0.25 , 1.0 , 10000 , 6.3872e-01 , 2.63482163982e-09 , 2.1291014497e-08 , 1.80357947656e-08 , 6.20954782218e-09
rhor10_yd20000_distz4e-06 , 0.5 , 10.0 , 20000 , 1.2774e+01 , 6.86625108657e-08 , 6.95337603376e-08 , 2.99321954776e-08 , 7.93972203798e-09
rhor1000_yd20000_distz2e-06 , 0.25 , 1000.0 , 20000 , 1.2774e+03 , 1.2701531042e-06 , 1.24883904917e-06 , 2.19476695666e-08 , 0.0
rhor1000_yd10_distz8e-06 , 1.0 , 1000.0 , 10 , 6.3872e-01 , 1.35866968089e-12 , 1.35866968089e-12 , 0.0 , 0.0
rhor1_yd10_distz6e-06 , 0.75 , 1.0 , 10 , 6.3872e-04 , 4.91258922484e-15 , 5.38190748978e-13 , 5.3386691572e-13 , 0.0
rhor1_yd10000_distz6e-06 , 0.75 , 1.0 , 10000 , 6.3872e-01 , 2.03749327234e-09 , 6.38643352482e-09 , 5.37346862036e-09 , 0.0
rhor1_yd10_distz8e-06 , 1.0 , 1.0 , 10 , 6.3872e-04 , 7.62094670795e-15 , 7.62094670795e-15 , 0.0 , 0.0
rhor1_yd100_distz4e-06 , 0.5 , 1.0 , 100 , 6.3872e-03 , 2.56815583483e-13 , 6.61667582587e-11 , 6.60573043465e-11 , 0.0
rhor1_yd20000_distz6e-06 , 0.75 , 1.0 , 20000 , 1.2774e+00 , 8.57794633841e-09 , 1.98864825511e-08 , 1.64866929176e-08 , 6.0349179233e-11
rhor10000_yd1000_distz8e-06 , 1.0 , 10000.0 , 1000 , 6.3872e+02 , 6.51471006583e-09 , 4.84011870586e-09 , 9.37509761511e-10 , 1.92177284173e-09
rhor1000_yd10_distz4e-06 , 0.5 , 1000.0 , 10 , 6.3872e-01 , 2.3171003718e-12 , 7.40745129978e-12 , 6.39848850799e-12 , 0.0
rhor1000_yd100_distz6e-06 , 0.75 , 1000.0 , 100 , 6.3872e+00 , 1.36972203029e-10 , 1.34268201731e-10 , 1.74040826388e-11 , 0.0
rhor10_yd10000_distz6e-06 , 0.75 , 10.0 , 10000 , 6.3872e+00 , 1.79307564225e-08 , 1.66324738292e-08 , 7.59787346052e-09 , 1.39423192236e-11
rhor1000_yd10_distz2e-06 , 0.25 , 1000.0 , 10 , 6.3872e-01 , 4.09030594256e-12 , 2.09858630289e-11 , 1.29149401459e-11 , 7.79046518644e-12
rhor1000_yd1000_distz4e-06 , 0.5 , 1000.0 , 1000 , 6.3872e+01 , 1.83866017863e-08 , 1.48959015676e-08 , 3.28268017441e-09 , 3.22807908903e-10
rhor1_yd20000_distz2e-06 , 0.25 , 1.0 , 20000 , 1.2774e+00 , 9.22980454733e-09 , 4.15259256854e-08 , 3.36400281045e-08 , 1.288818509e-08
rhor1000_yd20000_distz8e-06 , 1.0 , 1000.0 , 20000 , 1.2774e+03 , 7.58601859011e-07 , 6.99934296819e-07 , 6.50809166793e-08 , 2.52523276059e-09
rhor1000_yd20000_distz4e-06 , 0.5 , 1000.0 , 20000 , 1.2774e+03 , 1.44070487512e-06 , 1.41559385951e-06 , 3.24059786657e-08 , 2.80152933906e-09
rhor1000_yd100_distz8e-06 , 1.0 , 1000.0 , 100 , 6.3872e+00 , 8.79181375014e-11 , 8.79181375014e-11 , 0.0 , 0.0
rhor100_yd1000_distz2e-06 , 0.25 , 100.0 , 1000 , 6.3872e+00 , 2.9896028727e-09 , 3.40166061245e-09 , 1.78731181729e-09 , 7.69952241964e-10
rhor1000_yd1000_distz6e-06 , 0.75 , 1000.0 , 1000 , 6.3872e+01 , 1.98275718722e-08 , 1.87496191257e-08 , 1.122624982e-09 , 3.2502700416e-11
rhor10000_yd10_distz6e-06 , 0.75 , 10000.0 , 10 , 6.3872e+00 , 1.37251693592e-11 , 1.34565418963e-11 , 1.7054172606e-12 , 0.0
rhor10000_yd100_distz6e-06 , 0.75 , 10000.0 , 100 , 6.3872e+01 , 2.25128005407e-09 , 2.16358861501e-09 , 8.81396118248e-11 , 0.0
rhor100_yd100_distz2e-06 , 0.25 , 100.0 , 100 , 6.3872e-01 , 3.67844461767e-11 , 2.11928773767e-10 , 1.50345679267e-10 , 6.341593615e-11
rhor1_yd1000_distz2e-06 , 0.25 , 1.0 , 1000 , 6.3872e-02 , 2.9844332297e-11 , 1.95407721163e-09 , 1.48723262689e-09 , 6.57880440787e-10
rhor100_yd1000_distz8e-06 , 1.0 , 100.0 , 1000 , 6.3872e+00 , 8.68586270579e-10 , 8.68586270579e-10 , 0.0 , 0.0
rhor1_yd10_distz4e-06 , 0.5 , 1.0 , 10 , 6.3872e-04 , 4.96570543052e-15 , 6.68717612059e-12 , 6.68386702739e-12 , 0.0
rhor100_yd20000_distz4e-06 , 0.5 , 100.0 , 20000 , 1.2774e+02 , 6.7799162998e-07 , 6.61006027884e-07 , 5.05536543946e-08 , 2.90897457452e-08
rhor1000_yd100_distz2e-06 , 0.25 , 1000.0 , 100 , 6.3872e+00 , 3.11547864702e-10 , 3.57505131531e-10 , 1.65155612529e-10 , 7.29015151434e-11
rhor1_yd20000_distz4e-06 , 0.5 , 1.0 , 20000 , 1.2774e+00 , 9.6967727195e-09 , 3.99092004151e-08 , 3.29009405157e-08 , 1.07427482741e-08
rhor10_yd100_distz8e-06 , 1.0 , 10.0 , 100 , 6.3872e-02 , 1.69296789025e-12 , 1.69296789025e-12 , 0.0 , 0.0
rhor100_yd1000_distz6e-06 , 0.75 , 100.0 , 1000 , 6.3872e+00 , 1.38607996219e-09 , 1.31893214523e-09 , 2.45084859793e-10 , 0.0
rhor1_yd100_distz2e-06 , 0.25 , 1.0 , 100 , 6.3872e-03 , 4.14480849261e-13 , 2.01220776986e-10 , 1.37989151665e-10 , 7.55474886053e-11
rhor100_yd1000_distz4e-06 , 0.5 , 100.0 , 1000 , 6.3872e+00 , 1.80256511817e-09 , 1.78411595503e-09 , 8.40949041378e-10 , 1.08555640665e-10
rhor1000_yd10_distz6e-06 , 0.75 , 1000.0 , 10 , 6.3872e-01 , 1.77263117556e-12 , 1.9679666925e-12 , 5.90857282049e-13 , 0.0
rhor10_yd10000_distz2e-06 , 0.25 , 10.0 , 10000 , 6.3872e+00 , 2.61061127918e-08 , 3.4915716433e-08 , 2.07761501327e-08 , 6.92437114921e-09
rhor1000_yd1000_distz2e-06 , 0.25 , 1000.0 , 1000 , 6.3872e+01 , 1.4041592789e-08 , 1.34602669128e-08 , 2.08014371836e-09 , 7.24194720725e-10
rhor10_yd10_distz2e-06 , 0.25 , 10.0 , 10 , 6.3872e-03 , 4.35335708347e-14 , 2.00727721837e-11 , 1.16212328263e-11 , 8.82833821554e-12
rhor10_yd1000_distz6e-06 , 0.75 , 10.0 , 1000 , 6.3872e-01 , 1.67497075762e-10 , 2.31916566184e-10 , 1.20188113412e-10 , 0.0
rhor100_yd20000_distz2e-06 , 0.25 , 100.0 , 20000 , 1.2774e+02 , 5.57524537282e-07 , 5.44227811843e-07 , 6.10395545523e-08 , 2.2800901758e-08
rhor10000_yd100_distz4e-06 , 0.5 , 10000.0 , 100 , 6.3872e+01 , 2.01326816754e-09 , 1.66399441077e-09 , 2.44772823318e-10 , 1.13070393146e-10
rhor10000_yd10_distz2e-06 , 0.25 , 10000.0 , 10 , 6.3872e+00 , 3.29316763681e-11 , 3.50536184999e-11 , 1.52717013003e-11 , 9.72649134993e-12
rhor1_yd10000_distz4e-06 , 0.5 , 1.0 , 10000 , 6.3872e-01 , 2.38314202606e-09 , 1.62837828663e-08 , 1.41526025228e-08 , 4.88938750097e-09
rhor1_yd1000_distz6e-06 , 0.75 , 1.0 , 1000 , 6.3872e-02 , 1.86986654172e-11 , 1.2257600121e-10 , 1.0926822351e-10 , 0.0
rhor10000_yd1000_distz2e-06 , 0.25 , 10000.0 , 1000 , 6.3872e+02 , 4.72248359026e-08 , 4.62922788945e-08 , 9.61876181678e-10 , 0.0
rhor10_yd10000_distz4e-06 , 0.5 , 10.0 , 10000 , 6.3872e+00 , 2.00834018365e-08 , 2.47294693025e-08 , 1.41495688277e-08 , 5.27675398584e-09
rhor10000_yd100_distz8e-06 , 1.0 , 10000.0 , 100 , 6.3872e+01 , 2.70214193869e-10 , 2.64650775826e-10 , 6.65871404064e-12 , 0.0
rhor100_yd10_distz4e-06 , 0.5 , 100.0 , 10 , 6.3872e-02 , 2.47408378843e-13 , 6.68778133578e-12 , 6.58574957579e-12 , 0.0
rhor100_yd10000_distz4e-06 , 0.5 , 100.0 , 10000 , 6.3872e+01 , 1.60286621135e-07 , 1.543237269e-07 , 2.12449051342e-08 , 8.76030146032e-09
rhor100_yd10000_distz6e-06 , 0.75 , 100.0 , 10000 , 6.3872e+01 , 1.9149126473e-07 , 1.81574902777e-07 , 2.04513138154e-08 , 9.80765644478e-09
rhor10_yd100_distz2e-06 , 0.25 , 10.0 , 100 , 6.3872e-02 , 3.84381004921e-12 , 2.02772708186e-10 , 1.39659925543e-10 , 7.46928359284e-11
rhor10_yd1000_distz2e-06 , 0.25 , 10.0 , 1000 , 6.3872e-01 , 2.93765007824e-10 , 2.0543404867e-09 , 1.4264323386e-09 , 6.79084256085e-10
rhor10_yd100_distz6e-06 , 0.75 , 10.0 , 100 , 6.3872e-02 , 2.10290023321e-12 , 7.15448421244e-12 , 5.53789880087e-12 , 0.0
rhor100_yd10000_distz2e-06 , 0.25 , 100.0 , 10000 , 6.3872e+01 , 1.56717048259e-07 , 1.39088847457e-07 , 3.42283324926e-08 , 8.7708331535e-09
rhor100_yd100_distz6e-06 , 0.75 , 100.0 , 100 , 6.3872e-01 , 1.78150209146e-11 , 1.98556470411e-11 , 6.1798657957e-12 , 0.0
rhor10000_yd10_distz4e-06 , 0.5 , 10000.0 , 10 , 6.3872e+00 , 1.78386606247e-11 , 1.78301472347e-11 , 7.23314450351e-12 , 2.78760149117e-12
rhor10_yd10_distz8e-06 , 1.0 , 10.0 , 10 , 6.3872e-03 , 2.18419130517e-14 , 2.18419130517e-14 , 0.0 , 0.0
rhor10000_yd100_distz2e-06 , 0.25 , 10000.0 , 100 , 6.3872e+01 , 1.49129727867e-09 , 1.43722394575e-09 , 1.66950664172e-10 , 7.32655809586e-11
