path,sep_ratio,rhor,yd,Stp,sshear_tot,sshear_hd,sshear_lub,sshear_rep
rhor10000_yd10_distz8e-06 , 1.0 , 10000.0 , 10 , 6.3872e+00 , 1.09454726253 , 1.09454726253 , 0.0 , 0.0
rhor100_yd20000_distz8e-06 , 1.0 , 100.0 , 20000 , 1.2774e+02 , 2436.25387397 , 2401.43408465 , 85.4140775344 , 2.38878191666
rhor1_yd10_distz2e-06 , 0.25 , 1.0 , 10 , 6.3872e-04 , 1.20158326844 , 1.06745485526 , 0.0741369835153 , 0.0606734661446
rhor10_yd20000_distz8e-06 , 1.0 , 10.0 , 20000 , 1.2774e+01 , 2399.27121816 , 2388.3477076 , 15.8479654283 , 0.0
rhor10_yd20000_distz6e-06 , 0.75 , 10.0 , 20000 , 1.2774e+01 , 2460.24016721 , 2337.28561898 , 131.387659559 , 23.721319963
rhor10_yd1000_distz4e-06 , 0.5 , 10.0 , 1000 , 6.3872e-01 , 112.543971442 , 108.292402379 , 4.25156897527 , 0.0
rhor100_yd10000_distz8e-06 , 1.0 , 100.0 , 10000 , 6.3872e+01 , 1207.97994247 , 1165.703192 , 19.0056403069 , 23.2711094768
rhor10_yd1000_distz8e-06 , 1.0 , 10.0 , 1000 , 6.3872e-01 , 108.828220512 , 108.828220512 , 0.0 , 0.0
rhor1000_yd100_distz4e-06 , 0.5 , 1000.0 , 100 , 6.3872e+00 , 11.3533289925 , 10.9395540687 , 0.377016087403 , 0.0764356253474
rhor1_yd100_distz6e-06 , 0.75 , 1.0 , 100 , 6.3872e-03 , 11.0420273998 , 11.0210903879 , 0.0209370136563 , 0.0
rhor100_yd10_distz8e-06 , 1.0 , 100.0 , 10 , 6.3872e-02 , 1.09400297352 , 1.09400297352 , 0.0 , 0.0
rhor10_yd10000_distz8e-06 , 1.0 , 10.0 , 10000 , 6.3872e+00 , 1151.06409326 , 1149.97089048 , 1.31618600637 , 0.0
rhor100_yd100_distz8e-06 , 1.0 , 100.0 , 100 , 6.3872e-01 , 10.9461749217 , 10.9461749217 , 0.0 , 0.0
rhor1000_yd1000_distz8e-06 , 1.0 , 1000.0 , 1000 , 6.3872e+01 , 111.217970265 , 110.705639456 , 0.512330814989 , 0.0
rhor10_yd20000_distz2e-06 , 0.25 , 10.0 , 20000 , 1.2774e+01 , 2459.70215168 , 2222.95992007 , 220.726290662 , 59.0962032997
rhor1_yd1000_distz8e-06 , 1.0 , 1.0 , 1000 , 6.3872e-02 , 108.913723205 , 108.913723205 , 0.0 , 0.0
rhor1_yd10000_distz8e-06 , 1.0 , 1.0 , 10000 , 6.3872e-01 , 1151.3666726 , 1151.11721303 , 0.249459701222 , 0.0
rhor1_yd100_distz8e-06 , 1.0 , 1.0 , 100 , 6.3872e-03 , 10.958878052 , 10.958878052 , 0.0 , 0.0
rhor1_yd1000_distz4e-06 , 0.5 , 1.0 , 1000 , 6.3872e-02 , 112.309782181 , 108.122913065 , 4.18686911364 , 0.0
rhor1_yd20000_distz8e-06 , 1.0 , 1.0 , 20000 , 1.2774e+00 , 2374.69380727 , 2372.89647402 , 1.98724984577 , 0.0
rhor10_yd100_distz4e-06 , 0.5 , 10.0 , 100 , 6.3872e-02 , 11.3083883061 , 10.9064177256 , 0.401970580017 , 0.0
rhor100_yd10_distz2e-06 , 0.25 , 100.0 , 10 , 6.3872e-02 , 1.20042820267 , 1.06690148779 , 0.0732150833786 , 0.0608767431782
rhor10_yd10_distz4e-06 , 0.5 , 10.0 , 10 , 6.3872e-03 , 1.13472866594 , 1.09335533648 , 0.0413733302371 , 0.0
rhor100_yd10_distz6e-06 , 0.75 , 100.0 , 10 , 6.3872e-02 , 1.10367881284 , 1.10161070523 , 0.00206810767135 , 0.0
rhor100_yd100_distz4e-06 , 0.5 , 100.0 , 100 , 6.3872e-01 , 11.3052633133 , 10.9166972709 , 0.388566043255 , 0.0
rhor1000_yd10000_distz8e-06 , 1.0 , 1000.0 , 10000 , 6.3872e+02 , 1174.21921984 , 1164.11398325 , 19.2085145177 , 0.536060886421
rhor10_yd10_distz6e-06 , 0.75 , 10.0 , 10 , 6.3872e-03 , 1.10378258018 , 1.10173085974 , 0.00205172051014 , 0.0
rhor1_yd10000_distz2e-06 , 0.25 , 1.0 , 10000 , 6.3872e-01 , 1229.33489775 , 1093.74785848 , 108.693495138 , 33.7257639458
rhor10_yd20000_distz4e-06 , 0.5 , 10.0 , 20000 , 1.2774e+01 , 2409.35458357 , 2268.60509901 , 135.079746841 , 50.4133894306
rhor1000_yd20000_distz2e-06 , 0.25 , 1000.0 , 20000 , 1.2774e+03 , 2105.20645492 , 2050.97735239 , 78.8194837428 , 0.0
rhor1000_yd10_distz8e-06 , 1.0 , 1000.0 , 10 , 6.3872e-01 , 1.09477501087 , 1.09477501087 , 0.0 , 0.0
rhor1_yd10_distz6e-06 , 0.75 , 1.0 , 10 , 6.3872e-04 , 1.1038043117 , 1.10175418187 , 0.00205012992817 , 0.0
rhor1_yd10000_distz6e-06 , 0.75 , 1.0 , 10000 , 6.3872e-01 , 1170.65636905 , 1140.81716524 , 29.8392032269 , 0.0
rhor1_yd10_distz8e-06 , 1.0 , 1.0 , 10 , 6.3872e-04 , 1.09400201236 , 1.09400201236 , 0.0 , 0.0
rhor1_yd100_distz4e-06 , 0.5 , 1.0 , 100 , 6.3872e-03 , 11.3445216608 , 10.9364152906 , 0.408106374325 , 0.0
rhor1_yd20000_distz6e-06 , 0.75 , 1.0 , 20000 , 1.2774e+00 , 2432.86541943 , 2343.48004607 , 89.1529392159 , 0.232434504165
rhor10000_yd1000_distz8e-06 , 1.0 , 10000.0 , 1000 , 6.3872e+02 , 115.167322245 , 112.01114868 , 3.00412379082 , 0.152049846288
rhor1000_yd10_distz4e-06 , 0.5 , 1000.0 , 10 , 6.3872e-01 , 1.13013939187 , 1.09120043326 , 0.0389389579648 , 0.0
rhor1000_yd100_distz6e-06 , 0.75 , 1000.0 , 100 , 6.3872e+00 , 11.0570364696 , 10.9938492324 , 0.0656305982361 , 0.0
rhor10_yd10000_distz6e-06 , 0.75 , 10.0 , 10000 , 6.3872e+00 , 1171.01264501 , 1136.46562048 , 38.0323270098 , 0.0719189926991
rhor1000_yd10_distz2e-06 , 0.25 , 1000.0 , 10 , 6.3872e-01 , 1.20119483591 , 1.06681829482 , 0.0823293288198 , 0.052518268898
rhor1000_yd1000_distz4e-06 , 0.5 , 1000.0 , 1000 , 6.3872e+01 , 127.84958352 , 106.828023035 , 21.6413977691 , 2.15391467751
rhor1_yd20000_distz2e-06 , 0.25 , 1.0 , 20000 , 1.2774e+00 , 2430.51873574 , 2200.75356433 , 173.678126937 , 72.1115569544
rhor1000_yd20000_distz8e-06 , 1.0 , 1000.0 , 20000 , 1.2774e+03 , 2406.48500092 , 2387.78848613 , 37.0120247452 , 1.44753672739
rhor1000_yd20000_distz4e-06 , 0.5 , 1000.0 , 20000 , 1.2774e+03 , 2307.51888039 , 2221.45867713 , 211.766641445 , 18.8808165677
rhor1000_yd100_distz8e-06 , 1.0 , 1000.0 , 100 , 6.3872e+00 , 10.9428412874 , 10.9428412874 , 0.0 , 0.0
rhor100_yd1000_distz2e-06 , 0.25 , 100.0 , 1000 , 6.3872e+00 , 119.877743056 , 106.929735545 , 9.44060601327 , 5.38271758145
rhor1000_yd1000_distz6e-06 , 0.75 , 1000.0 , 1000 , 6.3872e+01 , 112.249359389 , 107.52077799 , 7.76976527848 , 0.231708356639
rhor10000_yd10_distz6e-06 , 0.75 , 10000.0 , 10 , 6.3872e+00 , 1.10571230371 , 1.09950722947 , 0.00634296946855 , 0.0
rhor10000_yd100_distz6e-06 , 0.75 , 10000.0 , 100 , 6.3872e+01 , 11.2247428133 , 10.7698843489 , 0.614495054394 , 0.0
rhor100_yd100_distz2e-06 , 0.25 , 100.0 , 100 , 6.3872e-01 , 12.0053809486 , 10.6757005085 , 0.950088653912 , 0.40518220043
rhor1_yd1000_distz2e-06 , 0.25 , 1.0 , 1000 , 6.3872e-02 , 119.224234297 , 106.189679495 , 9.74318199025 , 3.96858713534
rhor100_yd1000_distz8e-06 , 1.0 , 100.0 , 1000 , 6.3872e+00 , 108.952976218 , 108.952976218 , 0.0 , 0.0
rhor1_yd10_distz4e-06 , 0.5 , 1.0 , 10 , 6.3872e-04 , 1.13461432488 , 1.09319515712 , 0.0414191690159 , 0.0
rhor100_yd20000_distz4e-06 , 0.5 , 100.0 , 20000 , 1.2774e+02 , 2132.76513483 , 2205.47936989 , 291.975749812 , 176.135512418
rhor1000_yd100_distz2e-06 , 0.25 , 1000.0 , 100 , 6.3872e+00 , 12.1126708737 , 10.7993613234 , 0.878674570996 , 0.524440701229
rhor1_yd20000_distz4e-06 , 0.5 , 1.0 , 20000 , 1.2774e+00 , 2487.70514578 , 2264.58186977 , 178.549868525 , 57.0289226397
rhor10_yd100_distz8e-06 , 1.0 , 10.0 , 100 , 6.3872e-02 , 10.9628444895 , 10.9628444895 , 0.0 , 0.0
rhor100_yd1000_distz6e-06 , 0.75 , 100.0 , 1000 , 6.3872e+00 , 110.08412158 , 109.069069764 , 1.01505179922 , 0.0
rhor1_yd100_distz2e-06 , 0.25 , 1.0 , 100 , 6.3872e-03 , 12.021184441 , 10.6824288836 , 0.880657658355 , 0.489871985708
rhor100_yd1000_distz4e-06 , 0.5 , 100.0 , 1000 , 6.3872e+00 , 112.9577724 , 108.255191213 , 4.60028557487 , 0.668892667677
rhor1000_yd10_distz6e-06 , 0.75 , 1000.0 , 10 , 6.3872e-01 , 1.10399232325 , 1.10170725476 , 0.00228506848815 , 0.0
rhor10_yd10000_distz2e-06 , 0.25 , 10.0 , 10000 , 6.3872e+00 , 1224.29696397 , 1090.97936105 , 115.542471042 , 41.6769504521
rhor1000_yd1000_distz2e-06 , 0.25 , 1000.0 , 1000 , 6.3872e+01 , 113.371237729 , 105.463864393 , 10.1737304953 , 5.11043907853
rhor10_yd10_distz2e-06 , 0.25 , 10.0 , 10 , 6.3872e-03 , 1.20149467255 , 1.06741014217 , 0.0740634926618 , 0.0606910102141
rhor10_yd1000_distz6e-06 , 0.75 , 10.0 , 1000 , 6.3872e-01 , 109.695486509 , 109.185745115 , 0.509741392399 , 0.0
rhor100_yd20000_distz2e-06 , 0.25 , 100.0 , 20000 , 1.2774e+02 , 2168.29388518 , 2151.29481679 , 203.398715083 , 78.6773608884
rhor10000_yd100_distz4e-06 , 0.5 , 10000.0 , 100 , 6.3872e+01 , 12.8349191882 , 10.6644681854 , 1.64110913618 , 0.762315217098
rhor10000_yd10_distz2e-06 , 0.25 , 10000.0 , 10 , 6.3872e+00 , 1.22145742714 , 1.07949014049 , 0.0786353431221 , 0.0700638135209
rhor1_yd10000_distz4e-06 , 0.5 , 1.0 , 10000 , 6.3872e-01 , 1214.24274747 , 1111.57063934 , 84.7142395152 , 24.7374682435
rhor1_yd1000_distz6e-06 , 0.75 , 1.0 , 1000 , 6.3872e-02 , 109.847675272 , 109.381138659 , 0.466536625714 , 0.0
rhor10000_yd1000_distz2e-06 , 0.25 , 10000.0 , 1000 , 6.3872e+02 , 98.9002143095 , 97.3938259108 , 3.58233110312 , 0.0
rhor10_yd10000_distz4e-06 , 0.5 , 10.0 , 10000 , 6.3872e+00 , 1201.27023878 , 1111.89703517 , 73.5615091767 , 32.4829954298
rhor10000_yd100_distz8e-06 , 1.0 , 10000.0 , 100 , 6.3872e+01 , 11.1374095047 , 11.1157761046 , 0.0216333995259 , 0.0
rhor100_yd10_distz4e-06 , 0.5 , 100.0 , 10 , 6.3872e-02 , 1.13170025131 , 1.09106343568 , 0.0406368154034 , 0.0
rhor100_yd10000_distz4e-06 , 0.5 , 100.0 , 10000 , 6.3872e+01 , 1094.09437429 , 1103.12457446 , 118.357864805 , 53.6109159259
rhor100_yd10000_distz6e-06 , 0.75 , 100.0 , 10000 , 6.3872e+01 , 1141.9867196 , 1127.30379726 , 141.085403374 , 73.0205254162
rhor10_yd100_distz2e-06 , 0.25 , 10.0 , 100 , 6.3872e-02 , 12.0235087794 , 10.6807644577 , 0.889433429373 , 0.483177692422
rhor10_yd1000_distz2e-06 , 0.25 , 10.0 , 1000 , 6.3872e-01 , 118.886627871 , 106.038373289 , 9.42550463462 , 4.27520155687
rhor10_yd100_distz6e-06 , 0.75 , 10.0 , 100 , 6.3872e-02 , 11.0474213369 , 11.0262871998 , 0.021134135733 , 0.0
rhor100_yd10000_distz2e-06 , 0.25 , 100.0 , 10000 , 6.3872e+01 , 1173.23923191 , 1081.53880923 , 159.333490422 , 45.2262874204
rhor100_yd100_distz6e-06 , 0.75 , 100.0 , 100 , 6.3872e-01 , 11.0436244925 , 11.0200102898 , 0.0236142047266 , 0.0
rhor10000_yd10_distz4e-06 , 0.5 , 10000.0 , 10 , 6.3872e+00 , 1.1383091246 , 1.09111387506 , 0.0375912517691 , 0.019238300931
rhor10_yd10_distz8e-06 , 1.0 , 10.0 , 10 , 6.3872e-03 , 1.09396462442 , 1.09396462442 , 0.0 , 0.0
rhor10000_yd100_distz2e-06 , 0.25 , 10000.0 , 100 , 6.3872e+01 , 11.4636385159 , 10.6428149898 , 0.797612580193 , 0.538431583205
