path,sep_ratio,rhor,yd,Stp,deviation
rhor10000_yd10_distz8e-06 ,1.0 ,10000.0 ,10 ,6.3872e+00 ,0.22881132375
rhor100_yd20000_distz8e-06 ,1.0 ,100.0 ,20000 ,1.2774e+02 ,4.13732605
rhor1_yd10_distz2e-06 ,0.25 ,1.0 ,10 ,6.3872e-04 ,1.27479682525
rhor10_yd20000_distz8e-06 ,1.0 ,10.0 ,20000 ,1.2774e+01 ,0.40395813
rhor10_yd20000_distz6e-06 ,0.75 ,10.0 ,20000 ,1.2774e+01 ,0.6593139925
rhor10_yd1000_distz4e-06 ,0.5 ,10.0 ,1000 ,6.3872e-01 ,0.67319001125
rhor100_yd10000_distz8e-06 ,1.0 ,100.0 ,10000 ,6.3872e+01 ,1.418463605
rhor10_yd1000_distz8e-06 ,1.0 ,10.0 ,1000 ,6.3872e-01 ,0.24796319875
rhor1000_yd100_distz4e-06 ,0.5 ,1000.0 ,100 ,6.3872e+00 ,0.6550768325
rhor1_yd100_distz6e-06 ,0.75 ,1.0 ,100 ,6.3872e-03 ,0.38673314375
rhor100_yd10_distz8e-06 ,1.0 ,100.0 ,10 ,6.3872e-02 ,0.230554462875
rhor10_yd10000_distz8e-06 ,1.0 ,10.0 ,10000 ,6.3872e+00 ,0.339631504875
rhor100_yd100_distz8e-06 ,1.0 ,100.0 ,100 ,6.3872e-01 ,0.232418695
rhor1000_yd1000_distz8e-06 ,1.0 ,1000.0 ,1000 ,6.3872e+01 ,0.35273866625
rhor10_yd20000_distz2e-06 ,0.25 ,10.0 ,20000 ,1.2774e+01 ,1.14783198
rhor1_yd1000_distz8e-06 ,1.0 ,1.0 ,1000 ,6.3872e-02 ,0.247724005
rhor1_yd10000_distz8e-06 ,1.0 ,1.0 ,10000 ,6.3872e-01 ,0.3216848075
rhor1_yd100_distz8e-06 ,1.0 ,1.0 ,100 ,6.3872e-03 ,0.23236203125
rhor1_yd1000_distz4e-06 ,0.5 ,1.0 ,1000 ,6.3872e-02 ,0.6799018925
rhor1_yd20000_distz8e-06 ,1.0 ,1.0 ,20000 ,1.2774e+00 ,0.3405893825
rhor10_yd100_distz4e-06 ,0.5 ,10.0 ,100 ,6.3872e-02 ,0.6677081675
rhor100_yd10_distz2e-06 ,0.25 ,100.0 ,10 ,6.3872e-02 ,1.27559323788
rhor10_yd10_distz4e-06 ,0.5 ,10.0 ,10 ,6.3872e-03 ,0.671724357625
rhor100_yd10_distz6e-06 ,0.75 ,100.0 ,10 ,6.3872e-02 ,0.384870825375
rhor100_yd100_distz4e-06 ,0.5 ,100.0 ,100 ,6.3872e-01 ,0.658103345
rhor1000_yd10000_distz8e-06 ,1.0 ,1000.0 ,10000 ,6.3872e+02 ,7.53400495875
rhor10_yd10_distz6e-06 ,0.75 ,10.0 ,10 ,6.3872e-03 ,0.384437882625
rhor1_yd10000_distz2e-06 ,0.25 ,1.0 ,10000 ,6.3872e-01 ,1.1212099075
rhor10_yd20000_distz4e-06 ,0.5 ,10.0 ,20000 ,1.2774e+01 ,0.9031773425
rhor1000_yd20000_distz2e-06 ,0.25 ,1000.0 ,20000 ,1.2774e+03 ,13.5329880513
rhor1000_yd10_distz8e-06 ,1.0 ,1000.0 ,10 ,6.3872e-01 ,0.23082727375
rhor1_yd10_distz6e-06 ,0.75 ,1.0 ,10 ,6.3872e-04 ,0.38453945025
rhor1_yd10000_distz6e-06 ,0.75 ,1.0 ,10000 ,6.3872e-01 ,0.56800972
rhor1_yd10_distz8e-06 ,1.0 ,1.0 ,10 ,6.3872e-04 ,0.23096322525
rhor1_yd100_distz4e-06 ,0.5 ,1.0 ,100 ,6.3872e-03 ,0.67079245625
rhor1_yd20000_distz6e-06 ,0.75 ,1.0 ,20000 ,1.2774e+00 ,0.623267695
rhor10000_yd1000_distz8e-06 ,1.0 ,10000.0 ,1000 ,6.3872e+02 ,0.595546065
rhor1000_yd10_distz4e-06 ,0.5 ,1000.0 ,10 ,6.3872e-01 ,0.65738568625
rhor1000_yd100_distz6e-06 ,0.75 ,1000.0 ,100 ,6.3872e+00 ,0.397853695
rhor10_yd10000_distz6e-06 ,0.75 ,10.0 ,10000 ,6.3872e+00 ,0.588125442375
rhor1000_yd10_distz2e-06 ,0.25 ,1000.0 ,10 ,6.3872e-01 ,1.28913724875
rhor1000_yd1000_distz4e-06 ,0.5 ,1000.0 ,1000 ,6.3872e+01 ,2.98242596625
rhor1_yd20000_distz2e-06 ,0.25 ,1.0 ,20000 ,1.2774e+00 ,0.9986991325
rhor1000_yd20000_distz8e-06 ,1.0 ,1000.0 ,20000 ,1.2774e+03 ,7.27958130125
rhor1000_yd20000_distz4e-06 ,0.5 ,1000.0 ,20000 ,1.2774e+03 ,16.6346268013
rhor1000_yd100_distz8e-06 ,1.0 ,1000.0 ,100 ,6.3872e+00 ,0.2297048825
rhor100_yd1000_distz2e-06 ,0.25 ,100.0 ,1000 ,6.3872e+00 ,1.40709274863
rhor1000_yd1000_distz6e-06 ,0.75 ,1000.0 ,1000 ,6.3872e+01 ,4.46130909125
rhor10000_yd10_distz6e-06 ,0.75 ,10000.0 ,10 ,6.3872e+00 ,0.39659303625
rhor10000_yd100_distz6e-06 ,0.75 ,10000.0 ,100 ,6.3872e+01 ,5.174481575
rhor100_yd100_distz2e-06 ,0.25 ,100.0 ,100 ,6.3872e-01 ,1.2725935325
rhor1_yd1000_distz2e-06 ,0.25 ,1.0 ,1000 ,6.3872e-02 ,1.232970855
rhor100_yd1000_distz8e-06 ,1.0 ,100.0 ,1000 ,6.3872e+00 ,0.245430798625
rhor1_yd10_distz4e-06 ,0.5 ,1.0 ,10 ,6.3872e-04 ,0.67199080025
rhor100_yd20000_distz4e-06 ,0.5 ,100.0 ,20000 ,1.2774e+02 ,7.1971608
rhor1000_yd100_distz2e-06 ,0.25 ,1000.0 ,100 ,6.3872e+00 ,1.423598845
rhor1_yd20000_distz4e-06 ,0.5 ,1.0 ,20000 ,1.2774e+00 ,0.88508087
rhor10_yd100_distz8e-06 ,1.0 ,10.0 ,100 ,6.3872e-02 ,0.2323435925
rhor100_yd1000_distz6e-06 ,0.75 ,100.0 ,1000 ,6.3872e+00 ,0.421970936125
rhor1_yd100_distz2e-06 ,0.25 ,1.0 ,100 ,6.3872e-03 ,1.25910373125
rhor100_yd1000_distz4e-06 ,0.5 ,100.0 ,1000 ,6.3872e+00 ,0.663139036125
rhor1000_yd10_distz6e-06 ,0.75 ,1000.0 ,10 ,6.3872e-01 ,0.38617442375
rhor10_yd10000_distz2e-06 ,0.25 ,10.0 ,10000 ,6.3872e+00 ,1.26129010487
rhor1000_yd1000_distz2e-06 ,0.25 ,1000.0 ,1000 ,6.3872e+01 ,3.00446721625
rhor10_yd10_distz2e-06 ,0.25 ,10.0 ,10 ,6.3872e-03 ,1.27477215762
rhor10_yd1000_distz6e-06 ,0.75 ,10.0 ,1000 ,6.3872e-01 ,0.41325389875
rhor100_yd20000_distz2e-06 ,0.25 ,100.0 ,20000 ,1.2774e+02 ,5.9537443
rhor10000_yd100_distz4e-06 ,0.5 ,10000.0 ,100 ,6.3872e+01 ,3.008270075
rhor10000_yd10_distz2e-06 ,0.25 ,10000.0 ,10 ,6.3872e+00 ,1.42482097375
rhor1_yd10000_distz4e-06 ,0.5 ,1.0 ,10000 ,6.3872e-01 ,0.83726022
rhor1_yd1000_distz6e-06 ,0.75 ,1.0 ,1000 ,6.3872e-02 ,0.41117328
rhor10000_yd1000_distz2e-06 ,0.25 ,10000.0 ,1000 ,6.3872e+02 ,10.3373755025
rhor10_yd10000_distz4e-06 ,0.5 ,10.0 ,10000 ,6.3872e+00 ,0.808323629875
rhor10000_yd100_distz8e-06 ,1.0 ,10000.0 ,100 ,6.3872e+01 ,0.31167245
rhor100_yd10_distz4e-06 ,0.5 ,100.0 ,10 ,6.3872e-02 ,0.668379812875
rhor100_yd10000_distz4e-06 ,0.5 ,100.0 ,10000 ,6.3872e+01 ,3.36890373
rhor100_yd10000_distz6e-06 ,0.75 ,100.0 ,10000 ,6.3872e+01 ,3.97640673
rhor10_yd100_distz2e-06 ,0.25 ,10.0 ,100 ,6.3872e-02 ,1.2600068425
rhor10_yd1000_distz2e-06 ,0.25 ,10.0 ,1000 ,6.3872e-01 ,1.24375056125
rhor10_yd100_distz6e-06 ,0.75 ,10.0 ,100 ,6.3872e-02 ,0.3868402925
rhor100_yd10000_distz2e-06 ,0.25 ,100.0 ,10000 ,6.3872e+01 ,3.29090223
rhor100_yd100_distz6e-06 ,0.75 ,100.0 ,100 ,6.3872e-01 ,0.387966595
rhor10000_yd10_distz4e-06 ,0.5 ,10000.0 ,10 ,6.3872e+00 ,0.65459511125
rhor10_yd10_distz8e-06 ,1.0 ,10.0 ,10 ,6.3872e-03 ,0.230513645125
rhor10000_yd100_distz2e-06 ,0.25 ,10000.0 ,100 ,6.3872e+01 ,2.9860712
