path,sep_ratio,rhor,yd,Stp,deviation
rhor10000_yd10_distz8e-06 ,1.0 ,10000.0 ,10 ,6.3872e+00 ,-0.0245374244
rhor100_yd20000_distz8e-06 ,1.0 ,100.0 ,20000 ,1.2774e+02 ,0.81234784125
rhor1_yd10_distz2e-06 ,0.25 ,1.0 ,10 ,6.3872e-04 ,0.338700665725
rhor10_yd20000_distz8e-06 ,1.0 ,10.0 ,20000 ,1.2774e+01 ,0.017746088625
rhor10_yd20000_distz6e-06 ,0.75 ,10.0 ,20000 ,1.2774e+01 ,0.0121555030625
rhor10_yd1000_distz4e-06 ,0.5 ,10.0 ,1000 ,6.3872e-01 ,0.01285581375
rhor100_yd10000_distz8e-06 ,1.0 ,100.0 ,10000 ,6.3872e+01 ,0.2604550625
rhor10_yd1000_distz8e-06 ,1.0 ,10.0 ,1000 ,6.3872e-01 ,-0.00746036825
rhor1000_yd100_distz4e-06 ,0.5 ,1000.0 ,100 ,6.3872e+00 ,0.001049609225
rhor1_yd100_distz6e-06 ,0.75 ,1.0 ,100 ,6.3872e-03 ,-0.002494471125
rhor100_yd10_distz8e-06 ,1.0 ,100.0 ,10 ,6.3872e-02 ,-0.00025713907
rhor10_yd10000_distz8e-06 ,1.0 ,10.0 ,10000 ,6.3872e+00 ,-0.0133658985
rhor100_yd100_distz8e-06 ,1.0 ,100.0 ,100 ,6.3872e-01 ,-0.00446220725
rhor1000_yd1000_distz8e-06 ,1.0 ,1000.0 ,1000 ,6.3872e+01 ,-0.017641005
rhor10_yd20000_distz2e-06 ,0.25 ,10.0 ,20000 ,1.2774e+01 ,0.218557871125
rhor1_yd1000_distz8e-06 ,1.0 ,1.0 ,1000 ,6.3872e-02 ,-0.0051206422225
rhor1_yd10000_distz8e-06 ,1.0 ,1.0 ,10000 ,6.3872e-01 ,0.00521940675
rhor1_yd100_distz8e-06 ,1.0 ,1.0 ,100 ,6.3872e-03 ,-0.00200629329125
rhor1_yd1000_distz4e-06 ,0.5 ,1.0 ,1000 ,6.3872e-02 ,0.007957509625
rhor1_yd20000_distz8e-06 ,1.0 ,1.0 ,20000 ,1.2774e+00 ,0.018705989375
rhor10_yd100_distz4e-06 ,0.5 ,10.0 ,100 ,6.3872e-02 ,0.00321599975
rhor100_yd10_distz2e-06 ,0.25 ,100.0 ,10 ,6.3872e-02 ,0.339385326092
rhor10_yd10_distz4e-06 ,0.5 ,10.0 ,10 ,6.3872e-03 ,-0.000430491043375
rhor100_yd10_distz6e-06 ,0.75 ,100.0 ,10 ,6.3872e-02 ,-0.000887570895
rhor100_yd100_distz4e-06 ,0.5 ,100.0 ,100 ,6.3872e-01 ,0.011908729375
rhor1000_yd10000_distz8e-06 ,1.0 ,1000.0 ,10000 ,6.3872e+02 ,1.091050733
rhor10_yd10_distz6e-06 ,0.75 ,10.0 ,10 ,6.3872e-03 ,-0.000592658605875
rhor1_yd10000_distz2e-06 ,0.25 ,1.0 ,10000 ,6.3872e-01 ,0.24022693175
rhor10_yd20000_distz4e-06 ,0.5 ,10.0 ,20000 ,1.2774e+01 ,0.101152231125
rhor1000_yd20000_distz2e-06 ,0.25 ,1000.0 ,20000 ,1.2774e+03 ,1.09633975412
rhor1000_yd10_distz8e-06 ,1.0 ,1000.0 ,10 ,6.3872e-01 ,-0.0026541032625
rhor1_yd10_distz6e-06 ,0.75 ,1.0 ,10 ,6.3872e-04 ,-0.00054227771275
rhor1_yd10000_distz6e-06 ,0.75 ,1.0 ,10000 ,6.3872e-01 ,0.0165131305
rhor1_yd10_distz8e-06 ,1.0 ,1.0 ,10 ,6.3872e-04 ,2.10786325e-05
rhor1_yd100_distz4e-06 ,0.5 ,1.0 ,100 ,6.3872e-03 ,0.00033763375
rhor1_yd20000_distz6e-06 ,0.75 ,1.0 ,20000 ,1.2774e+00 ,0.035599538875
rhor10000_yd1000_distz8e-06 ,1.0 ,10000.0 ,1000 ,6.3872e+02 ,0.0580760435375
rhor1000_yd10_distz4e-06 ,0.5 ,1000.0 ,10 ,6.3872e-01 ,0.0132543254875
rhor1000_yd100_distz6e-06 ,0.75 ,1000.0 ,100 ,6.3872e+00 ,-0.042042217525
rhor10_yd10000_distz6e-06 ,0.75 ,10.0 ,10000 ,6.3872e+00 ,-0.0034570685
rhor1000_yd10_distz2e-06 ,0.25 ,1000.0 ,10 ,6.3872e-01 ,0.336791529237
rhor1000_yd1000_distz4e-06 ,0.5 ,1000.0 ,1000 ,6.3872e+01 ,0.4558979075
rhor1_yd20000_distz2e-06 ,0.25 ,1.0 ,20000 ,1.2774e+00 ,0.147873453875
rhor1000_yd20000_distz8e-06 ,1.0 ,1000.0 ,20000 ,1.2774e+03 ,1.01382361663
rhor1000_yd20000_distz4e-06 ,0.5 ,1000.0 ,20000 ,1.2774e+03 ,1.72713070412
rhor1000_yd100_distz8e-06 ,1.0 ,1000.0 ,100 ,6.3872e+00 ,-0.025018817525
rhor100_yd1000_distz2e-06 ,0.25 ,100.0 ,1000 ,6.3872e+00 ,0.265184060125
rhor1000_yd1000_distz6e-06 ,0.75 ,1000.0 ,1000 ,6.3872e+01 ,0.84416067
rhor10000_yd10_distz6e-06 ,0.75 ,10000.0 ,10 ,6.3872e+00 ,-0.04173147815
rhor10000_yd100_distz6e-06 ,0.75 ,10000.0 ,100 ,6.3872e+01 ,0.93265475375
rhor100_yd100_distz2e-06 ,0.25 ,100.0 ,100 ,6.3872e-01 ,0.361912296875
rhor1_yd1000_distz2e-06 ,0.25 ,1.0 ,1000 ,6.3872e-02 ,0.367176727125
rhor100_yd1000_distz8e-06 ,1.0 ,100.0 ,1000 ,6.3872e+00 ,-0.032204543625
rhor1_yd10_distz4e-06 ,0.5 ,1.0 ,10 ,6.3872e-04 ,-0.00066874241275
rhor100_yd20000_distz4e-06 ,0.5 ,100.0 ,20000 ,1.2774e+02 ,1.18569762875
rhor1000_yd100_distz2e-06 ,0.25 ,1000.0 ,100 ,6.3872e+00 ,0.241039464975
rhor1_yd20000_distz4e-06 ,0.5 ,1.0 ,20000 ,1.2774e+00 ,0.095821197625
rhor10_yd100_distz8e-06 ,1.0 ,10.0 ,100 ,6.3872e-02 ,-0.0022424433125
rhor100_yd1000_distz6e-06 ,0.75 ,100.0 ,1000 ,6.3872e+00 ,-0.045569746125
rhor1_yd100_distz2e-06 ,0.25 ,1.0 ,100 ,6.3872e-03 ,0.360076207375
rhor100_yd1000_distz4e-06 ,0.5 ,100.0 ,1000 ,6.3872e+00 ,0.00021932275
rhor1000_yd10_distz6e-06 ,0.75 ,1000.0 ,10 ,6.3872e-01 ,-0.0044432881375
rhor10_yd10000_distz2e-06 ,0.25 ,10.0 ,10000 ,6.3872e+00 ,0.342265559375
rhor1000_yd1000_distz2e-06 ,0.25 ,1000.0 ,1000 ,6.3872e+01 ,0.4180419825
rhor10_yd10_distz2e-06 ,0.25 ,10.0 ,10 ,6.3872e-03 ,0.338746673269
rhor10_yd1000_distz6e-06 ,0.75 ,10.0 ,1000 ,6.3872e-01 ,-0.00896694325
rhor100_yd20000_distz2e-06 ,0.25 ,100.0 ,20000 ,1.2774e+02 ,0.86297950375
rhor10000_yd100_distz4e-06 ,0.5 ,10000.0 ,100 ,6.3872e+01 ,0.44436104125
rhor10000_yd10_distz2e-06 ,0.25 ,10000.0 ,10 ,6.3872e+00 ,0.23574895935
rhor1_yd10000_distz4e-06 ,0.5 ,1.0 ,10000 ,6.3872e-01 ,0.0566973955
rhor1_yd1000_distz6e-06 ,0.75 ,1.0 ,1000 ,6.3872e-02 ,-0.005380705825
rhor10000_yd1000_distz2e-06 ,0.25 ,10000.0 ,1000 ,6.3872e+02 ,0.802532192287
rhor10_yd10000_distz4e-06 ,0.5 ,10.0 ,10000 ,6.3872e+00 ,0.063105385625
rhor10000_yd100_distz8e-06 ,1.0 ,10000.0 ,100 ,6.3872e+01 ,-0.0211936625
rhor100_yd10_distz4e-06 ,0.5 ,100.0 ,10 ,6.3872e-02 ,0.0031781692175
rhor100_yd10000_distz4e-06 ,0.5 ,100.0 ,10000 ,6.3872e+01 ,0.6320442375
rhor100_yd10000_distz6e-06 ,0.75 ,100.0 ,10000 ,6.3872e+01 ,0.8712389
rhor10_yd100_distz2e-06 ,0.25 ,10.0 ,100 ,6.3872e-02 ,0.360731582125
rhor10_yd1000_distz2e-06 ,0.25 ,10.0 ,1000 ,6.3872e-01 ,0.365020535
rhor10_yd100_distz6e-06 ,0.75 ,10.0 ,100 ,6.3872e-02 ,-0.00283373355
rhor100_yd10000_distz2e-06 ,0.25 ,100.0 ,10000 ,6.3872e+01 ,0.5487937
rhor100_yd100_distz6e-06 ,0.75 ,100.0 ,100 ,6.3872e-01 ,-0.006234624
rhor10000_yd10_distz4e-06 ,0.5 ,10000.0 ,10 ,6.3872e+00 ,0.00226849535
rhor10_yd10_distz8e-06 ,1.0 ,10.0 ,10 ,6.3872e-03 ,-4.4686407125e-05
rhor10000_yd100_distz2e-06 ,0.25 ,10000.0 ,100 ,6.3872e+01 ,0.40622062875
