{
  "experiment_name": "timing",
  "num_ranks": 2,
  "metrics": [
    {
      "identifier": "MPI: particle handling",
      "timers": { "rank_0": 54.38, "rank_1": 51.65 }
    },
    {
      "identifier": "MPI: particle (overhead)",
      "timers": { "rank_0": 123.71, "rank_1": 102.80 }
    },
    {
      "identifier": "MPI: particle",
      "timers": { "rank_0": 570.08, "rank_1": 898.69 }
    },
    {
      "identifier": "CPU: particle handling",
      "timers": { "rank_0": 405.94, "rank_1": 267.37 }
    },
    {
      "identifier": "CPU: particle mapping",
      "timers": { "rank_0": 26830.59, "rank_1": 20460.32 }
    },
    {
      "identifier": "Copy: CPU -> GPU",
      "timers": { "rank_0": 41833.11, "rank_1": 18403.09 }
    },
    {
      "identifier": "CL: PartMapLP",
      "timers": { "rank_0": 24669.70, "rank_1": 35420.04 }
    },
    {
      "identifier": "Copy: GPU -> CPU",
      "timers": { "rank_0": 46500.93, "rank_1": 40249.97 }
    },
    {
      "identifier": "CL: LEGalilei",
      "timers": { "rank_0": 8339.99, "rank_1": 8417.14 }
    },
    {
      "identifier": "CL: LEShift",
      "timers": { "rank_0": 6865.34, "rank_1": 6829.19 }
    },
    {
      "identifier": "CL: PropagateCollide",
      "timers": { "rank_0": 143747.85, "rank_1": 69528.51 }
    },
    {
      "identifier": "OMP: part ext forces",
      "timers": { "rank_0": 20.37, "rank_1": 13.95 }
    },
    {
      "identifier": "OMP: part int forces",
      "timers": { "rank_0": 3660.00, "rank_1": 3290.49 }
    },
    {
      "identifier": "OMP: part-part forces",
      "timers": { "rank_0": 6955.68, "rank_1": 6926.02 }
    },
    {
      "identifier": "MPI: particle forces (overhead)",
      "timers": { "rank_0": 138.42, "rank_1": 156.20 }
    },
    {
      "identifier": "MPI: particle forces",
      "timers": { "rank_0": 1124.13, "rank_1": 100380.67 }
    },
    {
      "identifier": "OMP: particle dynamics",
      "timers": { "rank_0": 4174.21, "rank_1": 2407.22 }
    },
    {
      "identifier": "I/O: output",
      "timers": { "rank_0": 83954.86, "rank_1": 83894.49 }
    },
    {
      "identifier": "ALL: total time",
      "timers": { "rank_0": 663168.43, "rank_1": 663168.30 }
    }
  ]
}
