{
  "experiment_name": "timing",
  "num_ranks": 2,
  "metrics": [
    {
      "identifier": "MPI: particle handling",
      "timers": { "rank_0": 6858.43, "rank_1": 8270.68 }
    },
    {
      "identifier": "MPI: particle (overhead)",
      "timers": { "rank_0": 11958.45, "rank_1": 11185.24 }
    },
    {
      "identifier": "MPI: particle",
      "timers": { "rank_0": 58067.53, "rank_1": 55740.73 }
    },
    {
      "identifier": "CPU: particle handling",
      "timers": { "rank_0": 33680.15, "rank_1": 23762.23 }
    },
    {
      "identifier": "CPU: particle mapping",
      "timers": { "rank_0": 1634178.66, "rank_1": 2045052.42 }
    },
    {
      "identifier": "Copy: CPU -> GPU",
      "timers": { "rank_0": 3974827.66, "rank_1": 1859878.03 }
    },
    {
      "identifier": "CL: PartMapLP",
      "timers": { "rank_0": 1434145.30, "rank_1": 2681581.44 }
    },
    {
      "identifier": "Copy: GPU -> CPU",
      "timers": { "rank_0": 3477997.24, "rank_1": 2803053.00 }
    },
    {
      "identifier": "CL: LEGalilei",
      "timers": { "rank_0": 1551777.28, "rank_1": 1263875.22 }
    },
    {
      "identifier": "CL: LEShift",
      "timers": { "rank_0": 532256.57, "rank_1": 446497.00 }
    },
    {
      "identifier": "CL: PropagateCollide",
      "timers": { "rank_0": 6729708.38, "rank_1": 4272103.35 }
    },
    {
      "identifier": "OMP: part ext forces",
      "timers": { "rank_0": 1474.65, "rank_1": 1106.95 }
    },
    {
      "identifier": "OMP: part int forces",
      "timers": { "rank_0": 341443.01, "rank_1": 384662.79 }
    },
    {
      "identifier": "OMP: part-part forces",
      "timers": { "rank_0": 528600.48, "rank_1": 709273.22 }
    },
    {
      "identifier": "MPI: particle forces (overhead)",
      "timers": { "rank_0": 11910.34, "rank_1": 11864.52 }
    },
    {
      "identifier": "MPI: particle forces",
      "timers": { "rank_0": 82585.38, "rank_1": 4568963.63 }
    },
    {
      "identifier": "OMP: particle dynamics",
      "timers": { "rank_0": 358260.70, "rank_1": 315716.85 }
    },
    {
      "identifier": "I/O: output",
      "timers": { "rank_0": 189255.36, "rank_1": 216139.14 }
    },
    {
      "identifier": "ALL: total time",
      "timers": { "rank_0": 38863385.04, "rank_1": 38863030.17 }
    }
  ]
}
