{
  "experiment_name": "timing",
  "num_ranks": 2,
  "metrics": [
    {
      "identifier": "MPI: particle handling",
      "timers": { "rank_0": 5.69, "rank_1": 12.54 }
    },
    {
      "identifier": "MPI: particle (overhead)",
      "timers": { "rank_0": 9.05, "rank_1": 7.61 }
    },
    {
      "identifier": "MPI: particle",
      "timers": { "rank_0": 51.40, "rank_1": 152.35 }
    },
    {
      "identifier": "CPU: particle handling",
      "timers": { "rank_0": 36.85, "rank_1": 15.93 }
    },
    {
      "identifier": "CPU: particle mapping",
      "timers": { "rank_0": 1182.21, "rank_1": 1708.75 }
    },
    {
      "identifier": "Copy: CPU -> GPU",
      "timers": { "rank_0": 2845.36, "rank_1": 1538.86 }
    },
    {
      "identifier": "CL: PartMapLP",
      "timers": { "rank_0": 1021.12, "rank_1": 1770.59 }
    },
    {
      "identifier": "Copy: GPU -> CPU",
      "timers": { "rank_0": 2653.21, "rank_1": 2179.22 }
    },
    {
      "identifier": "CL: LEGalilei",
      "timers": { "rank_0": 2307.85, "rank_1": 1422.91 }
    },
    {
      "identifier": "CL: LEShift",
      "timers": { "rank_0": 816.00, "rank_1": 844.25 }
    },
    {
      "identifier": "CL: PropagateCollide",
      "timers": { "rank_0": 6706.02, "rank_1": 3054.92 }
    },
    {
      "identifier": "OMP: part ext forces",
      "timers": { "rank_0": 1.38, "rank_1": 1.11 }
    },
    {
      "identifier": "OMP: part int forces",
      "timers": { "rank_0": 307.26, "rank_1": 347.70 }
    },
    {
      "identifier": "OMP: part-part forces",
      "timers": { "rank_0": 364.66, "rank_1": 472.48 }
    },
    {
      "identifier": "MPI: particle forces (overhead)",
      "timers": { "rank_0": 8.40, "rank_1": 8.51 }
    },
    {
      "identifier": "MPI: particle forces",
      "timers": { "rank_0": 90.26, "rank_1": 5855.90 }
    },
    {
      "identifier": "OMP: particle dynamics",
      "timers": { "rank_0": 455.56, "rank_1": 308.66 }
    },
    {
      "identifier": "I/O: output",
      "timers": { "rank_0": 90066.96, "rank_1": 100531.96 }
    },
    {
      "identifier": "ALL: total time",
      "timers": { "rank_0": 134462.32, "rank_1": 134428.02 }
    }
  ]
}
