{
  "experiment_name": "timing",
  "num_ranks": 2,
  "metrics": [
    {
      "identifier": "MPI: particle handling",
      "timers": { "rank_0": 10.89, "rank_1": 21.86 }
    },
    {
      "identifier": "MPI: particle (overhead)",
      "timers": { "rank_0": 37.79, "rank_1": 37.93 }
    },
    {
      "identifier": "MPI: particle",
      "timers": { "rank_0": 447.48, "rank_1": 90.10 }
    },
    {
      "identifier": "CPU: particle handling",
      "timers": { "rank_0": 80.72, "rank_1": 80.54 }
    },
    {
      "identifier": "CPU: particle mapping",
      "timers": { "rank_0": 5343.72, "rank_1": 6326.97 }
    },
    {
      "identifier": "Copy: CPU -> GPU",
      "timers": { "rank_0": 11966.11, "rank_1": 5905.87 }
    },
    {
      "identifier": "CL: PartMapLP",
      "timers": { "rank_0": 4924.57, "rank_1": 9503.82 }
    },
    {
      "identifier": "Copy: GPU -> CPU",
      "timers": { "rank_0": 13899.67, "rank_1": 31524.33 }
    },
    {
      "identifier": "CL: LEGalilei",
      "timers": { "rank_0": 2294.03, "rank_1": 2799.20 }
    },
    {
      "identifier": "CL: LEShift",
      "timers": { "rank_0": 1003.75, "rank_1": 1155.94 }
    },
    {
      "identifier": "CL: PropagateCollide",
      "timers": { "rank_0": 19356.95, "rank_1": 18482.86 }
    },
    {
      "identifier": "OMP: part ext forces",
      "timers": { "rank_0": 2.95, "rank_1": 2.71 }
    },
    {
      "identifier": "OMP: part int forces",
      "timers": { "rank_0": 722.90, "rank_1": 741.88 }
    },
    {
      "identifier": "OMP: part-part forces",
      "timers": { "rank_0": 1941.21, "rank_1": 2133.75 }
    },
    {
      "identifier": "MPI: particle forces (overhead)",
      "timers": { "rank_0": 43.16, "rank_1": 40.67 }
    },
    {
      "identifier": "MPI: particle forces",
      "timers": { "rank_0": 181.63, "rank_1": 4232.39 }
    },
    {
      "identifier": "OMP: particle dynamics",
      "timers": { "rank_0": 665.24, "rank_1": 617.51 }
    },
    {
      "identifier": "I/O: output",
      "timers": { "rank_0": 448809.59, "rank_1": 476882.02 }
    },
    {
      "identifier": "ALL: total time",
      "timers": { "rank_0": 621097.52, "rank_1": 620784.72 }
    }
  ]
}
