{
  "experiment_name": "timing",
  "num_ranks": 2,
  "metrics": [
    {
      "identifier": "MPI: particle handling",
      "timers": { "rank_0": 223.52, "rank_1": 228.61 }
    },
    {
      "identifier": "MPI: particle (overhead)",
      "timers": { "rank_0": 295.26, "rank_1": 302.23 }
    },
    {
      "identifier": "MPI: particle",
      "timers": { "rank_0": 11332.07, "rank_1": 1894.53 }
    },
    {
      "identifier": "CPU: particle handling",
      "timers": { "rank_0": 986.60, "rank_1": 1347.81 }
    },
    {
      "identifier": "CPU: particle mapping",
      "timers": { "rank_0": 645.45, "rank_1": 517.10 }
    },
    {
      "identifier": "Copy: CPU -> GPU",
      "timers": { "rank_0": 1018.95, "rank_1": 422.91 }
    },
    {
      "identifier": "CL: PartMapLP",
      "timers": { "rank_0": 541.67, "rank_1": 861.16 }
    },
    {
      "identifier": "Copy: GPU -> CPU",
      "timers": { "rank_0": 1383.21, "rank_1": 2168.08 }
    },
    {
      "identifier": "CL: LEGalilei",
      "timers": { "rank_0": 249.82, "rank_1": 255.29 }
    },
    {
      "identifier": "CL: LEShift",
      "timers": { "rank_0": 208.36, "rank_1": 202.59 }
    },
    {
      "identifier": "CL: PropagateCollide",
      "timers": { "rank_0": 3360.91, "rank_1": 1276.73 }
    },
    {
      "identifier": "OMP: part ext forces",
      "timers": { "rank_0": 55.78, "rank_1": 66.61 }
    },
    {
      "identifier": "OMP: part int forces",
      "timers": { "rank_0": 13756.91, "rank_1": 16548.02 }
    },
    {
      "identifier": "OMP: part-part forces",
      "timers": { "rank_0": 24745.92, "rank_1": 28517.51 }
    },
    {
      "identifier": "MPI: particle forces (overhead)",
      "timers": { "rank_0": 340.96, "rank_1": 400.94 }
    },
    {
      "identifier": "MPI: particle forces",
      "timers": { "rank_0": 26371.62, "rank_1": 5069.48 }
    },
    {
      "identifier": "OMP: particle dynamics",
      "timers": { "rank_0": 15142.20, "rank_1": 16544.90 }
    },
    {
      "identifier": "I/O: output",
      "timers": { "rank_0": 106315.06, "rank_1": 105342.79 }
    },
    {
      "identifier": "ALL: total time",
      "timers": { "rank_0": 238111.03, "rank_1": 238151.88 }
    }
  ]
}
