3.1099972e-05	1.65e-05	1.8499986e-05
3.1699888e-05	1.65e-05	1.8499939e-05
3.2299739e-05	1.65e-05	1.8499788e-05
3.289945e-05	1.65e-05	1.8499534e-05
3.3498951e-05	1.65e-05	1.8499257e-05
3.4098264e-05	1.65e-05	1.8499088e-05
3.4697493e-05	1.65e-05	1.8499097e-05
3.5296771e-05	1.65e-05	1.8499201e-05
3.5896153e-05	1.65e-05	1.849921e-05
3.6495493e-05	1.65e-05	1.8498921e-05
3.7094538e-05	1.65e-05	1.8498419e-05
3.7693217e-05	1.65e-05	1.8498004e-05
3.8291693e-05	1.65e-05	1.849789e-05
3.8890224e-05	1.65e-05	1.8498066e-05
3.9488962e-05	1.65e-05	1.8498224e-05
4.0087765e-05	1.65e-05	1.8498025e-05
4.0686275e-05	1.65e-05	1.8497441e-05
4.1284254e-05	1.65e-05	1.8496806e-05
4.1881822e-05	1.65e-05	1.8496545e-05
4.2479342e-05	1.65e-05	1.849674e-05
4.3077072e-05	1.65e-05	1.8497073e-05
4.3674917e-05	1.65e-05	1.8497113e-05
4.4272499e-05	1.65e-05	1.8496682e-05
4.4869449e-05	1.65e-05	1.8496067e-05
4.5465732e-05	1.65e-05	1.8495771e-05
4.6061718e-05	1.65e-05	1.8496073e-05
4.6657774e-05	1.65e-05	1.8496718e-05
4.7253857e-05	1.65e-05	1.8497214e-05
4.7849611e-05	1.65e-05	1.8497342e-05
4.8444615e-05	1.65e-05	1.8497226e-05
4.9038627e-05	1.65e-05	1.8497365e-05
4.9631862e-05	1.65e-05	1.8498219e-05
5.0224697e-05	1.65e-05	1.8499684e-05
5.0817099e-05	1.65e-05	1.8501359e-05
5.1408663e-05	1.65e-05	1.8503016e-05
5.1998875e-05	1.65e-05	1.8504781e-05
5.2587198e-05	1.65e-05	1.8507115e-05
5.3173348e-05	1.65e-05	1.8510678e-05
5.3757218e-05	1.65e-05	1.8515862e-05
5.4338217e-05	1.65e-05	1.8522764e-05
5.4915015e-05	1.65e-05	1.853191e-05
5.5485457e-05	1.65e-05	1.8544619e-05
5.6046022e-05	1.65e-05	1.8563414e-05
5.6589567e-05	1.65e-05	1.8594141e-05
5.7088026e-05	1.65e-05	1.8659015e-05
5.7326037e-05	1.65e-05	1.8936537e-05
5.7574394e-05	1.65e-05	1.9230938e-05
5.786359e-05	1.65e-05	1.9510936e-05
5.8194633e-05	1.65e-05	1.9772931e-05
5.8570786e-05	1.65e-05	2.0010624e-05
5.8995179e-05	1.65e-05	2.0217827e-05
5.9468861e-05	1.65e-05	2.0388188e-05
5.9991032e-05	1.65e-05	2.0516252e-05
6.0559073e-05	1.65e-05	2.0600152e-05
6.1166592e-05	1.65e-05	2.0643771e-05
6.1807663e-05	1.65e-05	2.0654878e-05
6.2478477e-05	1.65e-05	2.0643244e-05
6.3176443e-05	1.65e-05	2.0616809e-05
6.3899652e-05	1.65e-05	2.0581495e-05
6.46468e-05	1.65e-05	2.0541791e-05
6.5416772e-05	1.65e-05	2.0500636e-05
6.620847e-05	1.65e-05	2.0459577e-05
6.7020364e-05	1.65e-05	2.0419089e-05
6.7850469e-05	1.65e-05	2.0379609e-05
6.8697145e-05	1.65e-05	2.0341959e-05
6.9559238e-05	1.65e-05	2.0306701e-05
7.043574e-05	1.65e-05	2.0273941e-05
7.1325758e-05	1.65e-05	2.0243382e-05
7.2228209e-05	1.65e-05	2.0214244e-05
7.3141419e-05	1.65e-05	2.0185872e-05
7.4063737e-05	1.65e-05	2.0158507e-05
7.4994263e-05	1.65e-05	2.0132807e-05
7.5932583e-05	1.65e-05	2.0109061e-05
7.6878372e-05	1.65e-05	2.0087065e-05
7.7831143e-05	1.65e-05	2.0066168e-05
7.8789923e-05	1.65e-05	2.0045675e-05
7.9753474e-05	1.65e-05	2.0025515e-05
8.0720986e-05	1.65e-05	2.0006249e-05
8.169226e-05	1.65e-05	1.9988368e-05
8.2667284e-05	1.65e-05	1.9971835e-05
8.3645857e-05	1.65e-05	1.9956217e-05
8.4627469e-05	1.65e-05	1.9941013e-05
8.5611394e-05	1.65e-05	1.9926017e-05
8.659702e-05	1.65e-05	1.9911444e-05
8.7584077e-05	1.65e-05	1.9897651e-05
8.8572538e-05	1.65e-05	1.9884764e-05
8.9562315e-05	1.65e-05	1.987263e-05
9.0553183e-05	1.65e-05	1.9861022e-05
9.1544838e-05	1.65e-05	1.984978e-05
9.2536993e-05	1.65e-05	1.9838844e-05
9.352938e-05	1.65e-05	1.9828202e-05
9.4521731e-05	1.65e-05	1.9817935e-05
9.5513874e-05	1.65e-05	1.9808189e-05
9.6505741e-05	1.65e-05	1.9799061e-05
9.7497334e-05	1.65e-05	1.9790537e-05
9.8488656e-05	1.65e-05	1.9782431e-05
9.9479556e-05	1.65e-05	1.977444e-05
0.00010046963	1.65e-05	1.9766425e-05
0.0001014585	1.65e-05	1.9758622e-05
0.00010244604	1.65e-05	1.9751436e-05
0.0001024461	1.65e-05	1.9751436e-05
