{
  "experiment_name": "timing",
  "num_ranks": 2,
  "metrics": [
    {
      "identifier": "MPI: particle handling",
      "timers": { "rank_0": 8977.70, "rank_1": 8432.00 }
    },
    {
      "identifier": "MPI: particle (overhead)",
      "timers": { "rank_0": 12527.58, "rank_1": 11905.04 }
    },
    {
      "identifier": "MPI: particle",
      "timers": { "rank_0": 75673.75, "rank_1": 204401.58 }
    },
    {
      "identifier": "CPU: particle handling",
      "timers": { "rank_0": 45260.72, "rank_1": 29136.93 }
    },
    {
      "identifier": "CPU: particle mapping",
      "timers": { "rank_0": 594.78, "rank_1": 663.95 }
    },
    {
      "identifier": "Copy: CPU -> GPU",
      "timers": { "rank_0": 1388.17, "rank_1": 585.39 }
    },
    {
      "identifier": "CL: PartMapLP",
      "timers": { "rank_0": 508.67, "rank_1": 1053.77 }
    },
    {
      "identifier": "Copy: GPU -> CPU",
      "timers": { "rank_0": 1513.51, "rank_1": 1407.91 }
    },
    {
      "identifier": "CL: LEGalilei",
      "timers": { "rank_0": 524.49, "rank_1": 435.79 }
    },
    {
      "identifier": "CL: LEShift",
      "timers": { "rank_0": 297.16, "rank_1": 269.63 }
    },
    {
      "identifier": "CL: PropagateCollide",
      "timers": { "rank_0": 3237.56, "rank_1": 1348.33 }
    },
    {
      "identifier": "OMP: part ext forces",
      "timers": { "rank_0": 2295.35, "rank_1": 2089.28 }
    },
    {
      "identifier": "OMP: part int forces",
      "timers": { "rank_0": 784434.98, "rank_1": 601177.68 }
    },
    {
      "identifier": "OMP: part-part forces",
      "timers": { "rank_0": 1202522.06, "rank_1": 1053631.52 }
    },
    {
      "identifier": "MPI: particle forces (overhead)",
      "timers": { "rank_0": 13660.41, "rank_1": 12595.79 }
    },
    {
      "identifier": "MPI: particle forces",
      "timers": { "rank_0": 259497.11, "rank_1": 868407.34 }
    },
    {
      "identifier": "OMP: particle dynamics",
      "timers": { "rank_0": 977960.92, "rank_1": 596794.49 }
    },
    {
      "identifier": "I/O: output",
      "timers": { "rank_0": 91953.20, "rank_1": 98217.97 }
    },
    {
      "identifier": "ALL: total time",
      "timers": { "rank_0": 4561645.41, "rank_1": 4561608.59 }
    }
  ]
}
