{
  "experiment_name": "timing",
  "num_ranks": 2,
  "metrics": [
    {
      "identifier": "MPI: particle handling",
      "timers": { "rank_0": 53.63, "rank_1": 136.48 }
    },
    {
      "identifier": "MPI: particle (overhead)",
      "timers": { "rank_0": 161.73, "rank_1": 177.98 }
    },
    {
      "identifier": "MPI: particle",
      "timers": { "rank_0": 812.73, "rank_1": 580.12 }
    },
    {
      "identifier": "CPU: particle handling",
      "timers": { "rank_0": 362.03, "rank_1": 292.93 }
    },
    {
      "identifier": "CPU: particle mapping",
      "timers": { "rank_0": 19940.77, "rank_1": 24151.18 }
    },
    {
      "identifier": "Copy: CPU -> GPU",
      "timers": { "rank_0": 47642.69, "rank_1": 22040.47 }
    },
    {
      "identifier": "CL: PartMapLP",
      "timers": { "rank_0": 18031.53, "rank_1": 36479.93 }
    },
    {
      "identifier": "Copy: GPU -> CPU",
      "timers": { "rank_0": 48617.32, "rank_1": 41137.24 }
    },
    {
      "identifier": "CL: LEGalilei",
      "timers": { "rank_0": 12366.99, "rank_1": 12441.52 }
    },
    {
      "identifier": "CL: LEShift",
      "timers": { "rank_0": 4388.74, "rank_1": 4128.45 }
    },
    {
      "identifier": "CL: PropagateCollide",
      "timers": { "rank_0": 76941.15, "rank_1": 62192.47 }
    },
    {
      "identifier": "OMP: part ext forces",
      "timers": { "rank_0": 14.80, "rank_1": 11.82 }
    },
    {
      "identifier": "OMP: part int forces",
      "timers": { "rank_0": 3390.85, "rank_1": 3828.60 }
    },
    {
      "identifier": "OMP: part-part forces",
      "timers": { "rank_0": 6925.83, "rank_1": 8857.78 }
    },
    {
      "identifier": "MPI: particle forces (overhead)",
      "timers": { "rank_0": 169.94, "rank_1": 165.06 }
    },
    {
      "identifier": "MPI: particle forces",
      "timers": { "rank_0": 932.02, "rank_1": 35697.18 }
    },
    {
      "identifier": "OMP: particle dynamics",
      "timers": { "rank_0": 3256.61, "rank_1": 3090.80 }
    },
    {
      "identifier": "I/O: output",
      "timers": { "rank_0": 285823.77, "rank_1": 317483.84 }
    },
    {
      "identifier": "ALL: total time",
      "timers": { "rank_0": 756239.85, "rank_1": 755822.12 }
    }
  ]
}
