{
  "experiment_name": "timing",
  "num_ranks": 2,
  "metrics": [
    {
      "identifier": "MPI: particle handling",
      "timers": { "rank_0": 5.73, "rank_1": 6.65 }
    },
    {
      "identifier": "MPI: particle (overhead)",
      "timers": { "rank_0": 16.10, "rank_1": 15.08 }
    },
    {
      "identifier": "MPI: particle",
      "timers": { "rank_0": 64.64, "rank_1": 82.22 }
    },
    {
      "identifier": "CPU: particle handling",
      "timers": { "rank_0": 45.48, "rank_1": 37.23 }
    },
    {
      "identifier": "CPU: particle mapping",
      "timers": { "rank_0": 2153.67, "rank_1": 1946.91 }
    },
    {
      "identifier": "Copy: CPU -> GPU",
      "timers": { "rank_0": 8683.39, "rank_1": 1752.26 }
    },
    {
      "identifier": "CL: PartMapLP",
      "timers": { "rank_0": 1961.80, "rank_1": 7934.26 }
    },
    {
      "identifier": "Copy: GPU -> CPU",
      "timers": { "rank_0": 18934.09, "rank_1": 19093.52 }
    },
    {
      "identifier": "CL: LEGalilei",
      "timers": { "rank_0": 680.53, "rank_1": 753.08 }
    },
    {
      "identifier": "CL: LEShift",
      "timers": { "rank_0": 459.62, "rank_1": 536.71 }
    },
    {
      "identifier": "CL: PropagateCollide",
      "timers": { "rank_0": 8067.98, "rank_1": 6501.28 }
    },
    {
      "identifier": "OMP: part ext forces",
      "timers": { "rank_0": 1.44, "rank_1": 1.37 }
    },
    {
      "identifier": "OMP: part int forces",
      "timers": { "rank_0": 401.77, "rank_1": 402.77 }
    },
    {
      "identifier": "OMP: part-part forces",
      "timers": { "rank_0": 777.63, "rank_1": 856.85 }
    },
    {
      "identifier": "MPI: particle forces (overhead)",
      "timers": { "rank_0": 17.46, "rank_1": 16.47 }
    },
    {
      "identifier": "MPI: particle forces",
      "timers": { "rank_0": 142.72, "rank_1": 5547.67 }
    },
    {
      "identifier": "OMP: particle dynamics",
      "timers": { "rank_0": 349.08, "rank_1": 332.08 }
    },
    {
      "identifier": "I/O: output",
      "timers": { "rank_0": 333495.55, "rank_1": 334672.34 }
    },
    {
      "identifier": "ALL: total time",
      "timers": { "rank_0": 414713.50, "rank_1": 414650.40 }
    }
  ]
}
