{
  "experiment_name": "timing",
  "num_ranks": 2,
  "metrics": [
    {
      "identifier": "MPI: particle handling",
      "timers": { "rank_0": 713.71, "rank_1": 1066.90 }
    },
    {
      "identifier": "MPI: particle (overhead)",
      "timers": { "rank_0": 2892.83, "rank_1": 2802.86 }
    },
    {
      "identifier": "MPI: particle",
      "timers": { "rank_0": 9168.89, "rank_1": 12095.73 }
    },
    {
      "identifier": "CPU: particle handling",
      "timers": { "rank_0": 6486.77, "rank_1": 6144.31 }
    },
    {
      "identifier": "CPU: particle mapping",
      "timers": { "rank_0": 632402.48, "rank_1": 610342.02 }
    },
    {
      "identifier": "Copy: CPU -> GPU",
      "timers": { "rank_0": 1119449.08, "rank_1": 577607.77 }
    },
    {
      "identifier": "CL: PartMapLP",
      "timers": { "rank_0": 599306.10, "rank_1": 894707.34 }
    },
    {
      "identifier": "Copy: GPU -> CPU",
      "timers": { "rank_0": 2782154.32, "rank_1": 2669788.05 }
    },
    {
      "identifier": "CL: LEGalilei",
      "timers": { "rank_0": 201724.55, "rank_1": 189511.25 }
    },
    {
      "identifier": "CL: LEShift",
      "timers": { "rank_0": 101458.34, "rank_1": 110160.03 }
    },
    {
      "identifier": "CL: PropagateCollide",
      "timers": { "rank_0": 2048281.48, "rank_1": 1892909.58 }
    },
    {
      "identifier": "OMP: part ext forces",
      "timers": { "rank_0": 261.43, "rank_1": 204.87 }
    },
    {
      "identifier": "OMP: part int forces",
      "timers": { "rank_0": 50990.39, "rank_1": 53693.28 }
    },
    {
      "identifier": "OMP: part-part forces",
      "timers": { "rank_0": 150872.30, "rank_1": 172975.70 }
    },
    {
      "identifier": "MPI: particle forces (overhead)",
      "timers": { "rank_0": 3405.04, "rank_1": 3002.19 }
    },
    {
      "identifier": "MPI: particle forces",
      "timers": { "rank_0": 14859.49, "rank_1": 679736.24 }
    },
    {
      "identifier": "OMP: particle dynamics",
      "timers": { "rank_0": 56616.80, "rank_1": 46046.11 }
    },
    {
      "identifier": "I/O: output",
      "timers": { "rank_0": 315574.86, "rank_1": 335312.23 }
    },
    {
      "identifier": "ALL: total time",
      "timers": { "rank_0": 16316802.63, "rank_1": 16315999.12 }
    }
  ]
}
