{
  "experiment_name": "timing",
  "num_ranks": 2,
  "metrics": [
    {
      "identifier": "MPI: particle handling",
      "timers": { "rank_0": 5.79, "rank_1": 6.05 }
    },
    {
      "identifier": "MPI: particle (overhead)",
      "timers": { "rank_0": 8.11, "rank_1": 8.31 }
    },
    {
      "identifier": "MPI: particle",
      "timers": { "rank_0": 223.22, "rank_1": 40.56 }
    },
    {
      "identifier": "CPU: particle handling",
      "timers": { "rank_0": 25.66, "rank_1": 29.13 }
    },
    {
      "identifier": "CPU: particle mapping",
      "timers": { "rank_0": 609.21, "rank_1": 557.93 }
    },
    {
      "identifier": "Copy: CPU -> GPU",
      "timers": { "rank_0": 1822.71, "rank_1": 474.75 }
    },
    {
      "identifier": "CL: PartMapLP",
      "timers": { "rank_0": 522.79, "rank_1": 1505.53 }
    },
    {
      "identifier": "Copy: GPU -> CPU",
      "timers": { "rank_0": 1802.70, "rank_1": 2324.02 }
    },
    {
      "identifier": "CL: LEGalilei",
      "timers": { "rank_0": 283.43, "rank_1": 299.10 }
    },
    {
      "identifier": "CL: LEShift",
      "timers": { "rank_0": 217.45, "rank_1": 228.37 }
    },
    {
      "identifier": "CL: PropagateCollide",
      "timers": { "rank_0": 3132.25, "rank_1": 1290.23 }
    },
    {
      "identifier": "OMP: part ext forces",
      "timers": { "rank_0": 1.34, "rank_1": 1.42 }
    },
    {
      "identifier": "OMP: part int forces",
      "timers": { "rank_0": 337.86, "rank_1": 348.58 }
    },
    {
      "identifier": "OMP: part-part forces",
      "timers": { "rank_0": 503.42, "rank_1": 485.08 }
    },
    {
      "identifier": "MPI: particle forces (overhead)",
      "timers": { "rank_0": 9.05, "rank_1": 9.20 }
    },
    {
      "identifier": "MPI: particle forces",
      "timers": { "rank_0": 319.72, "rank_1": 2739.02 }
    },
    {
      "identifier": "OMP: particle dynamics",
      "timers": { "rank_0": 354.28, "rank_1": 298.03 }
    },
    {
      "identifier": "I/O: output",
      "timers": { "rank_0": 108307.96, "rank_1": 109253.15 }
    },
    {
      "identifier": "ALL: total time",
      "timers": { "rank_0": 127767.74, "rank_1": 127768.01 }
    }
  ]
}
