{
  "experiment_name": "timing",
  "num_ranks": 2,
  "metrics": [
    {
      "identifier": "MPI: particle handling",
      "timers": { "rank_0": 5.77, "rank_1": 8.39 }
    },
    {
      "identifier": "MPI: particle (overhead)",
      "timers": { "rank_0": 11.80, "rank_1": 11.02 }
    },
    {
      "identifier": "MPI: particle",
      "timers": { "rank_0": 49.25, "rank_1": 55.38 }
    },
    {
      "identifier": "CPU: particle handling",
      "timers": { "rank_0": 32.80, "rank_1": 22.95 }
    },
    {
      "identifier": "CPU: particle mapping",
      "timers": { "rank_0": 1713.86, "rank_1": 1595.64 }
    },
    {
      "identifier": "Copy: CPU -> GPU",
      "timers": { "rank_0": 3270.97, "rank_1": 1416.94 }
    },
    {
      "identifier": "CL: PartMapLP",
      "timers": { "rank_0": 1528.08, "rank_1": 2601.17 }
    },
    {
      "identifier": "Copy: GPU -> CPU",
      "timers": { "rank_0": 3954.42, "rank_1": 3541.53 }
    },
    {
      "identifier": "CL: LEGalilei",
      "timers": { "rank_0": 703.67, "rank_1": 722.96 }
    },
    {
      "identifier": "CL: LEShift",
      "timers": { "rank_0": 466.25, "rank_1": 490.09 }
    },
    {
      "identifier": "CL: PropagateCollide",
      "timers": { "rank_0": 7684.54, "rank_1": 4616.61 }
    },
    {
      "identifier": "OMP: part ext forces",
      "timers": { "rank_0": 1.49, "rank_1": 1.14 }
    },
    {
      "identifier": "OMP: part int forces",
      "timers": { "rank_0": 334.93, "rank_1": 329.68 }
    },
    {
      "identifier": "OMP: part-part forces",
      "timers": { "rank_0": 580.20, "rank_1": 581.15 }
    },
    {
      "identifier": "MPI: particle forces (overhead)",
      "timers": { "rank_0": 13.52, "rank_1": 12.23 }
    },
    {
      "identifier": "MPI: particle forces",
      "timers": { "rank_0": 96.15, "rank_1": 4891.63 }
    },
    {
      "identifier": "OMP: particle dynamics",
      "timers": { "rank_0": 308.38, "rank_1": 257.85 }
    },
    {
      "identifier": "I/O: output",
      "timers": { "rank_0": 216801.59, "rank_1": 217105.29 }
    },
    {
      "identifier": "ALL: total time",
      "timers": { "rank_0": 253842.13, "rank_1": 253842.07 }
    }
  ]
}
