{
  "experiment_name": "timing",
  "num_ranks": 2,
  "metrics": [
    {
      "identifier": "MPI: particle handling",
      "timers": { "rank_0": 551.09, "rank_1": 746.91 }
    },
    {
      "identifier": "MPI: particle (overhead)",
      "timers": { "rank_0": 1167.99, "rank_1": 1099.36 }
    },
    {
      "identifier": "MPI: particle",
      "timers": { "rank_0": 5372.60, "rank_1": 5515.41 }
    },
    {
      "identifier": "CPU: particle handling",
      "timers": { "rank_0": 3121.09, "rank_1": 2349.56 }
    },
    {
      "identifier": "CPU: particle mapping",
      "timers": { "rank_0": 205796.50, "rank_1": 246476.15 }
    },
    {
      "identifier": "Copy: CPU -> GPU",
      "timers": { "rank_0": 442568.93, "rank_1": 228737.57 }
    },
    {
      "identifier": "CL: PartMapLP",
      "timers": { "rank_0": 186324.03, "rank_1": 271779.32 }
    },
    {
      "identifier": "Copy: GPU -> CPU",
      "timers": { "rank_0": 356096.49, "rank_1": 292992.77 }
    },
    {
      "identifier": "CL: LEGalilei",
      "timers": { "rank_0": 162754.36, "rank_1": 139355.34 }
    },
    {
      "identifier": "CL: LEShift",
      "timers": { "rank_0": 85635.46, "rank_1": 78130.25 }
    },
    {
      "identifier": "CL: PropagateCollide",
      "timers": { "rank_0": 776253.48, "rank_1": 481237.78 }
    },
    {
      "identifier": "OMP: part ext forces",
      "timers": { "rank_0": 149.53, "rank_1": 112.19 }
    },
    {
      "identifier": "OMP: part int forces",
      "timers": { "rank_0": 32280.40, "rank_1": 38321.35 }
    },
    {
      "identifier": "OMP: part-part forces",
      "timers": { "rank_0": 48812.54, "rank_1": 71353.87 }
    },
    {
      "identifier": "MPI: particle forces (overhead)",
      "timers": { "rank_0": 1268.94, "rank_1": 1187.63 }
    },
    {
      "identifier": "MPI: particle forces",
      "timers": { "rank_0": 10826.33, "rank_1": 498845.88 }
    },
    {
      "identifier": "OMP: particle dynamics",
      "timers": { "rank_0": 32651.19, "rank_1": 32836.21 }
    },
    {
      "identifier": "I/O: output",
      "timers": { "rank_0": 198307.73, "rank_1": 216122.18 }
    },
    {
      "identifier": "ALL: total time",
      "timers": { "rank_0": 4336230.95, "rank_1": 4335956.44 }
    }
  ]
}
