{
    "charge": {
        "type": "none"
    },
    "coating": {
        "type": "none"
    },
    "deform": {
        "type": "rigid"
    },
    "density": {
        "constant": {
            "rho": 10000.0
        },
        "type": "constant"
    },
    "friction": {
        "type": "none"
    },
    "magnetic": {
        "type": "none"
    },
    "repulsion": {
        "simple": {
            "c0": 0.0001,
            "dmax": 1e-09
        },
        "type": "simple"
    },
    "shape": {
        "type": "monoball"
    },
    "size": {
        "mono": {
            "diam": 8e-06
        },
        "type": "mono"
    },
    "vdWaals": {
        "type": "none"
    }
}