{
  "experiment_name": "timing",
  "num_ranks": 2,
  "metrics": [
    {
      "identifier": "MPI: particle handling",
      "timers": { "rank_0": 1304.68, "rank_1": 2887.60 }
    },
    {
      "identifier": "MPI: particle (overhead)",
      "timers": { "rank_0": 3094.34, "rank_1": 2911.16 }
    },
    {
      "identifier": "MPI: particle",
      "timers": { "rank_0": 12469.78, "rank_1": 10545.53 }
    },
    {
      "identifier": "CPU: particle handling",
      "timers": { "rank_0": 7909.86, "rank_1": 5845.33 }
    },
    {
      "identifier": "CPU: particle mapping",
      "timers": { "rank_0": 478621.69, "rank_1": 568910.56 }
    },
    {
      "identifier": "Copy: CPU -> GPU",
      "timers": { "rank_0": 1005707.93, "rank_1": 528254.38 }
    },
    {
      "identifier": "CL: PartMapLP",
      "timers": { "rank_0": 438266.75, "rank_1": 720828.14 }
    },
    {
      "identifier": "Copy: GPU -> CPU",
      "timers": { "rank_0": 876844.00, "rank_1": 830534.51 }
    },
    {
      "identifier": "CL: LEGalilei",
      "timers": { "rank_0": 244035.05, "rank_1": 221741.31 }
    },
    {
      "identifier": "CL: LEShift",
      "timers": { "rank_0": 133290.03, "rank_1": 132791.09 }
    },
    {
      "identifier": "CL: PropagateCollide",
      "timers": { "rank_0": 1647262.01, "rank_1": 1360224.13 }
    },
    {
      "identifier": "OMP: part ext forces",
      "timers": { "rank_0": 301.32, "rank_1": 222.81 }
    },
    {
      "identifier": "OMP: part int forces",
      "timers": { "rank_0": 64094.99, "rank_1": 75623.91 }
    },
    {
      "identifier": "OMP: part-part forces",
      "timers": { "rank_0": 130616.66, "rank_1": 173082.04 }
    },
    {
      "identifier": "MPI: particle forces (overhead)",
      "timers": { "rank_0": 3364.44, "rank_1": 3121.99 }
    },
    {
      "identifier": "MPI: particle forces",
      "timers": { "rank_0": 18009.47, "rank_1": 730302.89 }
    },
    {
      "identifier": "OMP: particle dynamics",
      "timers": { "rank_0": 64799.93, "rank_1": 61960.11 }
    },
    {
      "identifier": "I/O: output",
      "timers": { "rank_0": 301847.33, "rank_1": 325814.28 }
    },
    {
      "identifier": "ALL: total time",
      "timers": { "rank_0": 9522030.64, "rank_1": 9522025.83 }
    }
  ]
}
