{
  "experiment_name": "timing",
  "num_ranks": 2,
  "metrics": [
    {
      "identifier": "MPI: particle handling",
      "timers": { "rank_0": 2853.41, "rank_1": 2602.50 }
    },
    {
      "identifier": "MPI: particle (overhead)",
      "timers": { "rank_0": 6505.17, "rank_1": 5346.74 }
    },
    {
      "identifier": "MPI: particle",
      "timers": { "rank_0": 29209.74, "rank_1": 47149.93 }
    },
    {
      "identifier": "CPU: particle handling",
      "timers": { "rank_0": 21019.14, "rank_1": 13792.74 }
    },
    {
      "identifier": "CPU: particle mapping",
      "timers": { "rank_0": 1354833.92, "rank_1": 1029659.54 }
    },
    {
      "identifier": "Copy: CPU -> GPU",
      "timers": { "rank_0": 2139876.83, "rank_1": 924422.85 }
    },
    {
      "identifier": "CL: PartMapLP",
      "timers": { "rank_0": 1241221.88, "rank_1": 1838510.61 }
    },
    {
      "identifier": "Copy: GPU -> CPU",
      "timers": { "rank_0": 2387769.25, "rank_1": 1986338.87 }
    },
    {
      "identifier": "CL: LEGalilei",
      "timers": { "rank_0": 422204.10, "rank_1": 425808.98 }
    },
    {
      "identifier": "CL: LEShift",
      "timers": { "rank_0": 350225.13, "rank_1": 345780.19 }
    },
    {
      "identifier": "CL: PropagateCollide",
      "timers": { "rank_0": 7193022.06, "rank_1": 3482038.85 }
    },
    {
      "identifier": "OMP: part ext forces",
      "timers": { "rank_0": 1136.91, "rank_1": 737.00 }
    },
    {
      "identifier": "OMP: part int forces",
      "timers": { "rank_0": 189159.34, "rank_1": 166401.48 }
    },
    {
      "identifier": "OMP: part-part forces",
      "timers": { "rank_0": 352905.01, "rank_1": 366776.76 }
    },
    {
      "identifier": "MPI: particle forces (overhead)",
      "timers": { "rank_0": 7007.99, "rank_1": 8557.86 }
    },
    {
      "identifier": "MPI: particle forces",
      "timers": { "rank_0": 57403.45, "rank_1": 5049119.49 }
    },
    {
      "identifier": "OMP: particle dynamics",
      "timers": { "rank_0": 216962.80, "rank_1": 136808.34 }
    },
    {
      "identifier": "I/O: output",
      "timers": { "rank_0": 88713.60, "rank_1": 88700.45 }
    },
    {
      "identifier": "ALL: total time",
      "timers": { "rank_0": 29275667.95, "rank_1": 29275667.85 }
    }
  ]
}
