{
  "experiment_name": "timing",
  "num_ranks": 2,
  "metrics": [
    {
      "identifier": "MPI: particle handling",
      "timers": { "rank_0": 126.94, "rank_1": 190.28 }
    },
    {
      "identifier": "MPI: particle (overhead)",
      "timers": { "rank_0": 504.37, "rank_1": 516.81 }
    },
    {
      "identifier": "MPI: particle",
      "timers": { "rank_0": 1230.89, "rank_1": 1127.19 }
    },
    {
      "identifier": "CPU: particle handling",
      "timers": { "rank_0": 1069.25, "rank_1": 882.16 }
    },
    {
      "identifier": "CPU: particle mapping",
      "timers": { "rank_0": 65286.62, "rank_1": 70235.08 }
    },
    {
      "identifier": "Copy: CPU -> GPU",
      "timers": { "rank_0": 145238.58, "rank_1": 65446.27 }
    },
    {
      "identifier": "CL: PartMapLP",
      "timers": { "rank_0": 60626.81, "rank_1": 124810.29 }
    },
    {
      "identifier": "Copy: GPU -> CPU",
      "timers": { "rank_0": 168609.17, "rank_1": 151672.15 }
    },
    {
      "identifier": "CL: LEGalilei",
      "timers": { "rank_0": 30026.51, "rank_1": 28045.84 }
    },
    {
      "identifier": "CL: LEShift",
      "timers": { "rank_0": 13688.66, "rank_1": 11548.39 }
    },
    {
      "identifier": "CL: PropagateCollide",
      "timers": { "rank_0": 241046.31, "rank_1": 236343.07 }
    },
    {
      "identifier": "OMP: part ext forces",
      "timers": { "rank_0": 31.60, "rank_1": 21.82 }
    },
    {
      "identifier": "OMP: part int forces",
      "timers": { "rank_0": 7771.33, "rank_1": 8144.81 }
    },
    {
      "identifier": "OMP: part-part forces",
      "timers": { "rank_0": 25458.34, "rank_1": 29511.04 }
    },
    {
      "identifier": "MPI: particle forces (overhead)",
      "timers": { "rank_0": 517.78, "rank_1": 475.64 }
    },
    {
      "identifier": "MPI: particle forces",
      "timers": { "rank_0": 1777.79, "rank_1": 77844.32 }
    },
    {
      "identifier": "OMP: particle dynamics",
      "timers": { "rank_0": 6981.36, "rank_1": 6399.65 }
    },
    {
      "identifier": "I/O: output",
      "timers": { "rank_0": 616717.29, "rank_1": 654256.29 }
    },
    {
      "identifier": "ALL: total time",
      "timers": { "rank_0": 1999532.48, "rank_1": 1999015.31 }
    }
  ]
}
