0.00018409282	1.65e-05	2.8499995e-05
0.00018768565	1.65e-05	2.8499986e-05
0.0001912785	1.65e-05	2.8499975e-05
0.00019487135	1.65e-05	2.8499961e-05
0.00019846421	1.65e-05	2.8499945e-05
0.00020205708	1.65e-05	2.8499927e-05
0.00020564996	1.65e-05	2.8499908e-05
0.00020924285	1.65e-05	2.8499887e-05
0.00021283575	1.65e-05	2.8499866e-05
0.00021642866	1.65e-05	2.8499843e-05
0.00022002158	1.65e-05	2.8499815e-05
0.00022361451	1.65e-05	2.8499777e-05
0.00022720743	1.65e-05	2.849973e-05
0.00023080035	1.65e-05	2.8499683e-05
0.00023439326	1.65e-05	2.849964e-05
0.00023798617	1.65e-05	2.8499608e-05
0.00024157908	1.65e-05	2.849959e-05
0.00024517198	1.65e-05	2.849959e-05
0.0002487649	1.65e-05	2.8499612e-05
0.00025235784	1.65e-05	2.8499656e-05
0.0002559508	1.65e-05	2.8499719e-05
0.00025954379	1.65e-05	2.8499799e-05
0.0002631368	1.65e-05	2.84999e-05
0.00026672984	1.65e-05	2.8500026e-05
0.00027032291	1.65e-05	2.8500188e-05
0.00027391603	1.65e-05	2.8500387e-05
0.00027750923	1.65e-05	2.850062e-05
0.00028110251	1.65e-05	2.8500872e-05
0.0002846959	1.65e-05	2.850112e-05
0.00028828937	1.65e-05	2.8501334e-05
0.00029188291	1.65e-05	2.8501509e-05
0.00029547652	1.65e-05	2.8501651e-05
0.00029907021	1.65e-05	2.8501761e-05
0.000302664	1.65e-05	2.8501822e-05
0.00030625789	1.65e-05	2.8501813e-05
0.00030985187	1.65e-05	2.8501709e-05
0.00031344592	1.65e-05	2.8501488e-05
0.00031704	1.65e-05	2.8501139e-05
0.00032063405	1.65e-05	2.8500671e-05
0.00032422801	1.65e-05	2.8500122e-05
0.00032782184	1.65e-05	2.8499523e-05
0.00033141557	1.65e-05	2.8498863e-05
0.00033500925	1.65e-05	2.849809e-05
0.00033860288	1.65e-05	2.8497232e-05
0.0003421964	1.65e-05	2.8496364e-05
0.00034578981	1.65e-05	2.8495405e-05
0.00034938312	1.65e-05	2.8494386e-05
0.00035297627	1.65e-05	2.8493412e-05
0.0003565693	1.65e-05	2.8492463e-05
0.00036016225	1.65e-05	2.8491675e-05
0.00036375517	1.65e-05	2.849092e-05
0.00036734803	1.65e-05	2.8490159e-05
0.00037094078	1.65e-05	2.8489359e-05
0.00037453339	1.65e-05	2.848852e-05
0.00037812588	1.65e-05	2.8487704e-05
0.00038171827	1.65e-05	2.8486935e-05
0.00038531059	1.65e-05	2.8486207e-05
0.00038890287	1.65e-05	2.8485515e-05
0.00039249512	1.65e-05	2.848485e-05
0.00039608734	1.65e-05	2.8484207e-05
0.00039967952	1.65e-05	2.8483576e-05
0.00040327167	1.65e-05	2.8482958e-05
0.00040686379	1.65e-05	2.8482348e-05
0.00041045588	1.65e-05	2.8481744e-05
0.00041404792	1.65e-05	2.8481137e-05
0.00041763992	1.65e-05	2.8480526e-05
0.00042123187	1.65e-05	2.8479913e-05
0.00042482374	1.65e-05	2.8479304e-05
0.00042841555	1.65e-05	2.8478703e-05
0.00043200729	1.65e-05	2.847812e-05
0.00043559895	1.65e-05	2.8477561e-05
0.00043919054	1.65e-05	2.8477034e-05
0.00044278205	1.65e-05	2.8476548e-05
0.00044637349	1.65e-05	2.8476114e-05
0.00044996486	1.65e-05	2.8475739e-05
0.0004535562	1.65e-05	2.8475423e-05
0.00045714754	1.65e-05	2.8475152e-05
0.00046073895	1.65e-05	2.8474892e-05
0.00046433045	1.65e-05	2.8474628e-05
0.00046792197	1.65e-05	2.8474413e-05
0.00047151346	1.65e-05	2.8474284e-05
0.00047510497	1.65e-05	2.8474142e-05
0.00047869652	1.65e-05	2.8473965e-05
0.00048228804	1.65e-05	2.8473885e-05
0.00048587958	1.65e-05	2.8473782e-05
0.00048947113	1.65e-05	2.8473734e-05
0.00049306271	1.65e-05	2.8473712e-05
0.00049665433	1.65e-05	2.8473729e-05
0.00050024601	1.65e-05	2.8473726e-05
0.00050383774	1.65e-05	2.8473735e-05
0.0005074295	1.65e-05	2.8473677e-05
0.00051102127	1.65e-05	2.8473586e-05
0.00051461306	1.65e-05	2.8473473e-05
0.00051820486	1.65e-05	2.8473312e-05
0.00052179664	1.65e-05	2.8473096e-05
0.00052538839	1.65e-05	2.8472846e-05
0.0005289801	1.65e-05	2.8472575e-05
0.00053257179	1.65e-05	2.8472289e-05
0.00053616345	1.65e-05	2.8471998e-05
0.00053975509	1.65e-05	2.84717e-05
0.00054049337	1.65e-05	2.8471641e-05
