9.04011984192e-05	1.65e-05	1.95e-05
8.98023948383e-05	1.65e-05	1.9499999e-05
8.92035932575e-05	1.65e-05	1.9499999e-05
8.86047916766e-05	1.65e-05	1.9499998e-05
8.80059920958e-05	1.65e-05	1.9499996e-05
8.7407192515e-05	1.65e-05	1.9499992e-05
8.68083929341e-05	1.65e-05	1.9499987e-05
8.62095913533e-05	1.65e-05	1.949998e-05
8.56107877725e-05	1.65e-05	1.9499972e-05
8.50119861916e-05	1.65e-05	1.9499961e-05
8.44131806108e-05	1.65e-05	1.9499948e-05
8.38143750299e-05	1.65e-05	1.9499934e-05
8.32155714491e-05	1.65e-05	1.9499918e-05
8.26167718683e-05	1.65e-05	1.94999e-05
8.20179762874e-05	1.65e-05	1.9499879e-05
8.14191847066e-05	1.65e-05	1.9499853e-05
8.08203951257e-05	1.65e-05	1.949982e-05
8.02216095449e-05	1.65e-05	1.9499781e-05
7.96228199641e-05	1.65e-05	1.9499734e-05
7.90240263832e-05	1.65e-05	1.9499679e-05
7.84252268024e-05	1.65e-05	1.9499618e-05
7.78264252216e-05	1.65e-05	1.9499551e-05
7.72276216407e-05	1.65e-05	1.9499479e-05
7.66288200599e-05	1.65e-05	1.94994e-05
7.6030020479e-05	1.65e-05	1.9499314e-05
7.54312228982e-05	1.65e-05	1.9499219e-05
7.48324253174e-05	1.65e-05	1.9499112e-05
7.42336257365e-05	1.65e-05	1.9498994e-05
7.36348181557e-05	1.65e-05	1.9498864e-05
7.30360025749e-05	1.65e-05	1.9498723e-05
7.2437178994e-05	1.65e-05	1.9498572e-05
7.18383474132e-05	1.65e-05	1.9498412e-05
7.12395118323e-05	1.65e-05	1.9498242e-05
7.06406682515e-05	1.65e-05	1.9498061e-05
7.00418206707e-05	1.65e-05	1.9497869e-05
6.94429650898e-05	1.65e-05	1.9497664e-05
6.8844095509e-05	1.65e-05	1.9497446e-05
6.82452079281e-05	1.65e-05	1.9497215e-05
6.76462903473e-05	1.65e-05	1.9496973e-05
6.70473387665e-05	1.65e-05	1.9496723e-05
6.64483431856e-05	1.65e-05	1.9496468e-05
6.58492876048e-05	1.65e-05	1.9496214e-05
6.5250148024e-05	1.65e-05	1.949597e-05
6.46508864431e-05	1.65e-05	1.949575e-05
6.40514368623e-05	1.65e-05	1.9495585e-05
6.34516592814e-05	1.65e-05	1.9495538e-05
6.28511577006e-05	1.65e-05	1.9495817e-05
