3.0799092e-05	1.65e-05	1.7504119e-05
3.1099431e-05	1.65e-05	1.7502271e-05
3.1393198e-05	1.65e-05	1.7497817e-05
3.1682312e-05	1.65e-05	1.749882e-05
3.1976146e-05	1.65e-05	1.7505713e-05
3.2277133e-05	1.65e-05	1.7510431e-05
3.2576806e-05	1.65e-05	1.7507103e-05
3.2868565e-05	1.65e-05	1.7502724e-05
3.3157916e-05	1.65e-05	1.7506951e-05
3.3454805e-05	1.65e-05	1.7516142e-05
3.3757253e-05	1.65e-05	1.7518285e-05
3.4054773e-05	1.65e-05	1.7513972e-05
3.4345058e-05	1.65e-05	1.7513483e-05
3.4636581e-05	1.65e-05	1.752112e-05
3.493624e-05	1.65e-05	1.75294e-05
3.5238206e-05	1.65e-05	1.7530916e-05
3.5534191e-05	1.65e-05	1.7528773e-05
3.5824551e-05	1.65e-05	1.753135e-05
3.6118519e-05	1.65e-05	1.75425e-05
3.6420727e-05	1.65e-05	1.755239e-05
3.6722417e-05	1.65e-05	1.7554444e-05
3.7016613e-05	1.65e-05	1.7555808e-05
3.7308109e-05	1.65e-05	1.756618e-05
3.7606786e-05	1.65e-05	1.7582297e-05
3.7910058e-05	1.65e-05	1.7594131e-05
3.8209391e-05	1.65e-05	1.7602662e-05
3.8504567e-05	1.65e-05	1.7615448e-05
3.879998e-05	1.65e-05	1.7636578e-05
3.9100056e-05	1.65e-05	1.7664064e-05
3.9402898e-05	1.65e-05	1.7691233e-05
3.9702251e-05	1.65e-05	1.7719214e-05
3.9996297e-05	1.65e-05	1.7758447e-05
4.0291346e-05	1.65e-05	1.7815498e-05
4.0591304e-05	1.65e-05	1.7884163e-05
4.0886871e-05	1.65e-05	1.7965435e-05
4.1171937e-05	1.65e-05	1.8076932e-05
4.1455028e-05	1.65e-05	1.8230352e-05
4.1735194e-05	1.65e-05	1.8440447e-05
4.2019789e-05	1.65e-05	1.8719247e-05
4.2347546e-05	1.65e-05	1.9065278e-05
4.2757192e-05	1.65e-05	1.9472275e-05
4.3309462e-05	1.65e-05	1.9902348e-05
4.4041307e-05	1.65e-05	2.0275526e-05
4.4960444e-05	1.65e-05	2.0511124e-05
4.599889e-05	1.65e-05	2.0520241e-05
4.693628e-05	1.65e-05	2.0298555e-05
4.7677749e-05	1.65e-05	1.9938578e-05
4.8292929e-05	1.65e-05	1.9551088e-05
4.8811142e-05	1.65e-05	1.9217302e-05
4.9298308e-05	1.65e-05	1.8968764e-05
4.9784821e-05	1.65e-05	1.8792123e-05
5.0272134e-05	1.65e-05	1.866521e-05
5.0768422e-05	1.65e-05	1.8580775e-05
5.1274028e-05	1.65e-05	1.8524509e-05
5.1793533e-05	1.65e-05	1.8484021e-05
5.231966e-05	1.65e-05	1.8448543e-05
5.2843853e-05	1.65e-05	1.8418614e-05
5.3368243e-05	1.65e-05	1.8401547e-05
5.3899686e-05	1.65e-05	1.8392731e-05
5.4439854e-05	1.65e-05	1.8383817e-05
5.4979256e-05	1.65e-05	1.8368655e-05
5.5511903e-05	1.65e-05	1.835677e-05
5.6044479e-05	1.65e-05	1.8353685e-05
5.6585142e-05	1.65e-05	1.8355575e-05
5.7131852e-05	1.65e-05	1.83509e-05
5.767342e-05	1.65e-05	1.8340899e-05
5.820837e-05	1.65e-05	1.8334501e-05
5.874493e-05	1.65e-05	1.8337161e-05
5.9290518e-05	1.65e-05	1.8340341e-05
5.9837815e-05	1.65e-05	1.8335939e-05
6.0379321e-05	1.65e-05	1.8328409e-05
6.0915315e-05	1.65e-05	1.8325681e-05
6.1455614e-05	1.65e-05	1.8330216e-05
6.2002328e-05	1.65e-05	1.8331788e-05
6.254871e-05	1.65e-05	1.8328176e-05
6.3089537e-05	1.65e-05	1.8322475e-05
6.3627727e-05	1.65e-05	1.8322758e-05
6.417024e-05	1.65e-05	1.8325726e-05
6.4716037e-05	1.65e-05	1.8326782e-05
6.5261159e-05	1.65e-05	1.8323917e-05
6.5802414e-05	1.65e-05	1.8321074e-05
6.6343226e-05	1.65e-05	1.8321507e-05
6.6885611e-05	1.65e-05	1.8322858e-05
6.7429972e-05	1.65e-05	1.8324173e-05
6.797416e-05	1.65e-05	1.8323117e-05
6.8517483e-05	1.65e-05	1.8322252e-05
6.905934e-05	1.65e-05	1.8320616e-05
6.960032e-05	1.65e-05	1.8321799e-05
7.0143163e-05	1.65e-05	1.8323807e-05
7.0688117e-05	1.65e-05	1.8325656e-05
7.1233464e-05	1.65e-05	1.832374e-05
7.1774406e-05	1.65e-05	1.8321036e-05
7.231356e-05	1.65e-05	1.8322576e-05
7.2855694e-05	1.65e-05	1.8327175e-05
7.3402824e-05	1.65e-05	1.8330053e-05
7.3948135e-05	1.65e-05	1.8326445e-05
7.4487137e-05	1.65e-05	1.8323838e-05
7.5024348e-05	1.65e-05	1.8326949e-05
7.556753e-05	1.65e-05	1.8334686e-05
7.6115768e-05	1.65e-05	1.8336277e-05
7.6115783e-05	1.65e-05	1.8336277e-05
