{
  "experiment_name": "timing",
  "num_ranks": 2,
  "metrics": [
    {
      "identifier": "MPI: particle handling",
      "timers": { "rank_0": 74961.57, "rank_1": 75312.26 }
    },
    {
      "identifier": "MPI: particle (overhead)",
      "timers": { "rank_0": 238118.93, "rank_1": 225998.39 }
    },
    {
      "identifier": "MPI: particle",
      "timers": { "rank_0": 733982.21, "rank_1": 4271700.17 }
    },
    {
      "identifier": "CPU: particle handling",
      "timers": { "rank_0": 581804.29, "rank_1": 452815.81 }
    },
    {
      "identifier": "CPU: particle mapping",
      "timers": { "rank_0": 2223.94, "rank_1": 2256.61 }
    },
    {
      "identifier": "Copy: CPU -> GPU",
      "timers": { "rank_0": 4629.28, "rank_1": 2027.33 }
    },
    {
      "identifier": "CL: PartMapLP",
      "timers": { "rank_0": 2013.06, "rank_1": 3859.69 }
    },
    {
      "identifier": "Copy: GPU -> CPU",
      "timers": { "rank_0": 13040.73, "rank_1": 5208.95 }
    },
    {
      "identifier": "CL: LEGalilei",
      "timers": { "rank_0": 948.90, "rank_1": 1010.01 }
    },
    {
      "identifier": "CL: LEShift",
      "timers": { "rank_0": 521.98, "rank_1": 468.51 }
    },
    {
      "identifier": "CL: PropagateCollide",
      "timers": { "rank_0": 8300.66, "rank_1": 6400.83 }
    },
    {
      "identifier": "OMP: part ext forces",
      "timers": { "rank_0": 22236.57, "rank_1": 20175.71 }
    },
    {
      "identifier": "OMP: part int forces",
      "timers": { "rank_0": 7965176.07, "rank_1": 6063287.62 }
    },
    {
      "identifier": "OMP: part-part forces",
      "timers": { "rank_0": 20694115.11, "rank_1": 18912294.91 }
    },
    {
      "identifier": "MPI: particle forces (overhead)",
      "timers": { "rank_0": 309997.51, "rank_1": 256857.23 }
    },
    {
      "identifier": "MPI: particle forces",
      "timers": { "rank_0": 1868564.29, "rank_1": 13840348.98 }
    },
    {
      "identifier": "OMP: particle dynamics",
      "timers": { "rank_0": 10637645.33, "rank_1": 6090232.07 }
    },
    {
      "identifier": "I/O: output",
      "timers": { "rank_0": 328137.63, "rank_1": 345164.46 }
    },
    {
      "identifier": "ALL: total time",
      "timers": { "rank_0": 64184914.51, "rank_1": 64184656.79 }
    }
  ]
}
