{
  "experiment_name": "timing",
  "num_ranks": 2,
  "metrics": [
    {
      "identifier": "MPI: particle handling",
      "timers": { "rank_0": 2862.46, "rank_1": 3846.69 }
    },
    {
      "identifier": "MPI: particle (overhead)",
      "timers": { "rank_0": 11638.15, "rank_1": 14480.63 }
    },
    {
      "identifier": "MPI: particle",
      "timers": { "rank_0": 33581.42, "rank_1": 42638.03 }
    },
    {
      "identifier": "CPU: particle handling",
      "timers": { "rank_0": 35876.19, "rank_1": 29135.39 }
    },
    {
      "identifier": "CPU: particle mapping",
      "timers": { "rank_0": 2558509.40, "rank_1": 2172813.63 }
    },
    {
      "identifier": "Copy: CPU -> GPU",
      "timers": { "rank_0": 4265975.51, "rank_1": 2008628.06 }
    },
    {
      "identifier": "CL: PartMapLP",
      "timers": { "rank_0": 2417501.98, "rank_1": 4012661.09 }
    },
    {
      "identifier": "Copy: GPU -> CPU",
      "timers": { "rank_0": 4837546.21, "rank_1": 4617324.95 }
    },
    {
      "identifier": "CL: LEGalilei",
      "timers": { "rank_0": 523500.14, "rank_1": 566335.25 }
    },
    {
      "identifier": "CL: LEShift",
      "timers": { "rank_0": 385677.56, "rank_1": 415434.27 }
    },
    {
      "identifier": "CL: PropagateCollide",
      "timers": { "rank_0": 9846694.19, "rank_1": 8304081.72 }
    },
    {
      "identifier": "OMP: part ext forces",
      "timers": { "rank_0": 1126.80, "rank_1": 1082.12 }
    },
    {
      "identifier": "OMP: part int forces",
      "timers": { "rank_0": 251461.53, "rank_1": 322684.62 }
    },
    {
      "identifier": "OMP: part-part forces",
      "timers": { "rank_0": 615688.28, "rank_1": 930735.74 }
    },
    {
      "identifier": "MPI: particle forces (overhead)",
      "timers": { "rank_0": 12781.20, "rank_1": 15922.04 }
    },
    {
      "identifier": "MPI: particle forces",
      "timers": { "rank_0": 61580.07, "rank_1": 3433164.73 }
    },
    {
      "identifier": "OMP: particle dynamics",
      "timers": { "rank_0": 244895.46, "rank_1": 248841.89 }
    },
    {
      "identifier": "I/O: output",
      "timers": { "rank_0": 239265.04, "rank_1": 412974.15 }
    },
    {
      "identifier": "ALL: total time",
      "timers": { "rank_0": 46236399.52, "rank_1": 46236397.93 }
    }
  ]
}
