{
  "experiment_name": "timing",
  "num_ranks": 2,
  "metrics": [
    {
      "identifier": "MPI: particle handling",
      "timers": { "rank_0": 1281.11, "rank_1": 2333.56 }
    },
    {
      "identifier": "MPI: particle (overhead)",
      "timers": { "rank_0": 4035.79, "rank_1": 3979.26 }
    },
    {
      "identifier": "MPI: particle",
      "timers": { "rank_0": 54527.39, "rank_1": 9443.45 }
    },
    {
      "identifier": "CPU: particle handling",
      "timers": { "rank_0": 9138.90, "rank_1": 8343.33 }
    },
    {
      "identifier": "CPU: particle mapping",
      "timers": { "rank_0": 541497.93, "rank_1": 600391.37 }
    },
    {
      "identifier": "Copy: CPU -> GPU",
      "timers": { "rank_0": 1380196.03, "rank_1": 556128.50 }
    },
    {
      "identifier": "CL: PartMapLP",
      "timers": { "rank_0": 495112.83, "rank_1": 980562.44 }
    },
    {
      "identifier": "Copy: GPU -> CPU",
      "timers": { "rank_0": 1222110.42, "rank_1": 3129061.45 }
    },
    {
      "identifier": "CL: LEGalilei",
      "timers": { "rank_0": 330227.15, "rank_1": 340176.91 }
    },
    {
      "identifier": "CL: LEShift",
      "timers": { "rank_0": 121042.37, "rank_1": 108724.77 }
    },
    {
      "identifier": "CL: PropagateCollide",
      "timers": { "rank_0": 1966023.02, "rank_1": 1916339.04 }
    },
    {
      "identifier": "OMP: part ext forces",
      "timers": { "rank_0": 309.66, "rank_1": 259.72 }
    },
    {
      "identifier": "OMP: part int forces",
      "timers": { "rank_0": 72381.72, "rank_1": 81029.48 }
    },
    {
      "identifier": "OMP: part-part forces",
      "timers": { "rank_0": 195623.31, "rank_1": 232518.34 }
    },
    {
      "identifier": "MPI: particle forces (overhead)",
      "timers": { "rank_0": 4489.88, "rank_1": 4584.49 }
    },
    {
      "identifier": "MPI: particle forces",
      "timers": { "rank_0": 24662.86, "rank_1": 423237.80 }
    },
    {
      "identifier": "OMP: particle dynamics",
      "timers": { "rank_0": 70594.45, "rank_1": 67400.60 }
    },
    {
      "identifier": "I/O: output",
      "timers": { "rank_0": 460191.55, "rank_1": 491382.13 }
    },
    {
      "identifier": "ALL: total time",
      "timers": { "rank_0": 15538843.14, "rank_1": 15538517.42 }
    }
  ]
}
