{
  "experiment_name": "timing",
  "num_ranks": 2,
  "metrics": [
    {
      "identifier": "MPI: particle handling",
      "timers": { "rank_0": 3495.84, "rank_1": 4021.39 }
    },
    {
      "identifier": "MPI: particle (overhead)",
      "timers": { "rank_0": 12977.83, "rank_1": 11759.78 }
    },
    {
      "identifier": "MPI: particle",
      "timers": { "rank_0": 38739.00, "rank_1": 46582.40 }
    },
    {
      "identifier": "CPU: particle handling",
      "timers": { "rank_0": 37294.22, "rank_1": 29281.19 }
    },
    {
      "identifier": "CPU: particle mapping",
      "timers": { "rank_0": 2630438.69, "rank_1": 2330837.15 }
    },
    {
      "identifier": "Copy: CPU -> GPU",
      "timers": { "rank_0": 4737211.20, "rank_1": 2184362.56 }
    },
    {
      "identifier": "CL: PartMapLP",
      "timers": { "rank_0": 2478659.29, "rank_1": 3959824.74 }
    },
    {
      "identifier": "Copy: GPU -> CPU",
      "timers": { "rank_0": 4906351.64, "rank_1": 4553503.80 }
    },
    {
      "identifier": "CL: LEGalilei",
      "timers": { "rank_0": 868765.12, "rank_1": 768495.60 }
    },
    {
      "identifier": "CL: LEShift",
      "timers": { "rank_0": 419989.47, "rank_1": 442458.13 }
    },
    {
      "identifier": "CL: PropagateCollide",
      "timers": { "rank_0": 9534719.81, "rank_1": 8199022.53 }
    },
    {
      "identifier": "OMP: part ext forces",
      "timers": { "rank_0": 1211.34, "rank_1": 836.05 }
    },
    {
      "identifier": "OMP: part int forces",
      "timers": { "rank_0": 235749.07, "rank_1": 247105.73 }
    },
    {
      "identifier": "OMP: part-part forces",
      "timers": { "rank_0": 679331.77, "rank_1": 768813.39 }
    },
    {
      "identifier": "MPI: particle forces (overhead)",
      "timers": { "rank_0": 14215.77, "rank_1": 16010.86 }
    },
    {
      "identifier": "MPI: particle forces",
      "timers": { "rank_0": 68566.28, "rank_1": 3762186.85 }
    },
    {
      "identifier": "OMP: particle dynamics",
      "timers": { "rank_0": 241981.42, "rank_1": 200049.38 }
    },
    {
      "identifier": "I/O: output",
      "timers": { "rank_0": 277262.64, "rank_1": 292510.88 }
    },
    {
      "identifier": "ALL: total time",
      "timers": { "rank_0": 46696907.10, "rank_1": 46696907.06 }
    }
  ]
}
