{
  "experiment_name": "timing",
  "num_ranks": 2,
  "metrics": [
    {
      "identifier": "MPI: particle handling",
      "timers": { "rank_0": 583.04, "rank_1": 991.50 }
    },
    {
      "identifier": "MPI: particle (overhead)",
      "timers": { "rank_0": 1003.19, "rank_1": 925.34 }
    },
    {
      "identifier": "MPI: particle",
      "timers": { "rank_0": 5365.41, "rank_1": 5125.60 }
    },
    {
      "identifier": "CPU: particle handling",
      "timers": { "rank_0": 2808.08, "rank_1": 2010.19 }
    },
    {
      "identifier": "CPU: particle mapping",
      "timers": { "rank_0": 174774.22, "rank_1": 260409.79 }
    },
    {
      "identifier": "Copy: CPU -> GPU",
      "timers": { "rank_0": 449696.28, "rank_1": 243121.94 }
    },
    {
      "identifier": "CL: PartMapLP",
      "timers": { "rank_0": 155899.61, "rank_1": 229184.14 }
    },
    {
      "identifier": "Copy: GPU -> CPU",
      "timers": { "rank_0": 302527.06, "rank_1": 257654.05 }
    },
    {
      "identifier": "CL: LEGalilei",
      "timers": { "rank_0": 105127.20, "rank_1": 116143.87 }
    },
    {
      "identifier": "CL: LEShift",
      "timers": { "rank_0": 102503.66, "rank_1": 82324.79 }
    },
    {
      "identifier": "CL: PropagateCollide",
      "timers": { "rank_0": 712329.40, "rank_1": 385610.29 }
    },
    {
      "identifier": "OMP: part ext forces",
      "timers": { "rank_0": 149.33, "rank_1": 106.97 }
    },
    {
      "identifier": "OMP: part int forces",
      "timers": { "rank_0": 32051.79, "rank_1": 36174.13 }
    },
    {
      "identifier": "OMP: part-part forces",
      "timers": { "rank_0": 43147.21, "rank_1": 58138.20 }
    },
    {
      "identifier": "MPI: particle forces (overhead)",
      "timers": { "rank_0": 1087.87, "rank_1": 1023.26 }
    },
    {
      "identifier": "MPI: particle forces",
      "timers": { "rank_0": 17897.05, "rank_1": 491261.30 }
    },
    {
      "identifier": "OMP: particle dynamics",
      "timers": { "rank_0": 29766.58, "rank_1": 29764.78 }
    },
    {
      "identifier": "I/O: output",
      "timers": { "rank_0": 150723.20, "rank_1": 161034.35 }
    },
    {
      "identifier": "ALL: total time",
      "timers": { "rank_0": 3932361.77, "rank_1": 3932304.84 }
    }
  ]
}
