{
  "experiment_name": "timing",
  "num_ranks": 2,
  "metrics": [
    {
      "identifier": "MPI: particle handling",
      "timers": { "rank_0": 118.55, "rank_1": 214.79 }
    },
    {
      "identifier": "MPI: particle (overhead)",
      "timers": { "rank_0": 301.23, "rank_1": 283.52 }
    },
    {
      "identifier": "MPI: particle",
      "timers": { "rank_0": 1154.61, "rank_1": 979.19 }
    },
    {
      "identifier": "CPU: particle handling",
      "timers": { "rank_0": 744.99, "rank_1": 601.33 }
    },
    {
      "identifier": "CPU: particle mapping",
      "timers": { "rank_0": 42126.96, "rank_1": 48973.34 }
    },
    {
      "identifier": "Copy: CPU -> GPU",
      "timers": { "rank_0": 141766.21, "rank_1": 45260.77 }
    },
    {
      "identifier": "CL: PartMapLP",
      "timers": { "rank_0": 37746.92, "rank_1": 70427.46 }
    },
    {
      "identifier": "Copy: GPU -> CPU",
      "timers": { "rank_0": 92787.18, "rank_1": 77550.66 }
    },
    {
      "identifier": "CL: LEGalilei",
      "timers": { "rank_0": 36229.60, "rank_1": 28383.64 }
    },
    {
      "identifier": "CL: LEShift",
      "timers": { "rank_0": 9153.40, "rank_1": 8704.21 }
    },
    {
      "identifier": "CL: PropagateCollide",
      "timers": { "rank_0": 151099.62, "rank_1": 125428.62 }
    },
    {
      "identifier": "OMP: part ext forces",
      "timers": { "rank_0": 35.51, "rank_1": 27.85 }
    },
    {
      "identifier": "OMP: part int forces",
      "timers": { "rank_0": 7728.09, "rank_1": 8528.93 }
    },
    {
      "identifier": "OMP: part-part forces",
      "timers": { "rank_0": 15444.10, "rank_1": 18712.05 }
    },
    {
      "identifier": "MPI: particle forces (overhead)",
      "timers": { "rank_0": 368.07, "rank_1": 367.35 }
    },
    {
      "identifier": "MPI: particle forces",
      "timers": { "rank_0": 1837.14, "rank_1": 85358.30 }
    },
    {
      "identifier": "OMP: particle dynamics",
      "timers": { "rank_0": 7043.51, "rank_1": 6713.73 }
    },
    {
      "identifier": "I/O: output",
      "timers": { "rank_0": 292035.41, "rank_1": 321596.13 }
    },
    {
      "identifier": "ALL: total time",
      "timers": { "rank_0": 1264976.27, "rank_1": 1264585.22 }
    }
  ]
}
