{
  "experiment_name": "timing",
  "num_ranks": 2,
  "metrics": [
    {
      "identifier": "MPI: particle handling",
      "timers": { "rank_0": 1090.76, "rank_1": 2502.17 }
    },
    {
      "identifier": "MPI: particle (overhead)",
      "timers": { "rank_0": 2951.46, "rank_1": 2925.12 }
    },
    {
      "identifier": "MPI: particle",
      "timers": { "rank_0": 11887.63, "rank_1": 9765.11 }
    },
    {
      "identifier": "CPU: particle handling",
      "timers": { "rank_0": 7473.75, "rank_1": 6050.98 }
    },
    {
      "identifier": "CPU: particle mapping",
      "timers": { "rank_0": 456883.74, "rank_1": 499977.47 }
    },
    {
      "identifier": "Copy: CPU -> GPU",
      "timers": { "rank_0": 1127247.93, "rank_1": 461379.91 }
    },
    {
      "identifier": "CL: PartMapLP",
      "timers": { "rank_0": 414876.57, "rank_1": 690896.18 }
    },
    {
      "identifier": "Copy: GPU -> CPU",
      "timers": { "rank_0": 890456.29, "rank_1": 780766.14 }
    },
    {
      "identifier": "CL: LEGalilei",
      "timers": { "rank_0": 265430.99, "rank_1": 250357.12 }
    },
    {
      "identifier": "CL: LEShift",
      "timers": { "rank_0": 122480.49, "rank_1": 90706.72 }
    },
    {
      "identifier": "CL: PropagateCollide",
      "timers": { "rank_0": 1505782.88, "rank_1": 1263446.20 }
    },
    {
      "identifier": "OMP: part ext forces",
      "timers": { "rank_0": 305.99, "rank_1": 263.08 }
    },
    {
      "identifier": "OMP: part int forces",
      "timers": { "rank_0": 69897.10, "rank_1": 79474.11 }
    },
    {
      "identifier": "OMP: part-part forces",
      "timers": { "rank_0": 143988.69, "rank_1": 180002.76 }
    },
    {
      "identifier": "MPI: particle forces (overhead)",
      "timers": { "rank_0": 3555.98, "rank_1": 3524.15 }
    },
    {
      "identifier": "MPI: particle forces",
      "timers": { "rank_0": 19561.73, "rank_1": 767118.47 }
    },
    {
      "identifier": "OMP: particle dynamics",
      "timers": { "rank_0": 68377.30, "rank_1": 65526.40 }
    },
    {
      "identifier": "I/O: output",
      "timers": { "rank_0": 292273.76, "rank_1": 327067.85 }
    },
    {
      "identifier": "ALL: total time",
      "timers": { "rank_0": 9329884.87, "rank_1": 9329380.27 }
    }
  ]
}
