1.5799769e-05	1.65e-05	1.7499989e-05
1.6099061e-05	1.65e-05	1.749995e-05
1.639789e-05	1.65e-05	1.7499943e-05
1.6696297e-05	1.65e-05	1.7499981e-05
1.6994308e-05	1.65e-05	1.7500008e-05
1.7291906e-05	1.65e-05	1.7500058e-05
1.7589122e-05	1.65e-05	1.7500194e-05
1.7885996e-05	1.65e-05	1.750035e-05
1.818249e-05	1.65e-05	1.7500521e-05
1.8478613e-05	1.65e-05	1.7500801e-05
1.8774425e-05	1.65e-05	1.750115e-05
1.9069875e-05	1.65e-05	1.7501511e-05
1.9364941e-05	1.65e-05	1.7501998e-05
1.9659699e-05	1.65e-05	1.7502611e-05
1.9954097e-05	1.65e-05	1.750326e-05
2.0248077e-05	1.65e-05	1.7504045e-05
2.0541715e-05	1.65e-05	1.7505025e-05
2.0834974e-05	1.65e-05	1.7506095e-05
2.1127752e-05	1.65e-05	1.7507328e-05
2.1420112e-05	1.65e-05	1.750883e-05
2.1712031e-05	1.65e-05	1.7510522e-05
2.200337e-05	1.65e-05	1.7512441e-05
2.229415e-05	1.65e-05	1.7514735e-05
2.2584358e-05	1.65e-05	1.7517373e-05
2.2873813e-05	1.65e-05	1.7520389e-05
2.3162469e-05	1.65e-05	1.7523955e-05
2.345028e-05	1.65e-05	1.7528122e-05
2.3737017e-05	1.65e-05	1.7532965e-05
2.4022531e-05	1.65e-05	1.7538702e-05
2.4306652e-05	1.65e-05	1.7545519e-05
2.4589025e-05	1.65e-05	1.7553627e-05
2.4869304e-05	1.65e-05	1.7563382e-05
2.5146966e-05	1.65e-05	1.7575241e-05
2.542115e-05	1.65e-05	1.758983e-05
2.5690955e-05	1.65e-05	1.7607961e-05
2.595486e-05	1.65e-05	1.7630809e-05
2.6209403e-05	1.65e-05	1.7661039e-05
2.6448812e-05	1.65e-05	1.7703273e-05
2.6651466e-05	1.65e-05	1.7770951e-05
2.6704303e-05	1.65e-05	1.7943748e-05
2.6751792e-05	1.65e-05	1.8143653e-05
2.6836054e-05	1.65e-05	1.8337269e-05
2.6949667e-05	1.65e-05	1.8527178e-05
2.7085465e-05	1.65e-05	1.872027e-05
2.7242097e-05	1.65e-05	1.891995e-05
2.7424187e-05	1.65e-05	1.9123277e-05
2.7620084e-05	1.65e-05	1.9341718e-05
2.7851741e-05	1.65e-05	1.9557413e-05
2.8120235e-05	1.65e-05	1.9772217e-05
2.8429038e-05	1.65e-05	1.9981505e-05
2.8784652e-05	1.65e-05	2.0175887e-05
2.9189102e-05	1.65e-05	2.0351209e-05
2.9644071e-05	1.65e-05	2.050156e-05
3.0148821e-05	1.65e-05	2.062227e-05
3.069968e-05	1.65e-05	2.0712041e-05
3.1292154e-05	1.65e-05	2.0772757e-05
3.1922079e-05	1.65e-05	2.0809707e-05
3.2586351e-05	1.65e-05	2.0828574e-05
3.3282636e-05	1.65e-05	2.0834416e-05
3.4009043e-05	1.65e-05	2.083154e-05
3.476405e-05	1.65e-05	2.0823614e-05
3.5546559e-05	1.65e-05	2.0813238e-05
3.6355353e-05	1.65e-05	2.0801757e-05
3.7188902e-05	1.65e-05	2.0790053e-05
3.8045937e-05	1.65e-05	2.0778864e-05
3.8925304e-05	1.65e-05	2.0768309e-05
3.98255e-05	1.65e-05	2.0758288e-05
4.0745176e-05	1.6499999e-05	2.0749025e-05
4.168336e-05	1.6499999e-05	2.0740509e-05
4.2638851e-05	1.6499999e-05	2.0732431e-05
4.3610368e-05	1.6499999e-05	2.0724831e-05
4.4597054e-05	1.6499999e-05	2.0717809e-05
4.5598047e-05	1.6499999e-05	2.0711118e-05
4.6612225e-05	1.6499999e-05	2.0704669e-05
4.7638716e-05	1.6499999e-05	2.0698646e-05
4.8676845e-05	1.6499999e-05	2.0693e-05
4.9725672e-05	1.6499999e-05	2.0687613e-05
5.0784198e-05	1.6499999e-05	2.068272e-05
5.1851648e-05	1.6499999e-05	2.06786e-05
5.2927051e-05	1.6499999e-05	2.0675425e-05
5.4009031e-05	1.6499999e-05	2.0673809e-05
5.5096089e-05	1.6499999e-05	2.0675008e-05
5.6186368e-05	1.6499999e-05	2.068092e-05
5.7277201e-05	1.6499999e-05	2.0695005e-05
5.8365678e-05	1.6499999e-05	2.0723262e-05
5.9450738e-05	1.6499999e-05	2.0771715e-05
5.3559762e-07	1.6499999e-05	2.0834069e-05
1.6241536e-06	1.6499999e-05	2.088363e-05
2.7157193e-06	1.6499999e-05	2.0906858e-05
3.810095e-06	1.6499999e-05	2.0909266e-05
4.9086572e-06	1.6499999e-05	2.0899175e-05
6.0129023e-06	1.6499999e-05	2.0882516e-05
7.1239756e-06	1.6499999e-05	2.0862877e-05
8.2424729e-06	1.6499999e-05	2.0842015e-05
9.3682918e-06	1.6499999e-05	2.0820799e-05
1.0501138e-05	1.6499999e-05	2.0799917e-05
1.1640773e-05	1.6499999e-05	2.0779665e-05
1.2786665e-05	1.6499999e-05	2.0760018e-05
1.3938141e-05	1.6499999e-05	2.0741114e-05
1.5094734e-05	1.6499999e-05	2.0723112e-05
1.5094799e-05	1.6499999e-05	2.0723111e-05
