{
  "experiment_name": "timing",
  "num_ranks": 2,
  "metrics": [
    {
      "identifier": "MPI: particle handling",
      "timers": { "rank_0": 6127.60, "rank_1": 7077.92 }
    },
    {
      "identifier": "MPI: particle (overhead)",
      "timers": { "rank_0": 15279.60, "rank_1": 13955.31 }
    },
    {
      "identifier": "MPI: particle",
      "timers": { "rank_0": 54145.39, "rank_1": 291080.85 }
    },
    {
      "identifier": "CPU: particle handling",
      "timers": { "rank_0": 42384.94, "rank_1": 30475.46 }
    },
    {
      "identifier": "CPU: particle mapping",
      "timers": { "rank_0": 2051435.47, "rank_1": 2399446.20 }
    },
    {
      "identifier": "Copy: CPU -> GPU",
      "timers": { "rank_0": 4949841.46, "rank_1": 2213898.08 }
    },
    {
      "identifier": "CL: PartMapLP",
      "timers": { "rank_0": 1851924.65, "rank_1": 3673587.45 }
    },
    {
      "identifier": "Copy: GPU -> CPU",
      "timers": { "rank_0": 11625208.72, "rank_1": 4079825.38 }
    },
    {
      "identifier": "CL: LEGalilei",
      "timers": { "rank_0": 1411859.55, "rank_1": 1274379.57 }
    },
    {
      "identifier": "CL: LEShift",
      "timers": { "rank_0": 452083.39, "rank_1": 472958.55 }
    },
    {
      "identifier": "CL: PropagateCollide",
      "timers": { "rank_0": 7555785.15, "rank_1": 6182578.85 }
    },
    {
      "identifier": "OMP: part ext forces",
      "timers": { "rank_0": 1499.95, "rank_1": 1068.10 }
    },
    {
      "identifier": "OMP: part int forces",
      "timers": { "rank_0": 349629.38, "rank_1": 374877.29 }
    },
    {
      "identifier": "OMP: part-part forces",
      "timers": { "rank_0": 690078.90, "rank_1": 863177.47 }
    },
    {
      "identifier": "MPI: particle forces (overhead)",
      "timers": { "rank_0": 16764.27, "rank_1": 15070.52 }
    },
    {
      "identifier": "MPI: particle forces",
      "timers": { "rank_0": 91575.65, "rank_1": 4541645.55 }
    },
    {
      "identifier": "OMP: particle dynamics",
      "timers": { "rank_0": 422338.49, "rank_1": 304203.40 }
    },
    {
      "identifier": "I/O: output",
      "timers": { "rank_0": 302866.45, "rank_1": 326729.84 }
    },
    {
      "identifier": "ALL: total time",
      "timers": { "rank_0": 59804397.59, "rank_1": 59803966.03 }
    }
  ]
}
