{
  "experiment_name": "timing",
  "num_ranks": 2,
  "metrics": [
    {
      "identifier": "MPI: particle handling",
      "timers": { "rank_0": 6.14, "rank_1": 7.27 }
    },
    {
      "identifier": "MPI: particle (overhead)",
      "timers": { "rank_0": 13.22, "rank_1": 12.13 }
    },
    {
      "identifier": "MPI: particle",
      "timers": { "rank_0": 179.03, "rank_1": 50.74 }
    },
    {
      "identifier": "CPU: particle handling",
      "timers": { "rank_0": 34.26, "rank_1": 30.14 }
    },
    {
      "identifier": "CPU: particle mapping",
      "timers": { "rank_0": 1696.99, "rank_1": 1554.53 }
    },
    {
      "identifier": "Copy: CPU -> GPU",
      "timers": { "rank_0": 3204.11, "rank_1": 1371.44 }
    },
    {
      "identifier": "CL: PartMapLP",
      "timers": { "rank_0": 1510.65, "rank_1": 2590.66 }
    },
    {
      "identifier": "Copy: GPU -> CPU",
      "timers": { "rank_0": 4002.13, "rank_1": 5717.80 }
    },
    {
      "identifier": "CL: LEGalilei",
      "timers": { "rank_0": 680.96, "rank_1": 685.15 }
    },
    {
      "identifier": "CL: LEShift",
      "timers": { "rank_0": 438.74, "rank_1": 438.69 }
    },
    {
      "identifier": "CL: PropagateCollide",
      "timers": { "rank_0": 7230.65, "rank_1": 4471.62 }
    },
    {
      "identifier": "OMP: part ext forces",
      "timers": { "rank_0": 1.58, "rank_1": 1.29 }
    },
    {
      "identifier": "OMP: part int forces",
      "timers": { "rank_0": 377.42, "rank_1": 371.51 }
    },
    {
      "identifier": "OMP: part-part forces",
      "timers": { "rank_0": 689.69, "rank_1": 687.99 }
    },
    {
      "identifier": "MPI: particle forces (overhead)",
      "timers": { "rank_0": 14.00, "rank_1": 13.68 }
    },
    {
      "identifier": "MPI: particle forces",
      "timers": { "rank_0": 136.09, "rank_1": 4301.67 }
    },
    {
      "identifier": "OMP: particle dynamics",
      "timers": { "rank_0": 365.57, "rank_1": 307.74 }
    },
    {
      "identifier": "I/O: output",
      "timers": { "rank_0": 216133.67, "rank_1": 218305.87 }
    },
    {
      "identifier": "ALL: total time",
      "timers": { "rank_0": 258038.13, "rank_1": 258041.39 }
    }
  ]
}
