{
  "experiment_name": "timing",
  "num_ranks": 2,
  "metrics": [
    {
      "identifier": "MPI: particle handling",
      "timers": { "rank_0": 3433.66, "rank_1": 6752.26 }
    },
    {
      "identifier": "MPI: particle (overhead)",
      "timers": { "rank_0": 7416.63, "rank_1": 7959.32 }
    },
    {
      "identifier": "MPI: particle",
      "timers": { "rank_0": 76975.08, "rank_1": 72433.01 }
    },
    {
      "identifier": "CPU: particle handling",
      "timers": { "rank_0": 28088.36, "rank_1": 18802.32 }
    },
    {
      "identifier": "CPU: particle mapping",
      "timers": { "rank_0": 2703420.37, "rank_1": 2038608.14 }
    },
    {
      "identifier": "Copy: CPU -> GPU",
      "timers": { "rank_0": 5020081.63, "rank_1": 1912446.51 }
    },
    {
      "identifier": "CL: PartMapLP",
      "timers": { "rank_0": 2580529.41, "rank_1": 4240138.67 }
    },
    {
      "identifier": "Copy: GPU -> CPU",
      "timers": { "rank_0": 5011987.54, "rank_1": 4399437.61 }
    },
    {
      "identifier": "CL: LEGalilei",
      "timers": { "rank_0": 5750289.24, "rank_1": 1112036.45 }
    },
    {
      "identifier": "CL: LEShift",
      "timers": { "rank_0": 388831.88, "rank_1": 408948.19 }
    },
    {
      "identifier": "CL: PropagateCollide",
      "timers": { "rank_0": 7621964.47, "rank_1": 5286351.71 }
    },
    {
      "identifier": "OMP: part ext forces",
      "timers": { "rank_0": 675575.32, "rank_1": 1250646.64 }
    },
    {
      "identifier": "OMP: part int forces",
      "timers": { "rank_0": 22963.27, "rank_1": 22274.46 }
    },
    {
      "identifier": "OMP: part-part forces",
      "timers": { "rank_0": 139392.79, "rank_1": 107583.19 }
    },
    {
      "identifier": "MPI: particle forces (overhead)",
      "timers": { "rank_0": 10042.76, "rank_1": 9998.02 }
    },
    {
      "identifier": "MPI: particle forces",
      "timers": { "rank_0": 111423.28, "rank_1": 8924261.51 }
    },
    {
      "identifier": "OMP: particle dynamics",
      "timers": { "rank_0": 77814.33, "rank_1": 60115.83 }
    },
    {
      "identifier": "I/O: output",
      "timers": { "rank_0": 139495.23, "rank_1": 138800.02 }
    },
    {
      "identifier": "ALL: total time",
      "timers": { "rank_0": 37551084.65, "rank_1": 37551090.95 }
    }
  ]
}
