{
  "experiment_name": "timing",
  "num_ranks": 2,
  "metrics": [
    {
      "identifier": "MPI: particle handling",
      "timers": { "rank_0": 2.83, "rank_1": 2.65 }
    },
    {
      "identifier": "MPI: particle (overhead)",
      "timers": { "rank_0": 10.31, "rank_1": 8.90 }
    },
    {
      "identifier": "MPI: particle",
      "timers": { "rank_0": 25.17, "rank_1": 36.12 }
    },
    {
      "identifier": "CPU: particle handling",
      "timers": { "rank_0": 32.28, "rank_1": 24.72 }
    },
    {
      "identifier": "CPU: particle mapping",
      "timers": { "rank_0": 1396.83, "rank_1": 1163.06 }
    },
    {
      "identifier": "Copy: CPU -> GPU",
      "timers": { "rank_0": 2339.05, "rank_1": 1093.60 }
    },
    {
      "identifier": "CL: PartMapLP",
      "timers": { "rank_0": 1324.93, "rank_1": 2154.02 }
    },
    {
      "identifier": "Copy: GPU -> CPU",
      "timers": { "rank_0": 4064.32, "rank_1": 3785.95 }
    },
    {
      "identifier": "CL: LEGalilei",
      "timers": { "rank_0": 269.83, "rank_1": 274.32 }
    },
    {
      "identifier": "CL: LEShift",
      "timers": { "rank_0": 200.65, "rank_1": 195.57 }
    },
    {
      "identifier": "CL: PropagateCollide",
      "timers": { "rank_0": 5153.93, "rank_1": 4603.18 }
    },
    {
      "identifier": "OMP: part ext forces",
      "timers": { "rank_0": 0.83, "rank_1": 0.69 }
    },
    {
      "identifier": "OMP: part int forces",
      "timers": { "rank_0": 175.14, "rank_1": 163.21 }
    },
    {
      "identifier": "OMP: part-part forces",
      "timers": { "rank_0": 683.67, "rank_1": 611.76 }
    },
    {
      "identifier": "MPI: particle forces (overhead)",
      "timers": { "rank_0": 11.94, "rank_1": 13.08 }
    },
    {
      "identifier": "MPI: particle forces",
      "timers": { "rank_0": 45.50, "rank_1": 1939.38 }
    },
    {
      "identifier": "OMP: particle dynamics",
      "timers": { "rank_0": 197.30, "rank_1": 133.29 }
    },
    {
      "identifier": "I/O: output",
      "timers": { "rank_0": 250702.17, "rank_1": 250642.56 }
    },
    {
      "identifier": "ALL: total time",
      "timers": { "rank_0": 275172.05, "rank_1": 275172.14 }
    }
  ]
}
