3.1099733e-05	1.65e-05	1.8499882e-05
3.1699096e-05	1.65e-05	1.8499512e-05
3.2298062e-05	1.65e-05	1.8498397e-05
3.2896017e-05	1.65e-05	1.8496832e-05
3.3492647e-05	1.65e-05	1.8495693e-05
3.4088558e-05	1.65e-05	1.849593e-05
3.4684928e-05	1.65e-05	1.8497592e-05
3.5282794e-05	1.65e-05	1.8499413e-05
3.5882052e-05	1.65e-05	1.8499707e-05
3.6480899e-05	1.65e-05	1.8497451e-05
3.7077272e-05	1.65e-05	1.8494336e-05
3.7671369e-05	1.65e-05	1.8493147e-05
3.8265307e-05	1.65e-05	1.8494922e-05
3.8861409e-05	1.65e-05	1.8498372e-05
3.9460206e-05	1.65e-05	1.8500293e-05
4.0059524e-05	1.65e-05	1.8498554e-05
4.0656068e-05	1.65e-05	1.8494354e-05
4.1248759e-05	1.65e-05	1.8491404e-05
4.1839923e-05	1.65e-05	1.8492668e-05
4.243319e-05	1.65e-05	1.8497131e-05
4.303005e-05	1.65e-05	1.8500926e-05
4.3628418e-05	1.65e-05	1.8500814e-05
4.4224558e-05	1.65e-05	1.8496969e-05
4.4816091e-05	1.65e-05	1.849321e-05
4.5404412e-05	1.65e-05	1.8493606e-05
4.5993908e-05	1.65e-05	1.8498737e-05
4.6587291e-05	1.65e-05	1.8504522e-05
4.7182838e-05	1.65e-05	1.8506824e-05
4.7776858e-05	1.65e-05	1.8505321e-05
4.8366405e-05	1.65e-05	1.8502616e-05
4.895129e-05	1.65e-05	1.8503352e-05
4.9535429e-05	1.65e-05	1.8509701e-05
5.0122567e-05	1.65e-05	1.8518421e-05
5.0711512e-05	1.65e-05	1.8525321e-05
5.1298689e-05	1.65e-05	1.8529435e-05
5.1881076e-05	1.65e-05	1.8533034e-05
5.2456972e-05	1.65e-05	1.8540042e-05
5.3028415e-05	1.65e-05	1.8554197e-05
5.359851e-05	1.65e-05	1.8574882e-05
5.4166049e-05	1.65e-05	1.8599274e-05
5.4725948e-05	1.65e-05	1.8628836e-05
5.5273038e-05	1.65e-05	1.866829e-05
5.5801948e-05	1.65e-05	1.8726282e-05
5.6307219e-05	1.65e-05	1.8815754e-05
5.6787009e-05	1.65e-05	1.8952001e-05
5.7234792e-05	1.65e-05	1.9157015e-05
5.766132e-05	1.65e-05	1.9446903e-05
5.813598e-05	1.65e-05	1.9784622e-05
5.8700608e-05	1.65e-05	2.012061e-05
5.9400509e-05	1.65e-05	2.0392421e-05
6.0250824e-05	1.65e-05	2.054367e-05
6.1211446e-05	1.65e-05	2.0517936e-05
6.2176566e-05	1.65e-05	2.0303199e-05
6.3078392e-05	1.65e-05	1.9975015e-05
6.3906188e-05	1.65e-05	1.9636774e-05
6.4668177e-05	1.65e-05	1.9341617e-05
6.5378423e-05	1.65e-05	1.9105584e-05
6.6050819e-05	1.65e-05	1.8928957e-05
6.6696368e-05	1.65e-05	1.8802375e-05
6.7324119e-05	1.65e-05	1.8713433e-05
6.7940202e-05	1.65e-05	1.8650856e-05
6.8548442e-05	1.65e-05	1.8604051e-05
6.9149135e-05	1.65e-05	1.8565416e-05
6.9740215e-05	1.65e-05	1.8533775e-05
7.0323927e-05	1.65e-05	1.8511322e-05
7.0904796e-05	1.65e-05	1.849807e-05
7.1486313e-05	1.65e-05	1.8490876e-05
7.2070232e-05	1.65e-05	1.8485369e-05
7.2654915e-05	1.65e-05	1.8477244e-05
7.323607e-05	1.65e-05	1.8466494e-05
7.3812374e-05	1.65e-05	1.8457967e-05
7.4386934e-05	1.65e-05	1.8454766e-05
7.4963425e-05	1.65e-05	1.8456125e-05
7.5543907e-05	1.65e-05	1.8458284e-05
7.6127109e-05	1.65e-05	1.8457036e-05
7.6708963e-05	1.65e-05	1.8451529e-05
7.7286595e-05	1.65e-05	1.8445379e-05
7.786145e-05	1.65e-05	1.8443223e-05
7.8437482e-05	1.65e-05	1.8445652e-05
7.9017239e-05	1.65e-05	1.8449695e-05
7.9600336e-05	1.65e-05	1.8451284e-05
8.0183535e-05	1.65e-05	1.8448658e-05
8.0763793e-05	1.65e-05	1.8444124e-05
8.1340995e-05	1.65e-05	1.8441544e-05
8.1917996e-05	1.65e-05	1.8443154e-05
8.249788e-05	1.65e-05	1.8447014e-05
8.3080765e-05	1.65e-05	1.8449677e-05
8.3664696e-05	1.65e-05	1.8449285e-05
8.424722e-05	1.65e-05	1.8446516e-05
8.4827389e-05	1.65e-05	1.8444166e-05
8.5406597e-05	1.65e-05	1.8444324e-05
8.5987124e-05	1.65e-05	1.844677e-05
8.6569829e-05	1.65e-05	1.8449217e-05
8.7153673e-05	1.65e-05	1.845005e-05
8.7737399e-05	1.65e-05	1.8449311e-05
8.8320187e-05	1.65e-05	1.8447868e-05
8.8902078e-05	1.65e-05	1.8447132e-05
8.9483983e-05	1.65e-05	1.8447508e-05
9.0066435e-05	1.65e-05	1.8448544e-05
9.0649557e-05	1.65e-05	1.8449667e-05
9.064956e-05	1.65e-05	1.8449667e-05
