{
  "experiment_name": "timing",
  "num_ranks": 2,
  "metrics": [
    {
      "identifier": "MPI: particle handling",
      "timers": { "rank_0": 5090.84, "rank_1": 5109.86 }
    },
    {
      "identifier": "MPI: particle (overhead)",
      "timers": { "rank_0": 12849.50, "rank_1": 11881.72 }
    },
    {
      "identifier": "MPI: particle",
      "timers": { "rank_0": 75693.14, "rank_1": 69442.89 }
    },
    {
      "identifier": "CPU: particle handling",
      "timers": { "rank_0": 38704.38, "rank_1": 24142.07 }
    },
    {
      "identifier": "CPU: particle mapping",
      "timers": { "rank_0": 2267859.02, "rank_1": 1794912.14 }
    },
    {
      "identifier": "Copy: CPU -> GPU",
      "timers": { "rank_0": 4178192.35, "rank_1": 1623781.55 }
    },
    {
      "identifier": "CL: PartMapLP",
      "timers": { "rank_0": 2053408.31, "rank_1": 3242494.39 }
    },
    {
      "identifier": "Copy: GPU -> CPU",
      "timers": { "rank_0": 4885291.84, "rank_1": 4129019.00 }
    },
    {
      "identifier": "CL: LEGalilei",
      "timers": { "rank_0": 566355.97, "rank_1": 527492.17 }
    },
    {
      "identifier": "CL: LEShift",
      "timers": { "rank_0": 490854.85, "rank_1": 421709.09 }
    },
    {
      "identifier": "CL: PropagateCollide",
      "timers": { "rank_0": 8433765.98, "rank_1": 6334701.99 }
    },
    {
      "identifier": "OMP: part ext forces",
      "timers": { "rank_0": 1246.22, "rank_1": 1014.16 }
    },
    {
      "identifier": "OMP: part int forces",
      "timers": { "rank_0": 743554.75, "rank_1": 343066.72 }
    },
    {
      "identifier": "OMP: part-part forces",
      "timers": { "rank_0": 804390.64, "rank_1": 859173.85 }
    },
    {
      "identifier": "MPI: particle forces (overhead)",
      "timers": { "rank_0": 17150.78, "rank_1": 13123.12 }
    },
    {
      "identifier": "MPI: particle forces",
      "timers": { "rank_0": 87868.32, "rank_1": 5163626.99 }
    },
    {
      "identifier": "OMP: particle dynamics",
      "timers": { "rank_0": 394000.23, "rank_1": 286968.10 }
    },
    {
      "identifier": "I/O: output",
      "timers": { "rank_0": 417835.95, "rank_1": 423342.59 }
    },
    {
      "identifier": "ALL: total time",
      "timers": { "rank_0": 51446789.46, "rank_1": 51445551.75 }
    }
  ]
}
