{
  "experiment_name": "timing",
  "num_ranks": 2,
  "metrics": [
    {
      "identifier": "MPI: particle handling",
      "timers": { "rank_0": 3613.33, "rank_1": 4390.12 }
    },
    {
      "identifier": "MPI: particle (overhead)",
      "timers": { "rank_0": 10081.65, "rank_1": 8423.82 }
    },
    {
      "identifier": "MPI: particle",
      "timers": { "rank_0": 41599.42, "rank_1": 44402.98 }
    },
    {
      "identifier": "CPU: particle handling",
      "timers": { "rank_0": 28007.50, "rank_1": 19159.74 }
    },
    {
      "identifier": "CPU: particle mapping",
      "timers": { "rank_0": 1537635.79, "rank_1": 1545217.03 }
    },
    {
      "identifier": "Copy: CPU -> GPU",
      "timers": { "rank_0": 3052937.34, "rank_1": 1407724.36 }
    },
    {
      "identifier": "CL: PartMapLP",
      "timers": { "rank_0": 1402708.64, "rank_1": 2374446.73 }
    },
    {
      "identifier": "Copy: GPU -> CPU",
      "timers": { "rank_0": 3157101.24, "rank_1": 2629123.75 }
    },
    {
      "identifier": "CL: LEGalilei",
      "timers": { "rank_0": 723804.20, "rank_1": 728608.88 }
    },
    {
      "identifier": "CL: LEShift",
      "timers": { "rank_0": 357808.95, "rank_1": 371792.16 }
    },
    {
      "identifier": "CL: PropagateCollide",
      "timers": { "rank_0": 7011338.11, "rank_1": 4350347.45 }
    },
    {
      "identifier": "OMP: part ext forces",
      "timers": { "rank_0": 1189.15, "rank_1": 897.79 }
    },
    {
      "identifier": "OMP: part int forces",
      "timers": { "rank_0": 233141.87, "rank_1": 248819.13 }
    },
    {
      "identifier": "OMP: part-part forces",
      "timers": { "rank_0": 451779.59, "rank_1": 514232.23 }
    },
    {
      "identifier": "MPI: particle forces (overhead)",
      "timers": { "rank_0": 9604.10, "rank_1": 10219.75 }
    },
    {
      "identifier": "MPI: particle forces",
      "timers": { "rank_0": 64506.22, "rank_1": 4201332.56 }
    },
    {
      "identifier": "OMP: particle dynamics",
      "timers": { "rank_0": 240007.84, "rank_1": 197342.03 }
    },
    {
      "identifier": "I/O: output",
      "timers": { "rank_0": 141394.35, "rank_1": 149596.16 }
    },
    {
      "identifier": "ALL: total time",
      "timers": { "rank_0": 33181796.95, "rank_1": 33181502.18 }
    }
  ]
}
