{
  "experiment_name": "timing",
  "num_ranks": 2,
  "metrics": [
    {
      "identifier": "MPI: particle handling",
      "timers": { "rank_0": 4.34, "rank_1": 5.83 }
    },
    {
      "identifier": "MPI: particle (overhead)",
      "timers": { "rank_0": 11.94, "rank_1": 11.41 }
    },
    {
      "identifier": "MPI: particle",
      "timers": { "rank_0": 39.75, "rank_1": 125.73 }
    },
    {
      "identifier": "CPU: particle handling",
      "timers": { "rank_0": 31.26, "rank_1": 22.90 }
    },
    {
      "identifier": "CPU: particle mapping",
      "timers": { "rank_0": 1061.43, "rank_1": 1134.15 }
    },
    {
      "identifier": "Copy: CPU -> GPU",
      "timers": { "rank_0": 2280.49, "rank_1": 1037.87 }
    },
    {
      "identifier": "CL: PartMapLP",
      "timers": { "rank_0": 964.80, "rank_1": 1751.43 }
    },
    {
      "identifier": "Copy: GPU -> CPU",
      "timers": { "rank_0": 5959.07, "rank_1": 4065.76 }
    },
    {
      "identifier": "CL: LEGalilei",
      "timers": { "rank_0": 698.27, "rank_1": 538.18 }
    },
    {
      "identifier": "CL: LEShift",
      "timers": { "rank_0": 287.67, "rank_1": 341.99 }
    },
    {
      "identifier": "CL: PropagateCollide",
      "timers": { "rank_0": 3962.07, "rank_1": 3269.93 }
    },
    {
      "identifier": "OMP: part ext forces",
      "timers": { "rank_0": 1.21, "rank_1": 0.95 }
    },
    {
      "identifier": "OMP: part int forces",
      "timers": { "rank_0": 289.99, "rank_1": 296.13 }
    },
    {
      "identifier": "OMP: part-part forces",
      "timers": { "rank_0": 696.02, "rank_1": 785.07 }
    },
    {
      "identifier": "MPI: particle forces (overhead)",
      "timers": { "rank_0": 13.50, "rank_1": 12.41 }
    },
    {
      "identifier": "MPI: particle forces",
      "timers": { "rank_0": 61.30, "rank_1": 2147.41 }
    },
    {
      "identifier": "OMP: particle dynamics",
      "timers": { "rank_0": 294.89, "rank_1": 259.66 }
    },
    {
      "identifier": "I/O: output",
      "timers": { "rank_0": 308122.56, "rank_1": 320806.38 }
    },
    {
      "identifier": "ALL: total time",
      "timers": { "rank_0": 345930.69, "rank_1": 345930.85 }
    }
  ]
}
