{
  "experiment_name": "timing",
  "num_ranks": 2,
  "metrics": [
    {
      "identifier": "MPI: particle handling",
      "timers": { "rank_0": 3262.27, "rank_1": 3587.18 }
    },
    {
      "identifier": "MPI: particle (overhead)",
      "timers": { "rank_0": 42537.80, "rank_1": 42553.50 }
    },
    {
      "identifier": "MPI: particle",
      "timers": { "rank_0": 158548.72, "rank_1": 113239.40 }
    },
    {
      "identifier": "CPU: particle handling",
      "timers": { "rank_0": 60902.17, "rank_1": 62260.68 }
    },
    {
      "identifier": "CPU: particle mapping",
      "timers": { "rank_0": 6426360.22, "rank_1": 6455632.30 }
    },
    {
      "identifier": "Copy: CPU -> GPU",
      "timers": { "rank_0": 9294801.06, "rank_1": 9298111.04 }
    },
    {
      "identifier": "CL: PartMapLP",
      "timers": { "rank_0": 6207947.26, "rank_1": 6243287.54 }
    },
    {
      "identifier": "Copy: GPU -> CPU",
      "timers": { "rank_0": 10598203.77, "rank_1": 31062003.11 }
    },
    {
      "identifier": "CL: LEGalilei",
      "timers": { "rank_0": 1073988.49, "rank_1": 1092719.72 }
    },
    {
      "identifier": "CL: LEShift",
      "timers": { "rank_0": 941033.18, "rank_1": 925844.44 }
    },
    {
      "identifier": "CL: PropagateCollide",
      "timers": { "rank_0": 24388061.17, "rank_1": 23476768.41 }
    },
    {
      "identifier": "OMP: part ext forces",
      "timers": { "rank_0": 1250.30, "rank_1": 1181.21 }
    },
    {
      "identifier": "OMP: part int forces",
      "timers": { "rank_0": 330632.30, "rank_1": 315597.94 }
    },
    {
      "identifier": "OMP: part-part forces",
      "timers": { "rank_0": 1732440.64, "rank_1": 1788102.64 }
    },
    {
      "identifier": "MPI: particle forces (overhead)",
      "timers": { "rank_0": 35997.52, "rank_1": 65544.53 }
    },
    {
      "identifier": "MPI: particle forces",
      "timers": { "rank_0": 171801.74, "rank_1": 3539758.28 }
    },
    {
      "identifier": "OMP: particle dynamics",
      "timers": { "rank_0": 316289.51, "rank_1": 275268.77 }
    },
    {
      "identifier": "I/O: output",
      "timers": { "rank_0": 794565.66, "rank_1": 797091.53 }
    },
    {
      "identifier": "ALL: total time",
      "timers": { "rank_0": 134211550.50, "rank_1": 134211567.05 }
    }
  ]
}
