{
  "experiment_name": "timing",
  "num_ranks": 2,
  "metrics": [
    {
      "identifier": "MPI: particle handling",
      "timers": { "rank_0": 3356.18, "rank_1": 5609.98 }
    },
    {
      "identifier": "MPI: particle (overhead)",
      "timers": { "rank_0": 10795.07, "rank_1": 11512.50 }
    },
    {
      "identifier": "MPI: particle",
      "timers": { "rank_0": 85526.44, "rank_1": 76299.07 }
    },
    {
      "identifier": "CPU: particle handling",
      "timers": { "rank_0": 37608.61, "rank_1": 26602.86 }
    },
    {
      "identifier": "CPU: particle mapping",
      "timers": { "rank_0": 3823609.94, "rank_1": 3038337.39 }
    },
    {
      "identifier": "Copy: CPU -> GPU",
      "timers": { "rank_0": 7434833.69, "rank_1": 2892255.03 }
    },
    {
      "identifier": "CL: PartMapLP",
      "timers": { "rank_0": 3683014.93, "rank_1": 6260857.84 }
    },
    {
      "identifier": "Copy: GPU -> CPU",
      "timers": { "rank_0": 6854808.28, "rank_1": 6604934.78 }
    },
    {
      "identifier": "CL: LEGalilei",
      "timers": { "rank_0": 7120843.97, "rank_1": 1547153.15 }
    },
    {
      "identifier": "CL: LEShift",
      "timers": { "rank_0": 938449.33, "rank_1": 636094.12 }
    },
    {
      "identifier": "CL: PropagateCollide",
      "timers": { "rank_0": 11005329.71, "rank_1": 8862726.69 }
    },
    {
      "identifier": "OMP: part ext forces",
      "timers": { "rank_0": 2558318.26, "rank_1": 3119994.32 }
    },
    {
      "identifier": "OMP: part int forces",
      "timers": { "rank_0": 278995.05, "rank_1": 270416.71 }
    },
    {
      "identifier": "OMP: part-part forces",
      "timers": { "rank_0": 331219.48, "rank_1": 257498.52 }
    },
    {
      "identifier": "MPI: particle forces (overhead)",
      "timers": { "rank_0": 13462.54, "rank_1": 11389.80 }
    },
    {
      "identifier": "MPI: particle forces",
      "timers": { "rank_0": 556431.24, "rank_1": 11446612.99 }
    },
    {
      "identifier": "OMP: particle dynamics",
      "timers": { "rank_0": 383827.72, "rank_1": 1232005.96 }
    },
    {
      "identifier": "I/O: output",
      "timers": { "rank_0": 222143.54, "rank_1": 219401.10 }
    },
    {
      "identifier": "ALL: total time",
      "timers": { "rank_0": 56992710.48, "rank_1": 56993378.94 }
    }
  ]
}
