{
  "experiment_name": "timing",
  "num_ranks": 2,
  "metrics": [
    {
      "identifier": "MPI: particle handling",
      "timers": { "rank_0": 56.59, "rank_1": 119.11 }
    },
    {
      "identifier": "MPI: particle (overhead)",
      "timers": { "rank_0": 191.94, "rank_1": 191.01 }
    },
    {
      "identifier": "MPI: particle",
      "timers": { "rank_0": 641.28, "rank_1": 689.42 }
    },
    {
      "identifier": "CPU: particle handling",
      "timers": { "rank_0": 510.25, "rank_1": 410.05 }
    },
    {
      "identifier": "CPU: particle mapping",
      "timers": { "rank_0": 37876.32, "rank_1": 42726.59 }
    },
    {
      "identifier": "Copy: CPU -> GPU",
      "timers": { "rank_0": 73390.55, "rank_1": 40450.77 }
    },
    {
      "identifier": "CL: PartMapLP",
      "timers": { "rank_0": 35847.67, "rank_1": 49919.90 }
    },
    {
      "identifier": "Copy: GPU -> CPU",
      "timers": { "rank_0": 162717.19, "rank_1": 161953.92 }
    },
    {
      "identifier": "CL: LEGalilei",
      "timers": { "rank_0": 18061.07, "rank_1": 16691.93 }
    },
    {
      "identifier": "CL: LEShift",
      "timers": { "rank_0": 7013.06, "rank_1": 7787.99 }
    },
    {
      "identifier": "CL: PropagateCollide",
      "timers": { "rank_0": 101144.49, "rank_1": 96607.56 }
    },
    {
      "identifier": "OMP: part ext forces",
      "timers": { "rank_0": 15.92, "rank_1": 11.36 }
    },
    {
      "identifier": "OMP: part int forces",
      "timers": { "rank_0": 3344.57, "rank_1": 4020.29 }
    },
    {
      "identifier": "OMP: part-part forces",
      "timers": { "rank_0": 8979.55, "rank_1": 12590.49 }
    },
    {
      "identifier": "MPI: particle forces (overhead)",
      "timers": { "rank_0": 225.19, "rank_1": 206.00 }
    },
    {
      "identifier": "MPI: particle forces",
      "timers": { "rank_0": 944.12, "rank_1": 30918.57 }
    },
    {
      "identifier": "OMP: particle dynamics",
      "timers": { "rank_0": 3523.73, "rank_1": 3586.51 }
    },
    {
      "identifier": "I/O: output",
      "timers": { "rank_0": 423405.12, "rank_1": 479063.82 }
    },
    {
      "identifier": "ALL: total time",
      "timers": { "rank_0": 1421410.29, "rank_1": 1420578.50 }
    }
  ]
}
