{
  "experiment_name": "timing",
  "num_ranks": 2,
  "metrics": [
    {
      "identifier": "MPI: particle handling",
      "timers": { "rank_0": 4534.54, "rank_1": 5890.64 }
    },
    {
      "identifier": "MPI: particle (overhead)",
      "timers": { "rank_0": 9896.19, "rank_1": 6939.45 }
    },
    {
      "identifier": "MPI: particle",
      "timers": { "rank_0": 93120.46, "rank_1": 125982.17 }
    },
    {
      "identifier": "CPU: particle handling",
      "timers": { "rank_0": 24292.69, "rank_1": 15906.10 }
    },
    {
      "identifier": "CPU: particle mapping",
      "timers": { "rank_0": 1356259.54, "rank_1": 1038481.52 }
    },
    {
      "identifier": "Copy: CPU -> GPU",
      "timers": { "rank_0": 2691589.02, "rank_1": 880418.48 }
    },
    {
      "identifier": "CL: PartMapLP",
      "timers": { "rank_0": 1170165.18, "rank_1": 1687636.72 }
    },
    {
      "identifier": "Copy: GPU -> CPU",
      "timers": { "rank_0": 5446001.82, "rank_1": 4044494.11 }
    },
    {
      "identifier": "CL: LEGalilei",
      "timers": { "rank_0": 657858.91, "rank_1": 598789.37 }
    },
    {
      "identifier": "CL: LEShift",
      "timers": { "rank_0": 496991.91, "rank_1": 415655.76 }
    },
    {
      "identifier": "CL: PropagateCollide",
      "timers": { "rank_0": 6735939.53, "rank_1": 2540965.58 }
    },
    {
      "identifier": "OMP: part ext forces",
      "timers": { "rank_0": 1435.00, "rank_1": 1019.21 }
    },
    {
      "identifier": "OMP: part int forces",
      "timers": { "rank_0": 519394.89, "rank_1": 329120.78 }
    },
    {
      "identifier": "OMP: part-part forces",
      "timers": { "rank_0": 504722.36, "rank_1": 468135.07 }
    },
    {
      "identifier": "MPI: particle forces (overhead)",
      "timers": { "rank_0": 10246.72, "rank_1": 8317.47 }
    },
    {
      "identifier": "MPI: particle forces",
      "timers": { "rank_0": 91434.58, "rank_1": 6589175.36 }
    },
    {
      "identifier": "OMP: particle dynamics",
      "timers": { "rank_0": 507637.52, "rank_1": 297366.76 }
    },
    {
      "identifier": "I/O: output",
      "timers": { "rank_0": 125607.72, "rank_1": 125496.52 }
    },
    {
      "identifier": "ALL: total time",
      "timers": { "rank_0": 43426376.09, "rank_1": 43426376.65 }
    }
  ]
}
