path,sep_ratio,rhor,yd,Stp,snorm_tot,snorm_hd,snorm_lub,snorm_rep
rhor10000_yd10_distz8e-06 , 1.0 , 10000.0 , 10 , 6.3872e+00 , 0.0 , 0.0 , 0.0 , 0.0
rhor100_yd20000_distz8e-06 , 1.0 , 100.0 , 20000 , 1.2774e+02 , 558.606407381 , 0.0 , 578.531841424 , 19.9260302719
rhor1_yd10_distz2e-06 , 0.25 , 1.0 , 10 , 6.3872e-04 , 0.227827009058 , 0.0 , 0.135061097603 , 0.0981321419978
rhor10_yd20000_distz8e-06 , 1.0 , 10.0 , 20000 , 1.2774e+01 , 60.7008494632 , 0.0 , 60.7008494632 , 0.0
rhor10_yd20000_distz6e-06 , 0.75 , 10.0 , 20000 , 1.2774e+01 , 338.118097895 , 0.0 , 336.513288485 , 48.3932795823
rhor10_yd1000_distz4e-06 , 0.5 , 10.0 , 1000 , 6.3872e-01 , 8.20082240948 , 0.0 , 8.20082240948 , 0.0
rhor100_yd10000_distz8e-06 , 1.0 , 100.0 , 10000 , 6.3872e+01 , 168.67705144 , 0.0 , 98.1060929537 , 101.479738267
rhor10_yd1000_distz8e-06 , 1.0 , 10.0 , 1000 , 6.3872e-01 , 0.0 , 0.0 , 0.0 , 0.0
rhor1000_yd100_distz4e-06 , 0.5 , 1000.0 , 100 , 6.3872e+00 , 1.01532595748 , 0.0 , 0.89984724804 , 0.134920936634
rhor1_yd100_distz6e-06 , 0.75 , 1.0 , 100 , 6.3872e-03 , 0.0758575092694 , 0.0 , 0.0758575092694 , 0.0
rhor100_yd10_distz8e-06 , 1.0 , 100.0 , 10 , 6.3872e-02 , 0.0 , 0.0 , 0.0 , 0.0
rhor10_yd10000_distz8e-06 , 1.0 , 10.0 , 10000 , 6.3872e+00 , 6.33585679103 , 0.0 , 6.33585679103 , 0.0
rhor100_yd100_distz8e-06 , 1.0 , 100.0 , 100 , 6.3872e-01 , 0.0 , 0.0 , 0.0 , 0.0
rhor1000_yd1000_distz8e-06 , 1.0 , 1000.0 , 1000 , 6.3872e+01 , 2.40676779925 , 0.0 , 2.40676779925 , 0.0
rhor10_yd20000_distz2e-06 , 0.25 , 10.0 , 20000 , 1.2774e+01 , 577.65662751 , 0.0 , 540.141992772 , 107.079645895
rhor1_yd1000_distz8e-06 , 1.0 , 1.0 , 1000 , 6.3872e-02 , 0.0 , 0.0 , 0.0 , 0.0
rhor1_yd10000_distz8e-06 , 1.0 , 1.0 , 10000 , 6.3872e-01 , 0.979321074503 , 0.0 , 0.979321074503 , 0.0
rhor1_yd100_distz8e-06 , 1.0 , 1.0 , 100 , 6.3872e-03 , 0.0 , 0.0 , 0.0 , 0.0
rhor1_yd1000_distz4e-06 , 0.5 , 1.0 , 1000 , 6.3872e-02 , 7.88023145935 , 0.0 , 7.88023145935 , 0.0
rhor1_yd20000_distz8e-06 , 1.0 , 1.0 , 20000 , 1.2774e+00 , 8.34832945362 , 0.0 , 8.34832945362 , 0.0
rhor10_yd100_distz4e-06 , 0.5 , 10.0 , 100 , 6.3872e-02 , 0.773213145587 , 0.0 , 0.773213145587 , 0.0
rhor100_yd10_distz2e-06 , 0.25 , 100.0 , 10 , 6.3872e-02 , 0.226325257056 , 0.0 , 0.133681067 , 0.0982404036463
rhor10_yd10_distz4e-06 , 0.5 , 10.0 , 10 , 6.3872e-03 , 0.0788561319565 , 0.0 , 0.0788561319565 , 0.0
rhor100_yd10_distz6e-06 , 0.75 , 100.0 , 10 , 6.3872e-02 , 0.00742511645023 , 0.0 , 0.00742511645023 , 0.0
rhor100_yd100_distz4e-06 , 0.5 , 100.0 , 100 , 6.3872e-01 , 0.760791278435 , 0.0 , 0.760791278435 , 0.0
rhor1000_yd10000_distz8e-06 , 1.0 , 1000.0 , 10000 , 6.3872e+02 , 325.372813433 , 0.0 , 337.929736923 , 12.5569647546
rhor10_yd10_distz6e-06 , 0.75 , 10.0 , 10 , 6.3872e-03 , 0.00737971275982 , 0.0 , 0.00737971275982 , 0.0
rhor1_yd10000_distz2e-06 , 0.25 , 1.0 , 10000 , 6.3872e-01 , 235.955268196 , 0.0 , 212.574465778 , 77.0361212115
rhor10_yd20000_distz4e-06 , 0.5 , 10.0 , 20000 , 1.2774e+01 , 418.369766046 , 0.0 , 390.416992854 , 93.2313568007
rhor1000_yd20000_distz2e-06 , 0.25 , 1000.0 , 20000 , 1.2774e+03 , 307.903227182 , 0.0 , 307.903227182 , 0.0
rhor1000_yd10_distz8e-06 , 1.0 , 1000.0 , 10 , 6.3872e-01 , 0.0 , 0.0 , 0.0 , 0.0
rhor1_yd10_distz6e-06 , 0.75 , 1.0 , 10 , 6.3872e-04 , 0.00737546447118 , 0.0 , 0.00737546447118 , 0.0
rhor1_yd10000_distz6e-06 , 0.75 , 1.0 , 10000 , 6.3872e-01 , 66.3369109875 , 0.0 , 66.3369109875 , 0.0
rhor1_yd10_distz8e-06 , 1.0 , 1.0 , 10 , 6.3872e-04 , 0.0 , 0.0 , 0.0 , 0.0
rhor1_yd100_distz4e-06 , 0.5 , 1.0 , 100 , 6.3872e-03 , 0.78111459655 , 0.0 , 0.78111459655 , 0.0
rhor1_yd20000_distz6e-06 , 0.75 , 1.0 , 20000 , 1.2774e+00 , 202.953383192 , 0.0 , 202.450056556 , 0.83163707975
rhor10000_yd1000_distz8e-06 , 1.0 , 10000.0 , 1000 , 6.3872e+02 , 29.0140336395 , 0.0 , 13.0966173172 , 28.6735360979
rhor1000_yd10_distz4e-06 , 0.5 , 1000.0 , 10 , 6.3872e-01 , 0.0762745027875 , 0.0 , 0.0762745027875 , 0.0
rhor1000_yd100_distz6e-06 , 0.75 , 1000.0 , 100 , 6.3872e+00 , 0.235405949763 , 0.0 , 0.235405949763 , 0.0
rhor10_yd10000_distz6e-06 , 0.75 , 10.0 , 10000 , 6.3872e+00 , 94.7407169644 , 0.0 , 94.9007224459 , 0.181471455133
rhor1000_yd10_distz2e-06 , 0.25 , 1000.0 , 10 , 6.3872e-01 , 0.231355359326 , 0.0 , 0.149291199346 , 0.0873503348333
rhor1000_yd1000_distz4e-06 , 0.5 , 1000.0 , 1000 , 6.3872e+01 , 41.7369422652 , 0.0 , 38.0060218178 , 3.73100572518
rhor1_yd20000_distz2e-06 , 0.25 , 1.0 , 20000 , 1.2774e+00 , 463.464182428 , 0.0 , 421.893580963 , 157.674606321
rhor1000_yd20000_distz8e-06 , 1.0 , 1000.0 , 20000 , 1.2774e+03 , 924.507541212 , 0.0 , 962.13023486 , 37.6227796308
rhor1000_yd20000_distz4e-06 , 0.5 , 1000.0 , 20000 , 1.2774e+03 , 345.537629385 , 0.0 , 377.519116317 , 32.161321345
rhor1000_yd100_distz8e-06 , 1.0 , 1000.0 , 100 , 6.3872e+00 , 0.0 , 0.0 , 0.0 , 0.0
rhor100_yd1000_distz2e-06 , 0.25 , 100.0 , 1000 , 6.3872e+00 , 27.9619381647 , 0.0 , 22.1683750163 , 8.54867905864
rhor1000_yd1000_distz6e-06 , 0.75 , 1000.0 , 1000 , 6.3872e+01 , 12.2212030696 , 0.0 , 12.5787100364 , 0.357510872716
rhor10000_yd10_distz6e-06 , 0.75 , 10000.0 , 10 , 6.3872e+00 , 0.0230799473481 , 0.0 , 0.0230799473481 , 0.0
rhor10000_yd100_distz6e-06 , 0.75 , 10000.0 , 100 , 6.3872e+01 , 0.985407575332 , 0.0 , 0.985407575332 , 0.0
rhor100_yd100_distz2e-06 , 0.25 , 100.0 , 100 , 6.3872e-01 , 2.35712757147 , 0.0 , 1.75336189055 , 0.729965880273
rhor1_yd1000_distz2e-06 , 0.25 , 1.0 , 1000 , 6.3872e-02 , 22.0066896294 , 0.0 , 17.0295647822 , 7.78893547702
rhor100_yd1000_distz8e-06 , 1.0 , 100.0 , 1000 , 6.3872e+00 , 0.0 , 0.0 , 0.0 , 0.0
rhor1_yd10_distz4e-06 , 0.5 , 1.0 , 10 , 6.3872e-04 , 0.0789093883611 , 0.0 , 0.0789093883611 , 0.0
rhor100_yd20000_distz4e-06 , 0.5 , 100.0 , 20000 , 1.2774e+02 , 273.784532129 , 0.0 , 625.02258769 , 355.337386896
rhor1000_yd100_distz2e-06 , 0.25 , 1000.0 , 100 , 6.3872e+00 , 2.77622952317 , 0.0 , 2.04351296502 , 0.793828714097
rhor1_yd20000_distz4e-06 , 0.5 , 1.0 , 20000 , 1.2774e+00 , 435.780921711 , 0.0 , 402.222090186 , 134.265328811
rhor10_yd100_distz8e-06 , 1.0 , 10.0 , 100 , 6.3872e-02 , 0.0 , 0.0 , 0.0 , 0.0
rhor100_yd1000_distz6e-06 , 0.75 , 100.0 , 1000 , 6.3872e+00 , 3.23749526956 , 0.0 , 3.23749526956 , 0.0
rhor1_yd100_distz2e-06 , 0.25 , 1.0 , 100 , 6.3872e-03 , 2.28817767289 , 0.0 , 1.60207717428 , 0.861994814293
rhor100_yd1000_distz4e-06 , 0.5 , 100.0 , 1000 , 6.3872e+00 , 10.3327866333 , 0.0 , 10.2339180485 , 1.30770368194
rhor1000_yd10_distz6e-06 , 0.75 , 1000.0 , 10 , 6.3872e-01 , 0.00814061455686 , 0.0 , 0.00814061455686 , 0.0
rhor10_yd10000_distz2e-06 , 0.25 , 10.0 , 10000 , 6.3872e+00 , 271.641598346 , 0.0 , 254.188998942 , 83.6378098917
rhor1000_yd1000_distz2e-06 , 0.25 , 1000.0 , 1000 , 6.3872e+01 , 30.35042541 , 0.0 , 26.9684056612 , 7.96422696936
rhor10_yd10_distz2e-06 , 0.25 , 10.0 , 10 , 6.3872e-03 , 0.22771206985 , 0.0 , 0.134923760792 , 0.098126889486
rhor10_yd1000_distz6e-06 , 0.75 , 10.0 , 1000 , 6.3872e-01 , 1.61843517891 , 0.0 , 1.61843517891 , 0.0
rhor100_yd20000_distz2e-06 , 0.25 , 100.0 , 20000 , 1.2774e+02 , 522.153459273 , 0.0 , 839.629111237 , 321.34973137
rhor10000_yd100_distz4e-06 , 0.5 , 10000.0 , 100 , 6.3872e+01 , 4.10514108965 , 0.0 , 2.80745056619 , 1.29770972729
rhor10000_yd10_distz2e-06 , 0.25 , 10000.0 , 10 , 6.3872e+00 , 0.293130367609 , 0.0 , 0.190787418934 , 0.105825297876
rhor1_yd10000_distz4e-06 , 0.5 , 1.0 , 10000 , 6.3872e-01 , 178.524515865 , 0.0 , 167.512965296 , 61.9070023093
rhor1_yd1000_distz6e-06 , 0.75 , 1.0 , 1000 , 6.3872e-02 , 1.47200169958 , 0.0 , 1.47200169958 , 0.0
rhor10000_yd1000_distz2e-06 , 0.25 , 10000.0 , 1000 , 6.3872e+02 , 13.4264453057 , 0.0 , 13.4264453057 , 0.0
rhor10_yd10000_distz4e-06 , 0.5 , 10.0 , 10000 , 6.3872e+00 , 193.604125821 , 0.0 , 176.712498702 , 62.7574973029
rhor10000_yd100_distz8e-06 , 1.0 , 10000.0 , 100 , 6.3872e+01 , 0.0937190568648 , 0.0 , 0.0937190568648 , 0.0
rhor100_yd10_distz4e-06 , 0.5 , 100.0 , 10 , 6.3872e-02 , 0.077926933786 , 0.0 , 0.077926933786 , 0.0
rhor100_yd10000_distz4e-06 , 0.5 , 100.0 , 10000 , 6.3872e+01 , 159.111215764 , 0.0 , 265.043378172 , 106.455650057
rhor100_yd10000_distz6e-06 , 0.75 , 100.0 , 10000 , 6.3872e+01 , 123.26854967 , 0.0 , 226.944614802 , 103.678291479
rhor10_yd100_distz2e-06 , 0.25 , 10.0 , 100 , 6.3872e-02 , 2.30122361519 , 0.0 , 1.62296525452 , 0.853084354869
rhor10_yd1000_distz2e-06 , 0.25 , 10.0 , 1000 , 6.3872e-01 , 21.8059576768 , 0.0 , 16.2492693398 , 7.92319855082
rhor10_yd100_distz6e-06 , 0.75 , 10.0 , 100 , 6.3872e-02 , 0.076496139561 , 0.0 , 0.076496139561 , 0.0
rhor100_yd10000_distz2e-06 , 0.25 , 100.0 , 10000 , 6.3872e+01 , 487.104345711 , 0.0 , 450.15878423 , 112.1248461
rhor100_yd100_distz6e-06 , 0.75 , 100.0 , 100 , 6.3872e-01 , 0.0851785190803 , 0.0 , 0.0851785190803 , 0.0
rhor10000_yd10_distz4e-06 , 0.5 , 10000.0 , 10 , 6.3872e+00 , 0.109454163738 , 0.0 , 0.089371997525 , 0.0313942310259
rhor10_yd10_distz8e-06 , 1.0 , 10.0 , 10 , 6.3872e-03 , 0.0 , 0.0 , 0.0 , 0.0
rhor10000_yd100_distz2e-06 , 0.25 , 10000.0 , 100 , 6.3872e+01 , 2.82127291185 , 0.0 , 2.17483411405 , 0.784227322429
