{
  "experiment_name": "timing",
  "num_ranks": 2,
  "metrics": [
    {
      "identifier": "MPI: particle handling",
      "timers": { "rank_0": 1143.14, "rank_1": 2635.30 }
    },
    {
      "identifier": "MPI: particle (overhead)",
      "timers": { "rank_0": 3076.51, "rank_1": 3177.92 }
    },
    {
      "identifier": "MPI: particle",
      "timers": { "rank_0": 10579.73, "rank_1": 29654.75 }
    },
    {
      "identifier": "CPU: particle handling",
      "timers": { "rank_0": 9248.53, "rank_1": 6466.25 }
    },
    {
      "identifier": "CPU: particle mapping",
      "timers": { "rank_0": 448744.81, "rank_1": 573497.54 }
    },
    {
      "identifier": "Copy: CPU -> GPU",
      "timers": { "rank_0": 1047304.67, "rank_1": 530349.85 }
    },
    {
      "identifier": "CL: PartMapLP",
      "timers": { "rank_0": 406779.19, "rank_1": 716440.20 }
    },
    {
      "identifier": "Copy: GPU -> CPU",
      "timers": { "rank_0": 999482.75, "rank_1": 807421.17 }
    },
    {
      "identifier": "CL: LEGalilei",
      "timers": { "rank_0": 262206.73, "rank_1": 264772.83 }
    },
    {
      "identifier": "CL: LEShift",
      "timers": { "rank_0": 105078.83, "rank_1": 105488.82 }
    },
    {
      "identifier": "CL: PropagateCollide",
      "timers": { "rank_0": 1605667.57, "rank_1": 1330624.12 }
    },
    {
      "identifier": "OMP: part ext forces",
      "timers": { "rank_0": 325.28, "rank_1": 220.36 }
    },
    {
      "identifier": "OMP: part int forces",
      "timers": { "rank_0": 68176.76, "rank_1": 77410.35 }
    },
    {
      "identifier": "OMP: part-part forces",
      "timers": { "rank_0": 139875.76, "rank_1": 175586.01 }
    },
    {
      "identifier": "MPI: particle forces (overhead)",
      "timers": { "rank_0": 3335.93, "rank_1": 2941.18 }
    },
    {
      "identifier": "MPI: particle forces",
      "timers": { "rank_0": 21777.90, "rank_1": 760091.69 }
    },
    {
      "identifier": "OMP: particle dynamics",
      "timers": { "rank_0": 72060.97, "rank_1": 63318.52 }
    },
    {
      "identifier": "I/O: output",
      "timers": { "rank_0": 294330.19, "rank_1": 326220.14 }
    },
    {
      "identifier": "ALL: total time",
      "timers": { "rank_0": 9625348.30, "rank_1": 9624852.40 }
    }
  ]
}
