0.000356198547731	1.65e-05	1.2500083e-05
0.000415396955462	1.65e-05	1.2500233e-05
0.000474594963194	1.65e-05	1.2500112e-05
0.000533790910925	1.65e-05	1.2499509e-05
0.000592981938656	1.65e-05	1.2500026e-05
0.000652172246387	1.65e-05	1.2505593e-05
0.000711375054118	1.65e-05	1.2515621e-05
0.00077059092185	1.65e-05	1.2522813e-05
0.000829806249581	1.65e-05	1.2524986e-05
0.000889016657312	1.65e-05	1.2526211e-05
0.000948227205043	1.65e-05	1.2528604e-05
0.00100744119277	1.65e-05	1.2531474e-05
0.00106665816051	1.65e-05	1.253342e-05
0.00112587542824	1.65e-05	1.2533632e-05
0.00118508947597	1.65e-05	1.2532088e-05
0.0012442974037	1.65e-05	1.2529942e-05
0.00130349985143	1.65e-05	1.2530006e-05
0.00136270325916	1.65e-05	1.2534822e-05
0.00142191476689	1.65e-05	1.254465e-05
0.00148113903462	1.65e-05	1.2558442e-05
0.00154037932236	1.65e-05	1.2573761e-05
0.00159963285009	1.65e-05	1.2585954e-05
0.00165889023782	1.65e-05	1.2593174e-05
0.00171814816555	1.65e-05	1.2597351e-05
0.00177740709328	1.65e-05	1.2598869e-05
0.00183666322101	1.65e-05	1.2597195e-05
0.00189591062874	1.65e-05	1.2593746e-05
0.00195514937647	1.65e-05	1.2592442e-05
0.0020143895642	1.65e-05	1.2596183e-05
0.00207364135194	1.65e-05	1.2603386e-05
0.00213290451967	1.65e-05	1.2610497e-05
0.0021921725274	1.65e-05	1.2616855e-05
0.00225144237513	1.65e-05	1.2624709e-05
0.00231071930286	1.65e-05	1.2636526e-05
0.00237001321059	1.65e-05	1.2651192e-05
0.00242932819832	1.65e-05	1.2662602e-05
0.00248865286605	1.65e-05	1.2664242e-05
0.00254796907379	1.65e-05	1.2656152e-05
0.00260726854152	1.65e-05	1.2645064e-05
0.00266656156925	1.65e-05	1.2637472e-05
0.00272586375698	1.65e-05	1.2632996e-05
0.00278518126471	1.65e-05	1.2627148e-05
0.00284451393244	1.65e-05	1.2616081e-05
0.00290386002017	1.65e-05	1.2596072e-05
0.0029632174079	1.65e-05	1.2563202e-05
0.00302258641564	1.65e-05	1.2512031e-05
0.00308196652337	1.65e-05	1.243283e-05
0.0031413435111	1.65e-05	1.2312404e-05
0.00320066901883	1.65e-05	1.2144596e-05
0.00325985538656	1.65e-05	1.1962202e-05
0.00331886743429	1.65e-05	1.1860922e-05
0.00337784136202	1.65e-05	1.1916025e-05
0.00343695644975	1.65e-05	1.2082509e-05
0.00349623443749	1.65e-05	1.2258161e-05
0.00355559670522	1.65e-05	1.2390365e-05
0.00361497877295	1.65e-05	1.2477651e-05
0.00367435646068	1.65e-05	1.2532827e-05
0.00373372336841	1.65e-05	1.2566279e-05
0.00379307655614	1.65e-05	1.2584547e-05
0.00385241194387	1.65e-05	1.2592045e-05
0.0039117249116	1.65e-05	1.2594071e-05
0.00397102041933	1.65e-05	1.2598829e-05
0.00403031866707	1.65e-05	1.2610553e-05
0.0040896349548	1.65e-05	1.2622897e-05
0.00414895964253	1.65e-05	1.2627297e-05
0.00420827425026	1.65e-05	1.2623734e-05
0.00426757327799	1.65e-05	1.2617319e-05
0.00432686064572	1.65e-05	1.2611214e-05
0.00438614263745	1.65e-05	1.260631e-05
0.00444542402518	1.65e-05	1.2601022e-05
0.00450470225092	1.65e-05	1.2592592e-05
0.00456396861865	1.65e-05	1.2580864e-05
0.00462321878838	1.65e-05	1.2569507e-05
0.00468245774011	1.65e-05	1.2562185e-05
0.00474169317984	1.65e-05	1.256026e-05
0.00480093326157	1.65e-05	1.256382e-05
0.0048601856553	1.65e-05	1.2571127e-05
0.00491945204103	1.65e-05	1.257749e-05
0.00497872282477	1.65e-05	1.2577414e-05
0.0050379833145	1.65e-05	1.2570387e-05
0.00509722931623	1.65e-05	1.2560397e-05
0.00515646395996	1.65e-05	1.254949e-05
0.00521568844969	1.65e-05	1.2538569e-05
0.00527490425942	1.65e-05	1.2529396e-05
0.00533411638515	1.65e-05	1.2523155e-05
0.00539332757688	1.65e-05	1.2518556e-05
0.00545253647261	1.65e-05	1.2514851e-05
0.00551174291035	1.65e-05	1.2512837e-05
0.00557094940608	1.65e-05	1.2513283e-05
0.00563015915981	1.65e-05	1.2516342e-05
0.00568937480354	1.65e-05	1.2521587e-05
0.00574859942527	1.65e-05	1.2527013e-05
0.005807829969	1.65e-05	1.2526976e-05
0.00586705034873	1.65e-05	1.2518715e-05
0.00592625073046	1.65e-05	1.250852e-05
0.0059854413342	1.65e-05	1.2502902e-05
0.00604463483193	1.65e-05	1.2501279e-05
0.00610383245166	1.65e-05	1.2500627e-05
0.00616303114939	1.65e-05	1.250003e-05
0.00622233334333	1.65e-05	1.2499604e-05
