3.0799092e-05	1.65e-05	1.7504119e-05
3.1099431e-05	1.65e-05	1.7502271e-05
3.1393198e-05	1.65e-05	1.7497817e-05
3.1682312e-05	1.65e-05	1.749882e-05
3.1976146e-05	1.65e-05	1.7505713e-05
3.2277133e-05	1.65e-05	1.7510431e-05
3.2576806e-05	1.65e-05	1.7507103e-05
3.2868565e-05	1.65e-05	1.7502725e-05
3.3157916e-05	1.65e-05	1.7506951e-05
3.3454805e-05	1.65e-05	1.7516142e-05
3.3757253e-05	1.65e-05	1.7518285e-05
3.4054773e-05	1.65e-05	1.7513972e-05
3.4345059e-05	1.65e-05	1.7513483e-05
3.4636582e-05	1.65e-05	1.752112e-05
3.4936241e-05	1.65e-05	1.75294e-05
3.5238207e-05	1.65e-05	1.7530916e-05
3.5534193e-05	1.65e-05	1.7528773e-05
3.5824553e-05	1.65e-05	1.753135e-05
3.6118521e-05	1.65e-05	1.7542499e-05
3.6420729e-05	1.65e-05	1.755239e-05
3.6722419e-05	1.65e-05	1.7554444e-05
3.7016614e-05	1.65e-05	1.7555807e-05
3.730811e-05	1.65e-05	1.7566179e-05
3.7606787e-05	1.65e-05	1.7582297e-05
3.791006e-05	1.65e-05	1.7594131e-05
3.8209393e-05	1.65e-05	1.7602661e-05
3.8504568e-05	1.65e-05	1.7615447e-05
3.8799982e-05	1.65e-05	1.7636577e-05
3.9100057e-05	1.65e-05	1.7664063e-05
3.9402899e-05	1.65e-05	1.7691232e-05
3.9702253e-05	1.65e-05	1.7719213e-05
3.9996299e-05	1.65e-05	1.7758447e-05
4.0291348e-05	1.65e-05	1.7815498e-05
4.0591306e-05	1.65e-05	1.7884162e-05
4.0886873e-05	1.65e-05	1.7965434e-05
4.117194e-05	1.65e-05	1.8076931e-05
4.1455031e-05	1.65e-05	1.8230352e-05
4.1735197e-05	1.65e-05	1.8440447e-05
4.2019792e-05	1.65e-05	1.8719246e-05
4.2347549e-05	1.65e-05	1.9065277e-05
4.2768926e-05	1.65e-05	1.9459583e-05
4.3318119e-05	1.65e-05	1.9873606e-05
4.4040159e-05	1.65e-05	2.0239312e-05
4.4925636e-05	1.65e-05	2.0472081e-05
4.5929405e-05	1.65e-05	2.049015e-05
4.6839005e-05	1.65e-05	2.028416e-05
4.7586944e-05	1.65e-05	1.9932716e-05
4.8158584e-05	1.65e-05	1.9520774e-05
4.8597614e-05	1.65e-05	1.9121011e-05
4.8936563e-05	1.65e-05	1.8766519e-05
4.9224434e-05	1.65e-05	1.8477168e-05
4.9504099e-05	1.65e-05	1.8257847e-05
4.9787335e-05	1.65e-05	1.8097659e-05
5.0071731e-05	1.65e-05	1.7980927e-05
5.0365961e-05	1.65e-05	1.789604e-05
5.0666245e-05	1.65e-05	1.7826364e-05
5.0961862e-05	1.65e-05	1.7767178e-05
5.125577e-05	1.65e-05	1.772564e-05
5.1554759e-05	1.65e-05	1.7696987e-05
5.1857725e-05	1.65e-05	1.766976e-05
5.2158533e-05	1.65e-05	1.7641998e-05
5.2454389e-05	1.65e-05	1.761981e-05
5.2749719e-05	1.65e-05	1.7606284e-05
5.304884e-05	1.65e-05	1.7597494e-05
5.3352169e-05	1.65e-05	1.7586289e-05
5.3651943e-05	1.65e-05	1.7570211e-05
5.3944098e-05	1.65e-05	1.7558758e-05
5.4237875e-05	1.65e-05	1.7556571e-05
5.4539327e-05	1.65e-05	1.7555245e-05
5.4842278e-05	1.65e-05	1.7546068e-05
5.5137347e-05	1.65e-05	1.753451e-05
5.5427852e-05	1.65e-05	1.7530861e-05
5.5723413e-05	1.65e-05	1.7533052e-05
5.6025381e-05	1.65e-05	1.7532098e-05
5.6325929e-05	1.65e-05	1.7524382e-05
5.6618399e-05	1.65e-05	1.7516077e-05
5.6908636e-05	1.65e-05	1.7515699e-05
5.7205636e-05	1.65e-05	1.752001e-05
5.7508329e-05	1.65e-05	1.7518996e-05
5.7806387e-05	1.65e-05	1.7509983e-05
5.8096367e-05	1.65e-05	1.7504781e-05
5.8387759e-05	1.65e-05	1.7508563e-05
5.868711e-05	1.65e-05	1.7512525e-05
5.8988719e-05	1.65e-05	1.7508537e-05
5.9283612e-05	1.65e-05	1.7501322e-05
5.9573057e-05	1.65e-05	1.7499467e-05
5.9866417e-05	1.65e-05	1.7503667e-05
6.0166666e-05	1.65e-05	1.7506189e-05
6.0466508e-05	1.65e-05	1.7501931e-05
6.0759209e-05	1.65e-05	1.7495446e-05
6.1048991e-05	1.65e-05	1.749584e-05
6.1344388e-05	1.65e-05	1.7501299e-05
6.1644894e-05	1.65e-05	1.7501806e-05
6.1942329e-05	1.65e-05	1.7495937e-05
6.2233625e-05	1.65e-05	1.7492253e-05
6.25249e-05	1.65e-05	1.749507e-05
6.2821853e-05	1.65e-05	1.7498286e-05
6.3121145e-05	1.65e-05	1.7497117e-05
6.3416527e-05	1.65e-05	1.7493056e-05
6.3707811e-05	1.65e-05	1.7491167e-05
6.3707819e-05	1.65e-05	1.7491167e-05
