{
  "experiment_name": "timing",
  "num_ranks": 2,
  "metrics": [
    {
      "identifier": "MPI: particle handling",
      "timers": { "rank_0": 13.48, "rank_1": 29.25 }
    },
    {
      "identifier": "MPI: particle (overhead)",
      "timers": { "rank_0": 53.18, "rank_1": 48.29 }
    },
    {
      "identifier": "MPI: particle",
      "timers": { "rank_0": 109.65, "rank_1": 316.14 }
    },
    {
      "identifier": "CPU: particle handling",
      "timers": { "rank_0": 124.11, "rank_1": 80.88 }
    },
    {
      "identifier": "CPU: particle mapping",
      "timers": { "rank_0": 6549.74, "rank_1": 7327.90 }
    },
    {
      "identifier": "Copy: CPU -> GPU",
      "timers": { "rank_0": 14630.05, "rank_1": 6831.94 }
    },
    {
      "identifier": "CL: PartMapLP",
      "timers": { "rank_0": 6068.90, "rank_1": 13093.55 }
    },
    {
      "identifier": "Copy: GPU -> CPU",
      "timers": { "rank_0": 18572.48, "rank_1": 16695.05 }
    },
    {
      "identifier": "CL: LEGalilei",
      "timers": { "rank_0": 2690.18, "rank_1": 2759.10 }
    },
    {
      "identifier": "CL: LEShift",
      "timers": { "rank_0": 1043.58, "rank_1": 1012.82 }
    },
    {
      "identifier": "CL: PropagateCollide",
      "timers": { "rank_0": 23958.28, "rank_1": 23579.04 }
    },
    {
      "identifier": "OMP: part ext forces",
      "timers": { "rank_0": 3.14, "rank_1": 2.53 }
    },
    {
      "identifier": "OMP: part int forces",
      "timers": { "rank_0": 775.66, "rank_1": 870.38 }
    },
    {
      "identifier": "OMP: part-part forces",
      "timers": { "rank_0": 2521.93, "rank_1": 3155.93 }
    },
    {
      "identifier": "MPI: particle forces (overhead)",
      "timers": { "rank_0": 54.18, "rank_1": 48.48 }
    },
    {
      "identifier": "MPI: particle forces",
      "timers": { "rank_0": 211.99, "rank_1": 7190.87 }
    },
    {
      "identifier": "OMP: particle dynamics",
      "timers": { "rank_0": 745.42, "rank_1": 656.52 }
    },
    {
      "identifier": "I/O: output",
      "timers": { "rank_0": 590775.15, "rank_1": 639476.49 }
    },
    {
      "identifier": "ALL: total time",
      "timers": { "rank_0": 774622.30, "rank_1": 774012.81 }
    }
  ]
}
