{
  "experiment_name": "timing",
  "num_ranks": 2,
  "metrics": [
    {
      "identifier": "MPI: particle handling",
      "timers": { "rank_0": 7512.96, "rank_1": 7859.83 }
    },
    {
      "identifier": "MPI: particle (overhead)",
      "timers": { "rank_0": 26128.97, "rank_1": 23404.49 }
    },
    {
      "identifier": "MPI: particle",
      "timers": { "rank_0": 57092.70, "rank_1": 62331.45 }
    },
    {
      "identifier": "CPU: particle handling",
      "timers": { "rank_0": 77503.78, "rank_1": 64501.21 }
    },
    {
      "identifier": "CPU: particle mapping",
      "timers": { "rank_0": 1274.25, "rank_1": 1146.46 }
    },
    {
      "identifier": "Copy: CPU -> GPU",
      "timers": { "rank_0": 2106.72, "rank_1": 1078.21 }
    },
    {
      "identifier": "CL: PartMapLP",
      "timers": { "rank_0": 1208.05, "rank_1": 2030.26 }
    },
    {
      "identifier": "Copy: GPU -> CPU",
      "timers": { "rank_0": 4597.27, "rank_1": 4843.22 }
    },
    {
      "identifier": "CL: LEGalilei",
      "timers": { "rank_0": 250.40, "rank_1": 259.88 }
    },
    {
      "identifier": "CL: LEShift",
      "timers": { "rank_0": 187.86, "rank_1": 187.58 }
    },
    {
      "identifier": "CL: PropagateCollide",
      "timers": { "rank_0": 5148.96, "rank_1": 4141.60 }
    },
    {
      "identifier": "OMP: part ext forces",
      "timers": { "rank_0": 2048.33, "rank_1": 2351.60 }
    },
    {
      "identifier": "OMP: part int forces",
      "timers": { "rank_0": 440649.97, "rank_1": 471617.62 }
    },
    {
      "identifier": "OMP: part-part forces",
      "timers": { "rank_0": 1934241.20, "rank_1": 1806198.80 }
    },
    {
      "identifier": "MPI: particle forces (overhead)",
      "timers": { "rank_0": 32921.35, "rank_1": 36383.41 }
    },
    {
      "identifier": "MPI: particle forces",
      "timers": { "rank_0": 86647.17, "rank_1": 123703.87 }
    },
    {
      "identifier": "OMP: particle dynamics",
      "timers": { "rank_0": 491506.44, "rank_1": 469914.74 }
    },
    {
      "identifier": "I/O: output",
      "timers": { "rank_0": 224762.18, "rank_1": 224834.93 }
    },
    {
      "identifier": "ALL: total time",
      "timers": { "rank_0": 3970758.97, "rank_1": 3970755.52 }
    }
  ]
}
