3.0798376e-05	1.65e-05	1.7498631e-05
3.1098595e-05	1.65e-05	1.7498031e-05
3.1393678e-05	1.65e-05	1.7493548e-05
3.1682775e-05	1.65e-05	1.7492076e-05
3.1974324e-05	1.65e-05	1.7497071e-05
3.2273232e-05	1.65e-05	1.7502837e-05
3.2573133e-05	1.65e-05	1.7501466e-05
3.2865832e-05	1.65e-05	1.749617e-05
3.3154128e-05	1.65e-05	1.7497418e-05
3.3447817e-05	1.65e-05	1.750556e-05
3.3748422e-05	1.65e-05	1.750985e-05
3.4046456e-05	1.65e-05	1.7506533e-05
3.4336832e-05	1.6499999e-05	1.7504148e-05
3.4625931e-05	1.6499999e-05	1.7509081e-05
3.4922208e-05	1.6499999e-05	1.7517476e-05
3.5222791e-05	1.6499999e-05	1.7520934e-05
3.5518822e-05	1.6499999e-05	1.7519188e-05
3.5808233e-05	1.6499999e-05	1.7519445e-05
3.6098834e-05	1.6499999e-05	1.7528208e-05
3.6397433e-05	1.6499999e-05	1.7539095e-05
3.6697825e-05	1.6499999e-05	1.7543041e-05
3.6991657e-05	1.6499999e-05	1.7543588e-05
3.7280891e-05	1.6499999e-05	1.7550989e-05
3.7575213e-05	1.6499998e-05	1.756599e-05
3.7875752e-05	1.6499998e-05	1.7579197e-05
3.8173863e-05	1.6499998e-05	1.7588337e-05
3.846717e-05	1.6499998e-05	1.7599473e-05
3.8759544e-05	1.6499998e-05	1.7618126e-05
3.9055706e-05	1.6499998e-05	1.7644249e-05
3.9355665e-05	1.6499998e-05	1.7671771e-05
3.9653437e-05	1.6499998e-05	1.7699237e-05
3.9945467e-05	1.6499998e-05	1.7734402e-05
4.0236693e-05	1.6499998e-05	1.7786756e-05
4.0532622e-05	1.6499997e-05	1.7853038e-05
4.0827071e-05	1.6499997e-05	1.7929032e-05
4.1110347e-05	1.6499997e-05	1.8031185e-05
4.1388801e-05	1.6499997e-05	1.817182e-05
4.1664743e-05	1.6499997e-05	1.8364318e-05
4.1939217e-05	1.6499997e-05	1.8622065e-05
4.2241101e-05	1.6499997e-05	1.8948057e-05
4.2619005e-05	1.6499997e-05	1.932885e-05
4.3110926e-05	1.6499996e-05	1.9753538e-05
4.377313e-05	1.6499996e-05	2.0152956e-05
4.4612834e-05	1.6499996e-05	2.0445472e-05
4.5625588e-05	1.6499996e-05	2.0543301e-05
4.6627325e-05	1.6499996e-05	2.0396944e-05
4.7438266e-05	1.6499996e-05	2.0073143e-05
4.8092955e-05	1.6499996e-05	1.967745e-05
4.8639383e-05	1.6499996e-05	1.931374e-05
4.9126947e-05	1.6499996e-05	1.9027103e-05
4.9605367e-05	1.6499996e-05	1.8823694e-05
5.0080451e-05	1.6499996e-05	1.867564e-05
5.0561025e-05	1.6499996e-05	1.8576339e-05
5.1051247e-05	1.6499996e-05	1.8508933e-05
5.1554116e-05	1.6499996e-05	1.8463e-05
5.2065555e-05	1.6499995e-05	1.8424156e-05
5.2576723e-05	1.6499995e-05	1.8391707e-05
5.3086913e-05	1.6499995e-05	1.8369374e-05
5.3602972e-05	1.6499995e-05	1.8358679e-05
5.4127774e-05	1.6499995e-05	1.8349237e-05
5.4654318e-05	1.6499995e-05	1.8336122e-05
5.5175138e-05	1.6499995e-05	1.8321763e-05
5.5693557e-05	1.6499995e-05	1.8316572e-05
5.6219149e-05	1.6499994e-05	1.8317026e-05
5.6751442e-05	1.6499994e-05	1.8315012e-05
5.7281981e-05	1.6499994e-05	1.8305838e-05
5.7804815e-05	1.6499994e-05	1.8297761e-05
5.8327517e-05	1.6499994e-05	1.8298163e-05
5.8857979e-05	1.6499994e-05	1.8301681e-05
5.9393094e-05	1.6499994e-05	1.830005e-05
5.9923447e-05	1.6499994e-05	1.8292164e-05
6.0447454e-05	1.6499994e-05	1.8288129e-05
6.0973594e-05	1.6499994e-05	1.829042e-05
6.1506794e-05	1.6499993e-05	1.8294206e-05
6.2041643e-05	1.6499993e-05	1.8291127e-05
6.2571365e-05	1.6499993e-05	1.8285896e-05
6.3097157e-05	1.6499993e-05	1.8283459e-05
6.3626052e-05	1.6499993e-05	1.8286956e-05
6.4159777e-05	1.6499993e-05	1.8288297e-05
6.469332e-05	1.6499993e-05	1.8286314e-05
6.5223158e-05	1.6499993e-05	1.8282427e-05
6.5751284e-05	1.6499992e-05	1.8281921e-05
6.6281495e-05	1.6499992e-05	1.8283525e-05
6.6814062e-05	1.6499992e-05	1.8284419e-05
6.7346518e-05	1.6499992e-05	1.8283584e-05
6.78777e-05	1.6499992e-05	1.8281591e-05
6.840754e-05	1.6499992e-05	1.8280764e-05
6.8937279e-05	1.6499992e-05	1.8280601e-05
6.9468024e-05	1.6499992e-05	1.8282432e-05
7.0000605e-05	1.6499992e-05	1.828294e-05
7.0533445e-05	1.6499992e-05	1.8282287e-05
7.10636e-05	1.6499991e-05	1.8279099e-05
7.1591316e-05	1.6499991e-05	1.8279434e-05
7.2120931e-05	1.6499991e-05	1.828202e-05
7.2654613e-05	1.6499991e-05	1.8285085e-05
7.3188434e-05	1.6499991e-05	1.8282632e-05
7.3716956e-05	1.6499991e-05	1.8279175e-05
7.4242322e-05	1.6499991e-05	1.8279851e-05
7.4771908e-05	1.6499991e-05	1.8285563e-05
7.530683e-05	1.6499991e-05	1.8288559e-05
7.5309948e-05	1.6499991e-05	1.8288563e-05
