4.6400284e-05	1.65e-05	1.9499885e-05
4.7300729e-05	1.65e-05	1.9499501e-05
4.8201813e-05	1.65e-05	1.9498422e-05
4.9103277e-05	1.65e-05	1.9495271e-05
5.0001975e-05	1.65e-05	1.9489059e-05
5.089598e-05	1.65e-05	1.9483448e-05
5.178872e-05	1.65e-05	1.9481002e-05
5.2682232e-05	1.65e-05	1.9480265e-05
5.3576075e-05	1.65e-05	1.9480309e-05
5.4470774e-05	1.65e-05	1.9481695e-05
5.536787e-05	1.65e-05	1.9484338e-05
5.6268598e-05	1.65e-05	1.9486771e-05
5.717221e-05	1.65e-05	1.9485573e-05
5.8073531e-05	1.65e-05	1.9477094e-05
5.896582e-05	1.65e-05	1.9463379e-05
5.984886e-05	1.65e-05	1.9451711e-05
6.0728664e-05	1.65e-05	1.9445928e-05
6.1609072e-05	1.65e-05	1.9444646e-05
6.2491617e-05	1.65e-05	1.9447023e-05
6.3378884e-05	1.65e-05	1.945219e-05
6.4272361e-05	1.65e-05	1.9456955e-05
6.5169011e-05	1.65e-05	1.9456791e-05
6.6062621e-05	1.65e-05	1.9449977e-05
6.694938e-05	1.65e-05	1.943811e-05
6.7827601e-05	1.65e-05	1.9423386e-05
6.8696586e-05	1.65e-05	1.9410231e-05
6.9560108e-05	1.65e-05	1.9403828e-05
7.0424825e-05	1.65e-05	1.9405825e-05
7.1296578e-05	1.65e-05	1.9413608e-05
7.2176976e-05	1.65e-05	1.9421012e-05
7.3060353e-05	1.65e-05	1.9422509e-05
7.3939255e-05	1.65e-05	1.941842e-05
7.4812018e-05	1.65e-05	1.9412211e-05
7.5680089e-05	1.65e-05	1.9404687e-05
7.6541851e-05	1.65e-05	1.9394936e-05
7.7394051e-05	1.65e-05	1.9386645e-05
7.8239921e-05	1.65e-05	1.9387414e-05
7.9089718e-05	1.65e-05	1.9399396e-05
7.9948125e-05	1.65e-05	1.9414938e-05
8.0808261e-05	1.65e-05	1.9427612e-05
8.1662186e-05	1.65e-05	1.9439431e-05
8.250755e-05	1.65e-05	1.9455409e-05
8.3344996e-05	1.65e-05	1.9479798e-05
8.4173471e-05	1.65e-05	1.9515967e-05
8.4989681e-05	1.65e-05	1.9570726e-05
8.5791947e-05	1.65e-05	1.9658407e-05
8.6587661e-05	1.65e-05	1.9800527e-05
8.7401223e-05	1.65e-05	2.0012986e-05
8.8276828e-05	1.65e-05	2.0281162e-05
8.9255394e-05	1.65e-05	2.0547578e-05
9.0346091e-05	1.65e-05	2.0685637e-05
9.1456974e-05	1.65e-05	2.0609663e-05
9.247461e-05	1.65e-05	2.0373133e-05
9.3382017e-05	1.65e-05	2.0106774e-05
9.4218495e-05	1.65e-05	1.9883867e-05
9.5031532e-05	1.65e-05	1.9724701e-05
9.5839474e-05	1.65e-05	1.9616783e-05
9.6649756e-05	1.65e-05	1.9548016e-05
9.7469847e-05	1.65e-05	1.9506339e-05
9.8301143e-05	1.65e-05	1.9480806e-05
9.9140923e-05	1.65e-05	1.9464569e-05
9.9986479e-05	1.65e-05	1.9455237e-05
0.00010083825	1.65e-05	1.9452331e-05
0.00010169909	1.65e-05	1.9453081e-05
0.0001025677	1.65e-05	1.9450241e-05
0.00010343475	1.65e-05	1.9439522e-05
0.00010429229	1.65e-05	1.9426909e-05
0.00010514438	1.65e-05	1.9421631e-05
0.0001060005	1.65e-05	1.9424561e-05
0.0001068637	1.65e-05	1.9431025e-05
0.00010773217	1.65e-05	1.9438837e-05
0.00010860564	1.65e-05	1.9448581e-05
0.00010948652	1.65e-05	1.945888e-05
0.000110374	1.65e-05	1.9464584e-05
0.00011126183	1.65e-05	1.9462127e-05
0.00011214276	1.65e-05	1.9453058e-05
0.00011301372	1.65e-05	1.9443704e-05
0.00011387969	1.65e-05	1.9441446e-05
0.00011474979	1.65e-05	1.944784e-05
0.00011562831	1.65e-05	1.9459035e-05
0.00011651513	1.65e-05	1.9471552e-05
0.00011740893	1.65e-05	1.9482191e-05
0.0001183065	1.65e-05	1.9488322e-05
0.00011920452	1.65e-05	1.9489384e-05
0.00012010014	1.65e-05	1.9485814e-05
0.00012099039	1.65e-05	1.9478784e-05
0.00012187388	1.65e-05	1.9471737e-05
0.00012275337	1.65e-05	1.9470252e-05
0.00012363675	1.65e-05	1.9477553e-05
0.00012453022	1.65e-05	1.9489217e-05
0.00012543137	1.65e-05	1.9498064e-05
0.00012633411	1.65e-05	1.9502342e-05
0.0001272363	1.65e-05	1.9503763e-05
0.00012813776	1.65e-05	1.9503219e-05
0.00012903765	1.65e-05	1.9500687e-05
0.00012993493	1.65e-05	1.949666e-05
0.0001308291	1.65e-05	1.9492449e-05
0.00013172139	1.65e-05	1.9491234e-05
0.00013261636	1.65e-05	1.949443e-05
0.00013349659	1.65e-05	1.949832e-05
