{
  "experiment_name": "timing",
  "num_ranks": 2,
  "metrics": [
    {
      "identifier": "MPI: particle handling",
      "timers": { "rank_0": 118.54, "rank_1": 260.53 }
    },
    {
      "identifier": "MPI: particle (overhead)",
      "timers": { "rank_0": 304.55, "rank_1": 305.99 }
    },
    {
      "identifier": "MPI: particle",
      "timers": { "rank_0": 5825.81, "rank_1": 975.37 }
    },
    {
      "identifier": "CPU: particle handling",
      "timers": { "rank_0": 755.78, "rank_1": 749.29 }
    },
    {
      "identifier": "CPU: particle mapping",
      "timers": { "rank_0": 41308.95, "rank_1": 48331.96 }
    },
    {
      "identifier": "Copy: CPU -> GPU",
      "timers": { "rank_0": 111789.27, "rank_1": 44440.99 }
    },
    {
      "identifier": "CL: PartMapLP",
      "timers": { "rank_0": 37159.09, "rank_1": 72192.50 }
    },
    {
      "identifier": "Copy: GPU -> CPU",
      "timers": { "rank_0": 93490.20, "rank_1": 215337.06 }
    },
    {
      "identifier": "CL: LEGalilei",
      "timers": { "rank_0": 26485.89, "rank_1": 26125.73 }
    },
    {
      "identifier": "CL: LEShift",
      "timers": { "rank_0": 8394.37, "rank_1": 8886.66 }
    },
    {
      "identifier": "CL: PropagateCollide",
      "timers": { "rank_0": 149555.32, "rank_1": 123863.15 }
    },
    {
      "identifier": "OMP: part ext forces",
      "timers": { "rank_0": 31.84, "rank_1": 28.13 }
    },
    {
      "identifier": "OMP: part int forces",
      "timers": { "rank_0": 7004.09, "rank_1": 7498.06 }
    },
    {
      "identifier": "OMP: part-part forces",
      "timers": { "rank_0": 14738.46, "rank_1": 16564.09 }
    },
    {
      "identifier": "MPI: particle forces (overhead)",
      "timers": { "rank_0": 350.40, "rank_1": 348.41 }
    },
    {
      "identifier": "MPI: particle forces",
      "timers": { "rank_0": 2008.87, "rank_1": 53683.19 }
    },
    {
      "identifier": "OMP: particle dynamics",
      "timers": { "rank_0": 6840.68, "rank_1": 6677.86 }
    },
    {
      "identifier": "I/O: output",
      "timers": { "rank_0": 301589.75, "rank_1": 326652.03 }
    },
    {
      "identifier": "ALL: total time",
      "timers": { "rank_0": 1480418.35, "rank_1": 1480201.33 }
    }
  ]
}
