{
  "experiment_name": "timing",
  "num_ranks": 2,
  "metrics": [
    {
      "identifier": "MPI: particle handling",
      "timers": { "rank_0": 281.15, "rank_1": 274.62 }
    },
    {
      "identifier": "MPI: particle (overhead)",
      "timers": { "rank_0": 642.45, "rank_1": 552.28 }
    },
    {
      "identifier": "MPI: particle",
      "timers": { "rank_0": 7244.87, "rank_1": 2329.23 }
    },
    {
      "identifier": "CPU: particle handling",
      "timers": { "rank_0": 1802.85, "rank_1": 1160.65 }
    },
    {
      "identifier": "CPU: particle mapping",
      "timers": { "rank_0": 112718.20, "rank_1": 85360.52 }
    },
    {
      "identifier": "Copy: CPU -> GPU",
      "timers": { "rank_0": 174017.94, "rank_1": 74082.81 }
    },
    {
      "identifier": "CL: PartMapLP",
      "timers": { "rank_0": 101581.27, "rank_1": 143524.04 }
    },
    {
      "identifier": "Copy: GPU -> CPU",
      "timers": { "rank_0": 185764.74, "rank_1": 328292.95 }
    },
    {
      "identifier": "CL: LEGalilei",
      "timers": { "rank_0": 42387.03, "rank_1": 44777.34 }
    },
    {
      "identifier": "CL: LEShift",
      "timers": { "rank_0": 34322.09, "rank_1": 34373.49 }
    },
    {
      "identifier": "CL: PropagateCollide",
      "timers": { "rank_0": 644854.48, "rank_1": 245354.90 }
    },
    {
      "identifier": "OMP: part ext forces",
      "timers": { "rank_0": 107.20, "rank_1": 104.23 }
    },
    {
      "identifier": "OMP: part int forces",
      "timers": { "rank_0": 18741.05, "rank_1": 17114.91 }
    },
    {
      "identifier": "OMP: part-part forces",
      "timers": { "rank_0": 29821.85, "rank_1": 28355.79 }
    },
    {
      "identifier": "MPI: particle forces (overhead)",
      "timers": { "rank_0": 584.59, "rank_1": 563.93 }
    },
    {
      "identifier": "MPI: particle forces",
      "timers": { "rank_0": 5831.22, "rank_1": 484071.83 }
    },
    {
      "identifier": "OMP: particle dynamics",
      "timers": { "rank_0": 23677.09, "rank_1": 14213.63 }
    },
    {
      "identifier": "I/O: output",
      "timers": { "rank_0": 57601.38, "rank_1": 57682.20 }
    },
    {
      "identifier": "ALL: total time",
      "timers": { "rank_0": 3002739.27, "rank_1": 3002617.90 }
    }
  ]
}
