{
  "experiment_name": "timing",
  "num_ranks": 2,
  "metrics": [
    {
      "identifier": "MPI: particle handling",
      "timers": { "rank_0": 39.07, "rank_1": 38.26 }
    },
    {
      "identifier": "MPI: particle (overhead)",
      "timers": { "rank_0": 81.93, "rank_1": 71.74 }
    },
    {
      "identifier": "MPI: particle",
      "timers": { "rank_0": 319.83, "rank_1": 1167.90 }
    },
    {
      "identifier": "CPU: particle handling",
      "timers": { "rank_0": 314.50, "rank_1": 160.25 }
    },
    {
      "identifier": "CPU: particle mapping",
      "timers": { "rank_0": 1963.56, "rank_1": 2121.17 }
    },
    {
      "identifier": "Copy: CPU -> GPU",
      "timers": { "rank_0": 3981.18, "rank_1": 1944.86 }
    },
    {
      "identifier": "CL: PartMapLP",
      "timers": { "rank_0": 1765.50, "rank_1": 2781.23 }
    },
    {
      "identifier": "Copy: GPU -> CPU",
      "timers": { "rank_0": 4175.68, "rank_1": 3679.28 }
    },
    {
      "identifier": "CL: LEGalilei",
      "timers": { "rank_0": 1255.98, "rank_1": 1161.68 }
    },
    {
      "identifier": "CL: LEShift",
      "timers": { "rank_0": 800.17, "rank_1": 752.99 }
    },
    {
      "identifier": "CL: PropagateCollide",
      "timers": { "rank_0": 7800.29, "rank_1": 4903.68 }
    },
    {
      "identifier": "OMP: part ext forces",
      "timers": { "rank_0": 9.30, "rank_1": 8.56 }
    },
    {
      "identifier": "OMP: part int forces",
      "timers": { "rank_0": 3064.32, "rank_1": 2531.76 }
    },
    {
      "identifier": "OMP: part-part forces",
      "timers": { "rank_0": 5981.58, "rank_1": 5836.94 }
    },
    {
      "identifier": "MPI: particle forces (overhead)",
      "timers": { "rank_0": 84.82, "rank_1": 80.47 }
    },
    {
      "identifier": "MPI: particle forces",
      "timers": { "rank_0": 948.54, "rank_1": 8179.72 }
    },
    {
      "identifier": "OMP: particle dynamics",
      "timers": { "rank_0": 3323.26, "rank_1": 2451.50 }
    },
    {
      "identifier": "I/O: output",
      "timers": { "rank_0": 203021.50, "rank_1": 215100.81 }
    },
    {
      "identifier": "ALL: total time",
      "timers": { "rank_0": 271487.04, "rank_1": 271375.32 }
    }
  ]
}
