{
  "experiment_name": "timing",
  "num_ranks": 2,
  "metrics": [
    {
      "identifier": "MPI: particle handling",
      "timers": { "rank_0": 1099.52, "rank_1": 1640.42 }
    },
    {
      "identifier": "MPI: particle (overhead)",
      "timers": { "rank_0": 3025.89, "rank_1": 2894.58 }
    },
    {
      "identifier": "MPI: particle",
      "timers": { "rank_0": 11441.50, "rank_1": 10926.40 }
    },
    {
      "identifier": "CPU: particle handling",
      "timers": { "rank_0": 7206.93, "rank_1": 5760.69 }
    },
    {
      "identifier": "CPU: particle mapping",
      "timers": { "rank_0": 450244.86, "rank_1": 564722.02 }
    },
    {
      "identifier": "Copy: CPU -> GPU",
      "timers": { "rank_0": 990020.10, "rank_1": 525914.15 }
    },
    {
      "identifier": "CL: PartMapLP",
      "timers": { "rank_0": 410128.53, "rank_1": 722158.84 }
    },
    {
      "identifier": "Copy: GPU -> CPU",
      "timers": { "rank_0": 904583.65, "rank_1": 820572.61 }
    },
    {
      "identifier": "CL: LEGalilei",
      "timers": { "rank_0": 292591.33, "rank_1": 295963.41 }
    },
    {
      "identifier": "CL: LEShift",
      "timers": { "rank_0": 167076.66, "rank_1": 87822.61 }
    },
    {
      "identifier": "CL: PropagateCollide",
      "timers": { "rank_0": 1514963.57, "rank_1": 1260966.69 }
    },
    {
      "identifier": "OMP: part ext forces",
      "timers": { "rank_0": 306.31, "rank_1": 227.45 }
    },
    {
      "identifier": "OMP: part int forces",
      "timers": { "rank_0": 65055.68, "rank_1": 78446.19 }
    },
    {
      "identifier": "OMP: part-part forces",
      "timers": { "rank_0": 132122.96, "rank_1": 185366.18 }
    },
    {
      "identifier": "MPI: particle forces (overhead)",
      "timers": { "rank_0": 3237.26, "rank_1": 3051.16 }
    },
    {
      "identifier": "MPI: particle forces",
      "timers": { "rank_0": 19817.27, "rank_1": 746419.37 }
    },
    {
      "identifier": "OMP: particle dynamics",
      "timers": { "rank_0": 63475.55, "rank_1": 64028.53 }
    },
    {
      "identifier": "I/O: output",
      "timers": { "rank_0": 300428.22, "rank_1": 326202.46 }
    },
    {
      "identifier": "ALL: total time",
      "timers": { "rank_0": 9400901.38, "rank_1": 9400514.08 }
    }
  ]
}
