{
  "experiment_name": "timing",
  "num_ranks": 2,
  "metrics": [
    {
      "identifier": "MPI: particle handling",
      "timers": { "rank_0": 326.98, "rank_1": 312.38 }
    },
    {
      "identifier": "MPI: particle (overhead)",
      "timers": { "rank_0": 747.85, "rank_1": 727.67 }
    },
    {
      "identifier": "MPI: particle",
      "timers": { "rank_0": 15395.53, "rank_1": 2316.17 }
    },
    {
      "identifier": "CPU: particle handling",
      "timers": { "rank_0": 2496.80, "rank_1": 2872.38 }
    },
    {
      "identifier": "CPU: particle mapping",
      "timers": { "rank_0": 160955.61, "rank_1": 128941.24 }
    },
    {
      "identifier": "Copy: CPU -> GPU",
      "timers": { "rank_0": 263291.55, "rank_1": 116078.14 }
    },
    {
      "identifier": "CL: PartMapLP",
      "timers": { "rank_0": 149148.39, "rank_1": 226710.55 }
    },
    {
      "identifier": "Copy: GPU -> CPU",
      "timers": { "rank_0": 289351.29, "rank_1": 610505.98 }
    },
    {
      "identifier": "CL: LEGalilei",
      "timers": { "rank_0": 42412.81, "rank_1": 45354.08 }
    },
    {
      "identifier": "CL: LEShift",
      "timers": { "rank_0": 35130.14, "rank_1": 35230.51 }
    },
    {
      "identifier": "CL: PropagateCollide",
      "timers": { "rank_0": 773433.53, "rank_1": 439447.80 }
    },
    {
      "identifier": "OMP: part ext forces",
      "timers": { "rank_0": 106.29, "rank_1": 99.54 }
    },
    {
      "identifier": "OMP: part int forces",
      "timers": { "rank_0": 19580.82, "rank_1": 18336.82 }
    },
    {
      "identifier": "OMP: part-part forces",
      "timers": { "rank_0": 42674.34, "rank_1": 40798.82 }
    },
    {
      "identifier": "MPI: particle forces (overhead)",
      "timers": { "rank_0": 826.46, "rank_1": 767.08 }
    },
    {
      "identifier": "MPI: particle forces",
      "timers": { "rank_0": 6187.97, "rank_1": 438798.36 }
    },
    {
      "identifier": "OMP: particle dynamics",
      "timers": { "rank_0": 20757.69, "rank_1": 14975.09 }
    },
    {
      "identifier": "I/O: output",
      "timers": { "rank_0": 118146.19, "rank_1": 118148.51 }
    },
    {
      "identifier": "ALL: total time",
      "timers": { "rank_0": 4017339.30, "rank_1": 4017667.43 }
    }
  ]
}
