0.000177402466	1.65e-05	1.4500763e-05
0.000237805562	1.65e-05	1.4502107e-05
0.00029821181	1.65e-05	1.4504907e-05
0.000358623312	1.65e-05	1.4506921e-05
0.000419036474	1.65e-05	1.4505241e-05
0.000479445398	1.65e-05	1.450135e-05
0.000539846292	1.65e-05	1.4496709e-05
0.000600241412	1.65e-05	1.4496077e-05
0.000660639042	1.65e-05	1.4500988e-05
0.000721049706	1.65e-05	1.4507468e-05
0.000781470962	1.65e-05	1.4509338e-05
0.000841889174	1.65e-05	1.4503183e-05
0.00090229343	1.65e-05	1.4494449e-05
0.000962683986	1.65e-05	1.4490005e-05
0.001023074192	1.65e-05	1.449388e-05
0.001083479524	1.65e-05	1.4503897e-05
0.001143903602	1.65e-05	1.4509365e-05
0.001204331256	1.65e-05	1.4504874e-05
0.001264743016	1.65e-05	1.449286e-05
0.001325134274	1.65e-05	1.4483697e-05
0.001385520248	1.65e-05	1.4485597e-05
0.00144592017	1.65e-05	1.4494855e-05
0.001506341684	1.65e-05	1.4503759e-05
0.001566775218	1.65e-05	1.4502262e-05
0.001627197574	1.65e-05	1.448915e-05
0.001687595074	1.65e-05	1.4476417e-05
0.00174798225	1.65e-05	1.4473569e-05
0.00180838106	1.65e-05	1.4480307e-05
0.001868799164	1.65e-05	1.44881e-05
0.001929234662	1.65e-05	1.4488514e-05
0.001989668358	1.65e-05	1.4476743e-05
0.00205007977	1.65e-05	1.4459309e-05
0.002110477722	1.65e-05	1.4450342e-05
0.002170883986	1.65e-05	1.4448963e-05
0.002231308652	1.65e-05	1.4448671e-05
0.002291750406	1.65e-05	1.4443569e-05
0.00235220156	1.65e-05	1.4425316e-05
0.002412642958	1.65e-05	1.4396441e-05
0.00247307482	1.65e-05	1.4365423e-05
0.002533521658	1.65e-05	1.4333723e-05
0.002593989074	1.65e-05	1.4292084e-05
0.002654484908	1.65e-05	1.4228924e-05
0.002715002784	1.65e-05	1.4134207e-05
0.00277553663	1.65e-05	1.3985043e-05
0.002836056806	1.65e-05	1.377587e-05
0.002896542254	1.65e-05	1.3485874e-05
0.002956898902	1.65e-05	1.3124415e-05
0.003017030382	1.65e-05	1.2756655e-05
0.003076812876	1.65e-05	1.2500889e-05
0.003136333704	1.65e-05	1.2456731e-05
0.00319597565	1.65e-05	1.2644757e-05
0.00325599314	1.65e-05	1.2985141e-05
0.00331625569	1.65e-05	1.335704e-05
0.00337669591	1.65e-05	1.3670746e-05
0.00343718844	1.65e-05	1.3899613e-05
0.003497692184	1.65e-05	1.4065787e-05
0.003558192452	1.65e-05	1.4180008e-05
0.00361868161	1.65e-05	1.4255873e-05
0.003679148028	1.65e-05	1.4302453e-05
0.00373959252	1.65e-05	1.4334711e-05
0.003800013426	1.65e-05	1.4359034e-05
0.00386042498	1.65e-05	1.4384435e-05
0.003920844528	1.65e-05	1.4411179e-05
0.003981277346	1.65e-05	1.4427021e-05
0.00404170322	1.65e-05	1.443115e-05
0.004102110324	1.65e-05	1.4429367e-05
0.004162501118	1.65e-05	1.4428859e-05
0.004222881132	1.65e-05	1.4437016e-05
0.004283274866	1.65e-05	1.445312e-05
0.0043436922	1.65e-05	1.4465859e-05
0.004404112758	1.65e-05	1.4465363e-05
0.004464517434	1.65e-05	1.4457086e-05
0.004524901238	1.65e-05	1.4450162e-05
0.004585273174	1.65e-05	1.4451417e-05
0.004645654346	1.65e-05	1.4464057e-05
0.004706059788	1.65e-05	1.4477032e-05
0.00476647869	1.65e-05	1.4479194e-05
0.004826886622	1.65e-05	1.4471213e-05
0.004887273182	1.65e-05	1.4461041e-05
0.00494764519	1.65e-05	1.4459035e-05
0.005008020786	1.65e-05	1.4466984e-05
0.005068416492	1.65e-05	1.4478532e-05
0.005128828134	1.65e-05	1.4484167e-05
0.005189237978	1.65e-05	1.4478923e-05
0.005249630472	1.65e-05	1.4469786e-05
0.00531000712	1.65e-05	1.4465209e-05
0.005370383834	1.65e-05	1.4468645e-05
0.005430772284	1.65e-05	1.447714e-05
0.005491174112	1.65e-05	1.4482707e-05
0.005551580058	1.65e-05	1.4482231e-05
0.005611976784	1.65e-05	1.447631e-05
0.005672362036	1.65e-05	1.4471415e-05
0.005732743814	1.65e-05	1.4471827e-05
0.005793130014	1.65e-05	1.4474911e-05
0.005853523064	1.65e-05	1.4478814e-05
0.005913919594	1.65e-05	1.4480584e-05
0.005974316336	1.65e-05	1.4479535e-05
0.006034709622	1.65e-05	1.4477823e-05
0.006095100148	1.65e-05	1.4475692e-05
0.006155489308	1.65e-05	1.4474536e-05
0.00621948928869	1.65e-05	1.4474536e-05
