{
  "experiment_name": "timing",
  "num_ranks": 2,
  "metrics": [
    {
      "identifier": "MPI: particle handling",
      "timers": { "rank_0": 6.59, "rank_1": 12.19 }
    },
    {
      "identifier": "MPI: particle (overhead)",
      "timers": { "rank_0": 96.92, "rank_1": 67.46 }
    },
    {
      "identifier": "MPI: particle",
      "timers": { "rank_0": 201.99, "rank_1": 257.27 }
    },
    {
      "identifier": "CPU: particle handling",
      "timers": { "rank_0": 98.51, "rank_1": 104.46 }
    },
    {
      "identifier": "CPU: particle mapping",
      "timers": { "rank_0": 7838.08, "rank_1": 7473.93 }
    },
    {
      "identifier": "Copy: CPU -> GPU",
      "timers": { "rank_0": 13935.68, "rank_1": 13915.89 }
    },
    {
      "identifier": "CL: PartMapLP",
      "timers": { "rank_0": 7497.44, "rank_1": 7142.35 }
    },
    {
      "identifier": "Copy: GPU -> CPU",
      "timers": { "rank_0": 42701.91, "rank_1": 41685.46 }
    },
    {
      "identifier": "CL: LEGalilei",
      "timers": { "rank_0": 2002.44, "rank_1": 2192.46 }
    },
    {
      "identifier": "CL: LEShift",
      "timers": { "rank_0": 1125.45, "rank_1": 1183.35 }
    },
    {
      "identifier": "CL: PropagateCollide",
      "timers": { "rank_0": 24619.38, "rank_1": 23546.09 }
    },
    {
      "identifier": "OMP: part ext forces",
      "timers": { "rank_0": 1.91, "rank_1": 1.34 }
    },
    {
      "identifier": "OMP: part int forces",
      "timers": { "rank_0": 599.66, "rank_1": 618.50 }
    },
    {
      "identifier": "OMP: part-part forces",
      "timers": { "rank_0": 2363.89, "rank_1": 2681.05 }
    },
    {
      "identifier": "MPI: particle forces (overhead)",
      "timers": { "rank_0": 57.54, "rank_1": 100.41 }
    },
    {
      "identifier": "MPI: particle forces",
      "timers": { "rank_0": 229.90, "rank_1": 5607.32 }
    },
    {
      "identifier": "OMP: particle dynamics",
      "timers": { "rank_0": 449.16, "rank_1": 462.85 }
    },
    {
      "identifier": "I/O: output",
      "timers": { "rank_0": 1220477.53, "rank_1": 1269175.65 }
    },
    {
      "identifier": "ALL: total time",
      "timers": { "rank_0": 1476609.15, "rank_1": 1476271.79 }
    }
  ]
}
