{
    "charge": {
        "type": "none"
    },
    "coating": {
        "type": "none"
    },
    "deform": {
        "type": "rigid"
    },
    "density": {
        "constant": {
            "rho": 2000.0
        },
        "type": "constant"
    },
    "friction": {
        "type": "standard",
        "standard": {
            "mus": 1.0,                      
            "muk": 1.0                       
        }
    },
    "magnetic": {
        "type": "none"
    },
    "repulsion": {
        "type": "simple",
        "simple": {
            "c0": 1e-4,
            "dmax": 1e-7
        }
    },
    "shape": {
        "type": "monoball"
    },
    "size": {
        "mono": {
            "diam": 8e-06
        },
        "type": "mono"
    },
    "vdWaals": {
        "type": "none"
    }
}
