{
  "experiment_name": "timing",
  "num_ranks": 2,
  "metrics": [
    {
      "identifier": "MPI: particle handling",
      "timers": { "rank_0": 59.79, "rank_1": 74.85 }
    },
    {
      "identifier": "MPI: particle (overhead)",
      "timers": { "rank_0": 274.58, "rank_1": 267.02 }
    },
    {
      "identifier": "MPI: particle",
      "timers": { "rank_0": 1027.05, "rank_1": 1097.22 }
    },
    {
      "identifier": "CPU: particle handling",
      "timers": { "rank_0": 415.96, "rank_1": 362.98 }
    },
    {
      "identifier": "CPU: particle mapping",
      "timers": { "rank_0": 28334.94, "rank_1": 29945.84 }
    },
    {
      "identifier": "Copy: CPU -> GPU",
      "timers": { "rank_0": 71183.64, "rank_1": 27921.76 }
    },
    {
      "identifier": "CL: PartMapLP",
      "timers": { "rank_0": 26034.66, "rank_1": 56283.92 }
    },
    {
      "identifier": "Copy: GPU -> CPU",
      "timers": { "rank_0": 64227.00, "rank_1": 60371.54 }
    },
    {
      "identifier": "CL: LEGalilei",
      "timers": { "rank_0": 23427.93, "rank_1": 21360.75 }
    },
    {
      "identifier": "CL: LEShift",
      "timers": { "rank_0": 9434.19, "rank_1": 11818.56 }
    },
    {
      "identifier": "CL: PropagateCollide",
      "timers": { "rank_0": 105656.77, "rank_1": 91748.51 }
    },
    {
      "identifier": "OMP: part ext forces",
      "timers": { "rank_0": 14.28, "rank_1": 11.26 }
    },
    {
      "identifier": "OMP: part int forces",
      "timers": { "rank_0": 3374.40, "rank_1": 3845.85 }
    },
    {
      "identifier": "OMP: part-part forces",
      "timers": { "rank_0": 8918.83, "rank_1": 11285.31 }
    },
    {
      "identifier": "MPI: particle forces (overhead)",
      "timers": { "rank_0": 240.21, "rank_1": 294.43 }
    },
    {
      "identifier": "MPI: particle forces",
      "timers": { "rank_0": 1356.76, "rank_1": 40241.47 }
    },
    {
      "identifier": "OMP: particle dynamics",
      "timers": { "rank_0": 3526.62, "rank_1": 3214.41 }
    },
    {
      "identifier": "I/O: output",
      "timers": { "rank_0": 441835.44, "rank_1": 474153.18 }
    },
    {
      "identifier": "ALL: total time",
      "timers": { "rank_0": 1064731.33, "rank_1": 1064309.86 }
    }
  ]
}
