{
  "experiment_name": "timing",
  "num_ranks": 2,
  "metrics": [
    {
      "identifier": "MPI: particle handling",
      "timers": { "rank_0": 6.26, "rank_1": 6.19 }
    },
    {
      "identifier": "MPI: particle (overhead)",
      "timers": { "rank_0": 18.77, "rank_1": 16.14 }
    },
    {
      "identifier": "MPI: particle",
      "timers": { "rank_0": 60.04, "rank_1": 90.69 }
    },
    {
      "identifier": "CPU: particle handling",
      "timers": { "rank_0": 65.37, "rank_1": 48.60 }
    },
    {
      "identifier": "CPU: particle mapping",
      "timers": { "rank_0": 4114.09, "rank_1": 3330.90 }
    },
    {
      "identifier": "Copy: CPU -> GPU",
      "timers": { "rank_0": 6751.80, "rank_1": 3099.61 }
    },
    {
      "identifier": "CL: PartMapLP",
      "timers": { "rank_0": 3872.14, "rank_1": 6115.69 }
    },
    {
      "identifier": "Copy: GPU -> CPU",
      "timers": { "rank_0": 8474.27, "rank_1": 7771.37 }
    },
    {
      "identifier": "CL: LEGalilei",
      "timers": { "rank_0": 881.86, "rank_1": 889.52 }
    },
    {
      "identifier": "CL: LEShift",
      "timers": { "rank_0": 719.99, "rank_1": 712.01 }
    },
    {
      "identifier": "CL: PropagateCollide",
      "timers": { "rank_0": 17026.79, "rank_1": 12653.08 }
    },
    {
      "identifier": "OMP: part ext forces",
      "timers": { "rank_0": 2.08, "rank_1": 1.59 }
    },
    {
      "identifier": "OMP: part int forces",
      "timers": { "rank_0": 387.17, "rank_1": 379.44 }
    },
    {
      "identifier": "OMP: part-part forces",
      "timers": { "rank_0": 1051.54, "rank_1": 1064.00 }
    },
    {
      "identifier": "MPI: particle forces (overhead)",
      "timers": { "rank_0": 20.04, "rank_1": 24.00 }
    },
    {
      "identifier": "MPI: particle forces",
      "timers": { "rank_0": 127.54, "rank_1": 8254.14 }
    },
    {
      "identifier": "OMP: particle dynamics",
      "timers": { "rank_0": 401.83, "rank_1": 264.33 }
    },
    {
      "identifier": "I/O: output",
      "timers": { "rank_0": 165983.80, "rank_1": 166042.00 }
    },
    {
      "identifier": "ALL: total time",
      "timers": { "rank_0": 242236.24, "rank_1": 242236.17 }
    }
  ]
}
