{
  "experiment_name": "timing",
  "num_ranks": 2,
  "metrics": [
    {
      "identifier": "MPI: particle handling",
      "timers": { "rank_0": 575.39, "rank_1": 1137.67 }
    },
    {
      "identifier": "MPI: particle (overhead)",
      "timers": { "rank_0": 1161.07, "rank_1": 1116.64 }
    },
    {
      "identifier": "MPI: particle",
      "timers": { "rank_0": 5978.35, "rank_1": 4901.69 }
    },
    {
      "identifier": "CPU: particle handling",
      "timers": { "rank_0": 3156.56, "rank_1": 2269.20 }
    },
    {
      "identifier": "CPU: particle mapping",
      "timers": { "rank_0": 206991.67, "rank_1": 244401.80 }
    },
    {
      "identifier": "Copy: CPU -> GPU",
      "timers": { "rank_0": 445924.16, "rank_1": 225587.16 }
    },
    {
      "identifier": "CL: PartMapLP",
      "timers": { "rank_0": 188069.15, "rank_1": 273861.20 }
    },
    {
      "identifier": "Copy: GPU -> CPU",
      "timers": { "rank_0": 337329.10, "rank_1": 306724.79 }
    },
    {
      "identifier": "CL: LEGalilei",
      "timers": { "rank_0": 155017.68, "rank_1": 131148.30 }
    },
    {
      "identifier": "CL: LEShift",
      "timers": { "rank_0": 102095.05, "rank_1": 74892.95 }
    },
    {
      "identifier": "CL: PropagateCollide",
      "timers": { "rank_0": 764365.49, "rank_1": 479518.30 }
    },
    {
      "identifier": "OMP: part ext forces",
      "timers": { "rank_0": 152.13, "rank_1": 116.80 }
    },
    {
      "identifier": "OMP: part int forces",
      "timers": { "rank_0": 31983.90, "rank_1": 38742.85 }
    },
    {
      "identifier": "OMP: part-part forces",
      "timers": { "rank_0": 49954.87, "rank_1": 72241.36 }
    },
    {
      "identifier": "MPI: particle forces (overhead)",
      "timers": { "rank_0": 1237.78, "rank_1": 1218.17 }
    },
    {
      "identifier": "MPI: particle forces",
      "timers": { "rank_0": 9516.76, "rank_1": 502999.40 }
    },
    {
      "identifier": "OMP: particle dynamics",
      "timers": { "rank_0": 35312.96, "rank_1": 33497.13 }
    },
    {
      "identifier": "I/O: output",
      "timers": { "rank_0": 198453.54, "rank_1": 218276.72 }
    },
    {
      "identifier": "ALL: total time",
      "timers": { "rank_0": 4322635.32, "rank_1": 4322382.14 }
    }
  ]
}
