{
  "experiment_name": "timing",
  "num_ranks": 2,
  "metrics": [
    {
      "identifier": "MPI: particle handling",
      "timers": { "rank_0": 53.54, "rank_1": 84.93 }
    },
    {
      "identifier": "MPI: particle (overhead)",
      "timers": { "rank_0": 69.93, "rank_1": 71.00 }
    },
    {
      "identifier": "MPI: particle",
      "timers": { "rank_0": 2676.60, "rank_1": 467.36 }
    },
    {
      "identifier": "CPU: particle handling",
      "timers": { "rank_0": 217.61, "rank_1": 177.52 }
    },
    {
      "identifier": "CPU: particle mapping",
      "timers": { "rank_0": 12341.15, "rank_1": 17925.53 }
    },
    {
      "identifier": "Copy: CPU -> GPU",
      "timers": { "rank_0": 50607.18, "rank_1": 16251.44 }
    },
    {
      "identifier": "CL: PartMapLP",
      "timers": { "rank_0": 10574.82, "rank_1": 15191.35 }
    },
    {
      "identifier": "Copy: GPU -> CPU",
      "timers": { "rank_0": 22668.23, "rank_1": 16258.32 }
    },
    {
      "identifier": "CL: LEGalilei",
      "timers": { "rank_0": 7505.86, "rank_1": 7633.36 }
    },
    {
      "identifier": "CL: LEShift",
      "timers": { "rank_0": 4912.92, "rank_1": 4673.12 }
    },
    {
      "identifier": "CL: PropagateCollide",
      "timers": { "rank_0": 54714.43, "rank_1": 21871.89 }
    },
    {
      "identifier": "OMP: part ext forces",
      "timers": { "rank_0": 14.93, "rank_1": 10.82 }
    },
    {
      "identifier": "OMP: part int forces",
      "timers": { "rank_0": 3037.35, "rank_1": 3388.26 }
    },
    {
      "identifier": "OMP: part-part forces",
      "timers": { "rank_0": 3019.25, "rank_1": 3927.63 }
    },
    {
      "identifier": "MPI: particle forces (overhead)",
      "timers": { "rank_0": 73.19, "rank_1": 72.27 }
    },
    {
      "identifier": "MPI: particle forces",
      "timers": { "rank_0": 784.61, "rank_1": 42321.64 }
    },
    {
      "identifier": "OMP: particle dynamics",
      "timers": { "rank_0": 3022.69, "rank_1": 3068.22 }
    },
    {
      "identifier": "I/O: output",
      "timers": { "rank_0": 74314.46, "rank_1": 86562.03 }
    },
    {
      "identifier": "ALL: total time",
      "timers": { "rank_0": 397643.83, "rank_1": 397441.73 }
    }
  ]
}
