{
  "experiment_name": "timing",
  "num_ranks": 2,
  "metrics": [
    {
      "identifier": "MPI: particle handling",
      "timers": { "rank_0": 12.58, "rank_1": 23.06 }
    },
    {
      "identifier": "MPI: particle (overhead)",
      "timers": { "rank_0": 21.81, "rank_1": 21.08 }
    },
    {
      "identifier": "MPI: particle",
      "timers": { "rank_0": 122.49, "rank_1": 105.34 }
    },
    {
      "identifier": "CPU: particle handling",
      "timers": { "rank_0": 60.83, "rank_1": 46.01 }
    },
    {
      "identifier": "CPU: particle mapping",
      "timers": { "rank_0": 3648.49, "rank_1": 6308.28 }
    },
    {
      "identifier": "Copy: CPU -> GPU",
      "timers": { "rank_0": 10284.87, "rank_1": 5957.92 }
    },
    {
      "identifier": "CL: PartMapLP",
      "timers": { "rank_0": 3264.53, "rank_1": 5002.09 }
    },
    {
      "identifier": "Copy: GPU -> CPU",
      "timers": { "rank_0": 7131.14, "rank_1": 6063.37 }
    },
    {
      "identifier": "CL: LEGalilei",
      "timers": { "rank_0": 1985.39, "rank_1": 4278.66 }
    },
    {
      "identifier": "CL: LEShift",
      "timers": { "rank_0": 2736.58, "rank_1": 2046.85 }
    },
    {
      "identifier": "CL: PropagateCollide",
      "timers": { "rank_0": 17370.47, "rank_1": 7382.64 }
    },
    {
      "identifier": "OMP: part ext forces",
      "timers": { "rank_0": 3.11, "rank_1": 2.55 }
    },
    {
      "identifier": "OMP: part int forces",
      "timers": { "rank_0": 695.73, "rank_1": 807.53 }
    },
    {
      "identifier": "OMP: part-part forces",
      "timers": { "rank_0": 966.36, "rank_1": 1315.99 }
    },
    {
      "identifier": "MPI: particle forces (overhead)",
      "timers": { "rank_0": 24.28, "rank_1": 22.79 }
    },
    {
      "identifier": "MPI: particle forces",
      "timers": { "rank_0": 225.65, "rank_1": 11427.78 }
    },
    {
      "identifier": "OMP: particle dynamics",
      "timers": { "rank_0": 736.20, "rank_1": 681.03 }
    },
    {
      "identifier": "I/O: output",
      "timers": { "rank_0": 148518.54, "rank_1": 158954.67 }
    },
    {
      "identifier": "ALL: total time",
      "timers": { "rank_0": 241713.45, "rank_1": 241713.54 }
    }
  ]
}
