6.1700058e-05	1.65e-05	2.049998e-05
6.2900211e-05	1.65e-05	2.0499949e-05
6.4100473e-05	1.65e-05	2.0499937e-05
6.5301081e-05	1.65e-05	2.0499988e-05
6.6502776e-05	1.65e-05	2.0499577e-05
6.7705817e-05	1.65e-05	2.0496909e-05
6.8908218e-05	1.65e-05	2.049097e-05
7.0107746e-05	1.65e-05	2.0484216e-05
7.1304927e-05	1.65e-05	2.0479657e-05
7.2501024e-05	1.65e-05	2.0477541e-05
7.3696037e-05	1.65e-05	2.0477162e-05
7.4889885e-05	1.65e-05	2.0478722e-05
7.6083531e-05	1.65e-05	2.0482635e-05
7.7278506e-05	1.65e-05	2.0488234e-05
7.8475598e-05	1.65e-05	2.0493863e-05
7.9674683e-05	1.65e-05	2.0498065e-05
8.0875536e-05	1.65e-05	2.0499815e-05
8.2077697e-05	1.65e-05	2.0498151e-05
8.3280008e-05	1.65e-05	2.0492642e-05
8.4480928e-05	1.65e-05	2.0483815e-05
8.5678864e-05	1.65e-05	2.0473055e-05
8.6872537e-05	1.65e-05	2.0462711e-05
8.8061877e-05	1.65e-05	2.0455444e-05
8.9247739e-05	1.65e-05	2.0452996e-05
9.0431793e-05	1.65e-05	2.0456392e-05
9.161718e-05	1.65e-05	2.0465043e-05
9.2806703e-05	1.65e-05	2.0475582e-05
9.4000544e-05	1.65e-05	2.0483688e-05
9.519649e-05	1.65e-05	2.0486809e-05
9.6391689e-05	1.65e-05	2.0485359e-05
9.7584752e-05	1.65e-05	2.048169e-05
9.8776284e-05	1.65e-05	2.0477561e-05
9.9967171e-05	1.65e-05	2.0472788e-05
0.00010115682	1.65e-05	2.0466389e-05
0.00010234293	1.65e-05	2.0458514e-05
0.00010352278	1.65e-05	2.0451948e-05
0.00010469624	1.65e-05	2.0451636e-05
0.00010586781	1.65e-05	2.0460445e-05
0.00010704317	1.65e-05	2.0475176e-05
0.00010822309	1.65e-05	2.0489398e-05
0.00010940357	1.65e-05	2.050008e-05
0.00011058051	1.65e-05	2.0508826e-05
0.00011175154	1.65e-05	2.0519157e-05
0.00011291529	1.65e-05	2.0535019e-05
0.00011407062	1.65e-05	2.0560489e-05
0.00011521536	1.65e-05	2.060091e-05
0.0001163468	1.65e-05	2.0665481e-05
0.00011746593	1.65e-05	2.0767233e-05
0.00011858742	1.65e-05	2.0912241e-05
0.00011974644	1.65e-05	2.1067863e-05
0.000120969	1.65e-05	2.1156006e-05
0.00012223469	1.65e-05	2.1129778e-05
0.00012350167	1.65e-05	2.1015794e-05
0.00012474646	1.65e-05	2.0869623e-05
0.0001259664	1.65e-05	2.0731316e-05
0.00012716531	1.65e-05	2.0616714e-05
0.00012834718	1.65e-05	2.0527768e-05
0.00012951554	1.65e-05	2.0461838e-05
0.00013067414	1.65e-05	2.0415043e-05
0.00013182671	1.65e-05	2.0382954e-05
0.00013297705	1.65e-05	2.0360195e-05
0.00013412676	1.65e-05	2.0339865e-05
0.00013527262	1.65e-05	2.031679e-05
0.00013640958	1.65e-05	2.029256e-05
0.00013753719	1.65e-05	2.0273449e-05
0.00013865981	1.65e-05	2.0263129e-05
0.00013978172	1.65e-05	2.0260258e-05
0.00014090468	1.65e-05	2.0261448e-05
0.00014202853	1.65e-05	2.0263997e-05
0.00014315236	1.65e-05	2.0267208e-05
0.00014427642	1.65e-05	2.0272019e-05
0.00014540261	1.65e-05	2.0278767e-05
0.000146533	1.65e-05	2.0285623e-05
0.00014766796	1.65e-05	2.0289322e-05
0.00014880563	1.65e-05	2.0287159e-05
0.00014994238	1.65e-05	2.0278974e-05
0.00015107512	1.65e-05	2.0267898e-05
0.00015220317	1.65e-05	2.0258212e-05
0.00015332764	1.65e-05	2.0253215e-05
0.00015445092	1.65e-05	2.0254165e-05
0.00015557523	1.65e-05	2.0259916e-05
0.00015670167	1.65e-05	2.0268526e-05
0.00015783087	1.65e-05	2.0278302e-05
0.0001589632	1.65e-05	2.0287642e-05
0.00016009854	1.65e-05	2.029512e-05
0.0001612365	1.65e-05	2.0299946e-05
0.00016237666	1.65e-05	2.030159e-05
0.0001635179	1.65e-05	2.0299686e-05
0.00016465849	1.65e-05	2.029502e-05
0.00016579754	1.65e-05	2.0289448e-05
0.00016693526	1.65e-05	2.0284371e-05
0.00016807153	1.65e-05	2.0280436e-05
0.00016920567	1.65e-05	2.0279273e-05
0.00017033899	1.65e-05	2.0282995e-05
0.00017147453	1.65e-05	2.0290486e-05
0.00017261326	1.65e-05	2.0297873e-05
0.00017375375	1.65e-05	2.0303017e-05
0.00017489503	1.65e-05	2.0306308e-05
0.00017603711	1.65e-05	2.0308451e-05
0.00017718002	1.65e-05	2.0309655e-05
0.00017718003	1.65e-05	2.0309655e-05
