{
  "experiment_name": "timing",
  "num_ranks": 2,
  "metrics": [
    {
      "identifier": "MPI: particle handling",
      "timers": { "rank_0": 6.31, "rank_1": 7.91 }
    },
    {
      "identifier": "MPI: particle (overhead)",
      "timers": { "rank_0": 15.44, "rank_1": 15.21 }
    },
    {
      "identifier": "MPI: particle",
      "timers": { "rank_0": 56.31, "rank_1": 65.54 }
    },
    {
      "identifier": "CPU: particle handling",
      "timers": { "rank_0": 39.86, "rank_1": 29.89 }
    },
    {
      "identifier": "CPU: particle mapping",
      "timers": { "rank_0": 2206.73, "rank_1": 2010.38 }
    },
    {
      "identifier": "Copy: CPU -> GPU",
      "timers": { "rank_0": 4159.31, "rank_1": 1770.48 }
    },
    {
      "identifier": "CL: PartMapLP",
      "timers": { "rank_0": 1961.04, "rank_1": 3453.38 }
    },
    {
      "identifier": "Copy: GPU -> CPU",
      "timers": { "rank_0": 5490.58, "rank_1": 4891.54 }
    },
    {
      "identifier": "CL: LEGalilei",
      "timers": { "rank_0": 829.92, "rank_1": 739.12 }
    },
    {
      "identifier": "CL: LEShift",
      "timers": { "rank_0": 462.67, "rank_1": 452.65 }
    },
    {
      "identifier": "CL: PropagateCollide",
      "timers": { "rank_0": 8103.47, "rank_1": 6294.30 }
    },
    {
      "identifier": "OMP: part ext forces",
      "timers": { "rank_0": 1.67, "rank_1": 1.53 }
    },
    {
      "identifier": "OMP: part int forces",
      "timers": { "rank_0": 427.81, "rank_1": 410.27 }
    },
    {
      "identifier": "OMP: part-part forces",
      "timers": { "rank_0": 943.37, "rank_1": 977.42 }
    },
    {
      "identifier": "MPI: particle forces (overhead)",
      "timers": { "rank_0": 18.24, "rank_1": 17.27 }
    },
    {
      "identifier": "MPI: particle forces",
      "timers": { "rank_0": 88.22, "rank_1": 4180.04 }
    },
    {
      "identifier": "OMP: particle dynamics",
      "timers": { "rank_0": 394.89, "rank_1": 330.80 }
    },
    {
      "identifier": "I/O: output",
      "timers": { "rank_0": 312660.45, "rank_1": 319364.27 }
    },
    {
      "identifier": "ALL: total time",
      "timers": { "rank_0": 362464.12, "rank_1": 362464.07 }
    }
  ]
}
