{
  "experiment_name": "timing",
  "num_ranks": 2,
  "metrics": [
    {
      "identifier": "MPI: particle handling",
      "timers": { "rank_0": 59.69, "rank_1": 107.57 }
    },
    {
      "identifier": "MPI: particle (overhead)",
      "timers": { "rank_0": 117.14, "rank_1": 111.42 }
    },
    {
      "identifier": "MPI: particle",
      "timers": { "rank_0": 2579.16, "rank_1": 446.84 }
    },
    {
      "identifier": "CPU: particle handling",
      "timers": { "rank_0": 313.93, "rank_1": 317.14 }
    },
    {
      "identifier": "CPU: particle mapping",
      "timers": { "rank_0": 18665.86, "rank_1": 22877.47 }
    },
    {
      "identifier": "Copy: CPU -> GPU",
      "timers": { "rank_0": 40904.27, "rank_1": 21095.71 }
    },
    {
      "identifier": "CL: PartMapLP",
      "timers": { "rank_0": 16648.78, "rank_1": 27073.50 }
    },
    {
      "identifier": "Copy: GPU -> CPU",
      "timers": { "rank_0": 34727.83, "rank_1": 76172.45 }
    },
    {
      "identifier": "CL: LEGalilei",
      "timers": { "rank_0": 14068.36, "rank_1": 14033.75 }
    },
    {
      "identifier": "CL: LEShift",
      "timers": { "rank_0": 6725.08, "rank_1": 7055.47 }
    },
    {
      "identifier": "CL: PropagateCollide",
      "timers": { "rank_0": 71895.00, "rank_1": 47847.87 }
    },
    {
      "identifier": "OMP: part ext forces",
      "timers": { "rank_0": 14.18, "rank_1": 11.98 }
    },
    {
      "identifier": "OMP: part int forces",
      "timers": { "rank_0": 3199.83, "rank_1": 3610.58 }
    },
    {
      "identifier": "OMP: part-part forces",
      "timers": { "rank_0": 5192.13, "rank_1": 6670.55 }
    },
    {
      "identifier": "MPI: particle forces (overhead)",
      "timers": { "rank_0": 126.00, "rank_1": 123.78 }
    },
    {
      "identifier": "MPI: particle forces",
      "timers": { "rank_0": 977.99, "rank_1": 35370.51 }
    },
    {
      "identifier": "OMP: particle dynamics",
      "timers": { "rank_0": 3176.85, "rank_1": 3190.46 }
    },
    {
      "identifier": "I/O: output",
      "timers": { "rank_0": 198576.47, "rank_1": 215161.53 }
    },
    {
      "identifier": "ALL: total time",
      "timers": { "rank_0": 697360.79, "rank_1": 697279.51 }
    }
  ]
}
