4.5802142e-05	1.65e-05	1.7511019e-05
4.6109485e-05	1.65e-05	1.7512073e-05
4.6411522e-05	1.65e-05	1.750435e-05
4.670389e-05	1.65e-05	1.749466e-05
4.6988504e-05	1.65e-05	1.749197e-05
4.7275329e-05	1.65e-05	1.7502533e-05
4.7574711e-05	1.6500001e-05	1.7516658e-05
4.7882119e-05	1.6500001e-05	1.7520766e-05
4.8185816e-05	1.6500001e-05	1.7515193e-05
4.848128e-05	1.6500001e-05	1.7507229e-05
4.8768549e-05	1.6500001e-05	1.7502841e-05
4.9054269e-05	1.6500001e-05	1.7510261e-05
4.9350398e-05	1.6500001e-05	1.7525827e-05
4.965698e-05	1.6500001e-05	1.7534387e-05
4.996209e-05	1.6500001e-05	1.7531986e-05
5.0259909e-05	1.6500001e-05	1.7526511e-05
5.0550633e-05	1.6500001e-05	1.7523452e-05
5.0837517e-05	1.6500001e-05	1.7528886e-05
5.1130936e-05	1.6500002e-05	1.7544696e-05
5.1435801e-05	1.6500002e-05	1.755859e-05
5.1742239e-05	1.6500002e-05	1.7562355e-05
5.2042224e-05	1.6500002e-05	1.75618e-05
5.2336282e-05	1.6500002e-05	1.7563681e-05
5.2626633e-05	1.6500002e-05	1.7572266e-05
5.2919682e-05	1.6500002e-05	1.7590893e-05
5.3221766e-05	1.6500002e-05	1.761289e-05
5.3528587e-05	1.6500002e-05	1.7629433e-05
5.3831351e-05	1.6500002e-05	1.7642083e-05
5.4127808e-05	1.6500002e-05	1.7658767e-05
5.4421211e-05	1.6500002e-05	1.7684275e-05
5.4715915e-05	1.6500003e-05	1.7721602e-05
5.5015718e-05	1.6500003e-05	1.7770707e-05
5.5317735e-05	1.6500003e-05	1.782663e-05
5.5617584e-05	1.6500003e-05	1.7889616e-05
5.5909695e-05	1.6500003e-05	1.7970367e-05
5.6192668e-05	1.6500003e-05	1.8084603e-05
5.6475138e-05	1.6500003e-05	1.8242532e-05
5.6755521e-05	1.6500003e-05	1.8459099e-05
5.7043221e-05	1.6500003e-05	1.874538e-05
5.7378814e-05	1.6500003e-05	1.9097651e-05
5.7812062e-05	1.6500003e-05	1.9496316e-05
5.837474e-05	1.6500004e-05	1.9909242e-05
5.9109806e-05	1.6500004e-05	2.0265489e-05
6.0006444e-05	1.6500004e-05	2.0482564e-05
6.1009461e-05	1.6500004e-05	2.0480718e-05
6.1904846e-05	1.6500004e-05	2.026035e-05
6.2638769e-05	1.6500004e-05	1.9901163e-05
6.3200947e-05	1.6500004e-05	1.9485538e-05
6.3634513e-05	1.6500004e-05	1.908311e-05
6.3968274e-05	1.6500004e-05	1.8727009e-05
6.4248637e-05	1.6500004e-05	1.8442991e-05
6.4521066e-05	1.6500005e-05	1.8233738e-05
6.480129e-05	1.6500005e-05	1.8080556e-05
6.5084787e-05	1.6500005e-05	1.7966354e-05
6.5377966e-05	1.6500005e-05	1.7881705e-05
6.5676e-05	1.6500005e-05	1.7810387e-05
6.5967771e-05	1.6500005e-05	1.7749318e-05
6.6256226e-05	1.6500006e-05	1.7706634e-05
6.6548589e-05	1.6500006e-05	1.7678314e-05
6.6844524e-05	1.6500006e-05	1.7655413e-05
6.714374e-05	1.6500006e-05	1.7635545e-05
6.7445734e-05	1.6500006e-05	1.7613053e-05
6.7741116e-05	1.6500006e-05	1.7587319e-05
6.8027425e-05	1.6500006e-05	1.7569755e-05
6.8315137e-05	1.6500007e-05	1.7563524e-05
6.8609031e-05	1.6500007e-05	1.7561171e-05
6.8908236e-05	1.6500007e-05	1.7557476e-05
6.921009e-05	1.6500007e-05	1.7547794e-05
6.950613e-05	1.6500007e-05	1.7531303e-05
6.9791505e-05	1.6500007e-05	1.7517941e-05
7.007518e-05	1.6500008e-05	1.7516177e-05
7.0365256e-05	1.6500008e-05	1.7521021e-05
7.0662885e-05	1.6500008e-05	1.7524768e-05
7.0965329e-05	1.6500008e-05	1.7520836e-05
7.1263289e-05	1.6500008e-05	1.7507791e-05
7.1549324e-05	1.6500008e-05	1.7494922e-05
7.1830462e-05	1.6500009e-05	1.7492396e-05
7.2117179e-05	1.6500009e-05	1.7499014e-05
7.2412557e-05	1.6500009e-05	1.750707e-05
7.2714947e-05	1.6500009e-05	1.7507966e-05
7.3015322e-05	1.6500009e-05	1.749713e-05
7.3303629e-05	1.6500009e-05	1.7483661e-05
7.3583513e-05	1.650001e-05	1.7479398e-05
7.3866994e-05	1.650001e-05	1.7485391e-05
7.4159774e-05	1.650001e-05	1.749511e-05
7.4461014e-05	1.650001e-05	1.750012e-05
7.476309e-05	1.650001e-05	1.7492633e-05
7.5054591e-05	1.650001e-05	1.7478376e-05
7.5335103e-05	1.6500011e-05	1.7471612e-05
7.5615875e-05	1.6500011e-05	1.7476417e-05
7.5905673e-05	1.6500011e-05	1.7486432e-05
7.6205149e-05	1.6500011e-05	1.7493597e-05
7.6507781e-05	1.6500011e-05	1.7490448e-05
7.6802324e-05	1.6500011e-05	1.7477059e-05
7.7084941e-05	1.6500012e-05	1.7467175e-05
7.7364275e-05	1.6500012e-05	1.7469641e-05
7.7650936e-05	1.6500012e-05	1.7479861e-05
7.7948077e-05	1.6500012e-05	1.7488246e-05
7.825033e-05	1.6500012e-05	1.7487987e-05
7.8547254e-05	1.6500012e-05	1.7477793e-05
7.8547255e-05	1.6500012e-05	1.7477793e-05
