{
  "experiment_name": "timing",
  "num_ranks": 2,
  "metrics": [
    {
      "identifier": "MPI: particle handling",
      "timers": { "rank_0": 130.62, "rank_1": 214.24 }
    },
    {
      "identifier": "MPI: particle (overhead)",
      "timers": { "rank_0": 316.35, "rank_1": 300.84 }
    },
    {
      "identifier": "MPI: particle",
      "timers": { "rank_0": 1183.44, "rank_1": 1133.38 }
    },
    {
      "identifier": "CPU: particle handling",
      "timers": { "rank_0": 793.60, "rank_1": 609.38 }
    },
    {
      "identifier": "CPU: particle mapping",
      "timers": { "rank_0": 47038.34, "rank_1": 56020.17 }
    },
    {
      "identifier": "Copy: CPU -> GPU",
      "timers": { "rank_0": 108221.57, "rank_1": 52057.57 }
    },
    {
      "identifier": "CL: PartMapLP",
      "timers": { "rank_0": 42751.70, "rank_1": 72063.49 }
    },
    {
      "identifier": "Copy: GPU -> CPU",
      "timers": { "rank_0": 95470.55, "rank_1": 85090.25 }
    },
    {
      "identifier": "CL: LEGalilei",
      "timers": { "rank_0": 22782.05, "rank_1": 21198.39 }
    },
    {
      "identifier": "CL: LEShift",
      "timers": { "rank_0": 11529.34, "rank_1": 12728.48 }
    },
    {
      "identifier": "CL: PropagateCollide",
      "timers": { "rank_0": 161912.85, "rank_1": 134802.03 }
    },
    {
      "identifier": "OMP: part ext forces",
      "timers": { "rank_0": 28.92, "rank_1": 23.33 }
    },
    {
      "identifier": "OMP: part int forces",
      "timers": { "rank_0": 6590.05, "rank_1": 7691.79 }
    },
    {
      "identifier": "OMP: part-part forces",
      "timers": { "rank_0": 13633.76, "rank_1": 17808.15 }
    },
    {
      "identifier": "MPI: particle forces (overhead)",
      "timers": { "rank_0": 325.05, "rank_1": 311.89 }
    },
    {
      "identifier": "MPI: particle forces",
      "timers": { "rank_0": 3343.42, "rank_1": 73403.56 }
    },
    {
      "identifier": "OMP: particle dynamics",
      "timers": { "rank_0": 7491.93, "rank_1": 6266.52 }
    },
    {
      "identifier": "I/O: output",
      "timers": { "rank_0": 314731.90, "rank_1": 330261.59 }
    },
    {
      "identifier": "ALL: total time",
      "timers": { "rank_0": 1265342.48, "rank_1": 1264933.05 }
    }
  ]
}
