{
  "experiment_name": "timing",
  "num_ranks": 2,
  "metrics": [
    {
      "identifier": "MPI: particle handling",
      "timers": { "rank_0": 3.06, "rank_1": 5.79 }
    },
    {
      "identifier": "MPI: particle (overhead)",
      "timers": { "rank_0": 6.31, "rank_1": 6.04 }
    },
    {
      "identifier": "MPI: particle",
      "timers": { "rank_0": 35.82, "rank_1": 133.16 }
    },
    {
      "identifier": "CPU: particle handling",
      "timers": { "rank_0": 20.69, "rank_1": 12.47 }
    },
    {
      "identifier": "CPU: particle mapping",
      "timers": { "rank_0": 850.88, "rank_1": 922.07 }
    },
    {
      "identifier": "Copy: CPU -> GPU",
      "timers": { "rank_0": 3399.86, "rank_1": 824.87 }
    },
    {
      "identifier": "CL: PartMapLP",
      "timers": { "rank_0": 759.30, "rank_1": 2820.56 }
    },
    {
      "identifier": "Copy: GPU -> CPU",
      "timers": { "rank_0": 6554.82, "rank_1": 4427.51 }
    },
    {
      "identifier": "CL: LEGalilei",
      "timers": { "rank_0": 701.92, "rank_1": 565.65 }
    },
    {
      "identifier": "CL: LEShift",
      "timers": { "rank_0": 280.58, "rank_1": 363.19 }
    },
    {
      "identifier": "CL: PropagateCollide",
      "timers": { "rank_0": 3707.12, "rank_1": 2292.85 }
    },
    {
      "identifier": "OMP: part ext forces",
      "timers": { "rank_0": 0.77, "rank_1": 0.59 }
    },
    {
      "identifier": "OMP: part int forces",
      "timers": { "rank_0": 242.15, "rank_1": 212.03 }
    },
    {
      "identifier": "OMP: part-part forces",
      "timers": { "rank_0": 287.11, "rank_1": 347.70 }
    },
    {
      "identifier": "MPI: particle forces (overhead)",
      "timers": { "rank_0": 6.87, "rank_1": 6.24 }
    },
    {
      "identifier": "MPI: particle forces",
      "timers": { "rank_0": 77.49, "rank_1": 3371.20 }
    },
    {
      "identifier": "OMP: particle dynamics",
      "timers": { "rank_0": 199.06, "rank_1": 196.47 }
    },
    {
      "identifier": "I/O: output",
      "timers": { "rank_0": 224154.86, "rank_1": 226953.49 }
    },
    {
      "identifier": "ALL: total time",
      "timers": { "rank_0": 255076.56, "rank_1": 255001.01 }
    }
  ]
}
