{
  "experiment_name": "timing",
  "num_ranks": 2,
  "metrics": [
    {
      "identifier": "MPI: particle handling",
      "timers": { "rank_0": 4653.29, "rank_1": 4121.21 }
    },
    {
      "identifier": "MPI: particle (overhead)",
      "timers": { "rank_0": 13379.78, "rank_1": 12904.92 }
    },
    {
      "identifier": "MPI: particle",
      "timers": { "rank_0": 59593.24, "rank_1": 87482.94 }
    },
    {
      "identifier": "CPU: particle handling",
      "timers": { "rank_0": 39224.30, "rank_1": 32790.74 }
    },
    {
      "identifier": "CPU: particle mapping",
      "timers": { "rank_0": 2239295.50, "rank_1": 1850141.08 }
    },
    {
      "identifier": "Copy: CPU -> GPU",
      "timers": { "rank_0": 3808418.01, "rank_1": 1638882.72 }
    },
    {
      "identifier": "CL: PartMapLP",
      "timers": { "rank_0": 2009721.66, "rank_1": 3265159.77 }
    },
    {
      "identifier": "Copy: GPU -> CPU",
      "timers": { "rank_0": 8226126.95, "rank_1": 8449433.49 }
    },
    {
      "identifier": "CL: LEGalilei",
      "timers": { "rank_0": 543402.33, "rank_1": 544597.62 }
    },
    {
      "identifier": "CL: LEShift",
      "timers": { "rank_0": 431037.03, "rank_1": 422176.80 }
    },
    {
      "identifier": "CL: PropagateCollide",
      "timers": { "rank_0": 8454403.02, "rank_1": 6388166.28 }
    },
    {
      "identifier": "OMP: part ext forces",
      "timers": { "rank_0": 1600.82, "rank_1": 1326.93 }
    },
    {
      "identifier": "OMP: part int forces",
      "timers": { "rank_0": 342423.01, "rank_1": 332021.77 }
    },
    {
      "identifier": "OMP: part-part forces",
      "timers": { "rank_0": 751364.24, "rank_1": 788855.36 }
    },
    {
      "identifier": "MPI: particle forces (overhead)",
      "timers": { "rank_0": 16985.99, "rank_1": 14354.42 }
    },
    {
      "identifier": "MPI: particle forces",
      "timers": { "rank_0": 79601.71, "rank_1": 4140434.52 }
    },
    {
      "identifier": "OMP: particle dynamics",
      "timers": { "rank_0": 327820.46, "rank_1": 267486.10 }
    },
    {
      "identifier": "I/O: output",
      "timers": { "rank_0": 321363.19, "rank_1": 319295.92 }
    },
    {
      "identifier": "ALL: total time",
      "timers": { "rank_0": 58907459.67, "rank_1": 58907544.91 }
    }
  ]
}
