60	9.98003992016e-06	18.9778811251	6.80448422771
120	1.99600798403e-05	22.4780019093	10.2416304243
180	2.99401197605e-05	32.5062673725	20.3031222
240	3.99201596806e-05	68.4070742516	62.4040882411
300	4.99001996008e-05	161.778745973	180.429489701
360	5.9880239521e-05	147.402532832	140.819698317
420	6.98602794411e-05	156.072686495	151.740085223
