60	9.98003992016e-06	2.82337016908	0.410250585205
120	1.99600798403e-05	2.70455587602	0.38563705547
180	2.99401197605e-05	2.67039965385	0.381574206281
240	3.99201596806e-05	2.63280871604	0.376840462651
300	4.99001996008e-05	2.55257409079	0.413510812218
360	5.9880239521e-05	2.46687114214	0.456418382586
420	6.98602794411e-05	2.4086878346	0.503371032851
