{
  "experiment_name": "timing",
  "num_ranks": 2,
  "metrics": [
    {
      "identifier": "MPI: particle handling",
      "timers": { "rank_0": 816.01, "rank_1": 1205.17 }
    },
    {
      "identifier": "MPI: particle (overhead)",
      "timers": { "rank_0": 2868.53, "rank_1": 2923.73 }
    },
    {
      "identifier": "MPI: particle",
      "timers": { "rank_0": 39531.19, "rank_1": 6475.94 }
    },
    {
      "identifier": "CPU: particle handling",
      "timers": { "rank_0": 8010.81, "rank_1": 6385.18 }
    },
    {
      "identifier": "CPU: particle mapping",
      "timers": { "rank_0": 557754.02, "rank_1": 527726.44 }
    },
    {
      "identifier": "Copy: CPU -> GPU",
      "timers": { "rank_0": 1058371.21, "rank_1": 493673.66 }
    },
    {
      "identifier": "CL: PartMapLP",
      "timers": { "rank_0": 523932.67, "rank_1": 890352.88 }
    },
    {
      "identifier": "Copy: GPU -> CPU",
      "timers": { "rank_0": 1119507.47, "rank_1": 2694332.38 }
    },
    {
      "identifier": "CL: LEGalilei",
      "timers": { "rank_0": 236687.36, "rank_1": 196650.95 }
    },
    {
      "identifier": "CL: LEShift",
      "timers": { "rank_0": 147793.95, "rank_1": 126813.02 }
    },
    {
      "identifier": "CL: PropagateCollide",
      "timers": { "rank_0": 2029334.77, "rank_1": 1891175.31 }
    },
    {
      "identifier": "OMP: part ext forces",
      "timers": { "rank_0": 253.00, "rank_1": 223.79 }
    },
    {
      "identifier": "OMP: part int forces",
      "timers": { "rank_0": 53202.38, "rank_1": 55766.29 }
    },
    {
      "identifier": "OMP: part-part forces",
      "timers": { "rank_0": 160992.16, "rank_1": 181502.36 }
    },
    {
      "identifier": "MPI: particle forces (overhead)",
      "timers": { "rank_0": 3343.48, "rank_1": 3140.23 }
    },
    {
      "identifier": "MPI: particle forces",
      "timers": { "rank_0": 15289.39, "rank_1": 552328.11 }
    },
    {
      "identifier": "OMP: particle dynamics",
      "timers": { "rank_0": 53588.41, "rank_1": 48554.01 }
    },
    {
      "identifier": "I/O: output",
      "timers": { "rank_0": 327507.79, "rank_1": 348338.36 }
    },
    {
      "identifier": "ALL: total time",
      "timers": { "rank_0": 13640391.10, "rank_1": 13639735.35 }
    }
  ]
}
