4.5207769e-05	1.65e-05	1.5500724e-05
4.4916493e-05	1.65e-05	1.5500864e-05
4.4625032e-05	1.65e-05	1.5499677e-05
4.4332907e-05	1.65e-05	1.5499213e-05
4.4041351e-05	1.65e-05	1.5499741e-05
4.3750245e-05	1.65e-05	1.549854e-05
4.3457984e-05	1.65e-05	1.549688e-05
4.3165958e-05	1.65e-05	1.5497126e-05
4.2875059e-05	1.6499999e-05	1.5495925e-05
4.2582832e-05	1.6499999e-05	1.5493258e-05
4.2290239e-05	1.6499999e-05	1.5492469e-05
4.1999297e-05	1.6499999e-05	1.5491506e-05
4.1707267e-05	1.6499999e-05	1.5487927e-05
4.141409e-05	1.6499999e-05	1.5485978e-05
4.1122781e-05	1.6499999e-05	1.5484545e-05
4.0830973e-05	1.6499999e-05	1.5480348e-05
4.0537301e-05	1.6499999e-05	1.5476587e-05
4.0245348e-05	1.6499999e-05	1.5474044e-05
3.9953552e-05	1.6499999e-05	1.5468745e-05
3.9659557e-05	1.6499998e-05	1.5462936e-05
3.9366802e-05	1.6499998e-05	1.5458324e-05
3.9074524e-05	1.6499998e-05	1.5451234e-05
3.8780225e-05	1.6499998e-05	1.5442836e-05
3.8486287e-05	1.6499998e-05	1.543462e-05
3.8193092e-05	1.6499998e-05	1.5424098e-05
3.7898546e-05	1.6499998e-05	1.5410988e-05
3.7603869e-05	1.6499998e-05	1.5397152e-05
3.7309304e-05	1.6499998e-05	1.5379749e-05
3.7013946e-05	1.6499998e-05	1.5358653e-05
3.6719033e-05	1.6499997e-05	1.5334383e-05
3.6424324e-05	1.6499997e-05	1.5303937e-05
3.6128608e-05	1.6499997e-05	1.5266646e-05
3.5834407e-05	1.6499997e-05	1.5220368e-05
3.5542125e-05	1.6499997e-05	1.5160928e-05
3.5248887e-05	1.6499997e-05	1.5087342e-05
3.4962069e-05	1.6499997e-05	1.4989248e-05
3.4680645e-05	1.6499997e-05	1.4856373e-05
3.4400606e-05	1.6499997e-05	1.4677735e-05
3.4126275e-05	1.6499997e-05	1.4438508e-05
3.3833838e-05	1.6499996e-05	1.4128352e-05
3.3470123e-05	1.6499996e-05	1.3756516e-05
3.2993401e-05	1.6499996e-05	1.3346798e-05
3.2372675e-05	1.6499996e-05	1.2947824e-05
3.1579442e-05	1.6499995e-05	1.2634632e-05
3.0632568e-05	1.6499995e-05	1.2489697e-05
2.9652067e-05	1.6499995e-05	1.2577238e-05
2.8814278e-05	1.6499995e-05	1.2856005e-05
2.8146137e-05	1.6499995e-05	1.3242083e-05
2.7636767e-05	1.6499995e-05	1.365652e-05
2.7245477e-05	1.6499995e-05	1.404161e-05
2.6938454e-05	1.6499995e-05	1.4370194e-05
2.666253e-05	1.6499995e-05	1.4625466e-05
2.6383043e-05	1.6499994e-05	1.4817184e-05
2.6100661e-05	1.6499994e-05	1.4961163e-05
2.5816349e-05	1.6499994e-05	1.5066752e-05
2.5523766e-05	1.6499994e-05	1.5144182e-05
2.5230662e-05	1.6499994e-05	1.5208016e-05
2.4938221e-05	1.6499994e-05	1.5257224e-05
2.4642756e-05	1.6499994e-05	1.5295359e-05
2.4347303e-05	1.6499993e-05	1.5328187e-05
2.4053858e-05	1.6499993e-05	1.535431e-05
2.3759079e-05	1.6499993e-05	1.5375058e-05
2.3463674e-05	1.6499993e-05	1.5393881e-05
2.317041e-05	1.6499993e-05	1.54093e-05
2.2876498e-05	1.6499993e-05	1.5421204e-05
2.2582431e-05	1.6499993e-05	1.5432832e-05
2.2290026e-05	1.6499993e-05	1.5442298e-05
2.1996681e-05	1.6499992e-05	1.5449735e-05
2.1703409e-05	1.6499992e-05	1.5457341e-05
2.1411956e-05	1.6499992e-05	1.5463599e-05
2.1119332e-05	1.6499992e-05	1.5468186e-05
2.0826549e-05	1.6499992e-05	1.547364e-05
2.0535576e-05	1.6499992e-05	1.5477758e-05
2.0243641e-05	1.6499992e-05	1.5480498e-05
1.9951035e-05	1.6499991e-05	1.5484386e-05
1.9660315e-05	1.6499991e-05	1.5487423e-05
1.9369038e-05	1.6499991e-05	1.5488849e-05
1.9076595e-05	1.6499991e-05	1.5491658e-05
1.8785841e-05	1.6499991e-05	1.5494392e-05
1.8495048e-05	1.6499991e-05	1.5494804e-05
1.8202927e-05	1.6499991e-05	1.5496607e-05
1.7911969e-05	1.649999e-05	1.5498765e-05
1.7621478e-05	1.649999e-05	1.5498943e-05
1.7329803e-05	1.649999e-05	1.5499515e-05
1.7038618e-05	1.649999e-05	1.5501458e-05
1.6748179e-05	1.649999e-05	1.5501812e-05
1.6456955e-05	1.649999e-05	1.5501528e-05
1.6165655e-05	1.649999e-05	1.5502741e-05
1.5875022e-05	1.649999e-05	1.5503211e-05
1.5584196e-05	1.649999e-05	1.5502534e-05
1.5292917e-05	1.6499989e-05	1.5502539e-05
1.5001933e-05	1.6499989e-05	1.5503263e-05
1.4711358e-05	1.6499989e-05	1.5502552e-05
1.4420234e-05	1.6499989e-05	1.5501628e-05
1.4128825e-05	1.6499989e-05	1.550189e-05
1.3838283e-05	1.6499989e-05	1.5501602e-05
1.3547421e-05	1.6499988e-05	1.5499682e-05
1.325559e-05	1.6499988e-05	1.5498999e-05
1.2964833e-05	1.6499988e-05	1.5498957e-05
1.2674276e-05	1.6499988e-05	1.5496498e-05
1.267426e-05	1.6499988e-05	1.5496498e-05
