{
  "experiment_name": "timing",
  "num_ranks": 2,
  "metrics": [
    {
      "identifier": "MPI: particle handling",
      "timers": { "rank_0": 63.82, "rank_1": 78.70 }
    },
    {
      "identifier": "MPI: particle (overhead)",
      "timers": { "rank_0": 1221.90, "rank_1": 622.74 }
    },
    {
      "identifier": "MPI: particle",
      "timers": { "rank_0": 1738.62, "rank_1": 4873.14 }
    },
    {
      "identifier": "CPU: particle handling",
      "timers": { "rank_0": 952.69, "rank_1": 842.75 }
    },
    {
      "identifier": "CPU: particle mapping",
      "timers": { "rank_0": 72274.75, "rank_1": 57527.72 }
    },
    {
      "identifier": "Copy: CPU -> GPU",
      "timers": { "rank_0": 122955.52, "rank_1": 112870.99 }
    },
    {
      "identifier": "CL: PartMapLP",
      "timers": { "rank_0": 69018.28, "rank_1": 54398.26 }
    },
    {
      "identifier": "Copy: GPU -> CPU",
      "timers": { "rank_0": 445510.99, "rank_1": 150136.36 }
    },
    {
      "identifier": "CL: LEGalilei",
      "timers": { "rank_0": 46831.10, "rank_1": 66103.42 }
    },
    {
      "identifier": "CL: LEShift",
      "timers": { "rank_0": 38164.78, "rank_1": 40114.68 }
    },
    {
      "identifier": "CL: PropagateCollide",
      "timers": { "rank_0": 256958.36, "rank_1": 239822.02 }
    },
    {
      "identifier": "OMP: part ext forces",
      "timers": { "rank_0": 16.19, "rank_1": 12.33 }
    },
    {
      "identifier": "OMP: part int forces",
      "timers": { "rank_0": 4893.11, "rank_1": 5451.13 }
    },
    {
      "identifier": "OMP: part-part forces",
      "timers": { "rank_0": 24196.03, "rank_1": 28448.19 }
    },
    {
      "identifier": "MPI: particle forces (overhead)",
      "timers": { "rank_0": 571.71, "rank_1": 659.41 }
    },
    {
      "identifier": "MPI: particle forces",
      "timers": { "rank_0": 2456.89, "rank_1": 63679.12 }
    },
    {
      "identifier": "OMP: particle dynamics",
      "timers": { "rank_0": 4450.33, "rank_1": 4356.24 }
    },
    {
      "identifier": "I/O: output",
      "timers": { "rank_0": 1226870.52, "rank_1": 1262964.55 }
    },
    {
      "identifier": "ALL: total time",
      "timers": { "rank_0": 3051615.33, "rank_1": 3051601.28 }
    }
  ]
}
