{
  "experiment_name": "timing",
  "num_ranks": 2,
  "metrics": [
    {
      "identifier": "MPI: particle handling",
      "timers": { "rank_0": 10.78, "rank_1": 26.98 }
    },
    {
      "identifier": "MPI: particle (overhead)",
      "timers": { "rank_0": 45.70, "rank_1": 57.90 }
    },
    {
      "identifier": "MPI: particle",
      "timers": { "rank_0": 551.66, "rank_1": 96.28 }
    },
    {
      "identifier": "CPU: particle handling",
      "timers": { "rank_0": 97.49, "rank_1": 125.84 }
    },
    {
      "identifier": "CPU: particle mapping",
      "timers": { "rank_0": 6680.61, "rank_1": 7449.30 }
    },
    {
      "identifier": "Copy: CPU -> GPU",
      "timers": { "rank_0": 14960.86, "rank_1": 6918.92 }
    },
    {
      "identifier": "CL: PartMapLP",
      "timers": { "rank_0": 6163.79, "rank_1": 12057.56 }
    },
    {
      "identifier": "Copy: GPU -> CPU",
      "timers": { "rank_0": 18673.32, "rank_1": 42154.43 }
    },
    {
      "identifier": "CL: LEGalilei",
      "timers": { "rank_0": 6947.23, "rank_1": 4381.61 }
    },
    {
      "identifier": "CL: LEShift",
      "timers": { "rank_0": 1197.50, "rank_1": 1234.09 }
    },
    {
      "identifier": "CL: PropagateCollide",
      "timers": { "rank_0": 24187.06, "rank_1": 23764.64 }
    },
    {
      "identifier": "OMP: part ext forces",
      "timers": { "rank_0": 3.39, "rank_1": 2.31 }
    },
    {
      "identifier": "OMP: part int forces",
      "timers": { "rank_0": 755.41, "rank_1": 805.62 }
    },
    {
      "identifier": "OMP: part-part forces",
      "timers": { "rank_0": 2471.57, "rank_1": 2861.12 }
    },
    {
      "identifier": "MPI: particle forces (overhead)",
      "timers": { "rank_0": 52.79, "rank_1": 50.36 }
    },
    {
      "identifier": "MPI: particle forces",
      "timers": { "rank_0": 191.61, "rank_1": 7477.79 }
    },
    {
      "identifier": "OMP: particle dynamics",
      "timers": { "rank_0": 687.87, "rank_1": 703.19 }
    },
    {
      "identifier": "I/O: output",
      "timers": { "rank_0": 576257.57, "rank_1": 632289.80 }
    },
    {
      "identifier": "ALL: total time",
      "timers": { "rank_0": 817859.44, "rank_1": 817252.72 }
    }
  ]
}
