6.1098791e-05	1.65e-05	1.8499816e-05
6.169755e-05	1.65e-05	1.8499692e-05
6.2296472e-05	1.65e-05	1.8499259e-05
6.2895686e-05	1.65e-05	1.8498634e-05
6.3495049e-05	1.65e-05	1.8497569e-05
6.4094548e-05	1.65e-05	1.8495757e-05
6.4693858e-05	1.65e-05	1.84933e-05
6.5292776e-05	1.65e-05	1.8490002e-05
6.5891046e-05	1.65e-05	1.8485993e-05
6.6488364e-05	1.65e-05	1.8481273e-05
6.7084505e-05	1.65e-05	1.8475979e-05
6.7679735e-05	1.65e-05	1.847038e-05
6.8274382e-05	1.65e-05	1.8464048e-05
6.8868359e-05	1.65e-05	1.8457032e-05
6.9461735e-05	1.65e-05	1.8448767e-05
7.0054182e-05	1.65e-05	1.8438792e-05
7.0645154e-05	1.65e-05	1.8426561e-05
7.1233387e-05	1.65e-05	1.8411443e-05
7.1817144e-05	1.65e-05	1.8393721e-05
7.2394882e-05	1.65e-05	1.8373971e-05
7.2965852e-05	1.65e-05	1.8353252e-05
7.3531266e-05	1.65e-05	1.8331878e-05
7.4091066e-05	1.65e-05	1.8309841e-05
7.464537e-05	1.65e-05	1.8287375e-05
7.5194365e-05	1.65e-05	1.8263645e-05
7.5737827e-05	1.65e-05	1.8238603e-05
7.6274891e-05	1.65e-05	1.8211277e-05
7.6804089e-05	1.65e-05	1.8181646e-05
7.732364e-05	1.65e-05	1.8149895e-05
7.7832509e-05	1.65e-05	1.8117334e-05
7.8331234e-05	1.65e-05	1.808422e-05
7.8820402e-05	1.65e-05	1.8050802e-05
7.9299664e-05	1.65e-05	1.8017216e-05
7.9769342e-05	1.65e-05	1.7983218e-05
8.0229195e-05	1.65e-05	1.794871e-05
8.0679034e-05	1.65e-05	1.7913424e-05
8.111782e-05	1.65e-05	1.7876604e-05
8.1544102e-05	1.65e-05	1.7839185e-05
8.1956774e-05	1.65e-05	1.7801468e-05
8.2355657e-05	1.65e-05	1.7764644e-05
8.2741191e-05	1.65e-05	1.7729087e-05
8.3113405e-05	1.65e-05	1.7694981e-05
8.3472408e-05	1.65e-05	1.7663148e-05
8.3818541e-05	1.65e-05	1.7633708e-05
8.4151369e-05	1.65e-05	1.7606888e-05
8.4470615e-05	1.65e-05	1.7583692e-05
8.4775895e-05	1.65e-05	1.7564435e-05
8.5065817e-05	1.65e-05	1.7550577e-05
8.5339741e-05	1.65e-05	1.7544686e-05
8.5598429e-05	1.65e-05	1.7548326e-05
8.5842037e-05	1.65e-05	1.7563106e-05
8.6067959e-05	1.65e-05	1.7593834e-05
8.6274021e-05	1.65e-05	1.7646763e-05
8.6455945e-05	1.65e-05	1.7728418e-05
8.6606142e-05	1.65e-05	1.784881e-05
8.6726568e-05	1.65e-05	1.8016745e-05
8.6846145e-05	1.65e-05	1.8237945e-05
8.6993966e-05	1.65e-05	1.8499977e-05
8.71802e-05	1.65e-05	1.8785135e-05
8.7417902e-05	1.65e-05	1.9090668e-05
8.7724006e-05	1.65e-05	1.9408524e-05
8.8111938e-05	1.65e-05	1.9727695e-05
8.8596303e-05	1.65e-05	2.0035073e-05
8.9192681e-05	1.65e-05	2.0301137e-05
8.9899046e-05	1.65e-05	2.0487653e-05
9.0703244e-05	1.65e-05	2.0558979e-05
9.157459e-05	1.65e-05	2.0500268e-05
9.2462027e-05	1.65e-05	2.0339146e-05
9.3343392e-05	1.65e-05	2.0130675e-05
9.420802e-05	1.65e-05	1.9917322e-05
9.5058429e-05	1.65e-05	1.9722717e-05
9.588719e-05	1.65e-05	1.9559703e-05
9.6702496e-05	1.65e-05	1.9428081e-05
9.7506508e-05	1.65e-05	1.9325216e-05
9.8301046e-05	1.65e-05	1.9247021e-05
9.9088211e-05	1.65e-05	1.9188912e-05
9.9869234e-05	1.65e-05	1.9146417e-05
0.00010064452	1.65e-05	1.9116056e-05
0.00010141446	1.65e-05	1.9095112e-05
0.00010218008	1.65e-05	1.9081368e-05
0.00010294175	1.65e-05	1.9073864e-05
0.0001037005	1.65e-05	1.9071407e-05
0.0001044574	1.65e-05	1.9073664e-05
0.00010521418	1.65e-05	1.9080222e-05
0.00010597284	1.65e-05	1.9090254e-05
0.00010673488	1.6500001e-05	1.9102428e-05
0.00010750048	1.6500001e-05	1.9115593e-05
0.00010826902	1.6500001e-05	1.9129453e-05
0.00010904073	1.6500001e-05	1.9143584e-05
0.00010981541	1.6500001e-05	1.9158186e-05
0.00011059316	1.6500001e-05	1.917326e-05
0.00011137421	1.6500001e-05	1.9189367e-05
0.00011215947	1.6500001e-05	1.9206865e-05
0.00011295032	1.6500001e-05	1.9225903e-05
0.0001137484	1.6500001e-05	1.9245778e-05
0.00011455424	1.6500001e-05	1.9265159e-05
0.00011536648	1.6500001e-05	1.9283502e-05
0.00011618403	1.6500001e-05	1.9300665e-05
0.0001170064	1.6500001e-05	1.9316683e-05
0.00011783283	1.6500001e-05	1.9332315e-05
0.00011800784	1.6500001e-05	1.9335511e-05
