7.520024e-05	1.65e-05	1.5501276e-05
7.4899546e-05	1.65e-05	1.5502933e-05
7.4597494e-05	1.65e-05	1.5505305e-05
7.4296721e-05	1.65e-05	1.5510104e-05
7.4000046e-05	1.65e-05	1.551678e-05
7.3708009e-05	1.65e-05	1.552185e-05
7.3417768e-05	1.65e-05	1.5522629e-05
7.3125447e-05	1.65e-05	1.5520568e-05
7.2830353e-05	1.65e-05	1.5519126e-05
7.2535203e-05	1.65e-05	1.552036e-05
7.2243086e-05	1.65e-05	1.5524282e-05
7.1955355e-05	1.65e-05	1.5528338e-05
7.1670034e-05	1.65e-05	1.5528772e-05
7.1383175e-05	1.65e-05	1.5525497e-05
7.1093287e-05	1.65e-05	1.5522122e-05
7.0802456e-05	1.65e-05	1.5521117e-05
7.0513703e-05	1.65e-05	1.5522451e-05
7.022901e-05	1.65e-05	1.5524515e-05
6.9947412e-05	1.65e-05	1.5524026e-05
6.966508e-05	1.65e-05	1.5519295e-05
6.9379855e-05	1.65e-05	1.5512955e-05
6.9093275e-05	1.65e-05	1.5508179e-05
6.8808034e-05	1.65e-05	1.5505377e-05
6.8526195e-05	1.65e-05	1.5502952e-05
6.8247823e-05	1.65e-05	1.5498201e-05
6.7969803e-05	1.65e-05	1.5489109e-05
6.7689471e-05	1.65e-05	1.5476716e-05
6.7407602e-05	1.65e-05	1.546362e-05
6.7126649e-05	1.65e-05	1.5450924e-05
6.6849e-05	1.65e-05	1.5437224e-05
6.6575267e-05	1.65e-05	1.5419357e-05
6.6302725e-05	1.65e-05	1.5394696e-05
6.6029356e-05	1.65e-05	1.5363261e-05
6.5757235e-05	1.65e-05	1.5325192e-05
6.5488305e-05	1.65e-05	1.5279887e-05
6.5224326e-05	1.65e-05	1.5225915e-05
6.4969804e-05	1.65e-05	1.5156244e-05
6.4726959e-05	1.65e-05	1.506011e-05
6.4494111e-05	1.65e-05	1.4929969e-05
6.428096e-05	1.65e-05	1.4755126e-05
6.4083338e-05	1.65e-05	1.4524673e-05
6.387442e-05	1.65e-05	1.4231403e-05
6.3604309e-05	1.65e-05	1.3912148e-05
6.3256056e-05	1.65e-05	1.3574803e-05
6.2810973e-05	1.65e-05	1.3221033e-05
6.2244567e-05	1.65e-05	1.2888836e-05
6.1539381e-05	1.65e-05	1.2625415e-05
6.0701435e-05	1.65e-05	1.2489388e-05
5.9765799e-05	1.65e-05	1.2540558e-05
5.8876372e-05	1.65e-05	1.279887e-05
5.8111759e-05	1.65e-05	1.3212881e-05
5.7464404e-05	1.65e-05	1.3674971e-05
5.6922786e-05	1.65e-05	1.4098308e-05
5.6452117e-05	1.65e-05	1.4438578e-05
5.602528e-05	1.65e-05	1.4695111e-05
5.5629811e-05	1.65e-05	1.4886371e-05
5.5257588e-05	1.65e-05	1.5028677e-05
5.4906641e-05	1.65e-05	1.5136508e-05
5.4571606e-05	1.65e-05	1.5216216e-05
5.4247004e-05	1.65e-05	1.5274014e-05
5.3929476e-05	1.65e-05	1.5316677e-05
5.3616203e-05	1.65e-05	1.5349128e-05
5.3306669e-05	1.65e-05	1.5376543e-05
5.3003527e-05	1.65e-05	1.5401272e-05
5.2706785e-05	1.65e-05	1.5421229e-05
5.2412862e-05	1.65e-05	1.54351e-05
5.2119065e-05	1.65e-05	1.5444165e-05
5.1823983e-05	1.65e-05	1.5450574e-05
5.1527992e-05	1.65e-05	1.5457369e-05
5.1234307e-05	1.65e-05	1.5466191e-05
5.0944768e-05	1.65e-05	1.5474745e-05
5.0657411e-05	1.65e-05	1.5479879e-05
5.0369164e-05	1.65e-05	1.5481132e-05
5.0077983e-05	1.65e-05	1.5480475e-05
4.9784073e-05	1.65e-05	1.5480991e-05
4.949064e-05	1.65e-05	1.5484514e-05
4.9200639e-05	1.65e-05	1.5489463e-05
4.8913163e-05	1.65e-05	1.5492402e-05
4.862512e-05	1.65e-05	1.5491548e-05
4.8333862e-05	1.65e-05	1.548813e-05
4.8038866e-05	1.65e-05	1.5485623e-05
4.774298e-05	1.65e-05	1.5486558e-05
4.7449851e-05	1.65e-05	1.5489814e-05
4.7159776e-05	1.65e-05	1.5492098e-05
4.6869854e-05	1.65e-05	1.5490991e-05
4.6576981e-05	1.65e-05	1.548672e-05
4.6279911e-05	1.65e-05	1.5482391e-05
4.5980762e-05	1.65e-05	1.5481451e-05
4.5683453e-05	1.65e-05	1.5483691e-05
4.5389462e-05	1.65e-05	1.5485809e-05
4.5096498e-05	1.65e-05	1.5484992e-05
4.4801174e-05	1.65e-05	1.5480852e-05
4.4501628e-05	1.65e-05	1.5475697e-05
4.4199112e-05	1.65e-05	1.5473173e-05
4.3897297e-05	1.65e-05	1.5474387e-05
4.3598676e-05	1.65e-05	1.5476557e-05
4.330191e-05	1.65e-05	1.5476251e-05
4.3003547e-05	1.65e-05	1.5472626e-05
4.270129e-05	1.65e-05	1.5467427e-05
4.240223e-05	1.65e-05	1.5463872e-05
