{
  "experiment_name": "timing",
  "num_ranks": 2,
  "metrics": [
    {
      "identifier": "MPI: particle handling",
      "timers": { "rank_0": 89.82, "rank_1": 93.88 }
    },
    {
      "identifier": "MPI: particle (overhead)",
      "timers": { "rank_0": 1807.17, "rank_1": 975.75 }
    },
    {
      "identifier": "MPI: particle",
      "timers": { "rank_0": 2376.85, "rank_1": 5444.13 }
    },
    {
      "identifier": "CPU: particle handling",
      "timers": { "rank_0": 1583.82, "rank_1": 1570.42 }
    },
    {
      "identifier": "CPU: particle mapping",
      "timers": { "rank_0": 3590.42, "rank_1": 3549.97 }
    },
    {
      "identifier": "Copy: CPU -> GPU",
      "timers": { "rank_0": 6395.31, "rank_1": 6326.91 }
    },
    {
      "identifier": "CL: PartMapLP",
      "timers": { "rank_0": 3419.04, "rank_1": 3372.97 }
    },
    {
      "identifier": "Copy: GPU -> CPU",
      "timers": { "rank_0": 23226.88, "rank_1": 22832.04 }
    },
    {
      "identifier": "CL: LEGalilei",
      "timers": { "rank_0": 983.66, "rank_1": 1090.17 }
    },
    {
      "identifier": "CL: LEShift",
      "timers": { "rank_0": 536.91, "rank_1": 545.00 }
    },
    {
      "identifier": "CL: PropagateCollide",
      "timers": { "rank_0": 12547.34, "rank_1": 11963.68 }
    },
    {
      "identifier": "OMP: part ext forces",
      "timers": { "rank_0": 23.07, "rank_1": 20.88 }
    },
    {
      "identifier": "OMP: part int forces",
      "timers": { "rank_0": 6074.92, "rank_1": 7482.34 }
    },
    {
      "identifier": "OMP: part-part forces",
      "timers": { "rank_0": 36734.24, "rank_1": 49877.80 }
    },
    {
      "identifier": "MPI: particle forces (overhead)",
      "timers": { "rank_0": 988.11, "rank_1": 1505.99 }
    },
    {
      "identifier": "MPI: particle forces",
      "timers": { "rank_0": 14703.25, "rank_1": 7275.54 }
    },
    {
      "identifier": "OMP: particle dynamics",
      "timers": { "rank_0": 8165.02, "rank_1": 7710.26 }
    },
    {
      "identifier": "I/O: output",
      "timers": { "rank_0": 1228854.64, "rank_1": 1269963.20 }
    },
    {
      "identifier": "ALL: total time",
      "timers": { "rank_0": 1462980.44, "rank_1": 1462672.02 }
    }
  ]
}
