{
  "experiment_name": "timing",
  "num_ranks": 2,
  "metrics": [
    {
      "identifier": "MPI: particle handling",
      "timers": { "rank_0": 17.05, "rank_1": 16.59 }
    },
    {
      "identifier": "MPI: particle (overhead)",
      "timers": { "rank_0": 70.76, "rank_1": 66.61 }
    },
    {
      "identifier": "MPI: particle",
      "timers": { "rank_0": 126.69, "rank_1": 255.58 }
    },
    {
      "identifier": "CPU: particle handling",
      "timers": { "rank_0": 154.81, "rank_1": 119.75 }
    },
    {
      "identifier": "CPU: particle mapping",
      "timers": { "rank_0": 1774.55, "rank_1": 1863.52 }
    },
    {
      "identifier": "Copy: CPU -> GPU",
      "timers": { "rank_0": 8177.17, "rank_1": 1742.45 }
    },
    {
      "identifier": "CL: PartMapLP",
      "timers": { "rank_0": 1651.20, "rank_1": 7455.80 }
    },
    {
      "identifier": "Copy: GPU -> CPU",
      "timers": { "rank_0": 10711.94, "rank_1": 8656.60 }
    },
    {
      "identifier": "CL: LEGalilei",
      "timers": { "rank_0": 876.46, "rank_1": 702.62 }
    },
    {
      "identifier": "CL: LEShift",
      "timers": { "rank_0": 296.01, "rank_1": 337.18 }
    },
    {
      "identifier": "CL: PropagateCollide",
      "timers": { "rank_0": 6163.71, "rank_1": 6111.10 }
    },
    {
      "identifier": "OMP: part ext forces",
      "timers": { "rank_0": 3.79, "rank_1": 3.38 }
    },
    {
      "identifier": "OMP: part int forces",
      "timers": { "rank_0": 986.70, "rank_1": 1170.19 }
    },
    {
      "identifier": "OMP: part-part forces",
      "timers": { "rank_0": 4117.92, "rank_1": 5323.16 }
    },
    {
      "identifier": "MPI: particle forces (overhead)",
      "timers": { "rank_0": 82.10, "rank_1": 76.36 }
    },
    {
      "identifier": "MPI: particle forces",
      "timers": { "rank_0": 1320.05, "rank_1": 4148.40 }
    },
    {
      "identifier": "OMP: particle dynamics",
      "timers": { "rank_0": 1196.66, "rank_1": 1145.50 }
    },
    {
      "identifier": "I/O: output",
      "timers": { "rank_0": 613881.11, "rank_1": 638502.59 }
    },
    {
      "identifier": "ALL: total time",
      "timers": { "rank_0": 693227.17, "rank_1": 692729.53 }
    }
  ]
}
