{
  "experiment_name": "timing",
  "num_ranks": 2,
  "metrics": [
    {
      "identifier": "MPI: particle handling",
      "timers": { "rank_0": 64.72, "rank_1": 87.03 }
    },
    {
      "identifier": "MPI: particle (overhead)",
      "timers": { "rank_0": 181.29, "rank_1": 181.98 }
    },
    {
      "identifier": "MPI: particle",
      "timers": { "rank_0": 572.45, "rank_1": 575.75 }
    },
    {
      "identifier": "CPU: particle handling",
      "timers": { "rank_0": 427.01, "rank_1": 362.62 }
    },
    {
      "identifier": "CPU: particle mapping",
      "timers": { "rank_0": 24893.57, "rank_1": 28224.12 }
    },
    {
      "identifier": "Copy: CPU -> GPU",
      "timers": { "rank_0": 58473.26, "rank_1": 26082.78 }
    },
    {
      "identifier": "CL: PartMapLP",
      "timers": { "rank_0": 22657.97, "rank_1": 43084.40 }
    },
    {
      "identifier": "Copy: GPU -> CPU",
      "timers": { "rank_0": 57126.46, "rank_1": 55101.94 }
    },
    {
      "identifier": "CL: LEGalilei",
      "timers": { "rank_0": 18321.16, "rank_1": 15084.12 }
    },
    {
      "identifier": "CL: LEShift",
      "timers": { "rank_0": 22957.51, "rank_1": 10531.80 }
    },
    {
      "identifier": "CL: PropagateCollide",
      "timers": { "rank_0": 91926.64, "rank_1": 90378.65 }
    },
    {
      "identifier": "OMP: part ext forces",
      "timers": { "rank_0": 15.97, "rank_1": 11.32 }
    },
    {
      "identifier": "OMP: part int forces",
      "timers": { "rank_0": 3302.21, "rank_1": 4252.16 }
    },
    {
      "identifier": "OMP: part-part forces",
      "timers": { "rank_0": 7906.79, "rank_1": 11629.14 }
    },
    {
      "identifier": "MPI: particle forces (overhead)",
      "timers": { "rank_0": 204.20, "rank_1": 186.89 }
    },
    {
      "identifier": "MPI: particle forces",
      "timers": { "rank_0": 1009.30, "rank_1": 40959.33 }
    },
    {
      "identifier": "OMP: particle dynamics",
      "timers": { "rank_0": 3314.67, "rank_1": 3424.88 }
    },
    {
      "identifier": "I/O: output",
      "timers": { "rank_0": 380263.42, "rank_1": 426032.62 }
    },
    {
      "identifier": "ALL: total time",
      "timers": { "rank_0": 968017.58, "rank_1": 967489.32 }
    }
  ]
}
