{
  "experiment_name": "timing",
  "num_ranks": 2,
  "metrics": [
    {
      "identifier": "MPI: particle handling",
      "timers": { "rank_0": 6.12, "rank_1": 5.86 }
    },
    {
      "identifier": "MPI: particle (overhead)",
      "timers": { "rank_0": 18.41, "rank_1": 15.81 }
    },
    {
      "identifier": "MPI: particle",
      "timers": { "rank_0": 57.48, "rank_1": 94.20 }
    },
    {
      "identifier": "CPU: particle handling",
      "timers": { "rank_0": 68.84, "rank_1": 45.65 }
    },
    {
      "identifier": "CPU: particle mapping",
      "timers": { "rank_0": 4117.39, "rank_1": 3326.44 }
    },
    {
      "identifier": "Copy: CPU -> GPU",
      "timers": { "rank_0": 6705.66, "rank_1": 3091.26 }
    },
    {
      "identifier": "CL: PartMapLP",
      "timers": { "rank_0": 3875.58, "rank_1": 6039.76 }
    },
    {
      "identifier": "Copy: GPU -> CPU",
      "timers": { "rank_0": 8616.19, "rank_1": 7700.09 }
    },
    {
      "identifier": "CL: LEGalilei",
      "timers": { "rank_0": 877.98, "rank_1": 884.07 }
    },
    {
      "identifier": "CL: LEShift",
      "timers": { "rank_0": 718.13, "rank_1": 705.21 }
    },
    {
      "identifier": "CL: PropagateCollide",
      "timers": { "rank_0": 17105.33, "rank_1": 12643.77 }
    },
    {
      "identifier": "OMP: part ext forces",
      "timers": { "rank_0": 1.94, "rank_1": 1.44 }
    },
    {
      "identifier": "OMP: part int forces",
      "timers": { "rank_0": 382.42, "rank_1": 358.83 }
    },
    {
      "identifier": "OMP: part-part forces",
      "timers": { "rank_0": 1060.13, "rank_1": 1031.47 }
    },
    {
      "identifier": "MPI: particle forces (overhead)",
      "timers": { "rank_0": 20.18, "rank_1": 23.38 }
    },
    {
      "identifier": "MPI: particle forces",
      "timers": { "rank_0": 131.83, "rank_1": 8369.21 }
    },
    {
      "identifier": "OMP: particle dynamics",
      "timers": { "rank_0": 396.36, "rank_1": 277.27 }
    },
    {
      "identifier": "I/O: output",
      "timers": { "rank_0": 165395.04, "rank_1": 165020.72 }
    },
    {
      "identifier": "ALL: total time",
      "timers": { "rank_0": 241487.07, "rank_1": 241486.74 }
    }
  ]
}
