{
  "experiment_name": "timing",
  "num_ranks": 2,
  "metrics": [
    {
      "identifier": "MPI: particle handling",
      "timers": { "rank_0": 7.52, "rank_1": 6.80 }
    },
    {
      "identifier": "MPI: particle (overhead)",
      "timers": { "rank_0": 15.20, "rank_1": 13.98 }
    },
    {
      "identifier": "MPI: particle",
      "timers": { "rank_0": 56.28, "rank_1": 61.30 }
    },
    {
      "identifier": "CPU: particle handling",
      "timers": { "rank_0": 40.34, "rank_1": 29.92 }
    },
    {
      "identifier": "CPU: particle mapping",
      "timers": { "rank_0": 865.29, "rank_1": 791.32 }
    },
    {
      "identifier": "Copy: CPU -> GPU",
      "timers": { "rank_0": 1636.11, "rank_1": 703.35 }
    },
    {
      "identifier": "CL: PartMapLP",
      "timers": { "rank_0": 771.58, "rank_1": 1269.11 }
    },
    {
      "identifier": "Copy: GPU -> CPU",
      "timers": { "rank_0": 2283.71, "rank_1": 2062.01 }
    },
    {
      "identifier": "CL: LEGalilei",
      "timers": { "rank_0": 359.54, "rank_1": 340.18 }
    },
    {
      "identifier": "CL: LEShift",
      "timers": { "rank_0": 225.95, "rank_1": 219.67 }
    },
    {
      "identifier": "CL: PropagateCollide",
      "timers": { "rank_0": 3714.42, "rank_1": 2247.65 }
    },
    {
      "identifier": "OMP: part ext forces",
      "timers": { "rank_0": 1.70, "rank_1": 1.65 }
    },
    {
      "identifier": "OMP: part int forces",
      "timers": { "rank_0": 456.21, "rank_1": 446.19 }
    },
    {
      "identifier": "OMP: part-part forces",
      "timers": { "rank_0": 950.48, "rank_1": 1015.11 }
    },
    {
      "identifier": "MPI: particle forces (overhead)",
      "timers": { "rank_0": 16.24, "rank_1": 15.60 }
    },
    {
      "identifier": "MPI: particle forces",
      "timers": { "rank_0": 179.47, "rank_1": 2496.98 }
    },
    {
      "identifier": "OMP: particle dynamics",
      "timers": { "rank_0": 484.41, "rank_1": 406.64 }
    },
    {
      "identifier": "I/O: output",
      "timers": { "rank_0": 209484.49, "rank_1": 212787.09 }
    },
    {
      "identifier": "ALL: total time",
      "timers": { "rank_0": 232316.52, "rank_1": 232315.65 }
    }
  ]
}
