{
  "experiment_name": "timing",
  "num_ranks": 2,
  "metrics": [
    {
      "identifier": "MPI: particle handling",
      "timers": { "rank_0": 5144.34, "rank_1": 7489.58 }
    },
    {
      "identifier": "MPI: particle (overhead)",
      "timers": { "rank_0": 13981.30, "rank_1": 14068.92 }
    },
    {
      "identifier": "MPI: particle",
      "timers": { "rank_0": 51476.99, "rank_1": 49613.52 }
    },
    {
      "identifier": "CPU: particle handling",
      "timers": { "rank_0": 35526.82, "rank_1": 28493.32 }
    },
    {
      "identifier": "CPU: particle mapping",
      "timers": { "rank_0": 2898648.44, "rank_1": 2918425.70 }
    },
    {
      "identifier": "Copy: CPU -> GPU",
      "timers": { "rank_0": 4906377.58, "rank_1": 2736497.69 }
    },
    {
      "identifier": "CL: PartMapLP",
      "timers": { "rank_0": 2711053.19, "rank_1": 3356349.56 }
    },
    {
      "identifier": "Copy: GPU -> CPU",
      "timers": { "rank_0": 4348567.37, "rank_1": 4064483.98 }
    },
    {
      "identifier": "CL: LEGalilei",
      "timers": { "rank_0": 1277192.21, "rank_1": 1172609.59 }
    },
    {
      "identifier": "CL: LEShift",
      "timers": { "rank_0": 1039467.66, "rank_1": 542717.26 }
    },
    {
      "identifier": "CL: PropagateCollide",
      "timers": { "rank_0": 7564405.73, "rank_1": 6502171.22 }
    },
    {
      "identifier": "OMP: part ext forces",
      "timers": { "rank_0": 1523.70, "rank_1": 1224.28 }
    },
    {
      "identifier": "OMP: part int forces",
      "timers": { "rank_0": 330636.92, "rank_1": 387231.56 }
    },
    {
      "identifier": "OMP: part-part forces",
      "timers": { "rank_0": 619985.26, "rank_1": 917165.84 }
    },
    {
      "identifier": "MPI: particle forces (overhead)",
      "timers": { "rank_0": 16251.88, "rank_1": 14376.43 }
    },
    {
      "identifier": "MPI: particle forces",
      "timers": { "rank_0": 83463.47, "rank_1": 3692521.06 }
    },
    {
      "identifier": "OMP: particle dynamics",
      "timers": { "rank_0": 344080.81, "rank_1": 299210.25 }
    },
    {
      "identifier": "I/O: output",
      "timers": { "rank_0": 285570.46, "rank_1": 324809.92 }
    },
    {
      "identifier": "ALL: total time",
      "timers": { "rank_0": 46264187.54, "rank_1": 46263902.62 }
    }
  ]
}
