{
  "experiment_name": "timing",
  "num_ranks": 2,
  "metrics": [
    {
      "identifier": "MPI: particle handling",
      "timers": { "rank_0": 8.27, "rank_1": 12.62 }
    },
    {
      "identifier": "MPI: particle (overhead)",
      "timers": { "rank_0": 22.55, "rank_1": 21.79 }
    },
    {
      "identifier": "MPI: particle",
      "timers": { "rank_0": 181.09, "rank_1": 60.43 }
    },
    {
      "identifier": "CPU: particle handling",
      "timers": { "rank_0": 54.26, "rank_1": 45.28 }
    },
    {
      "identifier": "CPU: particle mapping",
      "timers": { "rank_0": 2626.13, "rank_1": 3008.83 }
    },
    {
      "identifier": "Copy: CPU -> GPU",
      "timers": { "rank_0": 5965.36, "rank_1": 2799.51 }
    },
    {
      "identifier": "CL: PartMapLP",
      "timers": { "rank_0": 2405.01, "rank_1": 4429.99 }
    },
    {
      "identifier": "Copy: GPU -> CPU",
      "timers": { "rank_0": 6858.53, "rank_1": 10032.70 }
    },
    {
      "identifier": "CL: LEGalilei",
      "timers": { "rank_0": 1248.76, "rank_1": 1259.19 }
    },
    {
      "identifier": "CL: LEShift",
      "timers": { "rank_0": 515.49, "rank_1": 491.87 }
    },
    {
      "identifier": "CL: PropagateCollide",
      "timers": { "rank_0": 9186.40, "rank_1": 8200.50 }
    },
    {
      "identifier": "OMP: part ext forces",
      "timers": { "rank_0": 1.60, "rank_1": 1.58 }
    },
    {
      "identifier": "OMP: part int forces",
      "timers": { "rank_0": 427.95, "rank_1": 510.60 }
    },
    {
      "identifier": "OMP: part-part forces",
      "timers": { "rank_0": 1130.56, "rank_1": 1382.99 }
    },
    {
      "identifier": "MPI: particle forces (overhead)",
      "timers": { "rank_0": 25.47, "rank_1": 24.35 }
    },
    {
      "identifier": "MPI: particle forces",
      "timers": { "rank_0": 237.51, "rank_1": 3278.92 }
    },
    {
      "identifier": "OMP: particle dynamics",
      "timers": { "rank_0": 422.18, "rank_1": 415.24 }
    },
    {
      "identifier": "I/O: output",
      "timers": { "rank_0": 393373.67, "rank_1": 420788.35 }
    },
    {
      "identifier": "ALL: total time",
      "timers": { "rank_0": 479057.39, "rank_1": 478970.58 }
    }
  ]
}
