{
  "experiment_name": "timing",
  "num_ranks": 2,
  "metrics": [
    {
      "identifier": "MPI: particle handling",
      "timers": { "rank_0": 3.41, "rank_1": 4.06 }
    },
    {
      "identifier": "MPI: particle (overhead)",
      "timers": { "rank_0": 37.67, "rank_1": 33.70 }
    },
    {
      "identifier": "MPI: particle",
      "timers": { "rank_0": 147.28, "rank_1": 91.18 }
    },
    {
      "identifier": "CPU: particle handling",
      "timers": { "rank_0": 44.02, "rank_1": 44.23 }
    },
    {
      "identifier": "CPU: particle mapping",
      "timers": { "rank_0": 3967.11, "rank_1": 3728.78 }
    },
    {
      "identifier": "Copy: CPU -> GPU",
      "timers": { "rank_0": 6804.51, "rank_1": 6594.04 }
    },
    {
      "identifier": "CL: PartMapLP",
      "timers": { "rank_0": 3796.29, "rank_1": 3563.90 }
    },
    {
      "identifier": "Copy: GPU -> CPU",
      "timers": { "rank_0": 28058.85, "rank_1": 27372.05 }
    },
    {
      "identifier": "CL: LEGalilei",
      "timers": { "rank_0": 1181.59, "rank_1": 1111.02 }
    },
    {
      "identifier": "CL: LEShift",
      "timers": { "rank_0": 641.86, "rank_1": 605.16 }
    },
    {
      "identifier": "CL: PropagateCollide",
      "timers": { "rank_0": 12428.51, "rank_1": 12078.70 }
    },
    {
      "identifier": "OMP: part ext forces",
      "timers": { "rank_0": 0.90, "rank_1": 0.72 }
    },
    {
      "identifier": "OMP: part int forces",
      "timers": { "rank_0": 311.28, "rank_1": 363.64 }
    },
    {
      "identifier": "OMP: part-part forces",
      "timers": { "rank_0": 1263.81, "rank_1": 1521.54 }
    },
    {
      "identifier": "MPI: particle forces (overhead)",
      "timers": { "rank_0": 30.63, "rank_1": 56.30 }
    },
    {
      "identifier": "MPI: particle forces",
      "timers": { "rank_0": 145.56, "rank_1": 2557.42 }
    },
    {
      "identifier": "OMP: particle dynamics",
      "timers": { "rank_0": 223.78, "rank_1": 252.68 }
    },
    {
      "identifier": "I/O: output",
      "timers": { "rank_0": 1218119.28, "rank_1": 1269429.09 }
    },
    {
      "identifier": "ALL: total time",
      "timers": { "rank_0": 1386575.69, "rank_1": 1386252.54 }
    }
  ]
}
