3.0800019e-05	1.65e-05	1.7499859e-05
3.1100043e-05	1.65e-05	1.7499604e-05
3.1400029e-05	1.65e-05	1.7499185e-05
3.169968e-05	1.65e-05	1.7498599e-05
3.1998924e-05	1.65e-05	1.7498092e-05
3.2298028e-05	1.65e-05	1.7497852e-05
3.2597183e-05	1.65e-05	1.7497687e-05
3.2896187e-05	1.65e-05	1.7497295e-05
3.319473e-05	1.65e-05	1.7496787e-05
3.3492853e-05	1.65e-05	1.7496528e-05
3.379087e-05	1.65e-05	1.7496534e-05
3.4088866e-05	1.65e-05	1.7496498e-05
3.4386533e-05	1.65e-05	1.7496288e-05
3.4683613e-05	1.65e-05	1.7496118e-05
3.4980265e-05	1.65e-05	1.749625e-05
3.527679e-05	1.65e-05	1.7496648e-05
3.5573122e-05	1.65e-05	1.7497033e-05
3.5868898e-05	1.65e-05	1.7497304e-05
3.6163951e-05	1.65e-05	1.7497773e-05
3.645852e-05	1.65e-05	1.7498723e-05
3.6752811e-05	1.65e-05	1.7499964e-05
3.704661e-05	1.65e-05	1.7501218e-05
3.7339533e-05	1.65e-05	1.7502628e-05
3.7631506e-05	1.65e-05	1.7504562e-05
3.7922771e-05	1.65e-05	1.7507132e-05
3.8213344e-05	1.65e-05	1.7510184e-05
3.8502861e-05	1.65e-05	1.7513664e-05
3.8790927e-05	1.65e-05	1.7517795e-05
3.9077449e-05	1.65e-05	1.7523004e-05
3.9362461e-05	1.65e-05	1.7529538e-05
3.9645687e-05	1.65e-05	1.7537374e-05
3.9926458e-05	1.65e-05	1.7546702e-05
4.0203936e-05	1.65e-05	1.7558305e-05
4.0477529e-05	1.65e-05	1.7573088e-05
4.0746473e-05	1.65e-05	1.7591668e-05
4.1008706e-05	1.65e-05	1.7615284e-05
4.1260199e-05	1.65e-05	1.7647056e-05
4.1493713e-05	1.65e-05	1.7692527e-05
4.1677227e-05	1.65e-05	1.7772117e-05
4.1724692e-05	1.65e-05	1.7958308e-05
4.1780551e-05	1.65e-05	1.8169708e-05
4.1866541e-05	1.65e-05	1.8380648e-05
4.1984527e-05	1.65e-05	1.8584684e-05
4.2129683e-05	1.65e-05	1.8786311e-05
4.2299546e-05	1.65e-05	1.8989394e-05
4.2494914e-05	1.6499999e-05	1.9195078e-05
4.2710704e-05	1.6499999e-05	1.9410859e-05
4.2954576e-05	1.6499999e-05	1.9633015e-05
4.323949e-05	1.6499999e-05	1.9849798e-05
4.3568075e-05	1.6499999e-05	2.0056606e-05
4.3944551e-05	1.6499999e-05	2.0245996e-05
4.4370473e-05	1.6499999e-05	2.0413349e-05
4.4847311e-05	1.6499999e-05	2.0553129e-05
4.5373168e-05	1.6499999e-05	2.0662079e-05
4.5943725e-05	1.6499999e-05	2.0740328e-05
4.6554291e-05	1.6499999e-05	2.0791379e-05
4.7201002e-05	1.6499999e-05	2.0821222e-05
4.7880928e-05	1.6499999e-05	2.083552e-05
4.8592062e-05	1.6499999e-05	2.0839489e-05
4.933304e-05	1.6499999e-05	2.0837311e-05
5.0102608e-05	1.6499999e-05	2.0831718e-05
5.0899212e-05	1.6499999e-05	2.0824428e-05
5.1721302e-05	1.6499999e-05	2.0816921e-05
5.2567752e-05	1.6499999e-05	2.0810357e-05
5.3437672e-05	1.6499999e-05	2.0805199e-05
5.432996e-05	1.6499999e-05	2.0801163e-05
5.5242948e-05	1.6499999e-05	2.0797807e-05
5.6174991e-05	1.6499999e-05	2.0795338e-05
5.7125175e-05	1.6499999e-05	2.0794261e-05
5.8093034e-05	1.6499999e-05	2.0794605e-05
5.9077829e-05	1.6499999e-05	2.0795737e-05
6.0078164e-05	1.6499999e-05	2.0797067e-05
6.1092696e-05	1.6499999e-05	2.0798819e-05
6.2120891e-05	1.6499999e-05	2.0801532e-05
6.3162645e-05	1.6499999e-05	2.0805203e-05
6.4217512e-05	1.6499998e-05	2.0809194e-05
6.5284401e-05	1.6499998e-05	2.0812989e-05
6.6362261e-05	1.6499998e-05	2.0816824e-05
6.7450739e-05	1.6499998e-05	2.0821222e-05
6.8549883e-05	1.6499998e-05	2.0826213e-05
6.9659448e-05	1.6499998e-05	2.0831267e-05
7.0778632e-05	1.6499998e-05	2.0835922e-05
7.1906557e-05	1.6499998e-05	2.0840318e-05
7.3042855e-05	1.6499998e-05	2.0844948e-05
7.4187599e-05	1.6499998e-05	2.0849964e-05
7.5340687e-05	1.6499998e-05	2.0854979e-05
7.6501505e-05	1.6499998e-05	2.085957e-05
7.7669206e-05	1.6499998e-05	2.0863797e-05
7.8843268e-05	1.6499998e-05	2.0868182e-05
8.002361e-05	1.6499998e-05	2.087308e-05
8.1210009e-05	1.6499998e-05	2.087839e-05
8.2401667e-05	1.6499998e-05	2.0884028e-05
8.3597355e-05	1.6499998e-05	2.0890512e-05
8.4795767e-05	1.6499998e-05	2.0899195e-05
8.5995591e-05	1.6499998e-05	2.0912133e-05
8.7195102e-05	1.6499998e-05	2.0932298e-05
8.8392429e-05	1.6499998e-05	2.0964154e-05
8.9587687e-05	1.6499998e-05	2.1011043e-05
7.8450984e-07	1.6499998e-05	2.1065139e-05
1.9591554e-06	1.6499997e-05	2.1106555e-05
