{
  "experiment_name": "timing",
  "num_ranks": 2,
  "metrics": [
    {
      "identifier": "MPI: particle handling",
      "timers": { "rank_0": 99.95, "rank_1": 185.62 }
    },
    {
      "identifier": "MPI: particle (overhead)",
      "timers": { "rank_0": 445.78, "rank_1": 480.12 }
    },
    {
      "identifier": "MPI: particle",
      "timers": { "rank_0": 1000.94, "rank_1": 2695.89 }
    },
    {
      "identifier": "CPU: particle handling",
      "timers": { "rank_0": 1129.50, "rank_1": 822.31 }
    },
    {
      "identifier": "CPU: particle mapping",
      "timers": { "rank_0": 65575.80, "rank_1": 73017.70 }
    },
    {
      "identifier": "Copy: CPU -> GPU",
      "timers": { "rank_0": 146960.15, "rank_1": 68070.71 }
    },
    {
      "identifier": "CL: PartMapLP",
      "timers": { "rank_0": 61012.88, "rank_1": 121094.33 }
    },
    {
      "identifier": "Copy: GPU -> CPU",
      "timers": { "rank_0": 163401.79, "rank_1": 144358.78 }
    },
    {
      "identifier": "CL: LEGalilei",
      "timers": { "rank_0": 30813.73, "rank_1": 28887.70 }
    },
    {
      "identifier": "CL: LEShift",
      "timers": { "rank_0": 10840.76, "rank_1": 10568.98 }
    },
    {
      "identifier": "CL: PropagateCollide",
      "timers": { "rank_0": 239275.55, "rank_1": 240201.99 }
    },
    {
      "identifier": "OMP: part ext forces",
      "timers": { "rank_0": 31.20, "rank_1": 22.35 }
    },
    {
      "identifier": "OMP: part int forces",
      "timers": { "rank_0": 7750.26, "rank_1": 8824.97 }
    },
    {
      "identifier": "OMP: part-part forces",
      "timers": { "rank_0": 25372.66, "rank_1": 32433.67 }
    },
    {
      "identifier": "MPI: particle forces (overhead)",
      "timers": { "rank_0": 538.60, "rank_1": 500.28 }
    },
    {
      "identifier": "MPI: particle forces",
      "timers": { "rank_0": 1781.51, "rank_1": 69788.91 }
    },
    {
      "identifier": "OMP: particle dynamics",
      "timers": { "rank_0": 7841.55, "rank_1": 6938.59 }
    },
    {
      "identifier": "I/O: output",
      "timers": { "rank_0": 582815.46, "rank_1": 649467.61 }
    },
    {
      "identifier": "ALL: total time",
      "timers": { "rank_0": 1989451.31, "rank_1": 1988269.04 }
    }
  ]
}
