101
36072
72144
108216
144288
180360
216432
252504
288576
324648
360720
396792
432864
468936
505008
541080
577152
613224
649296
685368
721440
757512
793584
829656
865728
901800
937872
973944
1010016
1046088
1082160
1118232
1154304
1190376
1226448
1262520
1298592
1334664
1370736
1406808
1442880
1478952
1515024
1551096
1587168
1623240
1659312
1695384
1731456
1767528
1803600
1839672
1875744
1911816
1947888
1983960
2020032
2056104
2092176
2128248
2164320
2200392
2236464
2272536
2308608
2344680
2380752
2416824
2452896
2488968
2525040
2561112
2597184
2633256
2669328
2705400
2741472
2777544
2813616
2849688
2885760
2921832
2957904
2993976
3030048
3066120
3102192
3138264
3174336
3210408
3246480
3282552
3318624
3354696
3390768
3426840
3462912
3498984
3535056
3571128
3607200
3607201
