{
  "experiment_name": "timing",
  "num_ranks": 2,
  "metrics": [
    {
      "identifier": "MPI: particle handling",
      "timers": { "rank_0": 62.16, "rank_1": 97.74 }
    },
    {
      "identifier": "MPI: particle (overhead)",
      "timers": { "rank_0": 143.16, "rank_1": 146.55 }
    },
    {
      "identifier": "MPI: particle",
      "timers": { "rank_0": 562.91, "rank_1": 2800.42 }
    },
    {
      "identifier": "CPU: particle handling",
      "timers": { "rank_0": 445.40, "rank_1": 282.97 }
    },
    {
      "identifier": "CPU: particle mapping",
      "timers": { "rank_0": 22241.62, "rank_1": 29692.66 }
    },
    {
      "identifier": "Copy: CPU -> GPU",
      "timers": { "rank_0": 61373.97, "rank_1": 27276.94 }
    },
    {
      "identifier": "CL: PartMapLP",
      "timers": { "rank_0": 19794.91, "rank_1": 35761.01 }
    },
    {
      "identifier": "Copy: GPU -> CPU",
      "timers": { "rank_0": 107026.85, "rank_1": 46333.02 }
    },
    {
      "identifier": "CL: LEGalilei",
      "timers": { "rank_0": 29052.91, "rank_1": 20115.79 }
    },
    {
      "identifier": "CL: LEShift",
      "timers": { "rank_0": 9001.72, "rank_1": 14020.65 }
    },
    {
      "identifier": "CL: PropagateCollide",
      "timers": { "rank_0": 80332.45, "rank_1": 64464.10 }
    },
    {
      "identifier": "OMP: part ext forces",
      "timers": { "rank_0": 16.36, "rank_1": 12.46 }
    },
    {
      "identifier": "OMP: part int forces",
      "timers": { "rank_0": 3289.37, "rank_1": 3972.20 }
    },
    {
      "identifier": "OMP: part-part forces",
      "timers": { "rank_0": 6704.14, "rank_1": 9124.27 }
    },
    {
      "identifier": "MPI: particle forces (overhead)",
      "timers": { "rank_0": 173.62, "rank_1": 155.44 }
    },
    {
      "identifier": "MPI: particle forces",
      "timers": { "rank_0": 1066.70, "rank_1": 49735.04 }
    },
    {
      "identifier": "OMP: particle dynamics",
      "timers": { "rank_0": 5198.86, "rank_1": 3264.44 }
    },
    {
      "identifier": "I/O: output",
      "timers": { "rank_0": 286511.65, "rank_1": 318999.89 }
    },
    {
      "identifier": "ALL: total time",
      "timers": { "rank_0": 927888.59, "rank_1": 927407.08 }
    }
  ]
}
