{
  "experiment_name": "timing",
  "num_ranks": 2,
  "metrics": [
    {
      "identifier": "MPI: particle handling",
      "timers": { "rank_0": 33.27, "rank_1": 26.51 }
    },
    {
      "identifier": "MPI: particle (overhead)",
      "timers": { "rank_0": 75.21, "rank_1": 60.93 }
    },
    {
      "identifier": "MPI: particle",
      "timers": { "rank_0": 297.82, "rank_1": 567.14 }
    },
    {
      "identifier": "CPU: particle handling",
      "timers": { "rank_0": 255.80, "rank_1": 170.23 }
    },
    {
      "identifier": "CPU: particle mapping",
      "timers": { "rank_0": 15999.25, "rank_1": 12440.47 }
    },
    {
      "identifier": "Copy: CPU -> GPU",
      "timers": { "rank_0": 25827.88, "rank_1": 11355.49 }
    },
    {
      "identifier": "CL: PartMapLP",
      "timers": { "rank_0": 14810.18, "rank_1": 22868.08 }
    },
    {
      "identifier": "Copy: GPU -> CPU",
      "timers": { "rank_0": 29047.79, "rank_1": 25162.14 }
    },
    {
      "identifier": "CL: LEGalilei",
      "timers": { "rank_0": 4257.57, "rank_1": 4229.83 }
    },
    {
      "identifier": "CL: LEShift",
      "timers": { "rank_0": 3548.28, "rank_1": 3461.32 }
    },
    {
      "identifier": "CL: PropagateCollide",
      "timers": { "rank_0": 77148.27, "rank_1": 43957.79 }
    },
    {
      "identifier": "OMP: part ext forces",
      "timers": { "rank_0": 11.67, "rank_1": 7.52 }
    },
    {
      "identifier": "OMP: part int forces",
      "timers": { "rank_0": 1887.21, "rank_1": 1707.58 }
    },
    {
      "identifier": "OMP: part-part forces",
      "timers": { "rank_0": 4347.30, "rank_1": 4225.79 }
    },
    {
      "identifier": "MPI: particle forces (overhead)",
      "timers": { "rank_0": 81.27, "rank_1": 100.63 }
    },
    {
      "identifier": "MPI: particle forces",
      "timers": { "rank_0": 623.91, "rank_1": 49195.43 }
    },
    {
      "identifier": "OMP: particle dynamics",
      "timers": { "rank_0": 2059.81, "rank_1": 1428.94 }
    },
    {
      "identifier": "I/O: output",
      "timers": { "rank_0": 116943.87, "rank_1": 116889.50 }
    },
    {
      "identifier": "ALL: total time",
      "timers": { "rank_0": 440503.93, "rank_1": 440505.02 }
    }
  ]
}
