{
  "experiment_name": "timing",
  "num_ranks": 2,
  "metrics": [
    {
      "identifier": "MPI: particle handling",
      "timers": { "rank_0": 4.66, "rank_1": 6.79 }
    },
    {
      "identifier": "MPI: particle (overhead)",
      "timers": { "rank_0": 13.56, "rank_1": 12.99 }
    },
    {
      "identifier": "MPI: particle",
      "timers": { "rank_0": 87.53, "rank_1": 34.65 }
    },
    {
      "identifier": "CPU: particle handling",
      "timers": { "rank_0": 31.82, "rank_1": 26.60 }
    },
    {
      "identifier": "CPU: particle mapping",
      "timers": { "rank_0": 1303.73, "rank_1": 1482.50 }
    },
    {
      "identifier": "Copy: CPU -> GPU",
      "timers": { "rank_0": 3049.60, "rank_1": 1375.92 }
    },
    {
      "identifier": "CL: PartMapLP",
      "timers": { "rank_0": 1192.29, "rank_1": 2214.46 }
    },
    {
      "identifier": "Copy: GPU -> CPU",
      "timers": { "rank_0": 4081.83, "rank_1": 5749.53 }
    },
    {
      "identifier": "CL: LEGalilei",
      "timers": { "rank_0": 674.87, "rank_1": 673.94 }
    },
    {
      "identifier": "CL: LEShift",
      "timers": { "rank_0": 256.72, "rank_1": 238.77 }
    },
    {
      "identifier": "CL: PropagateCollide",
      "timers": { "rank_0": 4595.12, "rank_1": 4081.24 }
    },
    {
      "identifier": "OMP: part ext forces",
      "timers": { "rank_0": 0.95, "rank_1": 0.97 }
    },
    {
      "identifier": "OMP: part int forces",
      "timers": { "rank_0": 247.99, "rank_1": 283.08 }
    },
    {
      "identifier": "OMP: part-part forces",
      "timers": { "rank_0": 709.85, "rank_1": 840.02 }
    },
    {
      "identifier": "MPI: particle forces (overhead)",
      "timers": { "rank_0": 15.13, "rank_1": 14.69 }
    },
    {
      "identifier": "MPI: particle forces",
      "timers": { "rank_0": 144.42, "rank_1": 1700.89 }
    },
    {
      "identifier": "OMP: particle dynamics",
      "timers": { "rank_0": 290.38, "rank_1": 249.27 }
    },
    {
      "identifier": "I/O: output",
      "timers": { "rank_0": 391607.07, "rank_1": 419347.16 }
    },
    {
      "identifier": "ALL: total time",
      "timers": { "rank_0": 448725.43, "rank_1": 448725.52 }
    }
  ]
}
