0.00035619962	1.65e-05	1.2500046e-05
0.00041539904	1.65e-05	1.2500103e-05
0.00047459798	1.65e-05	1.2499988e-05
0.00053379466	1.65e-05	1.2499647e-05
0.00059298608	1.65e-05	1.2501134e-05
0.00065217718	1.65e-05	1.250861e-05
0.00071138238	1.65e-05	1.2520043e-05
0.00077060218	1.65e-05	1.252646e-05
0.00082982178	1.65e-05	1.2526029e-05
0.00088903686	1.65e-05	1.2523656e-05
0.00094825192	1.65e-05	1.252049e-05
0.00100746624	1.65e-05	1.2514297e-05
0.00106667312	1.65e-05	1.2504288e-05
0.00112586746	1.65e-05	1.2493453e-05
0.0011850525	1.65e-05	1.248596e-05
0.0012442344	1.65e-05	1.2483374e-05
0.0013034158	1.65e-05	1.2485997e-05
0.00136260036	1.65e-05	1.2494275e-05
0.00142179366	1.65e-05	1.2507184e-05
0.00148099988	1.65e-05	1.2522248e-05
0.00154022124	1.65e-05	1.2536161e-05
0.00159945626	1.65e-05	1.2544483e-05
0.001658697	1.65e-05	1.254448e-05
0.00171793602	1.65e-05	1.2536017e-05
0.0017771636	1.65e-05	1.2518777e-05
0.00183636688	1.65e-05	1.2497001e-05
0.00189554588	1.65e-05	1.2480469e-05
0.00195471714	1.65e-05	1.2475846e-05
0.00201389826	1.65e-05	1.2481623e-05
0.00207309612	1.65e-05	1.2490865e-05
0.00213230464	1.65e-05	1.2497877e-05
0.00219151412	1.65e-05	1.2502756e-05
0.00225072318	1.65e-05	1.2509314e-05
0.00230993974	1.65e-05	1.2519409e-05
0.00236917402	1.65e-05	1.253004e-05
0.00242842918	1.65e-05	1.2532945e-05
0.00248768904	1.65e-05	1.251964e-05
0.00254692498	1.65e-05	1.2492604e-05
0.00260612782	1.65e-05	1.2466739e-05
0.0026653215	1.65e-05	1.2452884e-05
0.00272453118	1.65e-05	1.2446834e-05
0.00278376184	1.65e-05	1.243931e-05
0.00284300946	1.65e-05	1.2423999e-05
0.00290227002	1.65e-05	1.2396098e-05
0.00296154074	1.65e-05	1.235128e-05
0.00302082154	1.65e-05	1.2282156e-05
0.00308010186	1.65e-05	1.217639e-05
0.00313934042	1.65e-05	1.2026352e-05
0.00319845842	1.65e-05	1.1858344e-05
0.00325740794	1.65e-05	1.1757712e-05
0.00331629614	1.65e-05	1.1797717e-05
0.0033752965	1.65e-05	1.1948705e-05
0.00343445236	1.65e-05	1.2116831e-05
0.00349369634	1.65e-05	1.2246607e-05
0.0035529697	1.65e-05	1.2333756e-05
0.00361224418	1.65e-05	1.239062e-05
0.00367151392	1.65e-05	1.2427504e-05
0.00373077646	1.65e-05	1.2449421e-05
0.003790027	1.65e-05	1.2460319e-05
0.00384926036	1.65e-05	1.2464677e-05
0.00390847314	1.65e-05	1.2469899e-05
0.00396767624	1.65e-05	1.2485795e-05
0.00402689826	1.65e-05	1.2513499e-05
0.00408615524	1.65e-05	1.2538771e-05
0.00414542798	1.65e-05	1.2547766e-05
0.00420468826	1.65e-05	1.2542285e-05
0.00426392806	1.65e-05	1.2532341e-05
0.004323154424	1.65e-05	1.2524365e-05
0.004382377064	1.65e-05	1.2519389e-05
0.004441601052	1.65e-05	1.2514191e-05
0.004500820962	1.65e-05	1.2505458e-05
0.004560027182	1.65e-05	1.2495334e-05
0.004619218242	1.65e-05	1.2490113e-05
0.004678403074	1.65e-05	1.2494785e-05
0.004737596484	1.65e-05	1.2510572e-05
0.004796813652	1.65e-05	1.2532778e-05
0.004856056134	1.65e-05	1.2551753e-05
0.004915311284	1.65e-05	1.2560968e-05
0.00497456632	1.65e-05	1.2559094e-05
0.005033810436	1.65e-05	1.2548443e-05
0.005093039224	1.65e-05	1.2534127e-05
0.005152254008	1.65e-05	1.2519854e-05
0.005211457202	1.65e-05	1.2508415e-05
0.005270653496	1.65e-05	1.2501895e-05
0.005329848192	1.65e-05	1.2500032e-05
0.005389043038	1.65e-05	1.2501734e-05
0.005448239788	1.65e-05	1.2507587e-05
0.00550744456	1.65e-05	1.2517793e-05
0.005566662036	1.65e-05	1.2529192e-05
0.00562588798	1.65e-05	1.2537603e-05
0.005685115314	1.65e-05	1.2542635e-05
0.005744345214	1.65e-05	1.2545553e-05
0.005803580202	1.65e-05	1.2543157e-05
0.005862808032	1.65e-05	1.2532938e-05
0.005922017514	1.65e-05	1.2522143e-05
0.005981218532	1.65e-05	1.2517696e-05
0.006040422868	1.65e-05	1.251746e-05
0.006099630876	1.65e-05	1.2517819e-05
0.006158840084	1.65e-05	1.2518072e-05
0.00621804971	1.65e-05	1.2518415e-05
0.00628204944293	1.65e-05	1.2518415e-05
