{
  "experiment_name": "timing",
  "num_ranks": 2,
  "metrics": [
    {
      "identifier": "MPI: particle handling",
      "timers": { "rank_0": 10.95, "rank_1": 22.20 }
    },
    {
      "identifier": "MPI: particle (overhead)",
      "timers": { "rank_0": 18.58, "rank_1": 17.66 }
    },
    {
      "identifier": "MPI: particle",
      "timers": { "rank_0": 113.05, "rank_1": 105.39 }
    },
    {
      "identifier": "CPU: particle handling",
      "timers": { "rank_0": 54.05, "rank_1": 36.64 }
    },
    {
      "identifier": "CPU: particle mapping",
      "timers": { "rank_0": 2871.64, "rank_1": 3101.77 }
    },
    {
      "identifier": "Copy: CPU -> GPU",
      "timers": { "rank_0": 6065.31, "rank_1": 2768.82 }
    },
    {
      "identifier": "CL: PartMapLP",
      "timers": { "rank_0": 2541.22, "rank_1": 4258.82 }
    },
    {
      "identifier": "Copy: GPU -> CPU",
      "timers": { "rank_0": 6533.53, "rank_1": 5182.20 }
    },
    {
      "identifier": "CL: LEGalilei",
      "timers": { "rank_0": 2690.40, "rank_1": 2414.70 }
    },
    {
      "identifier": "CL: LEShift",
      "timers": { "rank_0": 1276.33, "rank_1": 1095.12 }
    },
    {
      "identifier": "CL: PropagateCollide",
      "timers": { "rank_0": 13856.85, "rank_1": 7293.23 }
    },
    {
      "identifier": "OMP: part ext forces",
      "timers": { "rank_0": 2.90, "rank_1": 2.03 }
    },
    {
      "identifier": "OMP: part int forces",
      "timers": { "rank_0": 606.29, "rank_1": 643.59 }
    },
    {
      "identifier": "OMP: part-part forces",
      "timers": { "rank_0": 851.70, "rank_1": 1049.04 }
    },
    {
      "identifier": "MPI: particle forces (overhead)",
      "timers": { "rank_0": 19.85, "rank_1": 19.21 }
    },
    {
      "identifier": "MPI: particle forces",
      "timers": { "rank_0": 180.63, "rank_1": 9971.29 }
    },
    {
      "identifier": "OMP: particle dynamics",
      "timers": { "rank_0": 569.11, "rank_1": 530.04 }
    },
    {
      "identifier": "I/O: output",
      "timers": { "rank_0": 128052.20, "rank_1": 137410.03 }
    },
    {
      "identifier": "ALL: total time",
      "timers": { "rank_0": 167740.54, "rank_1": 167694.31 }
    }
  ]
}
