{
  "experiment_name": "timing",
  "num_ranks": 2,
  "metrics": [
    {
      "identifier": "MPI: particle handling",
      "timers": { "rank_0": 13.39, "rank_1": 25.38 }
    },
    {
      "identifier": "MPI: particle (overhead)",
      "timers": { "rank_0": 41.43, "rank_1": 39.83 }
    },
    {
      "identifier": "MPI: particle",
      "timers": { "rank_0": 404.88, "rank_1": 97.44 }
    },
    {
      "identifier": "CPU: particle handling",
      "timers": { "rank_0": 92.89, "rank_1": 82.48 }
    },
    {
      "identifier": "CPU: particle mapping",
      "timers": { "rank_0": 5523.98, "rank_1": 6150.19 }
    },
    {
      "identifier": "Copy: CPU -> GPU",
      "timers": { "rank_0": 12533.38, "rank_1": 5712.97 }
    },
    {
      "identifier": "CL: PartMapLP",
      "timers": { "rank_0": 5092.72, "rank_1": 9829.72 }
    },
    {
      "identifier": "Copy: GPU -> CPU",
      "timers": { "rank_0": 13904.11, "rank_1": 25453.30 }
    },
    {
      "identifier": "CL: LEGalilei",
      "timers": { "rank_0": 4685.61, "rank_1": 4231.33 }
    },
    {
      "identifier": "CL: LEShift",
      "timers": { "rank_0": 1548.04, "rank_1": 1509.13 }
    },
    {
      "identifier": "CL: PropagateCollide",
      "timers": { "rank_0": 19242.11, "rank_1": 18350.49 }
    },
    {
      "identifier": "OMP: part ext forces",
      "timers": { "rank_0": 2.88, "rank_1": 2.67 }
    },
    {
      "identifier": "OMP: part int forces",
      "timers": { "rank_0": 697.93, "rank_1": 895.00 }
    },
    {
      "identifier": "OMP: part-part forces",
      "timers": { "rank_0": 1876.80, "rank_1": 2513.81 }
    },
    {
      "identifier": "MPI: particle forces (overhead)",
      "timers": { "rank_0": 43.25, "rank_1": 41.46 }
    },
    {
      "identifier": "MPI: particle forces",
      "timers": { "rank_0": 247.39, "rank_1": 5334.11 }
    },
    {
      "identifier": "OMP: particle dynamics",
      "timers": { "rank_0": 673.14, "rank_1": 741.29 }
    },
    {
      "identifier": "I/O: output",
      "timers": { "rank_0": 435545.80, "rank_1": 474646.74 }
    },
    {
      "identifier": "ALL: total time",
      "timers": { "rank_0": 611018.73, "rank_1": 610442.51 }
    }
  ]
}
