{
  "experiment_name": "timing",
  "num_ranks": 2,
  "metrics": [
    {
      "identifier": "MPI: particle handling",
      "timers": { "rank_0": 323.25, "rank_1": 310.14 }
    },
    {
      "identifier": "MPI: particle (overhead)",
      "timers": { "rank_0": 1492.42, "rank_1": 1282.02 }
    },
    {
      "identifier": "MPI: particle",
      "timers": { "rank_0": 3042.37, "rank_1": 4767.07 }
    },
    {
      "identifier": "CPU: particle handling",
      "timers": { "rank_0": 4019.14, "rank_1": 3300.77 }
    },
    {
      "identifier": "CPU: particle mapping",
      "timers": { "rank_0": 349481.75, "rank_1": 294326.33 }
    },
    {
      "identifier": "Copy: CPU -> GPU",
      "timers": { "rank_0": 574209.63, "rank_1": 279745.26 }
    },
    {
      "identifier": "CL: PartMapLP",
      "timers": { "rank_0": 334415.11, "rank_1": 542997.48 }
    },
    {
      "identifier": "Copy: GPU -> CPU",
      "timers": { "rank_0": 671697.48, "rank_1": 627525.46 }
    },
    {
      "identifier": "CL: LEGalilei",
      "timers": { "rank_0": 55656.81, "rank_1": 57787.25 }
    },
    {
      "identifier": "CL: LEShift",
      "timers": { "rank_0": 45056.69, "rank_1": 44688.35 }
    },
    {
      "identifier": "CL: PropagateCollide",
      "timers": { "rank_0": 1296149.40, "rank_1": 1204697.27 }
    },
    {
      "identifier": "OMP: part ext forces",
      "timers": { "rank_0": 112.03, "rank_1": 78.84 }
    },
    {
      "identifier": "OMP: part int forces",
      "timers": { "rank_0": 21819.65, "rank_1": 20601.69 }
    },
    {
      "identifier": "OMP: part-part forces",
      "timers": { "rank_0": 89153.61, "rank_1": 89014.85 }
    },
    {
      "identifier": "MPI: particle forces (overhead)",
      "timers": { "rank_0": 1580.76, "rank_1": 2052.79 }
    },
    {
      "identifier": "MPI: particle forces",
      "timers": { "rank_0": 6682.42, "rank_1": 403469.44 }
    },
    {
      "identifier": "OMP: particle dynamics",
      "timers": { "rank_0": 22285.65, "rank_1": 15893.39 }
    },
    {
      "identifier": "I/O: output",
      "timers": { "rank_0": 352603.23, "rank_1": 352485.90 }
    },
    {
      "identifier": "ALL: total time",
      "timers": { "rank_0": 6155825.34, "rank_1": 6155825.43 }
    }
  ]
}
