{
  "experiment_name": "timing",
  "num_ranks": 2,
  "metrics": [
    {
      "identifier": "MPI: particle handling",
      "timers": { "rank_0": 8.86, "rank_1": 14.69 }
    },
    {
      "identifier": "MPI: particle (overhead)",
      "timers": { "rank_0": 16.12, "rank_1": 16.58 }
    },
    {
      "identifier": "MPI: particle",
      "timers": { "rank_0": 376.35, "rank_1": 68.27 }
    },
    {
      "identifier": "CPU: particle handling",
      "timers": { "rank_0": 45.43, "rank_1": 48.19 }
    },
    {
      "identifier": "CPU: particle mapping",
      "timers": { "rank_0": 876.41, "rank_1": 998.98 }
    },
    {
      "identifier": "Copy: CPU -> GPU",
      "timers": { "rank_0": 1994.74, "rank_1": 884.27 }
    },
    {
      "identifier": "CL: PartMapLP",
      "timers": { "rank_0": 750.13, "rank_1": 1341.30 }
    },
    {
      "identifier": "Copy: GPU -> CPU",
      "timers": { "rank_0": 2473.94, "rank_1": 4606.01 }
    },
    {
      "identifier": "CL: LEGalilei",
      "timers": { "rank_0": 577.14, "rank_1": 623.76 }
    },
    {
      "identifier": "CL: LEShift",
      "timers": { "rank_0": 334.09, "rank_1": 305.77 }
    },
    {
      "identifier": "CL: PropagateCollide",
      "timers": { "rank_0": 3516.12, "rank_1": 2284.89 }
    },
    {
      "identifier": "OMP: part ext forces",
      "timers": { "rank_0": 2.02, "rank_1": 1.99 }
    },
    {
      "identifier": "OMP: part int forces",
      "timers": { "rank_0": 580.85, "rank_1": 602.68 }
    },
    {
      "identifier": "OMP: part-part forces",
      "timers": { "rank_0": 992.06, "rank_1": 1165.75 }
    },
    {
      "identifier": "MPI: particle forces (overhead)",
      "timers": { "rank_0": 18.01, "rank_1": 18.80 }
    },
    {
      "identifier": "MPI: particle forces",
      "timers": { "rank_0": 789.41, "rank_1": 2090.29 }
    },
    {
      "identifier": "OMP: particle dynamics",
      "timers": { "rank_0": 663.72, "rank_1": 513.06 }
    },
    {
      "identifier": "I/O: output",
      "timers": { "rank_0": 199255.89, "rank_1": 212350.72 }
    },
    {
      "identifier": "ALL: total time",
      "timers": { "rank_0": 239412.88, "rank_1": 239355.27 }
    }
  ]
}
