{
  "experiment_name": "timing",
  "num_ranks": 2,
  "metrics": [
    {
      "identifier": "MPI: particle handling",
      "timers": { "rank_0": 6201.82, "rank_1": 5458.56 }
    },
    {
      "identifier": "MPI: particle (overhead)",
      "timers": { "rank_0": 11862.30, "rank_1": 9685.69 }
    },
    {
      "identifier": "MPI: particle",
      "timers": { "rank_0": 110423.70, "rank_1": 220692.16 }
    },
    {
      "identifier": "CPU: particle handling",
      "timers": { "rank_0": 31668.48, "rank_1": 19053.00 }
    },
    {
      "identifier": "CPU: particle mapping",
      "timers": { "rank_0": 1867399.82, "rank_1": 1402088.24 }
    },
    {
      "identifier": "Copy: CPU -> GPU",
      "timers": { "rank_0": 3504537.49, "rank_1": 1230694.49 }
    },
    {
      "identifier": "CL: PartMapLP",
      "timers": { "rank_0": 1644465.58, "rank_1": 2500071.29 }
    },
    {
      "identifier": "Copy: GPU -> CPU",
      "timers": { "rank_0": 11404727.65, "rank_1": 9048427.12 }
    },
    {
      "identifier": "CL: LEGalilei",
      "timers": { "rank_0": 611142.67, "rank_1": 537609.74 }
    },
    {
      "identifier": "CL: LEShift",
      "timers": { "rank_0": 507582.99, "rank_1": 425471.22 }
    },
    {
      "identifier": "CL: PropagateCollide",
      "timers": { "rank_0": 7787673.30, "rank_1": 4472356.20 }
    },
    {
      "identifier": "OMP: part ext forces",
      "timers": { "rank_0": 1176.03, "rank_1": 1022.68 }
    },
    {
      "identifier": "OMP: part int forces",
      "timers": { "rank_0": 869811.50, "rank_1": 341442.25 }
    },
    {
      "identifier": "OMP: part-part forces",
      "timers": { "rank_0": 759183.72, "rank_1": 680374.89 }
    },
    {
      "identifier": "MPI: particle forces (overhead)",
      "timers": { "rank_0": 13793.24, "rank_1": 11227.06 }
    },
    {
      "identifier": "MPI: particle forces",
      "timers": { "rank_0": 84407.74, "rank_1": 6640089.15 }
    },
    {
      "identifier": "OMP: particle dynamics",
      "timers": { "rank_0": 450523.08, "rank_1": 305159.74 }
    },
    {
      "identifier": "I/O: output",
      "timers": { "rank_0": 298150.71, "rank_1": 309470.86 }
    },
    {
      "identifier": "ALL: total time",
      "timers": { "rank_0": 71062617.15, "rank_1": 71062581.67 }
    }
  ]
}
