3.1098742e-05	1.65e-05	1.849922e-05
3.169717e-05	1.65e-05	1.8497829e-05
3.2293985e-05	1.65e-05	1.8495052e-05
3.2888179e-05	1.65e-05	1.8493061e-05
3.3481615e-05	1.65e-05	1.849482e-05
3.4077232e-05	1.65e-05	1.8498751e-05
3.467688e-05	1.65e-05	1.8503338e-05
3.5279343e-05	1.65e-05	1.8503898e-05
3.5880414e-05	1.65e-05	1.8498854e-05
3.6474911e-05	1.65e-05	1.8492417e-05
3.7064226e-05	1.65e-05	1.8490701e-05
3.7655233e-05	1.65e-05	1.8496976e-05
3.8253292e-05	1.65e-05	1.850573e-05
3.8858102e-05	1.65e-05	1.8509985e-05
3.9462905e-05	1.65e-05	1.8505943e-05
4.0060003e-05	1.65e-05	1.8495896e-05
4.064781e-05	1.65e-05	1.8490592e-05
4.1234061e-05	1.65e-05	1.8495325e-05
4.182843e-05	1.65e-05	1.8507369e-05
4.2432978e-05	1.65e-05	1.8516373e-05
4.3039923e-05	1.65e-05	1.8514254e-05
4.3639742e-05	1.65e-05	1.8504904e-05
4.4228769e-05	1.65e-05	1.8496136e-05
4.4811994e-05	1.65e-05	1.8497861e-05
4.5401068e-05	1.65e-05	1.8511138e-05
4.6002554e-05	1.65e-05	1.8523736e-05
4.6608962e-05	1.65e-05	1.8526355e-05
4.7209376e-05	1.65e-05	1.8519516e-05
4.7800125e-05	1.65e-05	1.8511743e-05
4.8382295e-05	1.65e-05	1.8511559e-05
4.8965619e-05	1.65e-05	1.8523544e-05
4.9560189e-05	1.65e-05	1.8540941e-05
5.016126e-05	1.65e-05	1.8549717e-05
5.0758028e-05	1.65e-05	1.8550976e-05
5.1345577e-05	1.65e-05	1.8551329e-05
5.192461e-05	1.65e-05	1.8556563e-05
5.2499158e-05	1.65e-05	1.8575077e-05
5.3078684e-05	1.65e-05	1.8604065e-05
5.3662916e-05	1.65e-05	1.8635049e-05
5.423953e-05	1.65e-05	1.8666847e-05
5.4805898e-05	1.65e-05	1.8708651e-05
5.5358183e-05	1.65e-05	1.8772212e-05
5.5899638e-05	1.65e-05	1.8867493e-05
5.6433515e-05	1.65e-05	1.9017483e-05
5.697463e-05	1.65e-05	1.9227596e-05
5.7533922e-05	1.65e-05	1.9518653e-05
5.815873e-05	1.65e-05	1.9880994e-05
5.8896732e-05	1.65e-05	2.0248238e-05
5.9810403e-05	1.65e-05	2.0501647e-05
6.0850698e-05	1.65e-05	2.0541712e-05
6.1825557e-05	1.65e-05	2.035047e-05
6.2605409e-05	1.65e-05	2.0007796e-05
6.3266579e-05	1.65e-05	1.9633486e-05
6.3837048e-05	1.65e-05	1.9315602e-05
6.4381031e-05	1.65e-05	1.9082871e-05
6.4919774e-05	1.65e-05	1.8914266e-05
6.5459649e-05	1.65e-05	1.8797902e-05
6.6005856e-05	1.65e-05	1.872096e-05
6.6563599e-05	1.65e-05	1.8673108e-05
6.713254e-05	1.65e-05	1.8639885e-05
6.771328e-05	1.65e-05	1.8614985e-05
6.8298551e-05	1.65e-05	1.8588718e-05
6.8880088e-05	1.65e-05	1.8561863e-05
6.945497e-05	1.65e-05	1.85459e-05
7.0033897e-05	1.65e-05	1.8541596e-05
7.0621687e-05	1.65e-05	1.8543265e-05
7.1218084e-05	1.65e-05	1.8543079e-05
7.1819423e-05	1.65e-05	1.8534888e-05
7.2413775e-05	1.65e-05	1.8518584e-05
7.2996765e-05	1.65e-05	1.8506016e-05
7.3578278e-05	1.65e-05	1.850685e-05
7.4168019e-05	1.65e-05	1.851469e-05
7.4767976e-05	1.65e-05	1.8521766e-05
7.5373569e-05	1.65e-05	1.8520101e-05
7.5974573e-05	1.65e-05	1.8507226e-05
7.6563195e-05	1.65e-05	1.8494545e-05
7.7145691e-05	1.65e-05	1.8492235e-05
7.7733802e-05	1.65e-05	1.8500834e-05
7.8332571e-05	1.65e-05	1.851071e-05
7.8938587e-05	1.65e-05	1.8512493e-05
7.9542322e-05	1.65e-05	1.8504472e-05
8.0136117e-05	1.65e-05	1.8492274e-05
8.0721817e-05	1.65e-05	1.8487354e-05
8.130883e-05	1.65e-05	1.8492671e-05
8.1904857e-05	1.65e-05	1.8501978e-05
8.2508524e-05	1.65e-05	1.8506712e-05
8.3112209e-05	1.65e-05	1.8502396e-05
8.3709605e-05	1.65e-05	1.8494101e-05
8.4300148e-05	1.65e-05	1.8488183e-05
8.4888865e-05	1.65e-05	1.8489023e-05
8.5482429e-05	1.65e-05	1.849566e-05
8.60822e-05	1.65e-05	1.8500078e-05
8.6683498e-05	1.65e-05	1.8499967e-05
8.7282202e-05	1.65e-05	1.8496042e-05
8.7877292e-05	1.65e-05	1.8491877e-05
8.8470295e-05	1.65e-05	1.8490596e-05
8.9063748e-05	1.65e-05	1.8491572e-05
8.9659373e-05	1.65e-05	1.8494259e-05
9.0256448e-05	1.65e-05	1.8495829e-05
9.0854112e-05	1.65e-05	1.8496566e-05
9.0854115e-05	1.65e-05	1.8496566e-05
