directory	sep_ratio	yd	M	Rep	Stp	friction	repulsion_c0	repulsion_dmax
rhor1.0_yd1000.0 	0.4 	1000.0 	1.0 	0.0249500998004 	0.0249500998004 	none 	0.0001 	1e-09
rhor1.0_yd100.0 	0.4 	100.0 	1.0 	0.00249500998004 	0.00249500998004 	none 	0.0001 	1e-09
rhor100.0_yd10.0 	0.4 	10.0 	100.0 	0.000249500998004 	0.0249500998004 	none 	0.0001 	1e-09
rhor10.0_yd10.0 	0.4 	10.0 	10.0 	0.000249500998004 	0.00249500998004 	none 	0.0001 	1e-09
rhor100.0_yd10000.0 	0.4 	10000.0 	100.0 	0.249500998004 	24.9500998004 	none 	0.0001 	1e-09
rhor1000.0_yd100.0 	0.4 	100.0 	1000.0 	0.00249500998004 	2.49500998004 	none 	0.0001 	1e-09
rhor1000.0_yd10.0 	0.4 	10.0 	1000.0 	0.000249500998004 	0.249500998004 	none 	0.0001 	1e-09
rhor5.0_yd10.0 	0.4 	10.0 	5.0 	0.000249500998004 	0.00124750499002 	none 	0.0001 	1e-09
rhor10.0_yd1000.0 	0.4 	1000.0 	10.0 	0.0249500998004 	0.249500998004 	none 	0.0001 	1e-09
rhor10.0_yd100.0 	0.4 	100.0 	10.0 	0.00249500998004 	0.0249500998004 	none 	0.0001 	1e-09
rhor1.0_yd10.0 	0.4 	10.0 	1.0 	0.000249500998004 	0.000249500998004 	none 	0.0001 	1e-09
rhor1000.0_yd1000.0 	0.4 	1000.0 	1000.0 	0.0249500998004 	24.9500998004 	none 	0.0001 	1e-09
rhor1000.0_yd10000.0 	0.4 	10000.0 	1000.0 	0.249500998004 	249.500998004 	none 	0.0001 	1e-09
rhor100.0_yd1000.0 	0.4 	1000.0 	100.0 	0.0249500998004 	2.49500998004 	none 	0.0001 	1e-09
rhor10.0_yd10000.0 	0.4 	10000.0 	10.0 	0.249500998004 	2.49500998004 	none 	0.0001 	1e-09
rhor100.0_yd100.0 	0.4 	100.0 	100.0 	0.00249500998004 	0.249500998004 	none 	0.0001 	1e-09
rhor1.0_yd10000.0 	0.4 	10000.0 	1.0 	0.249500998004 	0.249500998004 	none 	0.0001 	1e-09
