{
  "experiment_name": "timing",
  "num_ranks": 2,
  "metrics": [
    {
      "identifier": "MPI: particle handling",
      "timers": { "rank_0": 47.80, "rank_1": 40.52 }
    },
    {
      "identifier": "MPI: particle (overhead)",
      "timers": { "rank_0": 453.49, "rank_1": 481.52 }
    },
    {
      "identifier": "MPI: particle",
      "timers": { "rank_0": 2495.44, "rank_1": 1383.96 }
    },
    {
      "identifier": "CPU: particle handling",
      "timers": { "rank_0": 640.13, "rank_1": 652.54 }
    },
    {
      "identifier": "CPU: particle mapping",
      "timers": { "rank_0": 7146.03, "rank_1": 6887.14 }
    },
    {
      "identifier": "Copy: CPU -> GPU",
      "timers": { "rank_0": 13213.55, "rank_1": 12607.19 }
    },
    {
      "identifier": "CL: PartMapLP",
      "timers": { "rank_0": 6804.29, "rank_1": 6567.50 }
    },
    {
      "identifier": "Copy: GPU -> CPU",
      "timers": { "rank_0": 19108.65, "rank_1": 37379.46 }
    },
    {
      "identifier": "CL: LEGalilei",
      "timers": { "rank_0": 3337.69, "rank_1": 3287.68 }
    },
    {
      "identifier": "CL: LEShift",
      "timers": { "rank_0": 1903.29, "rank_1": 1792.51 }
    },
    {
      "identifier": "CL: PropagateCollide",
      "timers": { "rank_0": 24565.44, "rank_1": 23804.51 }
    },
    {
      "identifier": "OMP: part ext forces",
      "timers": { "rank_0": 8.49, "rank_1": 10.63 }
    },
    {
      "identifier": "OMP: part int forces",
      "timers": { "rank_0": 3165.04, "rank_1": 3686.06 }
    },
    {
      "identifier": "OMP: part-part forces",
      "timers": { "rank_0": 18732.31, "rank_1": 24026.26 }
    },
    {
      "identifier": "MPI: particle forces (overhead)",
      "timers": { "rank_0": 436.05, "rank_1": 886.55 }
    },
    {
      "identifier": "MPI: particle forces",
      "timers": { "rank_0": 9982.64, "rank_1": 4809.73 }
    },
    {
      "identifier": "OMP: particle dynamics",
      "timers": { "rank_0": 3760.64, "rank_1": 3741.28 }
    },
    {
      "identifier": "I/O: output",
      "timers": { "rank_0": 1228350.01, "rank_1": 1268519.18 }
    },
    {
      "identifier": "ALL: total time",
      "timers": { "rank_0": 1464264.31, "rank_1": 1464006.26 }
    }
  ]
}
