9.0400088e-05	1.65e-05	1.949984e-05
8.9800652e-05	1.65e-05	1.9499461e-05
8.9202624e-05	1.65e-05	1.9498354e-05
8.8605478e-05	1.65e-05	1.9494904e-05
8.8002582e-05	1.65e-05	1.9488505e-05
8.7389396e-05	1.65e-05	1.9483593e-05
8.677282e-05	1.65e-05	1.9483276e-05
8.615783e-05	1.65e-05	1.9486228e-05
8.5546176e-05	1.6499999e-05	1.9492104e-05
8.4942636e-05	1.6499999e-05	1.9500368e-05
8.4349872e-05	1.6499999e-05	1.9507771e-05
8.3764542e-05	1.6499999e-05	1.9510887e-05
8.3181762e-05	1.6499999e-05	1.9507646e-05
8.259258e-05	1.6499999e-05	1.9496809e-05
8.1984972e-05	1.6499999e-05	1.9482483e-05
8.1358986e-05	1.6499999e-05	1.9472974e-05
8.0726218e-05	1.6499999e-05	1.9472327e-05
8.0096806e-05	1.6499999e-05	1.9480077e-05
7.9480708e-05	1.6499999e-05	1.9494638e-05
7.8886058e-05	1.6499999e-05	1.9510168e-05
7.8307594e-05	1.6499998e-05	1.9518544e-05
7.7730606e-05	1.6499998e-05	1.9516508e-05
7.7143424e-05	1.6499998e-05	1.950683e-05
7.6542384e-05	1.6499998e-05	1.949372e-05
7.5925582e-05	1.6499998e-05	1.9480123e-05
7.5290646e-05	1.6499998e-05	1.9470956e-05
7.4645208e-05	1.6499998e-05	1.9473116e-05
7.400914e-05	1.6499998e-05	1.9488644e-05
7.3401232e-05	1.6499998e-05	1.9510261e-05
7.281903e-05	1.6499998e-05	1.9524615e-05
7.2239084e-05	1.6499997e-05	1.9525759e-05
7.164447e-05	1.6499997e-05	1.9519439e-05
7.1036844e-05	1.6499997e-05	1.9512585e-05
7.0421712e-05	1.6499997e-05	1.9505893e-05
6.9794656e-05	1.6499997e-05	1.9498707e-05
6.9148832e-05	1.6499997e-05	1.9496206e-05
6.8493578e-05	1.6499997e-05	1.9507316e-05
6.7855222e-05	1.6499996e-05	1.9531749e-05
6.7242144e-05	1.6499996e-05	1.9555756e-05
6.6630338e-05	1.6499996e-05	1.9571115e-05
6.5999586e-05	1.6499996e-05	1.9584103e-05
6.5348272e-05	1.6499996e-05	1.9603861e-05
6.4680086e-05	1.6499996e-05	1.9635863e-05
6.3992078e-05	1.6499996e-05	1.9684849e-05
6.3277322e-05	1.6499995e-05	1.9761035e-05
6.253842e-05	1.6499995e-05	1.9882911e-05
6.1813036e-05	1.6499995e-05	2.0071401e-05
6.1191302e-05	1.6499995e-05	2.0321465e-05
6.0765814e-05	1.6499995e-05	2.0576658e-05
6.0561134e-05	1.6499995e-05	2.0722418e-05
6.0430032e-05	1.6499995e-05	2.0664608e-05
6.0151856e-05	1.6499994e-05	2.0445289e-05
5.9665602e-05	1.6499994e-05	2.0188067e-05
5.9032652e-05	1.6499994e-05	1.9970767e-05
5.8348008e-05	1.6499994e-05	1.9815355e-05
5.7654846e-05	1.6499994e-05	1.9705593e-05
5.6954168e-05	1.6499994e-05	1.9627237e-05
5.6250086e-05	1.6499993e-05	1.9578297e-05
5.5560768e-05	1.6499993e-05	1.9552004e-05
5.4891702e-05	1.6499993e-05	1.9537339e-05
5.423646e-05	1.6499993e-05	1.9527704e-05
5.35896e-05	1.6499993e-05	1.9522232e-05
5.29543e-05	1.6499993e-05	1.9521193e-05
5.233666e-05	1.6499993e-05	1.9519835e-05
5.173008e-05	1.6499992e-05	1.9509234e-05
5.110926e-05	1.6499992e-05	1.9487088e-05
5.045738e-05	1.6499992e-05	1.9465923e-05
4.979088e-05	1.6499992e-05	1.9459086e-05
4.913562e-05	1.6499992e-05	1.9464878e-05
4.849762e-05	1.6499992e-05	1.9474353e-05
4.787044e-05	1.6499992e-05	1.9483642e-05
4.725328e-05	1.6499991e-05	1.9493183e-05
4.6651e-05	1.6499991e-05	1.9500126e-05
4.605896e-05	1.6499991e-05	1.9497668e-05
4.5459e-05	1.6499991e-05	1.94829e-05
4.483294e-05	1.6499991e-05	1.9462204e-05
4.418102e-05	1.6499991e-05	1.9447755e-05
4.35215e-05	1.649999e-05	1.9446507e-05
4.287276e-05	1.649999e-05	1.9456308e-05
4.224234e-05	1.649999e-05	1.9470606e-05
4.162928e-05	1.649999e-05	1.9483837e-05
4.102928e-05	1.649999e-05	1.9491942e-05
4.04349e-05	1.649999e-05	1.949239e-05
3.983688e-05	1.649999e-05	1.9484692e-05
3.92249e-05	1.649999e-05	1.9471071e-05
3.859458e-05	1.649999e-05	1.9457765e-05
3.795218e-05	1.649999e-05	1.9450354e-05
3.7306e-05	1.649999e-05	1.9451306e-05
3.666758e-05	1.649999e-05	1.946116e-05
3.60484e-05	1.6499989e-05	1.9473947e-05
3.54434e-05	1.6499989e-05	1.9481609e-05
3.484056e-05	1.6499989e-05	1.9483234e-05
3.423538e-05	1.6499989e-05	1.9480989e-05
3.362538e-05	1.6499989e-05	1.9475779e-05
3.300796e-05	1.6499989e-05	1.9469498e-05
3.238474e-05	1.6499989e-05	1.9464582e-05
3.175894e-05	1.6499989e-05	1.9461741e-05
3.113168e-05	1.6499989e-05	1.9461461e-05
3.050672e-05	1.6499989e-05	1.9464137e-05
2.988716e-05	1.6499989e-05	1.9467408e-05
2.98871269328e-05	1.6499989e-05	1.9467408e-05
