101
180360
360720
541080
721440
901800
1082160
1262520
1442880
1623240
1803600
1983960
2164320
2344680
2525040
2705400
2885760
3066120
3246480
3426840
3607200
3787560
3967920
4148280
4328640
4509000
4689360
4869720
5050080
5230440
5410800
5591160
5771520
5951880
6132240
6312600
6492960
6673320
6853680
7034040
7214400
7394760
7575120
7755480
7935840
8116200
8296560
8476920
8657280
8837640
9018000
9198360
9378720
9559080
9739440
9919800
10100160
10280520
10460880
10641240
10821600
11001960
11182320
11362680
11543040
11723400
11903760
12084120
12264480
12444840
12625200
12805560
12985920
13166280
13346640
13527000
13707360
13887720
14068080
14248440
14428800
14609160
14789520
14969880
15150240
15330600
15510960
15691320
15871680
16052040
16232400
16412760
16593120
16773480
16953840
17134200
17314560
17494920
17675280
17855640
18036000
18036001
