{
  "experiment_name": "timing",
  "num_ranks": 2,
  "metrics": [
    {
      "identifier": "MPI: particle handling",
      "timers": { "rank_0": 602.97, "rank_1": 751.30 }
    },
    {
      "identifier": "MPI: particle (overhead)",
      "timers": { "rank_0": 1883.86, "rank_1": 1853.92 }
    },
    {
      "identifier": "MPI: particle",
      "timers": { "rank_0": 28622.64, "rank_1": 4625.93 }
    },
    {
      "identifier": "CPU: particle handling",
      "timers": { "rank_0": 4495.43, "rank_1": 3213.73 }
    },
    {
      "identifier": "CPU: particle mapping",
      "timers": { "rank_0": 340685.38, "rank_1": 454562.67 }
    },
    {
      "identifier": "Copy: CPU -> GPU",
      "timers": { "rank_0": 711690.89, "rank_1": 433372.71 }
    },
    {
      "identifier": "CL: PartMapLP",
      "timers": { "rank_0": 318620.33, "rank_1": 456568.64 }
    },
    {
      "identifier": "Copy: GPU -> CPU",
      "timers": { "rank_0": 581258.87, "rank_1": 1396628.10 }
    },
    {
      "identifier": "CL: LEGalilei",
      "timers": { "rank_0": 326977.32, "rank_1": 325887.60 }
    },
    {
      "identifier": "CL: LEShift",
      "timers": { "rank_0": 134645.08, "rank_1": 77116.01 }
    },
    {
      "identifier": "CL: PropagateCollide",
      "timers": { "rank_0": 905021.49, "rank_1": 817513.56 }
    },
    {
      "identifier": "OMP: part ext forces",
      "timers": { "rank_0": 139.50, "rank_1": 115.27 }
    },
    {
      "identifier": "OMP: part int forces",
      "timers": { "rank_0": 30939.34, "rank_1": 39327.09 }
    },
    {
      "identifier": "OMP: part-part forces",
      "timers": { "rank_0": 77718.04, "rank_1": 106963.95 }
    },
    {
      "identifier": "MPI: particle forces (overhead)",
      "timers": { "rank_0": 1968.44, "rank_1": 2058.39 }
    },
    {
      "identifier": "MPI: particle forces",
      "timers": { "rank_0": 9643.46, "rank_1": 296554.26 }
    },
    {
      "identifier": "OMP: particle dynamics",
      "timers": { "rank_0": 33526.76, "rank_1": 34791.56 }
    },
    {
      "identifier": "I/O: output",
      "timers": { "rank_0": 394246.04, "rank_1": 432865.57 }
    },
    {
      "identifier": "ALL: total time",
      "timers": { "rank_0": 7683189.65, "rank_1": 7682780.07 }
    }
  ]
}
