{
  "experiment_name": "timing",
  "num_ranks": 2,
  "metrics": [
    {
      "identifier": "MPI: particle handling",
      "timers": { "rank_0": 472.65, "rank_1": 721.27 }
    },
    {
      "identifier": "MPI: particle (overhead)",
      "timers": { "rank_0": 757.00, "rank_1": 656.80 }
    },
    {
      "identifier": "MPI: particle",
      "timers": { "rank_0": 5013.50, "rank_1": 4707.79 }
    },
    {
      "identifier": "CPU: particle handling",
      "timers": { "rank_0": 2088.28, "rank_1": 1371.72 }
    },
    {
      "identifier": "CPU: particle mapping",
      "timers": { "rank_0": 124276.13, "rank_1": 178194.21 }
    },
    {
      "identifier": "Copy: CPU -> GPU",
      "timers": { "rank_0": 493840.63, "rank_1": 162936.08 }
    },
    {
      "identifier": "CL: PartMapLP",
      "timers": { "rank_0": 107170.39, "rank_1": 148154.87 }
    },
    {
      "identifier": "Copy: GPU -> CPU",
      "timers": { "rank_0": 215493.25, "rank_1": 157885.16 }
    },
    {
      "identifier": "CL: LEGalilei",
      "timers": { "rank_0": 73986.97, "rank_1": 76722.33 }
    },
    {
      "identifier": "CL: LEShift",
      "timers": { "rank_0": 49078.23, "rank_1": 46069.26 }
    },
    {
      "identifier": "CL: PropagateCollide",
      "timers": { "rank_0": 542720.25, "rank_1": 218225.43 }
    },
    {
      "identifier": "OMP: part ext forces",
      "timers": { "rank_0": 145.06, "rank_1": 105.73 }
    },
    {
      "identifier": "OMP: part int forces",
      "timers": { "rank_0": 30501.69, "rank_1": 34799.29 }
    },
    {
      "identifier": "OMP: part-part forces",
      "timers": { "rank_0": 31180.78, "rank_1": 39885.26 }
    },
    {
      "identifier": "MPI: particle forces (overhead)",
      "timers": { "rank_0": 730.67, "rank_1": 672.71 }
    },
    {
      "identifier": "MPI: particle forces",
      "timers": { "rank_0": 7613.97, "rank_1": 438307.55 }
    },
    {
      "identifier": "OMP: particle dynamics",
      "timers": { "rank_0": 31342.30, "rank_1": 27831.61 }
    },
    {
      "identifier": "I/O: output",
      "timers": { "rank_0": 73584.01, "rank_1": 86036.15 }
    },
    {
      "identifier": "ALL: total time",
      "timers": { "rank_0": 3149893.65, "rank_1": 3149627.05 }
    }
  ]
}
