9.0400032e-05	1.65e-05	1.9499953e-05
8.980026e-05	1.65e-05	1.949983e-05
8.9201138e-05	1.65e-05	1.9499429e-05
8.8603138e-05	1.65e-05	1.9498106e-05
8.8004896e-05	1.65e-05	1.9495035e-05
8.7403302e-05	1.65e-05	1.949096e-05
8.6797762e-05	1.65e-05	1.9487832e-05
8.6189616e-05	1.65e-05	1.9486575e-05
8.5579958e-05	1.65e-05	1.9487435e-05
8.4970754e-05	1.65e-05	1.9490412e-05
8.4364572e-05	1.65e-05	1.9494577e-05
8.3762792e-05	1.65e-05	1.9498242e-05
8.3165492e-05	1.65e-05	1.94996e-05
8.2570704e-05	1.65e-05	1.9496874e-05
8.197305e-05	1.65e-05	1.9489881e-05
8.1367518e-05	1.65e-05	1.9481352e-05
8.0753632e-05	1.65e-05	1.9474865e-05
8.0133892e-05	1.65e-05	1.9472599e-05
7.9512392e-05	1.65e-05	1.9475311e-05
7.8894722e-05	1.65e-05	1.9481797e-05
7.828451e-05	1.65e-05	1.9488722e-05
7.7680854e-05	1.65e-05	1.9492611e-05
7.7079638e-05	1.65e-05	1.9491799e-05
7.6476578e-05	1.65e-05	1.9486633e-05
7.5868062e-05	1.65e-05	1.9478394e-05
7.5250166e-05	1.65e-05	1.946938e-05
7.4621128e-05	1.65e-05	1.9463426e-05
7.3985096e-05	1.65e-05	1.9464034e-05
7.3351236e-05	1.65e-05	1.9471347e-05
7.2726882e-05	1.65e-05	1.948107e-05
7.211095e-05	1.65e-05	1.9487916e-05
7.1496742e-05	1.65e-05	1.9489982e-05
7.087952e-05	1.65e-05	1.9488626e-05
7.0258264e-05	1.65e-05	1.9485326e-05
6.9631126e-05	1.65e-05	1.948064e-05
6.8993456e-05	1.65e-05	1.9476362e-05
6.8343126e-05	1.65e-05	1.9476834e-05
6.7687162e-05	1.65e-05	1.9485453e-05
6.7035698e-05	1.65e-05	1.9499754e-05
6.638877e-05	1.65e-05	1.9514359e-05
6.5737726e-05	1.65e-05	1.952765e-05
6.5074718e-05	1.65e-05	1.9542268e-05
6.4395254e-05	1.65e-05	1.9562216e-05
6.369429e-05	1.65e-05	1.9591713e-05
6.2962306e-05	1.65e-05	1.963725e-05
6.218587e-05	1.65e-05	1.97111e-05
6.1355586e-05	1.65e-05	1.9833561e-05
6.0488532e-05	1.65e-05	2.002511e-05
5.9654004e-05	1.65e-05	2.0280279e-05
5.89673e-05	1.65e-05	2.0532984e-05
5.8503226e-05	1.65e-05	2.0671053e-05
5.8187862e-05	1.65e-05	2.0639105e-05
5.7886328e-05	1.65e-05	2.0464037e-05
5.7517076e-05	1.65e-05	2.022422e-05
5.7051394e-05	1.65e-05	1.9981984e-05
5.6498982e-05	1.65e-05	1.9771656e-05
5.5875432e-05	1.65e-05	1.9602717e-05
5.5193776e-05	1.65e-05	1.9475132e-05
5.4471124e-05	1.65e-05	1.9384279e-05
5.372175e-05	1.65e-05	1.9321531e-05
5.2953402e-05	1.65e-05	1.9278194e-05
5.217066e-05	1.65e-05	1.9248285e-05
5.13787e-05	1.65e-05	1.9228419e-05
5.058436e-05	1.65e-05	1.9215214e-05
4.97918e-05	1.65e-05	1.9203392e-05
4.899624e-05	1.65e-05	1.9188168e-05
4.81878e-05	1.65e-05	1.9170496e-05
4.73644e-05	1.65e-05	1.9156204e-05
4.653348e-05	1.65e-05	1.9148972e-05
4.570224e-05	1.65e-05	1.9147755e-05
4.487304e-05	1.65e-05	1.9150119e-05
4.40471e-05	1.65e-05	1.9154816e-05
4.322784e-05	1.65e-05	1.9160667e-05
4.241798e-05	1.65e-05	1.9164499e-05
4.161404e-05	1.65e-05	1.9162612e-05
4.080694e-05	1.65e-05	1.9154543e-05
3.998938e-05	1.65e-05	1.914438e-05
3.916174e-05	1.65e-05	1.9137598e-05
3.83302e-05	1.65e-05	1.9136909e-05
3.750066e-05	1.65e-05	1.9141522e-05
3.66765e-05	1.65e-05	1.9149319e-05
3.58601e-05	1.65e-05	1.9157974e-05
3.505238e-05	1.65e-05	1.9164738e-05
3.42512e-05	1.65e-05	1.9167084e-05
3.345132e-05	1.65e-05	1.9164117e-05
3.264694e-05	1.65e-05	1.9157563e-05
3.183518e-05	1.65e-05	1.9150907e-05
3.10168e-05	1.65e-05	1.914757e-05
3.019602e-05	1.65e-05	1.9149618e-05
2.9379e-05	1.65e-05	1.9156387e-05
2.856954e-05	1.65e-05	1.9164668e-05
2.776702e-05	1.65e-05	1.917145e-05
2.696948e-05	1.65e-05	1.9175328e-05
2.617466e-05	1.65e-05	1.9175815e-05
2.53795e-05	1.65e-05	1.9173418e-05
2.45817e-05	1.65e-05	1.9169676e-05
2.378048e-05	1.65e-05	1.916634e-05
2.297592e-05	1.65e-05	1.9165209e-05
2.217096e-05	1.65e-05	1.916756e-05
2.136976e-05	1.65e-05	1.9172102e-05
2.13697666933e-05	1.65e-05	1.9172102e-05
