100
361
722
1083
1444
1805
2166
2527
2888
3249
3610
3971
4332
4693
5054
5415
5776
6137
6498
6859
7220
7581
7942
8303
8664
9025
9386
9747
10108
10469
10830
11191
11552
11913
12274
12635
12996
13357
13718
14079
14440
14801
15162
15523
15884
16245
16606
16967
17328
17689
18050
18411
18772
19133
19494
19855
20216
20577
20938
21299
21660
22021
22382
22743
23104
23465
23826
24187
24548
24909
25270
25631
25992
26353
26714
27075
27436
27797
28158
28519
28880
29241
29602
29963
30324
30685
31046
31407
31768
32129
32490
32851
33212
33573
33934
34295
34656
35017
35378
35739
36073
