{
    "charge": {
        "type": "none"
    },
    "coating": {
        "type": "none"
    },
    "deform": {
        "type": "rigid"
    },
    "density": {
        "constant": {
            "rho": 1000000.0
        },
        "type": "constant"
    },
    "friction": {
        "standard": {
            "ks": 1.0,
            "muk": 0.7,
            "mus": 0.7
        },
        "type": "standard"
    },
    "magnetic": {
        "type": "none"
    },
    "repulsion": {
        "simple": {
            "c0": 0.0005,
            "dmax": 5e-08
        },
        "type": "simple"
    },
    "shape": {
        "type": "monoball"
    },
    "size": {
        "mono": {
            "diam": 6e-06
        },
        "type": "mono"
    },
    "vdWaals": {
        "type": "none"
    }
}