{
  "experiment_name": "timing",
  "num_ranks": 2,
  "metrics": [
    {
      "identifier": "MPI: particle handling",
      "timers": { "rank_0": 7.45, "rank_1": 10.08 }
    },
    {
      "identifier": "MPI: particle (overhead)",
      "timers": { "rank_0": 29.54, "rank_1": 28.57 }
    },
    {
      "identifier": "MPI: particle",
      "timers": { "rank_0": 64.89, "rank_1": 58.40 }
    },
    {
      "identifier": "CPU: particle handling",
      "timers": { "rank_0": 59.45, "rank_1": 49.71 }
    },
    {
      "identifier": "CPU: particle mapping",
      "timers": { "rank_0": 3378.65, "rank_1": 5866.53 }
    },
    {
      "identifier": "Copy: CPU -> GPU",
      "timers": { "rank_0": 10938.75, "rank_1": 5627.77 }
    },
    {
      "identifier": "CL: PartMapLP",
      "timers": { "rank_0": 3132.70, "rank_1": 6107.78 }
    },
    {
      "identifier": "Copy: GPU -> CPU",
      "timers": { "rank_0": 9241.46, "rank_1": 9326.05 }
    },
    {
      "identifier": "CL: LEGalilei",
      "timers": { "rank_0": 2095.08, "rank_1": 2163.37 }
    },
    {
      "identifier": "CL: LEShift",
      "timers": { "rank_0": 932.32, "rank_1": 642.56 }
    },
    {
      "identifier": "CL: PropagateCollide",
      "timers": { "rank_0": 12019.92, "rank_1": 12176.35 }
    },
    {
      "identifier": "OMP: part ext forces",
      "timers": { "rank_0": 1.58, "rank_1": 1.48 }
    },
    {
      "identifier": "OMP: part int forces",
      "timers": { "rank_0": 434.94, "rank_1": 505.53 }
    },
    {
      "identifier": "OMP: part-part forces",
      "timers": { "rank_0": 1531.29, "rank_1": 1835.48 }
    },
    {
      "identifier": "MPI: particle forces (overhead)",
      "timers": { "rank_0": 32.20, "rank_1": 33.02 }
    },
    {
      "identifier": "MPI: particle forces",
      "timers": { "rank_0": 184.60, "rank_1": 3408.22 }
    },
    {
      "identifier": "OMP: particle dynamics",
      "timers": { "rank_0": 410.92, "rank_1": 439.01 }
    },
    {
      "identifier": "I/O: output",
      "timers": { "rank_0": 589483.95, "rank_1": 634640.12 }
    },
    {
      "identifier": "ALL: total time",
      "timers": { "rank_0": 705068.09, "rank_1": 705031.21 }
    }
  ]
}
