{
  "experiment_name": "timing",
  "num_ranks": 2,
  "metrics": [
    {
      "identifier": "MPI: particle handling",
      "timers": { "rank_0": 3126.93, "rank_1": 3350.95 }
    },
    {
      "identifier": "MPI: particle (overhead)",
      "timers": { "rank_0": 63861.34, "rank_1": 40500.40 }
    },
    {
      "identifier": "MPI: particle",
      "timers": { "rank_0": 126443.45, "rank_1": 185954.37 }
    },
    {
      "identifier": "CPU: particle handling",
      "timers": { "rank_0": 61998.74, "rank_1": 61205.74 }
    },
    {
      "identifier": "CPU: particle mapping",
      "timers": { "rank_0": 6462783.45, "rank_1": 6280173.01 }
    },
    {
      "identifier": "Copy: CPU -> GPU",
      "timers": { "rank_0": 9244574.81, "rank_1": 8993268.38 }
    },
    {
      "identifier": "CL: PartMapLP",
      "timers": { "rank_0": 6247185.57, "rank_1": 6070453.28 }
    },
    {
      "identifier": "Copy: GPU -> CPU",
      "timers": { "rank_0": 31471500.22, "rank_1": 31045986.52 }
    },
    {
      "identifier": "CL: LEGalilei",
      "timers": { "rank_0": 1024377.75, "rank_1": 1030387.21 }
    },
    {
      "identifier": "CL: LEShift",
      "timers": { "rank_0": 974220.15, "rank_1": 961203.68 }
    },
    {
      "identifier": "CL: PropagateCollide",
      "timers": { "rank_0": 24388165.64, "rank_1": 23467281.79 }
    },
    {
      "identifier": "OMP: part ext forces",
      "timers": { "rank_0": 1248.36, "rank_1": 1276.49 }
    },
    {
      "identifier": "OMP: part int forces",
      "timers": { "rank_0": 313960.64, "rank_1": 316209.39 }
    },
    {
      "identifier": "OMP: part-part forces",
      "timers": { "rank_0": 1706310.85, "rank_1": 1713388.45 }
    },
    {
      "identifier": "MPI: particle forces (overhead)",
      "timers": { "rank_0": 36488.49, "rank_1": 63227.09 }
    },
    {
      "identifier": "MPI: particle forces",
      "timers": { "rank_0": 151327.56, "rank_1": 5333650.06 }
    },
    {
      "identifier": "OMP: particle dynamics",
      "timers": { "rank_0": 324523.15, "rank_1": 252821.02 }
    },
    {
      "identifier": "I/O: output",
      "timers": { "rank_0": 751710.75, "rank_1": 753553.08 }
    },
    {
      "identifier": "ALL: total time",
      "timers": { "rank_0": 168660433.00, "rank_1": 168660416.12 }
    }
  ]
}
