{
  "experiment_name": "timing",
  "num_ranks": 2,
  "metrics": [
    {
      "identifier": "MPI: particle handling",
      "timers": { "rank_0": 6.52, "rank_1": 10.75 }
    },
    {
      "identifier": "MPI: particle (overhead)",
      "timers": { "rank_0": 24.77, "rank_1": 23.11 }
    },
    {
      "identifier": "MPI: particle",
      "timers": { "rank_0": 62.55, "rank_1": 52.52 }
    },
    {
      "identifier": "CPU: particle handling",
      "timers": { "rank_0": 49.85, "rank_1": 39.85 }
    },
    {
      "identifier": "CPU: particle mapping",
      "timers": { "rank_0": 3343.10, "rank_1": 3521.16 }
    },
    {
      "identifier": "Copy: CPU -> GPU",
      "timers": { "rank_0": 7557.05, "rank_1": 3285.16 }
    },
    {
      "identifier": "CL: PartMapLP",
      "timers": { "rank_0": 3094.68, "rank_1": 6201.90 }
    },
    {
      "identifier": "Copy: GPU -> CPU",
      "timers": { "rank_0": 10078.70, "rank_1": 9676.41 }
    },
    {
      "identifier": "CL: LEGalilei",
      "timers": { "rank_0": 2599.83, "rank_1": 2338.18 }
    },
    {
      "identifier": "CL: LEShift",
      "timers": { "rank_0": 590.37, "rank_1": 699.92 }
    },
    {
      "identifier": "CL: PropagateCollide",
      "timers": { "rank_0": 12082.68, "rank_1": 11952.87 }
    },
    {
      "identifier": "OMP: part ext forces",
      "timers": { "rank_0": 1.64, "rank_1": 1.18 }
    },
    {
      "identifier": "OMP: part int forces",
      "timers": { "rank_0": 393.07, "rank_1": 409.22 }
    },
    {
      "identifier": "OMP: part-part forces",
      "timers": { "rank_0": 1269.17, "rank_1": 1354.52 }
    },
    {
      "identifier": "MPI: particle forces (overhead)",
      "timers": { "rank_0": 27.76, "rank_1": 25.72 }
    },
    {
      "identifier": "MPI: particle forces",
      "timers": { "rank_0": 95.33, "rank_1": 3761.97 }
    },
    {
      "identifier": "OMP: particle dynamics",
      "timers": { "rank_0": 372.73, "rank_1": 335.10 }
    },
    {
      "identifier": "I/O: output",
      "timers": { "rank_0": 599746.13, "rank_1": 629544.99 }
    },
    {
      "identifier": "ALL: total time",
      "timers": { "rank_0": 696143.16, "rank_1": 696032.64 }
    }
  ]
}
