4.6400042e-05	1.65e-05	1.9499861e-05
4.7300376e-05	1.65e-05	1.9499407e-05
4.8201475e-05	1.65e-05	1.949787e-05
4.9102458e-05	1.65e-05	1.9493585e-05
4.9999327e-05	1.65e-05	1.9486842e-05
5.0891275e-05	1.65e-05	1.9483098e-05
5.1782697e-05	1.65e-05	1.9484181e-05
5.2675419e-05	1.65e-05	1.9488703e-05
5.3570727e-05	1.65e-05	1.9496385e-05
5.4471247e-05	1.65e-05	1.9505368e-05
5.5376749e-05	1.65e-05	1.9511481e-05
5.6284736e-05	1.65e-05	1.9512551e-05
5.7192955e-05	1.65e-05	1.950701e-05
5.8096146e-05	1.65e-05	1.9494359e-05
5.8988974e-05	1.65e-05	1.9480342e-05
5.9873696e-05	1.65e-05	1.9473333e-05
6.0756856e-05	1.65e-05	1.9476034e-05
6.1643706e-05	1.65e-05	1.9487666e-05
6.253978e-05	1.65e-05	1.9504767e-05
6.3446936e-05	1.65e-05	1.9518933e-05
6.4359516e-05	1.65e-05	1.9523511e-05
6.5270315e-05	1.65e-05	1.951818e-05
6.6174983e-05	1.65e-05	1.9506764e-05
6.7072511e-05	1.65e-05	1.949317e-05
6.7961736e-05	1.65e-05	1.9480186e-05
6.8842069e-05	1.65e-05	1.9473868e-05
6.9719601e-05	1.65e-05	1.9481258e-05
7.0605998e-05	1.65e-05	1.9501624e-05
7.150858e-05	1.65e-05	1.9523302e-05
7.242098e-05	1.65e-05	1.9533151e-05
7.333056e-05	1.65e-05	1.9530319e-05
7.423186e-05	1.65e-05	1.9522688e-05
7.5127649e-05	1.65e-05	1.951589e-05
7.6019832e-05	1.65e-05	1.9509044e-05
7.6905087e-05	1.65e-05	1.9502397e-05
7.7781127e-05	1.65e-05	1.9503e-05
7.8655809e-05	1.65e-05	1.9519486e-05
7.9542691e-05	1.65e-05	1.954643e-05
8.0440693e-05	1.65e-05	1.9568034e-05
8.1335509e-05	1.65e-05	1.9580742e-05
8.2219946e-05	1.65e-05	1.9593612e-05
8.3095146e-05	1.65e-05	1.9615244e-05
8.3963035e-05	1.65e-05	1.9649955e-05
8.4821656e-05	1.65e-05	1.9702781e-05
8.5668569e-05	1.65e-05	1.9785513e-05
8.6508264e-05	1.65e-05	1.9918061e-05
8.7364562e-05	1.65e-05	2.0118834e-05
8.8285827e-05	1.65e-05	2.0374535e-05
8.9310295e-05	1.65e-05	2.0619359e-05
9.0432962e-05	1.65e-05	2.0734687e-05
9.1561237e-05	1.65e-05	2.0642942e-05
9.2595694e-05	1.65e-05	2.0410702e-05
9.3528081e-05	1.65e-05	2.0160709e-05
9.4399767e-05	1.65e-05	1.9958775e-05
9.525712e-05	1.65e-05	1.9816215e-05
9.6115066e-05	1.65e-05	1.9714838e-05
9.6970396e-05	1.65e-05	1.9644031e-05
9.7827256e-05	1.65e-05	1.9602221e-05
9.8693953e-05	1.65e-05	1.9580692e-05
9.9571123e-05	1.65e-05	1.9568236e-05
0.00010045479	1.65e-05	1.9559835e-05
0.00010134271	1.65e-05	1.9555622e-05
0.00010223746	1.65e-05	1.955493e-05
0.00010314146	1.65e-05	1.9551372e-05
0.00010404823	1.65e-05	1.9536049e-05
0.00010494333	1.65e-05	1.9511257e-05
0.00010582286	1.65e-05	1.9493249e-05
0.00010669948	1.65e-05	1.9491624e-05
0.00010758431	1.65e-05	1.9500093e-05
0.00010847747	1.65e-05	1.9510086e-05
0.00010937545	1.65e-05	1.951946e-05
0.00011027903	1.65e-05	1.9528624e-05
0.00011119036	1.65e-05	1.9532907e-05
0.00011210459	1.65e-05	1.9525463e-05
0.00011301077	1.65e-05	1.9506219e-05
0.00011390193	1.65e-05	1.9485808e-05
0.00011478286	1.65e-05	1.9475613e-05
0.00011566349	1.65e-05	1.9478761e-05
0.00011655128	1.65e-05	1.9490954e-05
0.00011744851	1.65e-05	1.9505726e-05
0.00011835408	1.65e-05	1.9517853e-05
0.00011926518	1.65e-05	1.9523363e-05
0.00012017747	1.65e-05	1.9520279e-05
0.0001210857	1.65e-05	1.9509094e-05
0.00012198497	1.65e-05	1.9494278e-05
0.00012287591	1.65e-05	1.9483064e-05
0.00012376294	1.65e-05	1.9478614e-05
0.00012464953	1.65e-05	1.9482259e-05
0.00012554168	1.65e-05	1.9493718e-05
0.00012644382	1.65e-05	1.9505656e-05
0.00012735112	1.65e-05	1.9511114e-05
0.000128258	1.65e-05	1.951094e-05
0.00012916308	1.65e-05	1.9507228e-05
0.00013006499	1.65e-05	1.9501286e-05
0.00013096326	1.65e-05	1.9495683e-05
0.00013185967	1.65e-05	1.9492121e-05
0.0001327554	1.65e-05	1.949024e-05
0.00013365062	1.65e-05	1.9490458e-05
0.0001345471	1.65e-05	1.9492919e-05
0.00013544569	1.65e-05	1.9495583e-05
0.00013544569	1.65e-05	1.9495583e-05
