{
  "experiment_name": "timing",
  "num_ranks": 2,
  "metrics": [
    {
      "identifier": "MPI: particle handling",
      "timers": { "rank_0": 3.91, "rank_1": 3.80 }
    },
    {
      "identifier": "MPI: particle (overhead)",
      "timers": { "rank_0": 5.67, "rank_1": 5.76 }
    },
    {
      "identifier": "MPI: particle",
      "timers": { "rank_0": 176.14, "rank_1": 24.54 }
    },
    {
      "identifier": "CPU: particle handling",
      "timers": { "rank_0": 19.80, "rank_1": 29.68 }
    },
    {
      "identifier": "CPU: particle mapping",
      "timers": { "rank_0": 561.46, "rank_1": 432.42 }
    },
    {
      "identifier": "Copy: CPU -> GPU",
      "timers": { "rank_0": 872.68, "rank_1": 372.72 }
    },
    {
      "identifier": "CL: PartMapLP",
      "timers": { "rank_0": 506.45, "rank_1": 717.11 }
    },
    {
      "identifier": "Copy: GPU -> CPU",
      "timers": { "rank_0": 1235.66, "rank_1": 1903.08 }
    },
    {
      "identifier": "CL: LEGalilei",
      "timers": { "rank_0": 208.68, "rank_1": 221.61 }
    },
    {
      "identifier": "CL: LEShift",
      "timers": { "rank_0": 173.63, "rank_1": 171.64 }
    },
    {
      "identifier": "CL: PropagateCollide",
      "timers": { "rank_0": 3351.12, "rank_1": 1233.16 }
    },
    {
      "identifier": "OMP: part ext forces",
      "timers": { "rank_0": 1.23, "rank_1": 1.55 }
    },
    {
      "identifier": "OMP: part int forces",
      "timers": { "rank_0": 197.04, "rank_1": 189.09 }
    },
    {
      "identifier": "OMP: part-part forces",
      "timers": { "rank_0": 361.00, "rank_1": 361.14 }
    },
    {
      "identifier": "MPI: particle forces (overhead)",
      "timers": { "rank_0": 6.77, "rank_1": 6.63 }
    },
    {
      "identifier": "MPI: particle forces",
      "timers": { "rank_0": 278.21, "rank_1": 2516.41 }
    },
    {
      "identifier": "OMP: particle dynamics",
      "timers": { "rank_0": 234.68, "rank_1": 163.02 }
    },
    {
      "identifier": "I/O: output",
      "timers": { "rank_0": 55668.51, "rank_1": 55700.64 }
    },
    {
      "identifier": "ALL: total time",
      "timers": { "rank_0": 71200.08, "rank_1": 71218.61 }
    }
  ]
}
