{
  "experiment_name": "timing",
  "num_ranks": 2,
  "metrics": [
    {
      "identifier": "MPI: particle handling",
      "timers": { "rank_0": 14596.63, "rank_1": 19428.43 }
    },
    {
      "identifier": "MPI: particle (overhead)",
      "timers": { "rank_0": 42221.88, "rank_1": 62322.97 }
    },
    {
      "identifier": "MPI: particle",
      "timers": { "rank_0": 195759.83, "rank_1": 123360.37 }
    },
    {
      "identifier": "CPU: particle handling",
      "timers": { "rank_0": 143404.36, "rank_1": 120774.53 }
    },
    {
      "identifier": "CPU: particle mapping",
      "timers": { "rank_0": 2080.75, "rank_1": 1900.64 }
    },
    {
      "identifier": "Copy: CPU -> GPU",
      "timers": { "rank_0": 3396.58, "rank_1": 1738.91 }
    },
    {
      "identifier": "CL: PartMapLP",
      "timers": { "rank_0": 1954.94, "rank_1": 3354.18 }
    },
    {
      "identifier": "Copy: GPU -> CPU",
      "timers": { "rank_0": 4689.81, "rank_1": 4700.23 }
    },
    {
      "identifier": "CL: LEGalilei",
      "timers": { "rank_0": 456.41, "rank_1": 504.40 }
    },
    {
      "identifier": "CL: LEShift",
      "timers": { "rank_0": 371.70, "rank_1": 415.06 }
    },
    {
      "identifier": "CL: PropagateCollide",
      "timers": { "rank_0": 8782.90, "rank_1": 6367.73 }
    },
    {
      "identifier": "OMP: part ext forces",
      "timers": { "rank_0": 4793.27, "rank_1": 5692.80 }
    },
    {
      "identifier": "OMP: part int forces",
      "timers": { "rank_0": 912913.13, "rank_1": 1597893.75 }
    },
    {
      "identifier": "OMP: part-part forces",
      "timers": { "rank_0": 3250869.49, "rank_1": 5047513.23 }
    },
    {
      "identifier": "MPI: particle forces (overhead)",
      "timers": { "rank_0": 65338.86, "rank_1": 74025.27 }
    },
    {
      "identifier": "MPI: particle forces",
      "timers": { "rank_0": 2645965.30, "rank_1": 136818.32 }
    },
    {
      "identifier": "OMP: particle dynamics",
      "timers": { "rank_0": 1138942.09, "rank_1": 1554129.46 }
    },
    {
      "identifier": "I/O: output",
      "timers": { "rank_0": 169066.50, "rank_1": 304476.70 }
    },
    {
      "identifier": "ALL: total time",
      "timers": { "rank_0": 10345234.02, "rank_1": 10343471.58 }
    }
  ]
}
