{
  "experiment_name": "timing",
  "num_ranks": 2,
  "metrics": [
    {
      "identifier": "MPI: particle handling",
      "timers": { "rank_0": 2645.89, "rank_1": 2483.07 }
    },
    {
      "identifier": "MPI: particle (overhead)",
      "timers": { "rank_0": 10694.88, "rank_1": 9073.30 }
    },
    {
      "identifier": "MPI: particle",
      "timers": { "rank_0": 28145.09, "rank_1": 40948.85 }
    },
    {
      "identifier": "CPU: particle handling",
      "timers": { "rank_0": 35588.99, "rank_1": 24750.79 }
    },
    {
      "identifier": "CPU: particle mapping",
      "timers": { "rank_0": 2482493.97, "rank_1": 2072631.74 }
    },
    {
      "identifier": "Copy: CPU -> GPU",
      "timers": { "rank_0": 4086495.52, "rank_1": 1953399.44 }
    },
    {
      "identifier": "CL: PartMapLP",
      "timers": { "rank_0": 2356293.00, "rank_1": 3761564.41 }
    },
    {
      "identifier": "Copy: GPU -> CPU",
      "timers": { "rank_0": 4649909.34, "rank_1": 4280108.67 }
    },
    {
      "identifier": "CL: LEGalilei",
      "timers": { "rank_0": 487009.07, "rank_1": 500080.79 }
    },
    {
      "identifier": "CL: LEShift",
      "timers": { "rank_0": 366021.09, "rank_1": 364213.59 }
    },
    {
      "identifier": "CL: PropagateCollide",
      "timers": { "rank_0": 9667922.49, "rank_1": 8232191.02 }
    },
    {
      "identifier": "OMP: part ext forces",
      "timers": { "rank_0": 1082.03, "rank_1": 692.44 }
    },
    {
      "identifier": "OMP: part int forces",
      "timers": { "rank_0": 193631.23, "rank_1": 178918.05 }
    },
    {
      "identifier": "OMP: part-part forces",
      "timers": { "rank_0": 626908.24, "rank_1": 619406.57 }
    },
    {
      "identifier": "MPI: particle forces (overhead)",
      "timers": { "rank_0": 11824.30, "rank_1": 14847.48 }
    },
    {
      "identifier": "MPI: particle forces",
      "timers": { "rank_0": 56854.37, "rank_1": 3723582.49 }
    },
    {
      "identifier": "OMP: particle dynamics",
      "timers": { "rank_0": 192011.59, "rank_1": 150014.13 }
    },
    {
      "identifier": "I/O: output",
      "timers": { "rank_0": 223546.00, "rank_1": 223532.16 }
    },
    {
      "identifier": "ALL: total time",
      "timers": { "rank_0": 44125231.85, "rank_1": 44125231.75 }
    }
  ]
}
