{
  "experiment_name": "timing",
  "num_ranks": 2,
  "metrics": [
    {
      "identifier": "MPI: particle handling",
      "timers": { "rank_0": 323.12, "rank_1": 289.41 }
    },
    {
      "identifier": "MPI: particle (overhead)",
      "timers": { "rank_0": 881.42, "rank_1": 757.60 }
    },
    {
      "identifier": "MPI: particle",
      "timers": { "rank_0": 2805.92, "rank_1": 4282.50 }
    },
    {
      "identifier": "CPU: particle handling",
      "timers": { "rank_0": 3179.20, "rank_1": 2231.33 }
    },
    {
      "identifier": "CPU: particle mapping",
      "timers": { "rank_0": 204620.71, "rank_1": 165840.72 }
    },
    {
      "identifier": "Copy: CPU -> GPU",
      "timers": { "rank_0": 333037.63, "rank_1": 154584.84 }
    },
    {
      "identifier": "CL: PartMapLP",
      "timers": { "rank_0": 192675.92, "rank_1": 300426.67 }
    },
    {
      "identifier": "Copy: GPU -> CPU",
      "timers": { "rank_0": 511937.34, "rank_1": 335873.52 }
    },
    {
      "identifier": "CL: LEGalilei",
      "timers": { "rank_0": 43478.13, "rank_1": 43937.24 }
    },
    {
      "identifier": "CL: LEShift",
      "timers": { "rank_0": 35913.20, "rank_1": 35292.26 }
    },
    {
      "identifier": "CL: PropagateCollide",
      "timers": { "rank_0": 845226.48, "rank_1": 632368.44 }
    },
    {
      "identifier": "OMP: part ext forces",
      "timers": { "rank_0": 102.03, "rank_1": 70.99 }
    },
    {
      "identifier": "OMP: part int forces",
      "timers": { "rank_0": 19274.93, "rank_1": 18178.70 }
    },
    {
      "identifier": "OMP: part-part forces",
      "timers": { "rank_0": 51597.74, "rank_1": 51653.40 }
    },
    {
      "identifier": "MPI: particle forces (overhead)",
      "timers": { "rank_0": 973.92, "rank_1": 1223.05 }
    },
    {
      "identifier": "MPI: particle forces",
      "timers": { "rank_0": 5982.03, "rank_1": 406187.79 }
    },
    {
      "identifier": "OMP: particle dynamics",
      "timers": { "rank_0": 19382.77, "rank_1": 13565.48 }
    },
    {
      "identifier": "I/O: output",
      "timers": { "rank_0": 168372.78, "rank_1": 168465.91 }
    },
    {
      "identifier": "ALL: total time",
      "timers": { "rank_0": 4152080.56, "rank_1": 4152080.66 }
    }
  ]
}
