{
  "experiment_name": "timing",
  "num_ranks": 2,
  "metrics": [
    {
      "identifier": "MPI: particle handling",
      "timers": { "rank_0": 27.37, "rank_1": 28.37 }
    },
    {
      "identifier": "MPI: particle (overhead)",
      "timers": { "rank_0": 107.44, "rank_1": 92.05 }
    },
    {
      "identifier": "MPI: particle",
      "timers": { "rank_0": 288.30, "rank_1": 425.58 }
    },
    {
      "identifier": "CPU: particle handling",
      "timers": { "rank_0": 368.25, "rank_1": 281.72 }
    },
    {
      "identifier": "CPU: particle mapping",
      "timers": { "rank_0": 25276.82, "rank_1": 20778.55 }
    },
    {
      "identifier": "Copy: CPU -> GPU",
      "timers": { "rank_0": 41438.46, "rank_1": 19579.30 }
    },
    {
      "identifier": "CL: PartMapLP",
      "timers": { "rank_0": 24030.03, "rank_1": 37882.79 }
    },
    {
      "identifier": "Copy: GPU -> CPU",
      "timers": { "rank_0": 49167.13, "rank_1": 44691.71 }
    },
    {
      "identifier": "CL: LEGalilei",
      "timers": { "rank_0": 4972.55, "rank_1": 5037.31 }
    },
    {
      "identifier": "CL: LEShift",
      "timers": { "rank_0": 3735.46, "rank_1": 3632.27 }
    },
    {
      "identifier": "CL: PropagateCollide",
      "timers": { "rank_0": 98211.95, "rank_1": 82415.27 }
    },
    {
      "identifier": "OMP: part ext forces",
      "timers": { "rank_0": 11.04, "rank_1": 7.85 }
    },
    {
      "identifier": "OMP: part int forces",
      "timers": { "rank_0": 1946.49, "rank_1": 1841.47 }
    },
    {
      "identifier": "OMP: part-part forces",
      "timers": { "rank_0": 6256.23, "rank_1": 6203.64 }
    },
    {
      "identifier": "MPI: particle forces (overhead)",
      "timers": { "rank_0": 115.27, "rank_1": 145.37 }
    },
    {
      "identifier": "MPI: particle forces",
      "timers": { "rank_0": 598.40, "rank_1": 39042.34 }
    },
    {
      "identifier": "OMP: particle dynamics",
      "timers": { "rank_0": 1960.48, "rank_1": 1427.41 }
    },
    {
      "identifier": "I/O: output",
      "timers": { "rank_0": 220069.50, "rank_1": 219717.11 }
    },
    {
      "identifier": "ALL: total time",
      "timers": { "rank_0": 661047.37, "rank_1": 661171.54 }
    }
  ]
}
