{
    "charge": {
        "type": "none"
    },
    "coating": {
        "type": "none"
    },
    "deform": {
        "type": "rigid"
    },
    "density": {
        "constant": {
            "rho": 2000.0
        },
        "type": "constant"
    },
    "friction": {
        "type": "standard",
	"standard": {
	    "ks": 1.0,
 	    "mus": 0.7,
  	    "muk": 0.7
	}
    },
    "magnetic": {
        "type": "none"
    },
    "repulsion": {
        "type": "simple",
        "simple": {
            "c0": 5e-4,
            "dmax": 5e-8
        }
    },
    "shape": {
        "type": "monoball"
    },
    "size": {
        "mono": {
            "diam": 6e-06
        },
        "type": "mono"
    },
    "vdWaals": {
        "type": "none"
    }
}
