{
  "experiment_name": "timing",
  "num_ranks": 2,
  "metrics": [
    {
      "identifier": "MPI: particle handling",
      "timers": { "rank_0": 64.89, "rank_1": 123.78 }
    },
    {
      "identifier": "MPI: particle (overhead)",
      "timers": { "rank_0": 1158.66, "rank_1": 709.99 }
    },
    {
      "identifier": "MPI: particle",
      "timers": { "rank_0": 2130.10, "rank_1": 3117.77 }
    },
    {
      "identifier": "CPU: particle handling",
      "timers": { "rank_0": 1010.01, "rank_1": 1057.56 }
    },
    {
      "identifier": "CPU: particle mapping",
      "timers": { "rank_0": 76415.91, "rank_1": 71012.93 }
    },
    {
      "identifier": "Copy: CPU -> GPU",
      "timers": { "rank_0": 142218.04, "rank_1": 140312.87 }
    },
    {
      "identifier": "CL: PartMapLP",
      "timers": { "rank_0": 73211.11, "rank_1": 67810.63 }
    },
    {
      "identifier": "Copy: GPU -> CPU",
      "timers": { "rank_0": 364134.59, "rank_1": 331896.70 }
    },
    {
      "identifier": "CL: LEGalilei",
      "timers": { "rank_0": 22451.81, "rank_1": 26674.64 }
    },
    {
      "identifier": "CL: LEShift",
      "timers": { "rank_0": 13445.46, "rank_1": 14652.93 }
    },
    {
      "identifier": "CL: PropagateCollide",
      "timers": { "rank_0": 244541.21, "rank_1": 234096.50 }
    },
    {
      "identifier": "OMP: part ext forces",
      "timers": { "rank_0": 19.29, "rank_1": 19.20 }
    },
    {
      "identifier": "OMP: part int forces",
      "timers": { "rank_0": 6147.41, "rank_1": 6630.64 }
    },
    {
      "identifier": "OMP: part-part forces",
      "timers": { "rank_0": 25628.07, "rank_1": 28352.38 }
    },
    {
      "identifier": "MPI: particle forces (overhead)",
      "timers": { "rank_0": 599.67, "rank_1": 1194.27 }
    },
    {
      "identifier": "MPI: particle forces",
      "timers": { "rank_0": 2498.05, "rank_1": 54104.14 }
    },
    {
      "identifier": "OMP: particle dynamics",
      "timers": { "rank_0": 4820.10, "rank_1": 4753.90 }
    },
    {
      "identifier": "I/O: output",
      "timers": { "rank_0": 1232462.64, "rank_1": 1263055.11 }
    },
    {
      "identifier": "ALL: total time",
      "timers": { "rank_0": 3222606.80, "rank_1": 3222196.60 }
    }
  ]
}
