6.0200929e-05	1.65e-05	1.5495899e-05
5.9900557e-05	1.65e-05	1.5497684e-05
5.9606716e-05	1.65e-05	1.5502151e-05
5.9317602e-05	1.65e-05	1.5501226e-05
5.9023848e-05	1.65e-05	1.5494359e-05
5.8722906e-05	1.65e-05	1.5489587e-05
5.8423175e-05	1.65e-05	1.5492844e-05
5.813135e-05	1.65e-05	1.549727e-05
5.7842034e-05	1.65e-05	1.5493129e-05
5.7545239e-05	1.65e-05	1.5483933e-05
5.7242801e-05	1.65e-05	1.5481687e-05
5.694521e-05	1.65e-05	1.5485992e-05
5.6654895e-05	1.65e-05	1.5486551e-05
5.6363442e-05	1.65e-05	1.5478979e-05
5.6063857e-05	1.65e-05	1.5470654e-05
5.5761879e-05	1.65e-05	1.5469082e-05
5.5465837e-05	1.65e-05	1.5471217e-05
5.5175475e-05	1.65e-05	1.5468722e-05
5.4881596e-05	1.65e-05	1.5457619e-05
5.4579454e-05	1.65e-05	1.544767e-05
5.4277738e-05	1.65e-05	1.5445557e-05
5.3983501e-05	1.65e-05	1.5444244e-05
5.3692056e-05	1.65e-05	1.5433962e-05
5.3393481e-05	1.65e-05	1.5417853e-05
5.3090235e-05	1.65e-05	1.5405965e-05
5.2790894e-05	1.65e-05	1.5397438e-05
5.2495743e-05	1.65e-05	1.5384712e-05
5.2200399e-05	1.65e-05	1.5363655e-05
5.1900421e-05	1.65e-05	1.53362e-05
5.1597638e-05	1.65e-05	1.5309032e-05
5.129832e-05	1.65e-05	1.5281086e-05
5.1004345e-05	1.65e-05	1.5242005e-05
5.0709435e-05	1.65e-05	1.5185108e-05
5.0409622e-05	1.65e-05	1.5116531e-05
5.0114153e-05	1.65e-05	1.5035487e-05
4.9829262e-05	1.65e-05	1.4924328e-05
4.9546464e-05	1.65e-05	1.4771364e-05
4.9266656e-05	1.65e-05	1.4561889e-05
4.8982716e-05	1.65e-05	1.4283905e-05
4.86562e-05	1.65e-05	1.3938727e-05
4.8248325e-05	1.65e-05	1.353267e-05
4.7698666e-05	1.65e-05	1.3102807e-05
4.6969752e-05	1.65e-05	1.2728717e-05
4.6053893e-05	1.65e-05	1.2490818e-05
4.5015623e-05	1.65e-05	1.2478106e-05
4.4074811e-05	1.65e-05	1.2697257e-05
4.333055e-05	1.65e-05	1.305628e-05
4.2713167e-05	1.65e-05	1.3444258e-05
4.2193337e-05	1.65e-05	1.3778992e-05
4.170535e-05	1.65e-05	1.4028565e-05
4.1218374e-05	1.65e-05	1.4205918e-05
4.0730805e-05	1.65e-05	1.4333448e-05
4.023437e-05	1.65e-05	1.4418232e-05
3.9728719e-05	1.65e-05	1.4474806e-05
3.9209185e-05	1.65e-05	1.4515385e-05
3.8682983e-05	1.65e-05	1.4550965e-05
3.8158686e-05	1.65e-05	1.4580988e-05
3.7634251e-05	1.65e-05	1.4598193e-05
3.710284e-05	1.65e-05	1.4607048e-05
3.656265e-05	1.65e-05	1.4615939e-05
3.6023169e-05	1.65e-05	1.4631074e-05
3.5490407e-05	1.65e-05	1.4643041e-05
3.4957851e-05	1.65e-05	1.4646213e-05
3.4417217e-05	1.65e-05	1.4644308e-05
3.3870491e-05	1.65e-05	1.4648916e-05
3.3328799e-05	1.65e-05	1.4658892e-05
3.2793782e-05	1.65e-05	1.4665397e-05
3.2257255e-05	1.65e-05	1.4662766e-05
3.1711703e-05	1.65e-05	1.465958e-05
3.1164354e-05	1.65e-05	1.4663886e-05
3.0622727e-05	1.65e-05	1.4671445e-05
3.0086699e-05	1.65e-05	1.4674242e-05
2.9546434e-05	1.65e-05	1.4669742e-05
2.8999742e-05	1.65e-05	1.4668111e-05
2.8453275e-05	1.65e-05	1.4671675e-05
2.7912368e-05	1.65e-05	1.467741e-05
2.7374151e-05	1.65e-05	1.4677177e-05
2.6831668e-05	1.65e-05	1.4674224e-05
2.6285852e-05	1.65e-05	1.4673104e-05
2.5740665e-05	1.65e-05	1.4675986e-05
2.5199353e-05	1.65e-05	1.467882e-05
2.4658512e-05	1.65e-05	1.4678439e-05
2.4116124e-05	1.65e-05	1.4677075e-05
2.3571733e-05	1.65e-05	1.4675758e-05
2.3027514e-05	1.65e-05	1.4676796e-05
2.2484135e-05	1.65e-05	1.4677659e-05
2.1942236e-05	1.65e-05	1.4679308e-05
2.1401221e-05	1.65e-05	1.4678141e-05
2.0858375e-05	1.65e-05	1.4676152e-05
2.0313401e-05	1.65e-05	1.4674264e-05
1.9767999e-05	1.65e-05	1.4676176e-05
1.9226978e-05	1.65e-05	1.4678867e-05
1.8687791e-05	1.65e-05	1.467741e-05
1.8145682e-05	1.65e-05	1.4672804e-05
1.7598536e-05	1.65e-05	1.4669886e-05
1.7053146e-05	1.65e-05	1.4673445e-05
1.6514042e-05	1.65e-05	1.4676098e-05
1.5976835e-05	1.65e-05	1.4673057e-05
1.5433687e-05	1.65e-05	1.4665311e-05
1.488543e-05	1.65e-05	1.4663651e-05
1.4885415e-05	1.65e-05	1.4663652e-05
