7.5198623e-05	1.65e-05	1.5491839e-05
7.4891458e-05	1.65e-05	1.5489818e-05
7.4589168e-05	1.65e-05	1.5497057e-05
7.4296508e-05	1.65e-05	1.5506948e-05
7.4011853e-05	1.65e-05	1.5510555e-05
7.3725745e-05	1.65e-05	1.5501005e-05
7.3427476e-05	1.65e-05	1.5486689e-05
7.3120486e-05	1.65e-05	1.54816e-05
7.281665e-05	1.65e-05	1.5486577e-05
7.2520998e-05	1.65e-05	1.5494578e-05
7.2233674e-05	1.65e-05	1.5499597e-05
7.1948468e-05	1.65e-05	1.5493274e-05
7.1653462e-05	1.65e-05	1.5477882e-05
7.1347551e-05	1.65e-05	1.5468451e-05
7.1042467e-05	1.65e-05	1.5470152e-05
7.074458e-05	1.65e-05	1.5475591e-05
7.0453852e-05	1.65e-05	1.5479033e-05
7.016735e-05	1.65e-05	1.5474531e-05
6.9874969e-05	1.65e-05	1.5459223e-05
6.9570993e-05	1.65e-05	1.5444707e-05
6.9264804e-05	1.65e-05	1.5440166e-05
6.8964814e-05	1.65e-05	1.5440614e-05
6.8670879e-05	1.65e-05	1.5439017e-05
6.8380915e-05	1.65e-05	1.543116e-05
6.8088669e-05	1.65e-05	1.5413173e-05
6.778749e-05	1.65e-05	1.5390958e-05
6.7481101e-05	1.65e-05	1.537379e-05
6.7178421e-05	1.65e-05	1.5360982e-05
6.6882185e-05	1.65e-05	1.5344615e-05
6.6589178e-05	1.65e-05	1.5319807e-05
6.6295137e-05	1.65e-05	1.5283222e-05
6.5996082e-05	1.65e-05	1.5234638e-05
6.5694504e-05	1.65e-05	1.5178821e-05
6.5394962e-05	1.65e-05	1.5116102e-05
6.5102844e-05	1.65e-05	1.5036839e-05
6.4820261e-05	1.65e-05	1.492474e-05
6.4538683e-05	1.65e-05	1.4769616e-05
6.4259168e-05	1.65e-05	1.4556707e-05
6.3973825e-05	1.65e-05	1.4274647e-05
6.3643838e-05	1.65e-05	1.3926081e-05
6.3229837e-05	1.65e-05	1.3518571e-05
6.2675101e-05	1.65e-05	1.3089522e-05
6.1943381e-05	1.65e-05	1.271981e-05
6.1026332e-05	1.65e-05	1.2488098e-05
5.9990001e-05	1.65e-05	1.2481424e-05
5.9054282e-05	1.65e-05	1.2704451e-05
5.8313515e-05	1.65e-05	1.3065308e-05
5.7693694e-05	1.65e-05	1.3454267e-05
5.7169085e-05	1.65e-05	1.3791913e-05
5.6679576e-05	1.65e-05	1.4045717e-05
5.6199493e-05	1.65e-05	1.4222793e-05
5.5718273e-05	1.65e-05	1.4342263e-05
5.5221364e-05	1.65e-05	1.4420793e-05
5.4713152e-05	1.65e-05	1.4475896e-05
5.4191947e-05	1.65e-05	1.4517394e-05
5.3665147e-05	1.65e-05	1.4555228e-05
5.314233e-05	1.65e-05	1.4588544e-05
5.2621832e-05	1.65e-05	1.4608137e-05
5.2096278e-05	1.65e-05	1.4616598e-05
5.1561618e-05	1.65e-05	1.4619442e-05
5.1019282e-05	1.65e-05	1.462412e-05
5.0473505e-05	1.65e-05	1.4635665e-05
4.9935739e-05	1.65e-05	1.4654158e-05
4.9407873e-05	1.65e-05	1.4664674e-05
4.8878218e-05	1.65e-05	1.466393e-05
4.8340194e-05	1.65e-05	1.4656759e-05
4.7792346e-05	1.65e-05	1.4652328e-05
4.7240789e-05	1.65e-05	1.4656753e-05
4.6695363e-05	1.65e-05	1.467099e-05
4.6163132e-05	1.65e-05	1.4683232e-05
4.5633869e-05	1.65e-05	1.4682544e-05
4.5097096e-05	1.65e-05	1.4673793e-05
4.4549456e-05	1.65e-05	1.466471e-05
4.399598e-05	1.65e-05	1.4665281e-05
4.3446729e-05	1.65e-05	1.4675571e-05
4.2909319e-05	1.65e-05	1.4688679e-05
4.237914e-05	1.65e-05	1.4691284e-05
4.1844351e-05	1.65e-05	1.4683957e-05
4.1299284e-05	1.65e-05	1.4673645e-05
4.0746428e-05	1.65e-05	1.4670805e-05
4.0195875e-05	1.65e-05	1.4677592e-05
3.9653808e-05	1.65e-05	1.4688241e-05
3.912015e-05	1.65e-05	1.4694233e-05
3.8586033e-05	1.65e-05	1.4689718e-05
3.8043823e-05	1.65e-05	1.4681318e-05
3.7494069e-05	1.65e-05	1.4676113e-05
3.6943918e-05	1.65e-05	1.467947e-05
3.639925e-05	1.65e-05	1.4686344e-05
3.5860792e-05	1.65e-05	1.4692587e-05
3.5324662e-05	1.65e-05	1.4691976e-05
3.4784326e-05	1.65e-05	1.4686928e-05
3.4238675e-05	1.65e-05	1.4682401e-05
3.3690961e-05	1.65e-05	1.4682134e-05
3.3145629e-05	1.65e-05	1.4685403e-05
3.2603062e-05	1.65e-05	1.4688529e-05
3.2062713e-05	1.65e-05	1.4690734e-05
3.1522138e-05	1.65e-05	1.4689557e-05
3.0980004e-05	1.65e-05	1.4688254e-05
3.0436633e-05	1.65e-05	1.4686138e-05
2.9892373e-05	1.65e-05	1.4685544e-05
2.9892342e-05	1.65e-05	1.4685544e-05
