{
  "experiment_name": "timing",
  "num_ranks": 2,
  "metrics": [
    {
      "identifier": "MPI: particle handling",
      "timers": { "rank_0": 568.53, "rank_1": 939.77 }
    },
    {
      "identifier": "MPI: particle (overhead)",
      "timers": { "rank_0": 1938.17, "rank_1": 1852.70 }
    },
    {
      "identifier": "MPI: particle",
      "timers": { "rank_0": 5295.58, "rank_1": 19181.36 }
    },
    {
      "identifier": "CPU: particle handling",
      "timers": { "rank_0": 5006.86, "rank_1": 3512.56 }
    },
    {
      "identifier": "CPU: particle mapping",
      "timers": { "rank_0": 279252.65, "rank_1": 417028.47 }
    },
    {
      "identifier": "Copy: CPU -> GPU",
      "timers": { "rank_0": 784242.47, "rank_1": 396005.63 }
    },
    {
      "identifier": "CL: PartMapLP",
      "timers": { "rank_0": 256272.20, "rank_1": 491787.86 }
    },
    {
      "identifier": "Copy: GPU -> CPU",
      "timers": { "rank_0": 663287.77, "rank_1": 586425.87 }
    },
    {
      "identifier": "CL: LEGalilei",
      "timers": { "rank_0": 253427.57, "rank_1": 228123.90 }
    },
    {
      "identifier": "CL: LEShift",
      "timers": { "rank_0": 70010.23, "rank_1": 48327.22 }
    },
    {
      "identifier": "CL: PropagateCollide",
      "timers": { "rank_0": 957928.33, "rank_1": 933001.67 }
    },
    {
      "identifier": "OMP: part ext forces",
      "timers": { "rank_0": 157.33, "rank_1": 111.69 }
    },
    {
      "identifier": "OMP: part int forces",
      "timers": { "rank_0": 30935.37, "rank_1": 40812.01 }
    },
    {
      "identifier": "OMP: part-part forces",
      "timers": { "rank_0": 82893.55, "rank_1": 120922.72 }
    },
    {
      "identifier": "MPI: particle forces (overhead)",
      "timers": { "rank_0": 2227.34, "rank_1": 2012.42 }
    },
    {
      "identifier": "MPI: particle forces",
      "timers": { "rank_0": 18019.53, "rank_1": 351199.79 }
    },
    {
      "identifier": "OMP: particle dynamics",
      "timers": { "rank_0": 36548.79, "rank_1": 32491.93 }
    },
    {
      "identifier": "I/O: output",
      "timers": { "rank_0": 461749.95, "rank_1": 480914.80 }
    },
    {
      "identifier": "ALL: total time",
      "timers": { "rank_0": 6455015.35, "rank_1": 6455015.27 }
    }
  ]
}
