{
  "experiment_name": "timing",
  "num_ranks": 2,
  "metrics": [
    {
      "identifier": "MPI: particle handling",
      "timers": { "rank_0": 3264.85, "rank_1": 3435.31 }
    },
    {
      "identifier": "MPI: particle (overhead)",
      "timers": { "rank_0": 43103.19, "rank_1": 40226.06 }
    },
    {
      "identifier": "MPI: particle",
      "timers": { "rank_0": 123087.05, "rank_1": 145728.75 }
    },
    {
      "identifier": "CPU: particle handling",
      "timers": { "rank_0": 61718.41, "rank_1": 61987.91 }
    },
    {
      "identifier": "CPU: particle mapping",
      "timers": { "rank_0": 6340841.18, "rank_1": 6353650.02 }
    },
    {
      "identifier": "Copy: CPU -> GPU",
      "timers": { "rank_0": 9021731.36, "rank_1": 9107470.88 }
    },
    {
      "identifier": "CL: PartMapLP",
      "timers": { "rank_0": 6130840.97, "rank_1": 6151689.32 }
    },
    {
      "identifier": "Copy: GPU -> CPU",
      "timers": { "rank_0": 29199441.35, "rank_1": 29138976.67 }
    },
    {
      "identifier": "CL: LEGalilei",
      "timers": { "rank_0": 1196972.45, "rank_1": 1078701.34 }
    },
    {
      "identifier": "CL: LEShift",
      "timers": { "rank_0": 984800.62, "rank_1": 949111.72 }
    },
    {
      "identifier": "CL: PropagateCollide",
      "timers": { "rank_0": 24387256.87, "rank_1": 23439273.97 }
    },
    {
      "identifier": "OMP: part ext forces",
      "timers": { "rank_0": 1145.51, "rank_1": 862.35 }
    },
    {
      "identifier": "OMP: part int forces",
      "timers": { "rank_0": 296569.30, "rank_1": 298509.55 }
    },
    {
      "identifier": "OMP: part-part forces",
      "timers": { "rank_0": 1596305.21, "rank_1": 1614481.86 }
    },
    {
      "identifier": "MPI: particle forces (overhead)",
      "timers": { "rank_0": 34010.07, "rank_1": 44564.47 }
    },
    {
      "identifier": "MPI: particle forces",
      "timers": { "rank_0": 163398.90, "rank_1": 5465598.77 }
    },
    {
      "identifier": "OMP: particle dynamics",
      "timers": { "rank_0": 298968.20, "rank_1": 235952.83 }
    },
    {
      "identifier": "I/O: output",
      "timers": { "rank_0": 719495.85, "rank_1": 719875.46 }
    },
    {
      "identifier": "ALL: total time",
      "timers": { "rank_0": 159877575.15, "rank_1": 159877729.01 }
    }
  ]
}
