{
  "experiment_name": "timing",
  "num_ranks": 2,
  "metrics": [
    {
      "identifier": "MPI: particle handling",
      "timers": { "rank_0": 6.66, "rank_1": 13.00 }
    },
    {
      "identifier": "MPI: particle (overhead)",
      "timers": { "rank_0": 17.52, "rank_1": 16.29 }
    },
    {
      "identifier": "MPI: particle",
      "timers": { "rank_0": 60.47, "rank_1": 272.71 }
    },
    {
      "identifier": "CPU: particle handling",
      "timers": { "rank_0": 49.42, "rank_1": 32.34 }
    },
    {
      "identifier": "CPU: particle mapping",
      "timers": { "rank_0": 2053.91, "rank_1": 2558.38 }
    },
    {
      "identifier": "Copy: CPU -> GPU",
      "timers": { "rank_0": 5270.15, "rank_1": 2358.17 }
    },
    {
      "identifier": "CL: PartMapLP",
      "timers": { "rank_0": 1862.49, "rank_1": 3734.96 }
    },
    {
      "identifier": "Copy: GPU -> CPU",
      "timers": { "rank_0": 12093.87, "rank_1": 5208.76 }
    },
    {
      "identifier": "CL: LEGalilei",
      "timers": { "rank_0": 1403.15, "rank_1": 1406.43 }
    },
    {
      "identifier": "CL: LEShift",
      "timers": { "rank_0": 423.12, "rank_1": 448.44 }
    },
    {
      "identifier": "CL: PropagateCollide",
      "timers": { "rank_0": 7636.59, "rank_1": 6413.97 }
    },
    {
      "identifier": "OMP: part ext forces",
      "timers": { "rank_0": 1.76, "rank_1": 1.36 }
    },
    {
      "identifier": "OMP: part int forces",
      "timers": { "rank_0": 387.19, "rank_1": 437.70 }
    },
    {
      "identifier": "OMP: part-part forces",
      "timers": { "rank_0": 847.58, "rank_1": 1044.32 }
    },
    {
      "identifier": "MPI: particle forces (overhead)",
      "timers": { "rank_0": 19.25, "rank_1": 17.24 }
    },
    {
      "identifier": "MPI: particle forces",
      "timers": { "rank_0": 102.58, "rank_1": 4040.63 }
    },
    {
      "identifier": "OMP: particle dynamics",
      "timers": { "rank_0": 396.53, "rank_1": 363.67 }
    },
    {
      "identifier": "I/O: output",
      "timers": { "rank_0": 301928.21, "rank_1": 316513.57 }
    },
    {
      "identifier": "ALL: total time",
      "timers": { "rank_0": 373880.64, "rank_1": 373772.78 }
    }
  ]
}
