{
  "experiment_name": "timing",
  "num_ranks": 2,
  "metrics": [
    {
      "identifier": "MPI: particle handling",
      "timers": { "rank_0": 6.59, "rank_1": 11.45 }
    },
    {
      "identifier": "MPI: particle (overhead)",
      "timers": { "rank_0": 9.42, "rank_1": 8.98 }
    },
    {
      "identifier": "MPI: particle",
      "timers": { "rank_0": 66.25, "rank_1": 54.56 }
    },
    {
      "identifier": "CPU: particle handling",
      "timers": { "rank_0": 27.99, "rank_1": 18.90 }
    },
    {
      "identifier": "CPU: particle mapping",
      "timers": { "rank_0": 1466.94, "rank_1": 2025.75 }
    },
    {
      "identifier": "Copy: CPU -> GPU",
      "timers": { "rank_0": 3714.13, "rank_1": 1845.85 }
    },
    {
      "identifier": "CL: PartMapLP",
      "timers": { "rank_0": 1283.82, "rank_1": 1768.02 }
    },
    {
      "identifier": "Copy: GPU -> CPU",
      "timers": { "rank_0": 2755.23, "rank_1": 2213.73 }
    },
    {
      "identifier": "CL: LEGalilei",
      "timers": { "rank_0": 1559.10, "rank_1": 1176.98 }
    },
    {
      "identifier": "CL: LEShift",
      "timers": { "rank_0": 843.69, "rank_1": 781.19 }
    },
    {
      "identifier": "CL: PropagateCollide",
      "timers": { "rank_0": 6478.98, "rank_1": 2993.64 }
    },
    {
      "identifier": "OMP: part ext forces",
      "timers": { "rank_0": 1.52, "rank_1": 1.26 }
    },
    {
      "identifier": "OMP: part int forces",
      "timers": { "rank_0": 331.30, "rank_1": 393.11 }
    },
    {
      "identifier": "OMP: part-part forces",
      "timers": { "rank_0": 413.95, "rank_1": 534.66 }
    },
    {
      "identifier": "MPI: particle forces (overhead)",
      "timers": { "rank_0": 9.58, "rank_1": 9.09 }
    },
    {
      "identifier": "MPI: particle forces",
      "timers": { "rank_0": 111.20, "rank_1": 5207.61 }
    },
    {
      "identifier": "OMP: particle dynamics",
      "timers": { "rank_0": 366.06, "rank_1": 351.46 }
    },
    {
      "identifier": "I/O: output",
      "timers": { "rank_0": 96960.17, "rank_1": 105768.64 }
    },
    {
      "identifier": "ALL: total time",
      "timers": { "rank_0": 137727.88, "rank_1": 137566.51 }
    }
  ]
}
