{
  "experiment_name": "timing",
  "num_ranks": 2,
  "metrics": [
    {
      "identifier": "MPI: particle handling",
      "timers": { "rank_0": 643.10, "rank_1": 1006.02 }
    },
    {
      "identifier": "MPI: particle (overhead)",
      "timers": { "rank_0": 2052.54, "rank_1": 1859.63 }
    },
    {
      "identifier": "MPI: particle",
      "timers": { "rank_0": 5859.11, "rank_1": 29691.18 }
    },
    {
      "identifier": "CPU: particle handling",
      "timers": { "rank_0": 5889.63, "rank_1": 3387.72 }
    },
    {
      "identifier": "CPU: particle mapping",
      "timers": { "rank_0": 305051.40, "rank_1": 380964.67 }
    },
    {
      "identifier": "Copy: CPU -> GPU",
      "timers": { "rank_0": 728971.38, "rank_1": 359524.41 }
    },
    {
      "identifier": "CL: PartMapLP",
      "timers": { "rank_0": 282986.40, "rank_1": 493372.05 }
    },
    {
      "identifier": "Copy: GPU -> CPU",
      "timers": { "rank_0": 1727071.00, "rank_1": 593234.68 }
    },
    {
      "identifier": "CL: LEGalilei",
      "timers": { "rank_0": 234553.11, "rank_1": 214130.93 }
    },
    {
      "identifier": "CL: LEShift",
      "timers": { "rank_0": 61500.59, "rank_1": 90849.69 }
    },
    {
      "identifier": "CL: PropagateCollide",
      "timers": { "rank_0": 978870.92, "rank_1": 912490.69 }
    },
    {
      "identifier": "OMP: part ext forces",
      "timers": { "rank_0": 137.10, "rank_1": 108.33 }
    },
    {
      "identifier": "OMP: part int forces",
      "timers": { "rank_0": 42768.93, "rank_1": 40507.32 }
    },
    {
      "identifier": "OMP: part-part forces",
      "timers": { "rank_0": 101187.27, "rank_1": 121313.91 }
    },
    {
      "identifier": "MPI: particle forces (overhead)",
      "timers": { "rank_0": 2378.43, "rank_1": 1986.05 }
    },
    {
      "identifier": "MPI: particle forces",
      "timers": { "rank_0": 10554.45, "rank_1": 473260.55 }
    },
    {
      "identifier": "OMP: particle dynamics",
      "timers": { "rank_0": 42714.68, "rank_1": 33540.31 }
    },
    {
      "identifier": "I/O: output",
      "timers": { "rank_0": 532844.49, "rank_1": 544901.59 }
    },
    {
      "identifier": "ALL: total time",
      "timers": { "rank_0": 8663035.86, "rank_1": 8662658.69 }
    }
  ]
}
