2.891462e-05	1.65e-05	7.8965047e-06
2.883474e-05	1.65e-05	7.8879658e-06
2.8756927e-05	1.65e-05	7.8769736e-06
2.8679823e-05	1.65e-05	7.8650718e-06
2.8603095e-05	1.65e-05	7.8528618e-06
2.8526704e-05	1.65e-05	7.8403407e-06
2.8450633e-05	1.65e-05	7.8270923e-06
2.8374795e-05	1.65e-05	7.8124328e-06
2.8299111e-05	1.65e-05	7.795516e-06
2.8223316e-05	1.65e-05	7.7757531e-06
2.8146914e-05	1.65e-05	7.7530808e-06
2.8069859e-05	1.65e-05	7.7276776e-06
2.7992734e-05	1.65e-05	7.6995758e-06
2.7916146e-05	1.65e-05	7.6685905e-06
2.7840349e-05	1.65e-05	7.6343314e-06
2.7765645e-05	1.65e-05	7.596047e-06
2.7692428e-05	1.65e-05	7.5529074e-06
2.7620921e-05	1.65e-05	7.504054e-06
2.7551117e-05	1.65e-05	7.4482758e-06
2.7482505e-05	1.65e-05	7.3846636e-06
2.7414541e-05	1.65e-05	7.3125667e-06
2.7346904e-05	1.65e-05	7.2306031e-06
2.7277484e-05	1.65e-05	7.138979e-06
2.7204702e-05	1.65e-05	7.0371634e-06
2.7126268e-05	1.65e-05	6.9249385e-06
2.7038394e-05	1.65e-05	6.8049434e-06
2.6937787e-05	1.65e-05	6.6809866e-06
2.6822929e-05	1.65e-05	6.5537956e-06
2.6694586e-05	1.65e-05	6.4193163e-06
2.6550066e-05	1.65e-05	6.2767885e-06
2.6380876e-05	1.65e-05	6.1318302e-06
2.6185072e-05	1.65e-05	5.9884093e-06
2.5960976e-05	1.65e-05	5.8516808e-06
2.5706911e-05	1.65e-05	5.7265349e-06
2.5422677e-05	1.65e-05	5.619295e-06
2.5108441e-05	1.65e-05	5.5369685e-06
2.4762788e-05	1.65e-05	5.4861063e-06
2.4396297e-05	1.65e-05	5.4736369e-06
2.4021555e-05	1.65e-05	5.5037397e-06
2.3653846e-05	1.65e-05	5.575723e-06
2.3311893e-05	1.65e-05	5.6865994e-06
2.3003978e-05	1.65e-05	5.8269115e-06
2.2720236e-05	1.65e-05	5.9809793e-06
2.2457214e-05	1.65e-05	6.1379017e-06
2.2215718e-05	1.65e-05	6.2892836e-06
2.1992214e-05	1.65e-05	6.4289514e-06
2.17816e-05	1.65e-05	6.5528187e-06
2.1579467e-05	1.65e-05	6.6596726e-06
2.138319e-05	1.65e-05	6.7517356e-06
2.1191677e-05	1.65e-05	6.8314844e-06
2.100486e-05	1.65e-05	6.9004888e-06
2.0821887e-05	1.65e-05	6.9586788e-06
2.0641568e-05	1.65e-05	7.00619e-06
2.0462583e-05	1.65e-05	7.0442024e-06
2.0284247e-05	1.65e-05	7.0748184e-06
2.0106188e-05	1.65e-05	7.100107e-06
1.992785e-05	1.65e-05	7.121474e-06
1.9748781e-05	1.65e-05	7.1396764e-06
1.95692e-05	1.65e-05	7.1558336e-06
1.9389865e-05	1.65e-05	7.1709846e-06
1.9211436e-05	1.65e-05	7.1855846e-06
1.9034173e-05	1.65e-05	7.199332e-06
1.885803e-05	1.65e-05	7.2111692e-06
1.8682492e-05	1.65e-05	7.2201516e-06
1.8506982e-05	1.65e-05	7.2264415e-06
1.8330885e-05	1.65e-05	7.230808e-06
1.8153582e-05	1.65e-05	7.2342749e-06
1.797486e-05	1.65e-05	7.2377461e-06
1.779512e-05	1.65e-05	7.2415211e-06
1.7615169e-05	1.65e-05	7.2458199e-06
1.7435928e-05	1.65e-05	7.2508059e-06
1.7257814e-05	1.65e-05	7.2561685e-06
1.7080695e-05	1.65e-05	7.2612772e-06
1.690413e-05	1.65e-05	7.2652189e-06
1.6727554e-05	1.65e-05	7.2672187e-06
1.6550459e-05	1.65e-05	7.2675969e-06
1.6372507e-05	1.65e-05	7.2672796e-06
1.6193514e-05	1.65e-05	7.2672416e-06
1.6013589e-05	1.65e-05	7.2681526e-06
1.5833228e-05	1.65e-05	7.2699107e-06
1.5653149e-05	1.65e-05	7.2721337e-06
1.5473934e-05	1.65e-05	7.2746611e-06
1.5295698e-05	1.65e-05	7.2771947e-06
1.5118079e-05	1.65e-05	7.2793662e-06
1.4940548e-05	1.65e-05	7.2807358e-06
1.4762654e-05	1.65e-05	7.2808358e-06
1.4584183e-05	1.65e-05	7.2800059e-06
1.4405164e-05	1.65e-05	7.2790705e-06
1.4225657e-05	1.65e-05	7.2786943e-06
1.4045766e-05	1.65e-05	7.2791942e-06
1.3865747e-05	1.65e-05	7.2802524e-06
1.3685984e-05	1.65e-05	7.2813169e-06
1.350675e-05	1.65e-05	7.2823151e-06
1.3328068e-05	1.65e-05	7.2832625e-06
1.3149651e-05	1.65e-05	7.2841443e-06
1.2971206e-05	1.65e-05	7.2848224e-06
1.2792564e-05	1.65e-05	7.2848356e-06
1.2613757e-05	1.65e-05	7.2841735e-06
1.2434862e-05	1.65e-05	7.2833092e-06
1.2255821e-05	1.65e-05	7.2826374e-06
1.2255802e-05	1.65e-05	7.2826374e-06
