1.579797e-05	1.65e-05	1.7499908e-05
1.6093053e-05	1.65e-05	1.7499636e-05
1.6386438e-05	1.65e-05	1.749973e-05
1.6679059e-05	1.65e-05	1.7500154e-05
1.697128e-05	1.65e-05	1.7500308e-05
1.7262978e-05	1.65e-05	1.7500586e-05
1.7554548e-05	1.65e-05	1.7501465e-05
1.7846247e-05	1.65e-05	1.7502192e-05
1.8137596e-05	1.65e-05	1.7502777e-05
1.8428799e-05	1.65e-05	1.7504044e-05
1.8720331e-05	1.65e-05	1.750546e-05
1.9011589e-05	1.65e-05	1.7506515e-05
1.9302539e-05	1.65e-05	1.7508224e-05
1.9593916e-05	1.65e-05	1.7510414e-05
1.9885137e-05	1.65e-05	1.7512245e-05
2.0175869e-05	1.65e-05	1.751461e-05
2.0467012e-05	1.65e-05	1.7517737e-05
2.0758158e-05	1.65e-05	1.752071e-05
2.1048689e-05	1.65e-05	1.7524105e-05
2.1339477e-05	1.65e-05	1.7528519e-05
2.1630421e-05	1.65e-05	1.7533114e-05
2.1920706e-05	1.65e-05	1.7538242e-05
2.2211078e-05	1.65e-05	1.7544642e-05
2.2501659e-05	1.65e-05	1.7551726e-05
2.2791552e-05	1.65e-05	1.755974e-05
2.3081285e-05	1.65e-05	1.7569468e-05
2.3370944e-05	1.65e-05	1.7580622e-05
2.365993e-05	1.65e-05	1.7593592e-05
2.3948529e-05	1.65e-05	1.7609253e-05
2.4236293e-05	1.65e-05	1.7627735e-05
2.4522584e-05	1.65e-05	1.7649856e-05
2.4808008e-05	1.65e-05	1.7676872e-05
2.5091552e-05	1.65e-05	1.7709717e-05
2.5371034e-05	1.65e-05	1.7750591e-05
2.564678e-05	1.65e-05	1.7801902e-05
2.5918059e-05	1.65e-05	1.7865751e-05
2.6178035e-05	1.65e-05	1.7950391e-05
2.6425391e-05	1.65e-05	1.8064732e-05
2.6655139e-05	1.65e-05	1.8219063e-05
2.6862976e-05	1.65e-05	1.8426321e-05
2.7070202e-05	1.65e-05	1.8696229e-05
2.7323399e-05	1.65e-05	1.9008484e-05
2.7650193e-05	1.65e-05	1.9339122e-05
2.8063928e-05	1.65e-05	1.9689058e-05
2.8589494e-05	1.65e-05	2.0027163e-05
2.9250529e-05	1.65e-05	2.0311831e-05
3.0045689e-05	1.65e-05	2.0488655e-05
3.0960758e-05	1.65e-05	2.0495718e-05
3.1872069e-05	1.65e-05	2.0294432e-05
3.2675336e-05	1.65e-05	1.99193e-05
3.3350253e-05	1.65e-05	1.9456872e-05
3.3915772e-05	1.65e-05	1.9012451e-05
3.4396242e-05	1.65e-05	1.8640053e-05
3.4826139e-05	1.65e-05	1.835495e-05
3.5219226e-05	1.65e-05	1.8142559e-05
3.5588356e-05	1.65e-05	1.7987816e-05
3.5938371e-05	1.65e-05	1.7872697e-05
3.627259e-05	1.65e-05	1.7786331e-05
3.6596134e-05	1.65e-05	1.7722163e-05
3.6910838e-05	1.65e-05	1.7672137e-05
3.7217378e-05	1.65e-05	1.7632758e-05
3.7518843e-05	1.65e-05	1.7602487e-05
3.7816764e-05	1.65e-05	1.757768e-05
3.8110163e-05	1.65e-05	1.7556923e-05
3.8400641e-05	1.65e-05	1.7540568e-05
3.8689471e-05	1.65e-05	1.7526811e-05
3.8975848e-05	1.65e-05	1.7514583e-05
3.9260474e-05	1.65e-05	1.7504711e-05
3.9544423e-05	1.65e-05	1.7496443e-05
3.9826889e-05	1.65e-05	1.7488748e-05
4.0108225e-05	1.65e-05	1.7482333e-05
4.0389368e-05	1.65e-05	1.7476977e-05
4.0669516e-05	1.65e-05	1.7471947e-05
4.0948701e-05	1.65e-05	1.7467618e-05
4.1227939e-05	1.65e-05	1.7463937e-05
4.1506596e-05	1.65e-05	1.7460518e-05
4.1784343e-05	1.65e-05	1.7457624e-05
4.2062129e-05	1.65e-05	1.745508e-05
4.2339713e-05	1.65e-05	1.7452601e-05
4.2616497e-05	1.65e-05	1.7450649e-05
4.289318e-05	1.65e-05	1.7449e-05
4.3169922e-05	1.65e-05	1.7447195e-05
4.3446129e-05	1.65e-05	1.7445792e-05
4.372208e-05	1.65e-05	1.7444859e-05
4.3998078e-05	1.65e-05	1.7443668e-05
4.4273889e-05	1.65e-05	1.7442576e-05
4.4549407e-05	1.65e-05	1.7442074e-05
4.4824845e-05	1.65e-05	1.7441536e-05
4.5100253e-05	1.65e-05	1.744081e-05
4.5375549e-05	1.65e-05	1.7440471e-05
4.5650656e-05	1.65e-05	1.7440463e-05
4.5925709e-05	1.65e-05	1.7440236e-05
4.6200782e-05	1.65e-05	1.7440018e-05
4.6475718e-05	1.65e-05	1.7440312e-05
4.6750594e-05	1.65e-05	1.7440706e-05
4.7025447e-05	1.65e-05	1.744077e-05
4.7300241e-05	1.65e-05	1.7441187e-05
4.7575069e-05	1.65e-05	1.7442098e-05
4.7849836e-05	1.65e-05	1.7442697e-05
4.812443e-05	1.65e-05	1.7443339e-05
4.8124432e-05	1.65e-05	1.7443339e-05
