{
  "experiment_name": "timing",
  "num_ranks": 2,
  "metrics": [
    {
      "identifier": "MPI: particle handling",
      "timers": { "rank_0": 3236.39, "rank_1": 4978.37 }
    },
    {
      "identifier": "MPI: particle (overhead)",
      "timers": { "rank_0": 10161.84, "rank_1": 9321.69 }
    },
    {
      "identifier": "MPI: particle",
      "timers": { "rank_0": 35386.87, "rank_1": 41024.26 }
    },
    {
      "identifier": "CPU: particle handling",
      "timers": { "rank_0": 31022.18, "rank_1": 25248.19 }
    },
    {
      "identifier": "CPU: particle mapping",
      "timers": { "rank_0": 2047787.07, "rank_1": 1843044.86 }
    },
    {
      "identifier": "Copy: CPU -> GPU",
      "timers": { "rank_0": 3811169.51, "rank_1": 1699967.60 }
    },
    {
      "identifier": "CL: PartMapLP",
      "timers": { "rank_0": 1907419.56, "rank_1": 3106792.88 }
    },
    {
      "identifier": "Copy: GPU -> CPU",
      "timers": { "rank_0": 3919595.55, "rank_1": 3566663.72 }
    },
    {
      "identifier": "CL: LEGalilei",
      "timers": { "rank_0": 626122.38, "rank_1": 617020.34 }
    },
    {
      "identifier": "CL: LEShift",
      "timers": { "rank_0": 378739.59, "rank_1": 367470.12 }
    },
    {
      "identifier": "CL: PropagateCollide",
      "timers": { "rank_0": 8215919.02, "rank_1": 6287094.08 }
    },
    {
      "identifier": "OMP: part ext forces",
      "timers": { "rank_0": 1248.49, "rank_1": 864.33 }
    },
    {
      "identifier": "OMP: part int forces",
      "timers": { "rank_0": 218684.27, "rank_1": 226962.04 }
    },
    {
      "identifier": "OMP: part-part forces",
      "timers": { "rank_0": 562728.76, "rank_1": 604375.95 }
    },
    {
      "identifier": "MPI: particle forces (overhead)",
      "timers": { "rank_0": 11430.32, "rank_1": 12998.99 }
    },
    {
      "identifier": "MPI: particle forces",
      "timers": { "rank_0": 66893.45, "rank_1": 3924449.61 }
    },
    {
      "identifier": "OMP: particle dynamics",
      "timers": { "rank_0": 223288.37, "rank_1": 178579.84 }
    },
    {
      "identifier": "I/O: output",
      "timers": { "rank_0": 198851.00, "rank_1": 205654.84 }
    },
    {
      "identifier": "ALL: total time",
      "timers": { "rank_0": 39579493.87, "rank_1": 39579495.65 }
    }
  ]
}
