{
  "experiment_name": "timing",
  "num_ranks": 2,
  "metrics": [
    {
      "identifier": "MPI: particle handling",
      "timers": { "rank_0": 57.06, "rank_1": 73.37 }
    },
    {
      "identifier": "MPI: particle (overhead)",
      "timers": { "rank_0": 126.02, "rank_1": 105.71 }
    },
    {
      "identifier": "MPI: particle",
      "timers": { "rank_0": 532.66, "rank_1": 2869.29 }
    },
    {
      "identifier": "CPU: particle handling",
      "timers": { "rank_0": 374.46, "rank_1": 217.32 }
    },
    {
      "identifier": "CPU: particle mapping",
      "timers": { "rank_0": 16786.95, "rank_1": 15608.19 }
    },
    {
      "identifier": "Copy: CPU -> GPU",
      "timers": { "rank_0": 33091.55, "rank_1": 13873.29 }
    },
    {
      "identifier": "CL: PartMapLP",
      "timers": { "rank_0": 15030.27, "rank_1": 26164.34 }
    },
    {
      "identifier": "Copy: GPU -> CPU",
      "timers": { "rank_0": 81464.17, "rank_1": 29771.95 }
    },
    {
      "identifier": "CL: LEGalilei",
      "timers": { "rank_0": 7790.35, "rank_1": 7080.80 }
    },
    {
      "identifier": "CL: LEShift",
      "timers": { "rank_0": 4939.00, "rank_1": 4606.99 }
    },
    {
      "identifier": "CL: PropagateCollide",
      "timers": { "rank_0": 68252.83, "rank_1": 44246.23 }
    },
    {
      "identifier": "OMP: part ext forces",
      "timers": { "rank_0": 14.42, "rank_1": 10.75 }
    },
    {
      "identifier": "OMP: part int forces",
      "timers": { "rank_0": 3624.33, "rank_1": 3495.80 }
    },
    {
      "identifier": "OMP: part-part forces",
      "timers": { "rank_0": 5660.52, "rank_1": 6287.03 }
    },
    {
      "identifier": "MPI: particle forces (overhead)",
      "timers": { "rank_0": 138.95, "rank_1": 117.91 }
    },
    {
      "identifier": "MPI: particle forces",
      "timers": { "rank_0": 924.80, "rank_1": 50143.03 }
    },
    {
      "identifier": "OMP: particle dynamics",
      "timers": { "rank_0": 3546.54, "rank_1": 2728.34 }
    },
    {
      "identifier": "I/O: output",
      "timers": { "rank_0": 211121.98, "rank_1": 216090.94 }
    },
    {
      "identifier": "ALL: total time",
      "timers": { "rank_0": 670750.62, "rank_1": 670753.95 }
    }
  ]
}
