{
  "experiment_name": "timing",
  "num_ranks": 2,
  "metrics": [
    {
      "identifier": "MPI: particle handling",
      "timers": { "rank_0": 491.41, "rank_1": 566.78 }
    },
    {
      "identifier": "MPI: particle (overhead)",
      "timers": { "rank_0": 703.53, "rank_1": 658.88 }
    },
    {
      "identifier": "MPI: particle",
      "timers": { "rank_0": 6005.56, "rank_1": 5995.08 }
    },
    {
      "identifier": "CPU: particle handling",
      "timers": { "rank_0": 2264.26, "rank_1": 1535.53 }
    },
    {
      "identifier": "CPU: particle mapping",
      "timers": { "rank_0": 142034.62, "rank_1": 93817.24 }
    },
    {
      "identifier": "Copy: CPU -> GPU",
      "timers": { "rank_0": 246932.83, "rank_1": 78835.05 }
    },
    {
      "identifier": "CL: PartMapLP",
      "timers": { "rank_0": 121335.64, "rank_1": 157952.78 }
    },
    {
      "identifier": "Copy: GPU -> CPU",
      "timers": { "rank_0": 339780.72, "rank_1": 170587.44 }
    },
    {
      "identifier": "CL: LEGalilei",
      "timers": { "rank_0": 57961.44, "rank_1": 49096.33 }
    },
    {
      "identifier": "CL: LEShift",
      "timers": { "rank_0": 48536.50, "rank_1": 40883.00 }
    },
    {
      "identifier": "CL: PropagateCollide",
      "timers": { "rank_0": 670451.01, "rank_1": 253717.96 }
    },
    {
      "identifier": "OMP: part ext forces",
      "timers": { "rank_0": 110.94, "rank_1": 97.39 }
    },
    {
      "identifier": "OMP: part int forces",
      "timers": { "rank_0": 76834.12, "rank_1": 32693.15 }
    },
    {
      "identifier": "OMP: part-part forces",
      "timers": { "rank_0": 48158.76, "rank_1": 46241.55 }
    },
    {
      "identifier": "MPI: particle forces (overhead)",
      "timers": { "rank_0": 1003.77, "rank_1": 725.35 }
    },
    {
      "identifier": "MPI: particle forces",
      "timers": { "rank_0": 8354.27, "rank_1": 653950.28 }
    },
    {
      "identifier": "OMP: particle dynamics",
      "timers": { "rank_0": 42397.14, "rank_1": 28063.30 }
    },
    {
      "identifier": "I/O: output",
      "timers": { "rank_0": 148395.61, "rank_1": 144483.68 }
    },
    {
      "identifier": "ALL: total time",
      "timers": { "rank_0": 3842326.82, "rank_1": 3842326.25 }
    }
  ]
}
