{
  "experiment_name": "timing",
  "num_ranks": 2,
  "metrics": [
    {
      "identifier": "MPI: particle handling",
      "timers": { "rank_0": 756.31, "rank_1": 730.93 }
    },
    {
      "identifier": "MPI: particle (overhead)",
      "timers": { "rank_0": 1045.12, "rank_1": 827.80 }
    },
    {
      "identifier": "MPI: particle",
      "timers": { "rank_0": 27828.91, "rank_1": 4625.28 }
    },
    {
      "identifier": "CPU: particle handling",
      "timers": { "rank_0": 3130.09, "rank_1": 1712.71 }
    },
    {
      "identifier": "CPU: particle mapping",
      "timers": { "rank_0": 157117.93, "rank_1": 269138.74 }
    },
    {
      "identifier": "Copy: CPU -> GPU",
      "timers": { "rank_0": 475013.70, "rank_1": 252334.34 }
    },
    {
      "identifier": "CL: PartMapLP",
      "timers": { "rank_0": 138853.50, "rank_1": 349272.22 }
    },
    {
      "identifier": "Copy: GPU -> CPU",
      "timers": { "rank_0": 367120.10, "rank_1": 555996.65 }
    },
    {
      "identifier": "CL: LEGalilei",
      "timers": { "rank_0": 186481.58, "rank_1": 174854.55 }
    },
    {
      "identifier": "CL: LEShift",
      "timers": { "rank_0": 65427.54, "rank_1": 53688.92 }
    },
    {
      "identifier": "CL: PropagateCollide",
      "timers": { "rank_0": 620440.50, "rank_1": 264212.79 }
    },
    {
      "identifier": "OMP: part ext forces",
      "timers": { "rank_0": 143.53, "rank_1": 110.40 }
    },
    {
      "identifier": "OMP: part int forces",
      "timers": { "rank_0": 29109.50, "rank_1": 36690.13 }
    },
    {
      "identifier": "OMP: part-part forces",
      "timers": { "rank_0": 33927.61, "rank_1": 48065.94 }
    },
    {
      "identifier": "MPI: particle forces (overhead)",
      "timers": { "rank_0": 879.12, "rank_1": 873.25 }
    },
    {
      "identifier": "MPI: particle forces",
      "timers": { "rank_0": 18360.16, "rank_1": 548353.69 }
    },
    {
      "identifier": "OMP: particle dynamics",
      "timers": { "rank_0": 30018.63, "rank_1": 32610.84 }
    },
    {
      "identifier": "I/O: output",
      "timers": { "rank_0": 100548.68, "rank_1": 109287.55 }
    },
    {
      "identifier": "ALL: total time",
      "timers": { "rank_0": 4526231.32, "rank_1": 4526207.23 }
    }
  ]
}
