{
  "experiment_name": "timing",
  "num_ranks": 2,
  "metrics": [
    {
      "identifier": "MPI: particle handling",
      "timers": { "rank_0": 230333.24, "rank_1": 194375.39 }
    },
    {
      "identifier": "MPI: particle (overhead)",
      "timers": { "rank_0": 450343.30, "rank_1": 415059.61 }
    },
    {
      "identifier": "MPI: particle",
      "timers": { "rank_0": 1945441.71, "rank_1": 11861672.94 }
    },
    {
      "identifier": "CPU: particle handling",
      "timers": { "rank_0": 1564056.37, "rank_1": 1041475.40 }
    },
    {
      "identifier": "CPU: particle mapping",
      "timers": { "rank_0": 817.91, "rank_1": 916.81 }
    },
    {
      "identifier": "Copy: CPU -> GPU",
      "timers": { "rank_0": 1678.75, "rank_1": 842.80 }
    },
    {
      "identifier": "CL: PartMapLP",
      "timers": { "rank_0": 746.86, "rank_1": 1311.49 }
    },
    {
      "identifier": "Copy: GPU -> CPU",
      "timers": { "rank_0": 3862.58, "rank_1": 2127.60 }
    },
    {
      "identifier": "CL: LEGalilei",
      "timers": { "rank_0": 478.70, "rank_1": 447.88 }
    },
    {
      "identifier": "CL: LEShift",
      "timers": { "rank_0": 268.61, "rank_1": 237.72 }
    },
    {
      "identifier": "CL: PropagateCollide",
      "timers": { "rank_0": 3837.69, "rank_1": 2301.04 }
    },
    {
      "identifier": "OMP: part ext forces",
      "timers": { "rank_0": 72021.32, "rank_1": 57199.28 }
    },
    {
      "identifier": "OMP: part int forces",
      "timers": { "rank_0": 18110046.19, "rank_1": 14347604.18 }
    },
    {
      "identifier": "OMP: part-part forces",
      "timers": { "rank_0": 40100750.08, "rank_1": 35797158.86 }
    },
    {
      "identifier": "MPI: particle forces (overhead)",
      "timers": { "rank_0": 658466.36, "rank_1": 521613.72 }
    },
    {
      "identifier": "MPI: particle forces",
      "timers": { "rank_0": 3604702.73, "rank_1": 34270120.45 }
    },
    {
      "identifier": "OMP: particle dynamics",
      "timers": { "rank_0": 22633759.84, "rank_1": 14318324.94 }
    },
    {
      "identifier": "I/O: output",
      "timers": { "rank_0": 147597.93, "rank_1": 156754.23 }
    },
    {
      "identifier": "ALL: total time",
      "timers": { "rank_0": 148687687.03, "rank_1": 148687401.53 }
    }
  ]
}
