4.5800031e-05	1.65e-05	1.7499847e-05
4.6100178e-05	1.65e-05	1.7499587e-05
4.6400583e-05	1.65e-05	1.7499184e-05
4.6701006e-05	1.65e-05	1.7498395e-05
4.7001067e-05	1.65e-05	1.7497179e-05
4.7300543e-05	1.65e-05	1.7495909e-05
4.759962e-05	1.65e-05	1.7495018e-05
4.7898725e-05	1.65e-05	1.7494518e-05
4.8198036e-05	1.65e-05	1.7494085e-05
4.8497333e-05	1.65e-05	1.7493417e-05
4.8796238e-05	1.65e-05	1.7492375e-05
4.9094444e-05	1.65e-05	1.7491172e-05
4.9392001e-05	1.65e-05	1.7490292e-05
4.9689305e-05	1.65e-05	1.7489917e-05
4.9986617e-05	1.65e-05	1.7489755e-05
5.0283795e-05	1.65e-05	1.7489497e-05
5.0580491e-05	1.65e-05	1.7489017e-05
5.0876356e-05	1.65e-05	1.7488391e-05
5.1171296e-05	1.65e-05	1.7488032e-05
5.1465617e-05	1.65e-05	1.7488293e-05
5.1759619e-05	1.65e-05	1.7489016e-05
5.2053218e-05	1.65e-05	1.7489871e-05
5.2346093e-05	1.65e-05	1.7490757e-05
5.2637872e-05	1.65e-05	1.7491743e-05
5.2928308e-05	1.65e-05	1.7493135e-05
5.3217527e-05	1.65e-05	1.7495376e-05
5.350578e-05	1.65e-05	1.7498564e-05
5.3792969e-05	1.65e-05	1.7502481e-05
5.4078697e-05	1.65e-05	1.7507068e-05
5.4362446e-05	1.65e-05	1.7512557e-05
5.4643728e-05	1.65e-05	1.7519369e-05
5.4922249e-05	1.65e-05	1.7528105e-05
5.519769e-05	1.65e-05	1.7539391e-05
5.546939e-05	1.65e-05	1.7553688e-05
5.573622e-05	1.65e-05	1.7571531e-05
5.5996117e-05	1.65e-05	1.7594247e-05
5.6245222e-05	1.65e-05	1.7624949e-05
5.6476782e-05	1.65e-05	1.7668971e-05
5.6662806e-05	1.65e-05	1.7743796e-05
5.6737302e-05	1.65e-05	1.7916563e-05
5.680923e-05	1.65e-05	1.812736e-05
5.6903422e-05	1.65e-05	1.8343704e-05
5.7018306e-05	1.65e-05	1.8563435e-05
5.7154417e-05	1.65e-05	1.8786527e-05
5.7316157e-05	1.65e-05	1.9010541e-05
5.7513582e-05	1.65e-05	1.9226259e-05
5.7744316e-05	1.65e-05	1.9437819e-05
5.8006264e-05	1.65e-05	1.9650661e-05
5.8300915e-05	1.65e-05	1.9864112e-05
5.86374e-05	1.65e-05	2.0066384e-05
5.9021224e-05	1.65e-05	2.0249994e-05
5.9454527e-05	1.65e-05	2.0409123e-05
5.9938157e-05	1.65e-05	2.0537233e-05
6.0470095e-05	1.65e-05	2.0630696e-05
6.1045083e-05	1.65e-05	2.0690703e-05
6.1657851e-05	1.65e-05	2.0722037e-05
6.2304497e-05	1.65e-05	2.0731978e-05
6.2982094e-05	1.65e-05	2.0726967e-05
6.3688545e-05	1.65e-05	2.0712436e-05
6.4422368e-05	1.65e-05	2.0692772e-05
6.5182347e-05	1.65e-05	2.0671049e-05
6.5967372e-05	1.65e-05	2.0649082e-05
6.6776066e-05	1.65e-05	2.0627575e-05
6.760661e-05	1.65e-05	2.0606896e-05
6.8457349e-05	1.65e-05	2.0587659e-05
6.9327067e-05	1.65e-05	2.0570403e-05
7.0214745e-05	1.65e-05	2.0555385e-05
7.1119554e-05	1.65e-05	2.054258e-05
7.2040656e-05	1.65e-05	2.0531452e-05
7.2976667e-05	1.65e-05	2.0521213e-05
7.3925923e-05	1.65e-05	2.0511693e-05
7.4887337e-05	1.65e-05	2.0503348e-05
7.58604e-05	1.65e-05	2.0496601e-05
7.6844845e-05	1.65e-05	2.0491565e-05
7.7840447e-05	1.65e-05	2.0487887e-05
7.8846581e-05	1.65e-05	2.0484777e-05
7.9862042e-05	1.65e-05	2.048168e-05
8.0885717e-05	1.65e-05	2.0478837e-05
8.1917183e-05	1.65e-05	2.0476857e-05
8.2956452e-05	1.65e-05	2.0476063e-05
8.4003581e-05	1.65e-05	2.0476348e-05
8.5058432e-05	1.65e-05	2.0477185e-05
8.6120397e-05	1.65e-05	2.0477928e-05
8.7188581e-05	1.65e-05	2.0478383e-05
8.8262366e-05	1.65e-05	2.0478926e-05
8.9341632e-05	1.65e-05	2.0480039e-05
9.0426501e-05	1.65e-05	2.0481911e-05
9.1517091e-05	1.65e-05	2.048436e-05
9.2613265e-05	1.65e-05	2.0486918e-05
9.3714562e-05	1.65e-05	2.0489161e-05
9.4820387e-05	1.65e-05	2.0490973e-05
9.593026e-05	1.65e-05	2.0492626e-05
9.7044065e-05	1.65e-05	2.0494574e-05
9.8161987e-05	1.65e-05	2.0497035e-05
9.9284201e-05	1.65e-05	2.0499845e-05
0.00010041063	1.65e-05	2.0502602e-05
0.00010154091	1.65e-05	2.0504914e-05
0.00010267444	1.65e-05	2.0506657e-05
0.00010381074	1.65e-05	2.0508161e-05
0.00010492506	1.65e-05	2.0509913e-05
