{
  "experiment_name": "timing",
  "num_ranks": 2,
  "metrics": [
    {
      "identifier": "MPI: particle handling",
      "timers": { "rank_0": 56.47, "rank_1": 76.00 }
    },
    {
      "identifier": "MPI: particle (overhead)",
      "timers": { "rank_0": 183.42, "rank_1": 177.11 }
    },
    {
      "identifier": "MPI: particle",
      "timers": { "rank_0": 485.47, "rank_1": 545.87 }
    },
    {
      "identifier": "CPU: particle handling",
      "timers": { "rank_0": 402.86, "rank_1": 316.57 }
    },
    {
      "identifier": "CPU: particle mapping",
      "timers": { "rank_0": 27454.60, "rank_1": 26644.52 }
    },
    {
      "identifier": "Copy: CPU -> GPU",
      "timers": { "rank_0": 57720.02, "rank_1": 24597.83 }
    },
    {
      "identifier": "CL: PartMapLP",
      "timers": { "rank_0": 25266.06, "rank_1": 47851.55 }
    },
    {
      "identifier": "Copy: GPU -> CPU",
      "timers": { "rank_0": 62350.17, "rank_1": 56875.85 }
    },
    {
      "identifier": "CL: LEGalilei",
      "timers": { "rank_0": 11704.82, "rank_1": 10698.82 }
    },
    {
      "identifier": "CL: LEShift",
      "timers": { "rank_0": 5946.51, "rank_1": 6158.85 }
    },
    {
      "identifier": "CL: PropagateCollide",
      "timers": { "rank_0": 96595.12, "rank_1": 90557.02 }
    },
    {
      "identifier": "OMP: part ext forces",
      "timers": { "rank_0": 14.44, "rank_1": 10.69 }
    },
    {
      "identifier": "OMP: part int forces",
      "timers": { "rank_0": 3645.51, "rank_1": 3957.94 }
    },
    {
      "identifier": "OMP: part-part forces",
      "timers": { "rank_0": 9777.29, "rank_1": 11972.67 }
    },
    {
      "identifier": "MPI: particle forces (overhead)",
      "timers": { "rank_0": 213.73, "rank_1": 200.29 }
    },
    {
      "identifier": "MPI: particle forces",
      "timers": { "rank_0": 1266.41, "rank_1": 34077.32 }
    },
    {
      "identifier": "OMP: particle dynamics",
      "timers": { "rank_0": 3444.17, "rank_1": 3144.31 }
    },
    {
      "identifier": "I/O: output",
      "timers": { "rank_0": 474616.11, "rank_1": 485556.77 }
    },
    {
      "identifier": "ALL: total time",
      "timers": { "rank_0": 1034496.16, "rank_1": 1034502.94 }
    }
  ]
}
