{
  "experiment_name": "timing",
  "num_ranks": 2,
  "metrics": [
    {
      "identifier": "MPI: particle handling",
      "timers": { "rank_0": 138.46, "rank_1": 192.06 }
    },
    {
      "identifier": "MPI: particle (overhead)",
      "timers": { "rank_0": 217.14, "rank_1": 193.27 }
    },
    {
      "identifier": "MPI: particle",
      "timers": { "rank_0": 1097.26, "rank_1": 1198.84 }
    },
    {
      "identifier": "CPU: particle handling",
      "timers": { "rank_0": 627.05, "rank_1": 422.62 }
    },
    {
      "identifier": "CPU: particle mapping",
      "timers": { "rank_0": 29454.90, "rank_1": 32142.70 }
    },
    {
      "identifier": "Copy: CPU -> GPU",
      "timers": { "rank_0": 64463.87, "rank_1": 28602.34 }
    },
    {
      "identifier": "CL: PartMapLP",
      "timers": { "rank_0": 25628.37, "rank_1": 45698.50 }
    },
    {
      "identifier": "Copy: GPU -> CPU",
      "timers": { "rank_0": 62729.27, "rank_1": 51427.40 }
    },
    {
      "identifier": "CL: LEGalilei",
      "timers": { "rank_0": 33705.82, "rank_1": 24790.54 }
    },
    {
      "identifier": "CL: LEShift",
      "timers": { "rank_0": 16430.17, "rank_1": 11447.04 }
    },
    {
      "identifier": "CL: PropagateCollide",
      "timers": { "rank_0": 129458.72, "rank_1": 73227.56 }
    },
    {
      "identifier": "OMP: part ext forces",
      "timers": { "rank_0": 29.96, "rank_1": 22.58 }
    },
    {
      "identifier": "OMP: part int forces",
      "timers": { "rank_0": 6374.38, "rank_1": 7110.75 }
    },
    {
      "identifier": "OMP: part-part forces",
      "timers": { "rank_0": 8958.23, "rank_1": 11662.40 }
    },
    {
      "identifier": "MPI: particle forces (overhead)",
      "timers": { "rank_0": 230.21, "rank_1": 210.91 }
    },
    {
      "identifier": "MPI: particle forces",
      "timers": { "rank_0": 3375.72, "rank_1": 102316.73 }
    },
    {
      "identifier": "OMP: particle dynamics",
      "timers": { "rank_0": 6516.55, "rank_1": 5972.87 }
    },
    {
      "identifier": "I/O: output",
      "timers": { "rank_0": 156018.87, "rank_1": 163707.98 }
    },
    {
      "identifier": "ALL: total time",
      "timers": { "rank_0": 891673.87, "rank_1": 891521.23 }
    }
  ]
}
