{
  "experiment_name": "timing",
  "num_ranks": 2,
  "metrics": [
    {
      "identifier": "MPI: particle handling",
      "timers": { "rank_0": 500.28, "rank_1": 1043.29 }
    },
    {
      "identifier": "MPI: particle (overhead)",
      "timers": { "rank_0": 1441.51, "rank_1": 1550.87 }
    },
    {
      "identifier": "MPI: particle",
      "timers": { "rank_0": 6652.77, "rank_1": 5157.37 }
    },
    {
      "identifier": "CPU: particle handling",
      "timers": { "rank_0": 3696.07, "rank_1": 3153.67 }
    },
    {
      "identifier": "CPU: particle mapping",
      "timers": { "rank_0": 201494.81, "rank_1": 246422.37 }
    },
    {
      "identifier": "Copy: CPU -> GPU",
      "timers": { "rank_0": 503911.36, "rank_1": 225815.22 }
    },
    {
      "identifier": "CL: PartMapLP",
      "timers": { "rank_0": 181585.43, "rank_1": 352176.90 }
    },
    {
      "identifier": "Copy: GPU -> CPU",
      "timers": { "rank_0": 486426.39, "rank_1": 414022.73 }
    },
    {
      "identifier": "CL: LEGalilei",
      "timers": { "rank_0": 124855.31, "rank_1": 127038.07 }
    },
    {
      "identifier": "CL: LEShift",
      "timers": { "rank_0": 43036.08, "rank_1": 42666.16 }
    },
    {
      "identifier": "CL: PropagateCollide",
      "timers": { "rank_0": 741634.41, "rank_1": 623761.20 }
    },
    {
      "identifier": "OMP: part ext forces",
      "timers": { "rank_0": 143.06, "rank_1": 115.96 }
    },
    {
      "identifier": "OMP: part int forces",
      "timers": { "rank_0": 33275.11, "rank_1": 38626.70 }
    },
    {
      "identifier": "OMP: part-part forces",
      "timers": { "rank_0": 69304.17, "rank_1": 86002.04 }
    },
    {
      "identifier": "MPI: particle forces (overhead)",
      "timers": { "rank_0": 1622.67, "rank_1": 1587.24 }
    },
    {
      "identifier": "MPI: particle forces",
      "timers": { "rank_0": 9202.53, "rank_1": 343541.58 }
    },
    {
      "identifier": "OMP: particle dynamics",
      "timers": { "rank_0": 32556.63, "rank_1": 30597.60 }
    },
    {
      "identifier": "I/O: output",
      "timers": { "rank_0": 290099.22, "rank_1": 323506.25 }
    },
    {
      "identifier": "ALL: total time",
      "timers": { "rank_0": 4796000.68, "rank_1": 4795562.11 }
    }
  ]
}
