{
  "experiment_name": "timing",
  "num_ranks": 2,
  "metrics": [
    {
      "identifier": "MPI: particle handling",
      "timers": { "rank_0": 5685.98, "rank_1": 8871.37 }
    },
    {
      "identifier": "MPI: particle (overhead)",
      "timers": { "rank_0": 19882.31, "rank_1": 18862.69 }
    },
    {
      "identifier": "MPI: particle",
      "timers": { "rank_0": 62786.92, "rank_1": 49359.16 }
    },
    {
      "identifier": "CPU: particle handling",
      "timers": { "rank_0": 43982.60, "rank_1": 33879.89 }
    },
    {
      "identifier": "CPU: particle mapping",
      "timers": { "rank_0": 2713644.14, "rank_1": 4652712.90 }
    },
    {
      "identifier": "Copy: CPU -> GPU",
      "timers": { "rank_0": 8105089.88, "rank_1": 4432443.57 }
    },
    {
      "identifier": "CL: PartMapLP",
      "timers": { "rank_0": 2497077.80, "rank_1": 5068467.06 }
    },
    {
      "identifier": "Copy: GPU -> CPU",
      "timers": { "rank_0": 6224018.90, "rank_1": 5839821.41 }
    },
    {
      "identifier": "CL: LEGalilei",
      "timers": { "rank_0": 2688012.29, "rank_1": 2807483.86 }
    },
    {
      "identifier": "CL: LEShift",
      "timers": { "rank_0": 520031.75, "rank_1": 531828.19 }
    },
    {
      "identifier": "CL: PropagateCollide",
      "timers": { "rank_0": 9603763.07, "rank_1": 9169566.31 }
    },
    {
      "identifier": "OMP: part ext forces",
      "timers": { "rank_0": 1342.24, "rank_1": 1136.75 }
    },
    {
      "identifier": "OMP: part int forces",
      "timers": { "rank_0": 318148.91, "rank_1": 401668.61 }
    },
    {
      "identifier": "OMP: part-part forces",
      "timers": { "rank_0": 873501.42, "rank_1": 1130552.03 }
    },
    {
      "identifier": "MPI: particle forces (overhead)",
      "timers": { "rank_0": 21141.44, "rank_1": 19894.86 }
    },
    {
      "identifier": "MPI: particle forces",
      "timers": { "rank_0": 93775.25, "rank_1": 2892113.44 }
    },
    {
      "identifier": "OMP: particle dynamics",
      "timers": { "rank_0": 325822.64, "rank_1": 337081.39 }
    },
    {
      "identifier": "I/O: output",
      "timers": { "rank_0": 453121.73, "rank_1": 482213.80 }
    },
    {
      "identifier": "ALL: total time",
      "timers": { "rank_0": 59063669.13, "rank_1": 59063500.90 }
    }
  ]
}
