8.9901201e-05	1.65e-05	1.4500028e-05
8.9302408e-05	1.65e-05	1.4500062e-05
8.8703631e-05	1.65e-05	1.4500176e-05
8.8104903e-05	1.65e-05	1.4500383e-05
8.750626e-05	1.65e-05	1.4500712e-05
8.6907707e-05	1.65e-05	1.4501172e-05
8.6309227e-05	1.65e-05	1.4501746e-05
8.5710779e-05	1.65e-05	1.4502487e-05
8.5112308e-05	1.65e-05	1.4503423e-05
8.4513813e-05	1.65e-05	1.4504686e-05
8.3915385e-05	1.65e-05	1.4506371e-05
8.3317123e-05	1.65e-05	1.4508473e-05
8.2719105e-05	1.65e-05	1.451101e-05
8.2121353e-05	1.65e-05	1.4513904e-05
8.1523822e-05	1.65e-05	1.4517167e-05
8.0926484e-05	1.65e-05	1.4520887e-05
8.0329414e-05	1.65e-05	1.4525153e-05
7.973277e-05	1.65e-05	1.4530045e-05
7.9136696e-05	1.65e-05	1.4535495e-05
7.8541264e-05	1.65e-05	1.4541456e-05
7.7946477e-05	1.65e-05	1.4547885e-05
7.7352305e-05	1.65e-05	1.4554813e-05
7.6758822e-05	1.65e-05	1.4562393e-05
7.616622e-05	1.65e-05	1.457067e-05
7.5574709e-05	1.65e-05	1.4579664e-05
7.4984493e-05	1.65e-05	1.4589277e-05
7.4395596e-05	1.65e-05	1.4599411e-05
7.3808083e-05	1.65e-05	1.461011e-05
7.3222039e-05	1.65e-05	1.4621397e-05
7.2637649e-05	1.65e-05	1.4633395e-05
7.2055261e-05	1.65e-05	1.464609e-05
7.1475131e-05	1.65e-05	1.4659366e-05
7.0897507e-05	1.65e-05	1.4673107e-05
7.0322529e-05	1.65e-05	1.4687188e-05
6.9750448e-05	1.65e-05	1.4701616e-05
6.9181589e-05	1.65e-05	1.4716289e-05
6.8616453e-05	1.65e-05	1.4731152e-05
6.8055659e-05	1.65e-05	1.4745918e-05
6.7499905e-05	1.65e-05	1.4760177e-05
6.6949942e-05	1.65e-05	1.4773468e-05
6.6406934e-05	1.65e-05	1.478506e-05
6.5872462e-05	1.65e-05	1.4794035e-05
6.5349305e-05	1.65e-05	1.4798581e-05
6.4842142e-05	1.65e-05	1.4795755e-05
6.4363334e-05	1.65e-05	1.4777639e-05
6.4053217e-05	1.65e-05	1.4661763e-05
6.3914281e-05	1.65e-05	1.4413556e-05
6.3740384e-05	1.65e-05	1.4149507e-05
6.3533619e-05	1.65e-05	1.3882624e-05
6.3292315e-05	1.65e-05	1.3621068e-05
6.3010252e-05	1.65e-05	1.3372577e-05
6.2686236e-05	1.65e-05	1.3136905e-05
6.2316907e-05	1.65e-05	1.2918958e-05
6.1900116e-05	1.65e-05	1.2725366e-05
6.1435709e-05	1.65e-05	1.2561599e-05
6.0923911e-05	1.65e-05	1.2431927e-05
6.0365753e-05	1.65e-05	1.2338335e-05
5.9766899e-05	1.65e-05	1.2276776e-05
5.9132348e-05	1.65e-05	1.2240066e-05
5.8465383e-05	1.65e-05	1.2220796e-05
5.7768483e-05	1.65e-05	1.2212849e-05
5.7043167e-05	1.65e-05	1.2211021e-05
5.6290405e-05	1.65e-05	1.221145e-05
5.5511181e-05	1.65e-05	1.2211667e-05
5.4706587e-05	1.65e-05	1.2210087e-05
5.3877701e-05	1.65e-05	1.2205708e-05
5.3025519e-05	1.65e-05	1.2197891e-05
5.2150824e-05	1.65e-05	1.2186212e-05
5.1254116e-05	1.65e-05	1.2170569e-05
5.0335942e-05	1.65e-05	1.2151306e-05
4.9397208e-05	1.65e-05	1.2128859e-05
4.8438904e-05	1.65e-05	1.2103429e-05
4.746183e-05	1.65e-05	1.2075017e-05
4.6466488e-05	1.65e-05	1.2043484e-05
4.5452923e-05	1.65e-05	1.2008742e-05
4.4420956e-05	1.65e-05	1.1971138e-05
4.3370823e-05	1.65e-05	1.1931378e-05
4.2303251e-05	1.65e-05	1.1889923e-05
4.1218927e-05	1.65e-05	1.1846783e-05
4.0118189e-05	1.65e-05	1.1801709e-05
3.9000874e-05	1.65e-05	1.17544e-05
3.7866385e-05	1.65e-05	1.170492e-05
3.6714339e-05	1.65e-05	1.1653929e-05
3.5545082e-05	1.65e-05	1.1602179e-05
3.4359348e-05	1.65e-05	1.1549927e-05
3.315765e-05	1.65e-05	1.1496897e-05
3.1939969e-05	1.65e-05	1.1442619e-05
3.0705692e-05	1.65e-05	1.1386869e-05
2.9454093e-05	1.65e-05	1.1330052e-05
2.8185034e-05	1.65e-05	1.1272958e-05
2.6898976e-05	1.65e-05	1.121616e-05
2.5596516e-05	1.65e-05	1.1159698e-05
2.4277901e-05	1.65e-05	1.1103161e-05
2.2942753e-05	1.65e-05	1.1046155e-05
2.1590364e-05	1.65e-05	1.0988779e-05
2.0220352e-05	1.65e-05	1.0931625e-05
1.883284e-05	1.65e-05	1.0875299e-05
1.7428242e-05	1.65e-05	1.0820165e-05
1.6007049e-05	1.65e-05	1.0766309e-05
1.4569503e-05	1.65e-05	1.0713482e-05
1.4271971e-05	1.65e-05	1.070273e-05
