{
  "experiment_name": "timing",
  "num_ranks": 2,
  "metrics": [
    {
      "identifier": "MPI: particle handling",
      "timers": { "rank_0": 3.56, "rank_1": 3.12 }
    },
    {
      "identifier": "MPI: particle (overhead)",
      "timers": { "rank_0": 13.56, "rank_1": 11.04 }
    },
    {
      "identifier": "MPI: particle",
      "timers": { "rank_0": 34.84, "rank_1": 212.21 }
    },
    {
      "identifier": "CPU: particle handling",
      "timers": { "rank_0": 45.74, "rank_1": 32.29 }
    },
    {
      "identifier": "CPU: particle mapping",
      "timers": { "rank_0": 2798.11, "rank_1": 2310.16 }
    },
    {
      "identifier": "Copy: CPU -> GPU",
      "timers": { "rank_0": 4596.36, "rank_1": 2179.70 }
    },
    {
      "identifier": "CL: PartMapLP",
      "timers": { "rank_0": 2656.76, "rank_1": 4289.43 }
    },
    {
      "identifier": "Copy: GPU -> CPU",
      "timers": { "rank_0": 14224.67, "rank_1": 6381.30 }
    },
    {
      "identifier": "CL: LEGalilei",
      "timers": { "rank_0": 555.34, "rank_1": 550.53 }
    },
    {
      "identifier": "CL: LEShift",
      "timers": { "rank_0": 396.00, "rank_1": 390.70 }
    },
    {
      "identifier": "CL: PropagateCollide",
      "timers": { "rank_0": 10307.80, "rank_1": 9198.93 }
    },
    {
      "identifier": "OMP: part ext forces",
      "timers": { "rank_0": 1.19, "rank_1": 0.87 }
    },
    {
      "identifier": "OMP: part int forces",
      "timers": { "rank_0": 226.46, "rank_1": 197.38 }
    },
    {
      "identifier": "OMP: part-part forces",
      "timers": { "rank_0": 733.25, "rank_1": 724.53 }
    },
    {
      "identifier": "MPI: particle forces (overhead)",
      "timers": { "rank_0": 15.87, "rank_1": 16.90 }
    },
    {
      "identifier": "MPI: particle forces",
      "timers": { "rank_0": 70.34, "rank_1": 4452.15 }
    },
    {
      "identifier": "OMP: particle dynamics",
      "timers": { "rank_0": 273.89, "rank_1": 145.11 }
    },
    {
      "identifier": "I/O: output",
      "timers": { "rank_0": 250975.14, "rank_1": 250895.42 }
    },
    {
      "identifier": "ALL: total time",
      "timers": { "rank_0": 312367.59, "rank_1": 312367.47 }
    }
  ]
}
