101
18036
36072
54108
72144
90180
108216
126252
144288
162324
180360
198396
216432
234468
252504
270540
288576
306612
324648
342684
360720
378756
396792
414828
432864
450900
468936
486972
505008
523044
541080
559116
577152
595188
613224
631260
649296
667332
685368
703404
721440
739476
757512
775548
793584
811620
829656
847692
865728
883764
901800
919836
937872
955908
973944
991980
1010016
1028052
1046088
1064124
1082160
1100196
1118232
1136268
1154304
1172340
1190376
1208412
1226448
1244484
1262520
1280556
1298592
1316628
1334664
1352700
1370736
1388772
1406808
1424844
1442880
1460916
1478952
1496988
1515024
1533060
1551096
1569132
1587168
1605204
1623240
1641276
1659312
1677348
1695384
1713420
1731456
1749492
1767528
1785564
1803600
1803601
