{
  "experiment_name": "timing",
  "num_ranks": 2,
  "metrics": [
    {
      "identifier": "MPI: particle handling",
      "timers": { "rank_0": 496.50, "rank_1": 702.87 }
    },
    {
      "identifier": "MPI: particle (overhead)",
      "timers": { "rank_0": 1064.20, "rank_1": 1097.66 }
    },
    {
      "identifier": "MPI: particle",
      "timers": { "rank_0": 4974.69, "rank_1": 5218.45 }
    },
    {
      "identifier": "CPU: particle handling",
      "timers": { "rank_0": 2850.23, "rank_1": 2317.43 }
    },
    {
      "identifier": "CPU: particle mapping",
      "timers": { "rank_0": 168527.50, "rank_1": 206194.20 }
    },
    {
      "identifier": "Copy: CPU -> GPU",
      "timers": { "rank_0": 387019.47, "rank_1": 188680.45 }
    },
    {
      "identifier": "CL: PartMapLP",
      "timers": { "rank_0": 150962.47, "rank_1": 258806.71 }
    },
    {
      "identifier": "Copy: GPU -> CPU",
      "timers": { "rank_0": 340769.25, "rank_1": 285431.98 }
    },
    {
      "identifier": "CL: LEGalilei",
      "timers": { "rank_0": 115171.00, "rank_1": 115899.70 }
    },
    {
      "identifier": "CL: LEShift",
      "timers": { "rank_0": 44442.59, "rank_1": 50497.04 }
    },
    {
      "identifier": "CL: PropagateCollide",
      "timers": { "rank_0": 685318.08, "rank_1": 433353.52 }
    },
    {
      "identifier": "OMP: part ext forces",
      "timers": { "rank_0": 148.91, "rank_1": 109.27 }
    },
    {
      "identifier": "OMP: part int forces",
      "timers": { "rank_0": 33076.64, "rank_1": 37342.18 }
    },
    {
      "identifier": "OMP: part-part forces",
      "timers": { "rank_0": 53065.77, "rank_1": 68078.28 }
    },
    {
      "identifier": "MPI: particle forces (overhead)",
      "timers": { "rank_0": 1288.90, "rank_1": 1153.57 }
    },
    {
      "identifier": "MPI: particle forces",
      "timers": { "rank_0": 10815.03, "rank_1": 422705.38 }
    },
    {
      "identifier": "OMP: particle dynamics",
      "timers": { "rank_0": 33509.72, "rank_1": 30375.97 }
    },
    {
      "identifier": "I/O: output",
      "timers": { "rank_0": 192786.13, "rank_1": 215262.45 }
    },
    {
      "identifier": "ALL: total time",
      "timers": { "rank_0": 3934655.12, "rank_1": 3934655.07 }
    }
  ]
}
