{
  "experiment_name": "timing",
  "num_ranks": 2,
  "metrics": [
    {
      "identifier": "MPI: particle handling",
      "timers": { "rank_0": 6.80, "rank_1": 7.91 }
    },
    {
      "identifier": "MPI: particle (overhead)",
      "timers": { "rank_0": 72.13, "rank_1": 68.33 }
    },
    {
      "identifier": "MPI: particle",
      "timers": { "rank_0": 215.14, "rank_1": 165.73 }
    },
    {
      "identifier": "CPU: particle handling",
      "timers": { "rank_0": 95.27, "rank_1": 95.35 }
    },
    {
      "identifier": "CPU: particle mapping",
      "timers": { "rank_0": 7570.93, "rank_1": 7259.48 }
    },
    {
      "identifier": "Copy: CPU -> GPU",
      "timers": { "rank_0": 12631.82, "rank_1": 11712.86 }
    },
    {
      "identifier": "CL: PartMapLP",
      "timers": { "rank_0": 7225.94, "rank_1": 6932.36 }
    },
    {
      "identifier": "Copy: GPU -> CPU",
      "timers": { "rank_0": 17703.68, "rank_1": 41914.44 }
    },
    {
      "identifier": "CL: LEGalilei",
      "timers": { "rank_0": 4968.37, "rank_1": 4717.72 }
    },
    {
      "identifier": "CL: LEShift",
      "timers": { "rank_0": 3976.25, "rank_1": 3640.31 }
    },
    {
      "identifier": "CL: PropagateCollide",
      "timers": { "rank_0": 25681.58, "rank_1": 24305.01 }
    },
    {
      "identifier": "OMP: part ext forces",
      "timers": { "rank_0": 1.76, "rank_1": 1.37 }
    },
    {
      "identifier": "OMP: part int forces",
      "timers": { "rank_0": 498.62, "rank_1": 646.04 }
    },
    {
      "identifier": "OMP: part-part forces",
      "timers": { "rank_0": 2409.88, "rank_1": 2961.82 }
    },
    {
      "identifier": "MPI: particle forces (overhead)",
      "timers": { "rank_0": 56.27, "rank_1": 97.73 }
    },
    {
      "identifier": "MPI: particle forces",
      "timers": { "rank_0": 209.69, "rank_1": 3543.84 }
    },
    {
      "identifier": "OMP: particle dynamics",
      "timers": { "rank_0": 429.51, "rank_1": 459.16 }
    },
    {
      "identifier": "I/O: output",
      "timers": { "rank_0": 1215884.61, "rank_1": 1254614.65 }
    },
    {
      "identifier": "ALL: total time",
      "timers": { "rank_0": 1421529.77, "rank_1": 1421220.71 }
    }
  ]
}
