{
  "experiment_name": "timing",
  "num_ranks": 2,
  "metrics": [
    {
      "identifier": "MPI: particle handling",
      "timers": { "rank_0": 5666.20, "rank_1": 13020.06 }
    },
    {
      "identifier": "MPI: particle (overhead)",
      "timers": { "rank_0": 11571.96, "rank_1": 11621.36 }
    },
    {
      "identifier": "MPI: particle",
      "timers": { "rank_0": 51722.59, "rank_1": 147390.55 }
    },
    {
      "identifier": "CPU: particle handling",
      "timers": { "rank_0": 42454.37, "rank_1": 25954.70 }
    },
    {
      "identifier": "CPU: particle mapping",
      "timers": { "rank_0": 1651807.05, "rank_1": 2066115.10 }
    },
    {
      "identifier": "Copy: CPU -> GPU",
      "timers": { "rank_0": 4098746.72, "rank_1": 1877919.92 }
    },
    {
      "identifier": "CL: PartMapLP",
      "timers": { "rank_0": 1470924.96, "rank_1": 2596466.14 }
    },
    {
      "identifier": "Copy: GPU -> CPU",
      "timers": { "rank_0": 3509242.34, "rank_1": 2870639.97 }
    },
    {
      "identifier": "CL: LEGalilei",
      "timers": { "rank_0": 1247735.50, "rank_1": 1206713.60 }
    },
    {
      "identifier": "CL: LEShift",
      "timers": { "rank_0": 434401.20, "rank_1": 421628.13 }
    },
    {
      "identifier": "CL: PropagateCollide",
      "timers": { "rank_0": 6748556.01, "rank_1": 4383163.99 }
    },
    {
      "identifier": "OMP: part ext forces",
      "timers": { "rank_0": 1456.75, "rank_1": 1260.71 }
    },
    {
      "identifier": "OMP: part int forces",
      "timers": { "rank_0": 336342.88, "rank_1": 392247.40 }
    },
    {
      "identifier": "OMP: part-part forces",
      "timers": { "rank_0": 503891.62, "rank_1": 714866.57 }
    },
    {
      "identifier": "MPI: particle forces (overhead)",
      "timers": { "rank_0": 12560.51, "rank_1": 11752.07 }
    },
    {
      "identifier": "MPI: particle forces",
      "timers": { "rank_0": 80029.63, "rank_1": 4253230.12 }
    },
    {
      "identifier": "OMP: particle dynamics",
      "timers": { "rank_0": 428610.65, "rank_1": 307046.32 }
    },
    {
      "identifier": "I/O: output",
      "timers": { "rank_0": 189962.38, "rank_1": 217749.33 }
    },
    {
      "identifier": "ALL: total time",
      "timers": { "rank_0": 38935773.61, "rank_1": 38935471.03 }
    }
  ]
}
