{
  "experiment_name": "timing",
  "num_ranks": 2,
  "metrics": [
    {
      "identifier": "MPI: particle handling",
      "timers": { "rank_0": 51.93, "rank_1": 59.42 }
    },
    {
      "identifier": "MPI: particle (overhead)",
      "timers": { "rank_0": 137.58, "rank_1": 129.30 }
    },
    {
      "identifier": "MPI: particle",
      "timers": { "rank_0": 469.71, "rank_1": 587.20 }
    },
    {
      "identifier": "CPU: particle handling",
      "timers": { "rank_0": 357.86, "rank_1": 270.02 }
    },
    {
      "identifier": "CPU: particle mapping",
      "timers": { "rank_0": 21212.36, "rank_1": 19191.47 }
    },
    {
      "identifier": "Copy: CPU -> GPU",
      "timers": { "rank_0": 39743.84, "rank_1": 16773.71 }
    },
    {
      "identifier": "CL: PartMapLP",
      "timers": { "rank_0": 18790.15, "rank_1": 33862.81 }
    },
    {
      "identifier": "Copy: GPU -> CPU",
      "timers": { "rank_0": 46709.13, "rank_1": 41410.43 }
    },
    {
      "identifier": "CL: LEGalilei",
      "timers": { "rank_0": 6196.01, "rank_1": 6052.23 }
    },
    {
      "identifier": "CL: LEShift",
      "timers": { "rank_0": 4400.31, "rank_1": 4500.96 }
    },
    {
      "identifier": "CL: PropagateCollide",
      "timers": { "rank_0": 76813.19, "rank_1": 63307.50 }
    },
    {
      "identifier": "OMP: part ext forces",
      "timers": { "rank_0": 15.86, "rank_1": 13.70 }
    },
    {
      "identifier": "OMP: part int forces",
      "timers": { "rank_0": 3745.63, "rank_1": 3565.43 }
    },
    {
      "identifier": "OMP: part-part forces",
      "timers": { "rank_0": 7381.70, "rank_1": 8159.09 }
    },
    {
      "identifier": "MPI: particle forces (overhead)",
      "timers": { "rank_0": 162.68, "rank_1": 151.12 }
    },
    {
      "identifier": "MPI: particle forces",
      "timers": { "rank_0": 869.62, "rank_1": 34959.30 }
    },
    {
      "identifier": "OMP: particle dynamics",
      "timers": { "rank_0": 3264.69, "rank_1": 2719.11 }
    },
    {
      "identifier": "I/O: output",
      "timers": { "rank_0": 324934.45, "rank_1": 324417.94 }
    },
    {
      "identifier": "ALL: total time",
      "timers": { "rank_0": 753114.67, "rank_1": 753067.19 }
    }
  ]
}
