{
  "experiment_name": "timing",
  "num_ranks": 2,
  "metrics": [
    {
      "identifier": "MPI: particle handling",
      "timers": { "rank_0": 4890.20, "rank_1": 7844.19 }
    },
    {
      "identifier": "MPI: particle (overhead)",
      "timers": { "rank_0": 10331.27, "rank_1": 11115.41 }
    },
    {
      "identifier": "MPI: particle",
      "timers": { "rank_0": 263291.50, "rank_1": 40278.97 }
    },
    {
      "identifier": "CPU: particle handling",
      "timers": { "rank_0": 29025.06, "rank_1": 25218.78 }
    },
    {
      "identifier": "CPU: particle mapping",
      "timers": { "rank_0": 1625996.29, "rank_1": 1882398.34 }
    },
    {
      "identifier": "Copy: CPU -> GPU",
      "timers": { "rank_0": 3864860.87, "rank_1": 1709022.48 }
    },
    {
      "identifier": "CL: PartMapLP",
      "timers": { "rank_0": 1457082.49, "rank_1": 2549077.32 }
    },
    {
      "identifier": "Copy: GPU -> CPU",
      "timers": { "rank_0": 3918209.26, "rank_1": 7344833.86 }
    },
    {
      "identifier": "CL: LEGalilei",
      "timers": { "rank_0": 1441086.77, "rank_1": 1363164.65 }
    },
    {
      "identifier": "CL: LEShift",
      "timers": { "rank_0": 998073.51, "rank_1": 803098.99 }
    },
    {
      "identifier": "CL: PropagateCollide",
      "timers": { "rank_0": 7762573.97, "rank_1": 4820754.15 }
    },
    {
      "identifier": "OMP: part ext forces",
      "timers": { "rank_0": 1342.24, "rank_1": 1109.26 }
    },
    {
      "identifier": "OMP: part int forces",
      "timers": { "rank_0": 292929.04, "rank_1": 340198.49 }
    },
    {
      "identifier": "OMP: part-part forces",
      "timers": { "rank_0": 467448.61, "rank_1": 642295.95 }
    },
    {
      "identifier": "MPI: particle forces (overhead)",
      "timers": { "rank_0": 11468.31, "rank_1": 11695.28 }
    },
    {
      "identifier": "MPI: particle forces",
      "timers": { "rank_0": 87249.54, "rank_1": 4238292.97 }
    },
    {
      "identifier": "OMP: particle dynamics",
      "timers": { "rank_0": 354353.42, "rank_1": 297009.66 }
    },
    {
      "identifier": "I/O: output",
      "timers": { "rank_0": 174962.74, "rank_1": 195860.47 }
    },
    {
      "identifier": "ALL: total time",
      "timers": { "rank_0": 48023268.33, "rank_1": 48022966.39 }
    }
  ]
}
