{
  "experiment_name": "timing",
  "num_ranks": 2,
  "metrics": [
    {
      "identifier": "MPI: particle handling",
      "timers": { "rank_0": 9294.01, "rank_1": 7544.47 }
    },
    {
      "identifier": "MPI: particle (overhead)",
      "timers": { "rank_0": 32230.47, "rank_1": 29161.34 }
    },
    {
      "identifier": "MPI: particle",
      "timers": { "rank_0": 69406.41, "rank_1": 80847.30 }
    },
    {
      "identifier": "CPU: particle handling",
      "timers": { "rank_0": 87538.60, "rank_1": 65020.27 }
    },
    {
      "identifier": "CPU: particle mapping",
      "timers": { "rank_0": 2487.43, "rank_1": 2530.86 }
    },
    {
      "identifier": "Copy: CPU -> GPU",
      "timers": { "rank_0": 4653.74, "rank_1": 2364.89 }
    },
    {
      "identifier": "CL: PartMapLP",
      "timers": { "rank_0": 2316.88, "rank_1": 4178.50 }
    },
    {
      "identifier": "Copy: GPU -> CPU",
      "timers": { "rank_0": 6523.52, "rank_1": 6045.03 }
    },
    {
      "identifier": "CL: LEGalilei",
      "timers": { "rank_0": 741.23, "rank_1": 755.29 }
    },
    {
      "identifier": "CL: LEShift",
      "timers": { "rank_0": 408.67, "rank_1": 399.74 }
    },
    {
      "identifier": "CL: PropagateCollide",
      "timers": { "rank_0": 9830.35, "rank_1": 8188.35 }
    },
    {
      "identifier": "OMP: part ext forces",
      "timers": { "rank_0": 2358.93, "rank_1": 2408.67 }
    },
    {
      "identifier": "OMP: part int forces",
      "timers": { "rank_0": 543358.74, "rank_1": 576437.09 }
    },
    {
      "identifier": "OMP: part-part forces",
      "timers": { "rank_0": 2492769.00, "rank_1": 2212881.04 }
    },
    {
      "identifier": "MPI: particle forces (overhead)",
      "timers": { "rank_0": 44541.50, "rank_1": 40179.96 }
    },
    {
      "identifier": "MPI: particle forces",
      "timers": { "rank_0": 236319.23, "rank_1": 454608.51 }
    },
    {
      "identifier": "OMP: particle dynamics",
      "timers": { "rank_0": 770870.95, "rank_1": 586642.67 }
    },
    {
      "identifier": "I/O: output",
      "timers": { "rank_0": 303061.24, "rank_1": 316699.30 }
    },
    {
      "identifier": "ALL: total time",
      "timers": { "rank_0": 5280438.40, "rank_1": 5280434.10 }
    }
  ]
}
