{
  "experiment_name": "timing",
  "num_ranks": 2,
  "metrics": [
    {
      "identifier": "MPI: particle handling",
      "timers": { "rank_0": 59.88, "rank_1": 102.45 }
    },
    {
      "identifier": "MPI: particle (overhead)",
      "timers": { "rank_0": 115.83, "rank_1": 112.17 }
    },
    {
      "identifier": "MPI: particle",
      "timers": { "rank_0": 598.97, "rank_1": 548.55 }
    },
    {
      "identifier": "CPU: particle handling",
      "timers": { "rank_0": 323.68, "rank_1": 239.55 }
    },
    {
      "identifier": "CPU: particle mapping",
      "timers": { "rank_0": 16338.73, "rank_1": 17413.42 }
    },
    {
      "identifier": "Copy: CPU -> GPU",
      "timers": { "rank_0": 35279.20, "rank_1": 15562.07 }
    },
    {
      "identifier": "CL: PartMapLP",
      "timers": { "rank_0": 14407.61, "rank_1": 26369.74 }
    },
    {
      "identifier": "Copy: GPU -> CPU",
      "timers": { "rank_0": 34810.39, "rank_1": 29155.23 }
    },
    {
      "identifier": "CL: LEGalilei",
      "timers": { "rank_0": 10548.79, "rank_1": 9082.14 }
    },
    {
      "identifier": "CL: LEShift",
      "timers": { "rank_0": 4656.72, "rank_1": 4333.55 }
    },
    {
      "identifier": "CL: PropagateCollide",
      "timers": { "rank_0": 68520.08, "rank_1": 43043.24 }
    },
    {
      "identifier": "OMP: part ext forces",
      "timers": { "rank_0": 14.97, "rank_1": 11.27 }
    },
    {
      "identifier": "OMP: part int forces",
      "timers": { "rank_0": 3605.98, "rank_1": 3748.62 }
    },
    {
      "identifier": "OMP: part-part forces",
      "timers": { "rank_0": 5442.86, "rank_1": 6577.01 }
    },
    {
      "identifier": "MPI: particle forces (overhead)",
      "timers": { "rank_0": 124.10, "rank_1": 121.48 }
    },
    {
      "identifier": "MPI: particle forces",
      "timers": { "rank_0": 1016.89, "rank_1": 45265.27 }
    },
    {
      "identifier": "OMP: particle dynamics",
      "timers": { "rank_0": 3305.43, "rank_1": 2862.15 }
    },
    {
      "identifier": "I/O: output",
      "timers": { "rank_0": 216396.88, "rank_1": 219939.64 }
    },
    {
      "identifier": "ALL: total time",
      "timers": { "rank_0": 595314.92, "rank_1": 595312.99 }
    }
  ]
}
