{
  "experiment_name": "timing",
  "num_ranks": 2,
  "metrics": [
    {
      "identifier": "MPI: particle handling",
      "timers": { "rank_0": 60.75, "rank_1": 102.98 }
    },
    {
      "identifier": "MPI: particle (overhead)",
      "timers": { "rank_0": 116.57, "rank_1": 108.20 }
    },
    {
      "identifier": "MPI: particle",
      "timers": { "rank_0": 526.95, "rank_1": 520.07 }
    },
    {
      "identifier": "CPU: particle handling",
      "timers": { "rank_0": 312.66, "rank_1": 242.17 }
    },
    {
      "identifier": "CPU: particle mapping",
      "timers": { "rank_0": 22552.41, "rank_1": 26045.34 }
    },
    {
      "identifier": "Copy: CPU -> GPU",
      "timers": { "rank_0": 44531.40, "rank_1": 24327.13 }
    },
    {
      "identifier": "CL: PartMapLP",
      "timers": { "rank_0": 20568.08, "rank_1": 26916.68 }
    },
    {
      "identifier": "Copy: GPU -> CPU",
      "timers": { "rank_0": 36024.22, "rank_1": 30445.09 }
    },
    {
      "identifier": "CL: LEGalilei",
      "timers": { "rank_0": 15417.66, "rank_1": 14409.64 }
    },
    {
      "identifier": "CL: LEShift",
      "timers": { "rank_0": 8871.23, "rank_1": 8108.72 }
    },
    {
      "identifier": "CL: PropagateCollide",
      "timers": { "rank_0": 80678.52, "rank_1": 49118.05 }
    },
    {
      "identifier": "OMP: part ext forces",
      "timers": { "rank_0": 15.44, "rank_1": 11.09 }
    },
    {
      "identifier": "OMP: part int forces",
      "timers": { "rank_0": 3321.54, "rank_1": 3733.46 }
    },
    {
      "identifier": "OMP: part-part forces",
      "timers": { "rank_0": 4946.15, "rank_1": 7097.18 }
    },
    {
      "identifier": "MPI: particle forces (overhead)",
      "timers": { "rank_0": 124.82, "rank_1": 113.20 }
    },
    {
      "identifier": "MPI: particle forces",
      "timers": { "rank_0": 946.16, "rank_1": 50584.51 }
    },
    {
      "identifier": "OMP: particle dynamics",
      "timers": { "rank_0": 3343.67, "rank_1": 3239.41 }
    },
    {
      "identifier": "I/O: output",
      "timers": { "rank_0": 194255.47, "rank_1": 211468.77 }
    },
    {
      "identifier": "ALL: total time",
      "timers": { "rank_0": 630870.66, "rank_1": 630424.28 }
    }
  ]
}
