{
  "experiment_name": "timing",
  "num_ranks": 2,
  "metrics": [
    {
      "identifier": "MPI: particle handling",
      "timers": { "rank_0": 122.06, "rank_1": 160.50 }
    },
    {
      "identifier": "MPI: particle (overhead)",
      "timers": { "rank_0": 204.97, "rank_1": 199.15 }
    },
    {
      "identifier": "MPI: particle",
      "timers": { "rank_0": 5078.04, "rank_1": 943.74 }
    },
    {
      "identifier": "CPU: particle handling",
      "timers": { "rank_0": 571.95, "rank_1": 385.07 }
    },
    {
      "identifier": "CPU: particle mapping",
      "timers": { "rank_0": 28609.34, "rank_1": 37024.33 }
    },
    {
      "identifier": "Copy: CPU -> GPU",
      "timers": { "rank_0": 67401.59, "rank_1": 33555.33 }
    },
    {
      "identifier": "CL: PartMapLP",
      "timers": { "rank_0": 25164.24, "rank_1": 45525.79 }
    },
    {
      "identifier": "Copy: GPU -> CPU",
      "timers": { "rank_0": 58271.59, "rank_1": 111769.65 }
    },
    {
      "identifier": "CL: LEGalilei",
      "timers": { "rank_0": 22675.77, "rank_1": 24461.65 }
    },
    {
      "identifier": "CL: LEShift",
      "timers": { "rank_0": 12165.20, "rank_1": 16762.77 }
    },
    {
      "identifier": "CL: PropagateCollide",
      "timers": { "rank_0": 143494.59, "rank_1": 82227.65 }
    },
    {
      "identifier": "OMP: part ext forces",
      "timers": { "rank_0": 28.34, "rank_1": 22.89 }
    },
    {
      "identifier": "OMP: part int forces",
      "timers": { "rank_0": 6079.51, "rank_1": 7355.76 }
    },
    {
      "identifier": "OMP: part-part forces",
      "timers": { "rank_0": 8484.59, "rank_1": 11760.05 }
    },
    {
      "identifier": "MPI: particle forces (overhead)",
      "timers": { "rank_0": 216.88, "rank_1": 213.83 }
    },
    {
      "identifier": "MPI: particle forces",
      "timers": { "rank_0": 2427.67, "rank_1": 74815.80 }
    },
    {
      "identifier": "OMP: particle dynamics",
      "timers": { "rank_0": 6160.16, "rank_1": 6438.60 }
    },
    {
      "identifier": "I/O: output",
      "timers": { "rank_0": 147666.58, "rank_1": 159925.72 }
    },
    {
      "identifier": "ALL: total time",
      "timers": { "rank_0": 992215.63, "rank_1": 992215.72 }
    }
  ]
}
