3.1098773e-05	1.65e-05	1.8499798e-05
3.1697492e-05	1.65e-05	1.8499627e-05
3.2296072e-05	1.65e-05	1.8498954e-05
3.2894267e-05	1.65e-05	1.8497842e-05
3.3491862e-05	1.65e-05	1.8496281e-05
3.4088878e-05	1.65e-05	1.849426e-05
3.4685454e-05	1.65e-05	1.8492045e-05
3.5281789e-05	1.65e-05	1.8489257e-05
3.587807e-05	1.65e-05	1.8485829e-05
3.6474032e-05	1.65e-05	1.8481056e-05
3.706875e-05	1.65e-05	1.8474628e-05
3.7661515e-05	1.65e-05	1.8467034e-05
3.8251833e-05	1.65e-05	1.8458325e-05
3.8839608e-05	1.65e-05	1.8449253e-05
3.9425364e-05	1.65e-05	1.8439717e-05
4.0009105e-05	1.65e-05	1.8429153e-05
4.0590327e-05	1.65e-05	1.8417199e-05
4.1167874e-05	1.65e-05	1.8403597e-05
4.1741049e-05	1.65e-05	1.8389209e-05
4.2309854e-05	1.65e-05	1.8374264e-05
4.2874456e-05	1.65e-05	1.8359298e-05
4.3435704e-05	1.65e-05	1.8343791e-05
4.3992832e-05	1.65e-05	1.8326932e-05
4.4545135e-05	1.65e-05	1.830875e-05
4.5091357e-05	1.65e-05	1.8289219e-05
4.5631268e-05	1.65e-05	1.8269659e-05
4.6165249e-05	1.65e-05	1.8249876e-05
4.669382e-05	1.65e-05	1.8230317e-05
4.7216869e-05	1.65e-05	1.8209713e-05
4.7733598e-05	1.65e-05	1.8188313e-05
4.8242861e-05	1.65e-05	1.8165642e-05
4.8743976e-05	1.65e-05	1.8143188e-05
4.9237381e-05	1.65e-05	1.8120957e-05
4.972364e-05	1.65e-05	1.8099565e-05
5.0202919e-05	1.65e-05	1.807807e-05
5.0674833e-05	1.65e-05	1.8056829e-05
5.1138435e-05	1.65e-05	1.8035175e-05
5.1592791e-05	1.65e-05	1.8014701e-05
5.2038211e-05	1.65e-05	1.7995551e-05
5.2475026e-05	1.65e-05	1.7978825e-05
5.2903495e-05	1.65e-05	1.7964162e-05
5.3323343e-05	1.65e-05	1.7952083e-05
5.3733809e-05	1.65e-05	1.7943266e-05
5.4133968e-05	1.65e-05	1.7938401e-05
5.4523204e-05	1.65e-05	1.7940379e-05
5.4901948e-05	1.65e-05	1.7949889e-05
5.5268755e-05	1.65e-05	1.7970161e-05
5.5622448e-05	1.65e-05	1.8004558e-05
5.5961406e-05	1.65e-05	1.8055956e-05
5.6278447e-05	1.65e-05	1.8135725e-05
5.6570826e-05	1.65e-05	1.8255428e-05
5.6827195e-05	1.65e-05	1.8432742e-05
5.705663e-05	1.65e-05	1.8682193e-05
5.7311052e-05	1.65e-05	1.8990898e-05
5.7636196e-05	1.65e-05	1.9329435e-05
5.8055513e-05	1.65e-05	1.9681615e-05
5.8591393e-05	1.65e-05	2.0024058e-05
5.9261039e-05	1.65e-05	2.0310778e-05
6.0057043e-05	1.65e-05	2.0485512e-05
6.0953263e-05	1.65e-05	2.0492727e-05
6.1868199e-05	1.65e-05	2.0302181e-05
6.2679845e-05	1.65e-05	1.994947e-05
6.3373554e-05	1.65e-05	1.9518481e-05
6.3975995e-05	1.65e-05	1.9119844e-05
6.4510608e-05	1.65e-05	1.8794688e-05
6.4998383e-05	1.65e-05	1.8547024e-05
6.5453644e-05	1.65e-05	1.8364885e-05
6.5888364e-05	1.65e-05	1.8234696e-05
6.630838e-05	1.65e-05	1.8142101e-05
6.6718474e-05	1.65e-05	1.807741e-05
6.7121117e-05	1.65e-05	1.8032551e-05
6.7519025e-05	1.65e-05	1.8003278e-05
6.791473e-05	1.65e-05	1.7985384e-05
6.8310291e-05	1.65e-05	1.7976741e-05
6.8708013e-05	1.65e-05	1.7975232e-05
6.9109056e-05	1.65e-05	1.7978048e-05
6.951359e-05	1.65e-05	1.7984546e-05
6.9921859e-05	1.65e-05	1.7993481e-05
7.0334379e-05	1.65e-05	1.8005131e-05
7.0752061e-05	1.65e-05	1.8019395e-05
7.1176033e-05	1.65e-05	1.8035485e-05
7.1607069e-05	1.65e-05	1.8053036e-05
7.2044828e-05	1.65e-05	1.8070338e-05
7.2488523e-05	1.65e-05	1.8088229e-05
7.293813e-05	1.65e-05	1.810639e-05
7.3393898e-05	1.65e-05	1.8125624e-05
7.385674e-05	1.65e-05	1.814582e-05
7.4327438e-05	1.65e-05	1.8166242e-05
7.4805725e-05	1.65e-05	1.8186257e-05
7.5290667e-05	1.65e-05	1.820521e-05
7.5781667e-05	1.65e-05	1.8224105e-05
7.6278674e-05	1.65e-05	1.8242955e-05
7.6782489e-05	1.65e-05	1.8262556e-05
7.7293652e-05	1.65e-05	1.8282017e-05
7.7812213e-05	1.65e-05	1.8300978e-05
7.833726e-05	1.65e-05	1.8318505e-05
7.8867514e-05	1.65e-05	1.8335175e-05
7.9402997e-05	1.65e-05	1.8351583e-05
7.9943712e-05	1.65e-05	1.8368056e-05
8.0490672e-05	1.65e-05	1.8384595e-05
8.0603817e-05	1.65e-05	1.8387949e-05
