{
  "experiment_name": "timing",
  "num_ranks": 2,
  "metrics": [
    {
      "identifier": "MPI: particle handling",
      "timers": { "rank_0": 13.07, "rank_1": 26.54 }
    },
    {
      "identifier": "MPI: particle (overhead)",
      "timers": { "rank_0": 31.63, "rank_1": 32.11 }
    },
    {
      "identifier": "MPI: particle",
      "timers": { "rank_0": 194.09, "rank_1": 236.88 }
    },
    {
      "identifier": "CPU: particle handling",
      "timers": { "rank_0": 94.03, "rank_1": 72.65 }
    },
    {
      "identifier": "CPU: particle mapping",
      "timers": { "rank_0": 4394.85, "rank_1": 5713.46 }
    },
    {
      "identifier": "Copy: CPU -> GPU",
      "timers": { "rank_0": 11735.07, "rank_1": 5308.22 }
    },
    {
      "identifier": "CL: PartMapLP",
      "timers": { "rank_0": 3975.67, "rank_1": 7254.72 }
    },
    {
      "identifier": "Copy: GPU -> CPU",
      "timers": { "rank_0": 10884.76, "rank_1": 19849.55 }
    },
    {
      "identifier": "CL: LEGalilei",
      "timers": { "rank_0": 4150.73, "rank_1": 3911.40 }
    },
    {
      "identifier": "CL: LEShift",
      "timers": { "rank_0": 2209.58, "rank_1": 1223.45 }
    },
    {
      "identifier": "CL: PropagateCollide",
      "timers": { "rank_0": 15522.01, "rank_1": 12672.89 }
    },
    {
      "identifier": "OMP: part ext forces",
      "timers": { "rank_0": 3.04, "rank_1": 2.38 }
    },
    {
      "identifier": "OMP: part int forces",
      "timers": { "rank_0": 642.52, "rank_1": 933.16 }
    },
    {
      "identifier": "OMP: part-part forces",
      "timers": { "rank_0": 1283.45, "rank_1": 1915.09 }
    },
    {
      "identifier": "MPI: particle forces (overhead)",
      "timers": { "rank_0": 34.69, "rank_1": 33.62 }
    },
    {
      "identifier": "MPI: particle forces",
      "timers": { "rank_0": 334.46, "rank_1": 7614.75 }
    },
    {
      "identifier": "OMP: particle dynamics",
      "timers": { "rank_0": 942.42, "rank_1": 687.99 }
    },
    {
      "identifier": "I/O: output",
      "timers": { "rank_0": 287459.31, "rank_1": 316808.70 }
    },
    {
      "identifier": "ALL: total time",
      "timers": { "rank_0": 433287.21, "rank_1": 432789.12 }
    }
  ]
}
