{
  "experiment_name": "timing",
  "num_ranks": 2,
  "metrics": [
    {
      "identifier": "MPI: particle handling",
      "timers": { "rank_0": 589.02, "rank_1": 1216.24 }
    },
    {
      "identifier": "MPI: particle (overhead)",
      "timers": { "rank_0": 1108.52, "rank_1": 1122.09 }
    },
    {
      "identifier": "MPI: particle",
      "timers": { "rank_0": 5864.91, "rank_1": 5324.41 }
    },
    {
      "identifier": "CPU: particle handling",
      "timers": { "rank_0": 3173.78, "rank_1": 2435.27 }
    },
    {
      "identifier": "CPU: particle mapping",
      "timers": { "rank_0": 160522.97, "rank_1": 201813.14 }
    },
    {
      "identifier": "Copy: CPU -> GPU",
      "timers": { "rank_0": 393358.61, "rank_1": 183154.86 }
    },
    {
      "identifier": "CL: PartMapLP",
      "timers": { "rank_0": 142569.80, "rank_1": 261871.72 }
    },
    {
      "identifier": "Copy: GPU -> CPU",
      "timers": { "rank_0": 344393.92, "rank_1": 283636.67 }
    },
    {
      "identifier": "CL: LEGalilei",
      "timers": { "rank_0": 130889.45, "rank_1": 117793.35 }
    },
    {
      "identifier": "CL: LEShift",
      "timers": { "rank_0": 45675.04, "rank_1": 41778.68 }
    },
    {
      "identifier": "CL: PropagateCollide",
      "timers": { "rank_0": 683660.44, "rank_1": 430544.15 }
    },
    {
      "identifier": "OMP: part ext forces",
      "timers": { "rank_0": 148.79, "rank_1": 119.97 }
    },
    {
      "identifier": "OMP: part int forces",
      "timers": { "rank_0": 33281.35, "rank_1": 37954.45 }
    },
    {
      "identifier": "OMP: part-part forces",
      "timers": { "rank_0": 51405.97, "rank_1": 70068.64 }
    },
    {
      "identifier": "MPI: particle forces (overhead)",
      "timers": { "rank_0": 1177.48, "rank_1": 1233.90 }
    },
    {
      "identifier": "MPI: particle forces",
      "timers": { "rank_0": 8831.92, "rank_1": 446265.56 }
    },
    {
      "identifier": "OMP: particle dynamics",
      "timers": { "rank_0": 37207.36, "rank_1": 30007.40 }
    },
    {
      "identifier": "I/O: output",
      "timers": { "rank_0": 187219.90, "rank_1": 211914.32 }
    },
    {
      "identifier": "ALL: total time",
      "timers": { "rank_0": 3858013.00, "rank_1": 3858032.14 }
    }
  ]
}
