{
  "experiment_name": "timing",
  "num_ranks": 2,
  "metrics": [
    {
      "identifier": "MPI: particle handling",
      "timers": { "rank_0": 3.99, "rank_1": 6.63 }
    },
    {
      "identifier": "MPI: particle (overhead)",
      "timers": { "rank_0": 5.80, "rank_1": 5.35 }
    },
    {
      "identifier": "MPI: particle",
      "timers": { "rank_0": 38.26, "rank_1": 33.35 }
    },
    {
      "identifier": "CPU: particle handling",
      "timers": { "rank_0": 17.31, "rank_1": 11.73 }
    },
    {
      "identifier": "CPU: particle mapping",
      "timers": { "rank_0": 709.53, "rank_1": 965.41 }
    },
    {
      "identifier": "Copy: CPU -> GPU",
      "timers": { "rank_0": 1740.74, "rank_1": 876.19 }
    },
    {
      "identifier": "CL: PartMapLP",
      "timers": { "rank_0": 623.43, "rank_1": 889.19 }
    },
    {
      "identifier": "Copy: GPU -> CPU",
      "timers": { "rank_0": 1549.44, "rank_1": 1285.28 }
    },
    {
      "identifier": "CL: LEGalilei",
      "timers": { "rank_0": 685.45, "rank_1": 568.42 }
    },
    {
      "identifier": "CL: LEShift",
      "timers": { "rank_0": 398.61, "rank_1": 356.34 }
    },
    {
      "identifier": "CL: PropagateCollide",
      "timers": { "rank_0": 3156.96, "rank_1": 1472.23 }
    },
    {
      "identifier": "OMP: part ext forces",
      "timers": { "rank_0": 0.93, "rank_1": 0.77 }
    },
    {
      "identifier": "OMP: part int forces",
      "timers": { "rank_0": 214.84, "rank_1": 246.59 }
    },
    {
      "identifier": "OMP: part-part forces",
      "timers": { "rank_0": 285.80, "rank_1": 353.00 }
    },
    {
      "identifier": "MPI: particle forces (overhead)",
      "timers": { "rank_0": 5.71, "rank_1": 5.42 }
    },
    {
      "identifier": "MPI: particle forces",
      "timers": { "rank_0": 95.81, "rank_1": 2509.20 }
    },
    {
      "identifier": "OMP: particle dynamics",
      "timers": { "rank_0": 246.41, "rank_1": 217.99 }
    },
    {
      "identifier": "I/O: output",
      "timers": { "rank_0": 96329.09, "rank_1": 105300.04 }
    },
    {
      "identifier": "ALL: total time",
      "timers": { "rank_0": 121381.96, "rank_1": 121278.54 }
    }
  ]
}
