{
  "experiment_name": "timing",
  "num_ranks": 2,
  "metrics": [
    {
      "identifier": "MPI: particle handling",
      "timers": { "rank_0": 10.26, "rank_1": 31.52 }
    },
    {
      "identifier": "MPI: particle (overhead)",
      "timers": { "rank_0": 37.72, "rank_1": 51.06 }
    },
    {
      "identifier": "MPI: particle",
      "timers": { "rank_0": 104.24, "rank_1": 260.66 }
    },
    {
      "identifier": "CPU: particle handling",
      "timers": { "rank_0": 102.81, "rank_1": 95.80 }
    },
    {
      "identifier": "CPU: particle mapping",
      "timers": { "rank_0": 5419.86, "rank_1": 6299.09 }
    },
    {
      "identifier": "Copy: CPU -> GPU",
      "timers": { "rank_0": 12393.46, "rank_1": 5788.31 }
    },
    {
      "identifier": "CL: PartMapLP",
      "timers": { "rank_0": 4954.27, "rank_1": 9604.90 }
    },
    {
      "identifier": "Copy: GPU -> CPU",
      "timers": { "rank_0": 15439.27, "rank_1": 13427.21 }
    },
    {
      "identifier": "CL: LEGalilei",
      "timers": { "rank_0": 2640.40, "rank_1": 2693.68 }
    },
    {
      "identifier": "CL: LEShift",
      "timers": { "rank_0": 1253.30, "rank_1": 952.45 }
    },
    {
      "identifier": "CL: PropagateCollide",
      "timers": { "rank_0": 19126.50, "rank_1": 18161.42 }
    },
    {
      "identifier": "OMP: part ext forces",
      "timers": { "rank_0": 3.09, "rank_1": 2.27 }
    },
    {
      "identifier": "OMP: part int forces",
      "timers": { "rank_0": 724.39, "rank_1": 775.84 }
    },
    {
      "identifier": "OMP: part-part forces",
      "timers": { "rank_0": 1974.26, "rank_1": 2426.45 }
    },
    {
      "identifier": "MPI: particle forces (overhead)",
      "timers": { "rank_0": 45.34, "rank_1": 39.72 }
    },
    {
      "identifier": "MPI: particle forces",
      "timers": { "rank_0": 165.97, "rank_1": 6888.13 }
    },
    {
      "identifier": "OMP: particle dynamics",
      "timers": { "rank_0": 704.46, "rank_1": 598.55 }
    },
    {
      "identifier": "I/O: output",
      "timers": { "rank_0": 436210.35, "rank_1": 477610.78 }
    },
    {
      "identifier": "ALL: total time",
      "timers": { "rank_0": 590849.12, "rank_1": 590395.37 }
    }
  ]
}
