1.5794303e-05	1.65e-05	1.7499121e-05
1.608582e-05	1.65e-05	1.7498613e-05
1.6377276e-05	1.65e-05	1.7499368e-05
1.6669364e-05	1.65e-05	1.7499601e-05
1.6961062e-05	1.65e-05	1.7498788e-05
1.7252164e-05	1.65e-05	1.7499424e-05
1.7544208e-05	1.65e-05	1.7500747e-05
1.7836285e-05	1.65e-05	1.7500324e-05
1.8127186e-05	1.65e-05	1.7500836e-05
1.8419002e-05	1.65e-05	1.7503051e-05
1.8711478e-05	1.65e-05	1.7503733e-05
1.9002376e-05	1.65e-05	1.7504006e-05
1.9293826e-05	1.65e-05	1.7506966e-05
1.9586647e-05	1.65e-05	1.7508876e-05
1.9877802e-05	1.65e-05	1.7509684e-05
2.0168881e-05	1.65e-05	1.751309e-05
2.0461912e-05	1.65e-05	1.7516834e-05
2.0753555e-05	1.65e-05	1.7518881e-05
2.1044438e-05	1.65e-05	1.7523239e-05
2.1337448e-05	1.65e-05	1.7529009e-05
2.1629719e-05	1.6500001e-05	1.7533251e-05
2.1920854e-05	1.6500001e-05	1.7539385e-05
2.2213944e-05	1.6500001e-05	1.7547642e-05
2.2507067e-05	1.6500001e-05	1.755565e-05
2.2798991e-05	1.6500001e-05	1.7565252e-05
2.3092129e-05	1.6500001e-05	1.7578078e-05
2.3385827e-05	1.6500001e-05	1.7591838e-05
2.3679095e-05	1.6500001e-05	1.7608367e-05
2.3972883e-05	1.6500001e-05	1.7629038e-05
2.4266634e-05	1.6500001e-05	1.7653199e-05
2.4560187e-05	1.6500001e-05	1.7682875e-05
2.4854527e-05	1.6500001e-05	1.7719513e-05
2.5147719e-05	1.6500001e-05	1.7765414e-05
2.543888e-05	1.6500001e-05	1.782378e-05
2.5731122e-05	1.6500001e-05	1.7896136e-05
2.6017724e-05	1.6500001e-05	1.7992484e-05
2.6298413e-05	1.6500002e-05	1.8122837e-05
2.6577877e-05	1.6500002e-05	1.829787e-05
2.6851098e-05	1.6500002e-05	1.8533194e-05
2.713919e-05	1.6500002e-05	1.883908e-05
2.7494167e-05	1.6500002e-05	1.9208033e-05
2.7961439e-05	1.6500002e-05	1.9616285e-05
2.8569181e-05	1.6500002e-05	2.0019125e-05
2.934673e-05	1.6500002e-05	2.0342499e-05
3.0277634e-05	1.6500002e-05	2.0505273e-05
3.126761e-05	1.6500002e-05	2.0438459e-05
3.2121148e-05	1.6500002e-05	2.0172377e-05
3.2805837e-05	1.6500002e-05	1.9791423e-05
3.332528e-05	1.6500003e-05	1.9376016e-05
3.3723975e-05	1.6500003e-05	1.8987557e-05
3.4033633e-05	1.6500003e-05	1.8652609e-05
3.4305854e-05	1.6500003e-05	1.8389855e-05
3.4578612e-05	1.6500003e-05	1.8192018e-05
3.4855801e-05	1.6500003e-05	1.8043254e-05
3.513358e-05	1.6500003e-05	1.7933186e-05
3.5419233e-05	1.6500003e-05	1.7853011e-05
3.5707235e-05	1.6500003e-05	1.7788356e-05
3.5993914e-05	1.6500003e-05	1.7737171e-05
3.6283128e-05	1.6500003e-05	1.7697604e-05
3.6573494e-05	1.6500003e-05	1.766457e-05
3.6861982e-05	1.6500004e-05	1.7637296e-05
3.7150945e-05	1.6500004e-05	1.7615965e-05
3.7440805e-05	1.6500004e-05	1.7597127e-05
3.7729308e-05	1.6500004e-05	1.7581331e-05
3.8018026e-05	1.6500004e-05	1.7568798e-05
3.8306821e-05	1.6500004e-05	1.7557202e-05
3.8594129e-05	1.6500004e-05	1.7547392e-05
3.8882471e-05	1.6500004e-05	1.753976e-05
3.9170874e-05	1.6500004e-05	1.7531915e-05
3.9457497e-05	1.6500005e-05	1.75256e-05
3.9745127e-05	1.6500005e-05	1.7521053e-05
4.0033447e-05	1.6500005e-05	1.7515549e-05
4.0319771e-05	1.6500005e-05	1.7511002e-05
4.0606761e-05	1.6500005e-05	1.7508387e-05
4.0895079e-05	1.6500005e-05	1.7504546e-05
4.1181535e-05	1.6500005e-05	1.7500655e-05
4.1468022e-05	1.6500005e-05	1.7499392e-05
4.1756111e-05	1.6500005e-05	1.7497021e-05
4.2042891e-05	1.6500006e-05	1.7493705e-05
4.2329112e-05	1.6500006e-05	1.7492847e-05
4.2616843e-05	1.6500006e-05	1.7491743e-05
4.2903915e-05	1.6500006e-05	1.7488966e-05
4.3190147e-05	1.6500006e-05	1.7487783e-05
4.347747e-05	1.6500006e-05	1.7487747e-05
4.3764694e-05	1.6500006e-05	1.7485846e-05
4.4051102e-05	1.6500006e-05	1.7484527e-05
4.4338109e-05	1.6500007e-05	1.7484764e-05
4.462536e-05	1.6500007e-05	1.7483976e-05
4.4912019e-05	1.6500007e-05	1.7482569e-05
4.5198807e-05	1.6500007e-05	1.7482374e-05
4.5485931e-05	1.6500007e-05	1.7482723e-05
4.5772864e-05	1.6500007e-05	1.7481768e-05
4.6059527e-05	1.6500007e-05	1.7481327e-05
4.6346477e-05	1.6500007e-05	1.7482171e-05
4.6633698e-05	1.6500007e-05	1.748217e-05
4.6920353e-05	1.6500007e-05	1.7481419e-05
4.7207041e-05	1.6500008e-05	1.7482137e-05
4.7494457e-05	1.6500008e-05	1.7483311e-05
4.7781251e-05	1.6500008e-05	1.7482809e-05
4.8061437e-05	1.6500008e-05	1.7483578e-05
