{
  "experiment_name": "timing",
  "num_ranks": 2,
  "metrics": [
    {
      "identifier": "MPI: particle handling",
      "timers": { "rank_0": 5297.40, "rank_1": 7141.48 }
    },
    {
      "identifier": "MPI: particle (overhead)",
      "timers": { "rank_0": 18818.84, "rank_1": 18242.73 }
    },
    {
      "identifier": "MPI: particle",
      "timers": { "rank_0": 116130.25, "rank_1": 53981.70 }
    },
    {
      "identifier": "CPU: particle handling",
      "timers": { "rank_0": 41712.54, "rank_1": 32338.96 }
    },
    {
      "identifier": "CPU: particle mapping",
      "timers": { "rank_0": 2895526.88, "rank_1": 7501973.67 }
    },
    {
      "identifier": "Copy: CPU -> GPU",
      "timers": { "rank_0": 13478554.56, "rank_1": 7293284.30 }
    },
    {
      "identifier": "CL: PartMapLP",
      "timers": { "rank_0": 2668634.75, "rank_1": 4974418.06 }
    },
    {
      "identifier": "Copy: GPU -> CPU",
      "timers": { "rank_0": 6052239.42, "rank_1": 5983582.44 }
    },
    {
      "identifier": "CL: LEGalilei",
      "timers": { "rank_0": 1516604.37, "rank_1": 2760979.06 }
    },
    {
      "identifier": "CL: LEShift",
      "timers": { "rank_0": 744270.13, "rank_1": 711046.64 }
    },
    {
      "identifier": "CL: PropagateCollide",
      "timers": { "rank_0": 11090337.62, "rank_1": 9179385.78 }
    },
    {
      "identifier": "OMP: part ext forces",
      "timers": { "rank_0": 1375.12, "rank_1": 1297.27 }
    },
    {
      "identifier": "OMP: part int forces",
      "timers": { "rank_0": 406614.81, "rank_1": 580435.09 }
    },
    {
      "identifier": "OMP: part-part forces",
      "timers": { "rank_0": 1000344.55, "rank_1": 1251887.77 }
    },
    {
      "identifier": "MPI: particle forces (overhead)",
      "timers": { "rank_0": 21470.54, "rank_1": 26095.48 }
    },
    {
      "identifier": "MPI: particle forces",
      "timers": { "rank_0": 310851.04, "rank_1": 3912339.01 }
    },
    {
      "identifier": "OMP: particle dynamics",
      "timers": { "rank_0": 381837.84, "rank_1": 378124.05 }
    },
    {
      "identifier": "I/O: output",
      "timers": { "rank_0": 445218.11, "rank_1": 482764.11 }
    },
    {
      "identifier": "ALL: total time",
      "timers": { "rank_0": 64684019.54, "rank_1": 64684016.09 }
    }
  ]
}
