{
    "experiment": {
        "magnetic": {
            "type": "none"
        },
        "measurement": {
            "constant": {
                "tmeas": 0.0003,
                "tmeasLU": 1804
            },
            "type": "constant"
        },
        "shearrate": {
            "constant": {
                "yd": 1000
            },
            "type": "constant"
        },
        "temperature": 300.0,
        "tmax": 0.03,
        "tmaxLU": 180361,
        "twopartcoll": {
            "distx": 0.00011999999999999999,
            "disty": 0.0,
            "distz": 8e-06
        },
        "type": "twopartcoll"
    },
    "material": {
        "fluids": {
            "0": {
                "id": 1,
                "phi": 0.5
            }
        },
        "nfluids": 1,
        "nparticles": 1,
        "particles": {
            "0": {
                "id": 1,
                "phi": 0.5
            }
        }
    },
    "output": {
        "ball": {
            "Fsub": "T",
            "Ftot": "T",
            "Snorm": "T",
            "Snormsub": "T",
            "Sshear": "T",
            "Sshearsub": "F",
            "id": "T",
            "radius": "T",
            "vel": "F"
        },
        "fluid": {
            "Fhd": "F",
            "Sshear": "T",
            "eps": "F",
            "newtonvel": "T",
            "rho": "T",
            "vel": "T"
        },
        "part": {
            "Fsub": "T",
            "Ftot": "T",
            "Snorm": "T",
            "Snormsub": "T",
            "Sshear": "T",
            "Sshearsub": "T",
            "ckmax": "T",
            "displ": "T",
            "id": "T",
            "newtonvel": "T",
            "radius": "T",
            "vel": "T"
        },
        "partmap": "F",
        "tcheckpoint": 10000,
        "ttermout": 1
    },
    "pplan": {
        "nnodes": 1,
        "omppmpi": 4,
        "ppnode": 2,
        "wctime": "10:00:00"
    },
    "sample": {
        "dm": 9.999999999999999e-16,
        "dt": 1.6633399866932798e-07,
        "dx": 1e-06,
        "glx": 0.00023999999999999998,
        "glxLU": 240,
        "gly": 3.2e-05,
        "glyLU": 32,
        "glz": 6.4e-05,
        "glzLU": 64
    },
    "sim": {
        "debug": "no",
        "env": 1,
        "fhdinttype": "OCL",
        "lubrication": {
            "dmaxLU": 1.0,
            "dminLU": 0.00025
        },
        "partmaptype": "LP",
        "tau": 1.0
    },
    "state": {
        "partinit": {
            "lattice": {
                "dmin": 0.1,
                "random": 0.1
            },
            "type": "lattice"
        },
        "type": "generated"
    },
    "version": 2
}