{
  "experiment_name": "timing",
  "num_ranks": 2,
  "metrics": [
    {
      "identifier": "MPI: particle handling",
      "timers": { "rank_0": 45.83, "rank_1": 40.20 }
    },
    {
      "identifier": "MPI: particle (overhead)",
      "timers": { "rank_0": 155.05, "rank_1": 143.60 }
    },
    {
      "identifier": "MPI: particle",
      "timers": { "rank_0": 386.94, "rank_1": 630.39 }
    },
    {
      "identifier": "CPU: particle handling",
      "timers": { "rank_0": 388.35, "rank_1": 283.38 }
    },
    {
      "identifier": "CPU: particle mapping",
      "timers": { "rank_0": 27122.37, "rank_1": 22382.62 }
    },
    {
      "identifier": "Copy: CPU -> GPU",
      "timers": { "rank_0": 44876.84, "rank_1": 20251.75 }
    },
    {
      "identifier": "CL: PartMapLP",
      "timers": { "rank_0": 24775.32, "rank_1": 40278.82 }
    },
    {
      "identifier": "Copy: GPU -> CPU",
      "timers": { "rank_0": 54094.13, "rank_1": 49638.00 }
    },
    {
      "identifier": "CL: LEGalilei",
      "timers": { "rank_0": 5776.38, "rank_1": 5862.51 }
    },
    {
      "identifier": "CL: LEShift",
      "timers": { "rank_0": 4424.55, "rank_1": 4314.27 }
    },
    {
      "identifier": "CL: PropagateCollide",
      "timers": { "rank_0": 99065.93, "rank_1": 83240.01 }
    },
    {
      "identifier": "OMP: part ext forces",
      "timers": { "rank_0": 14.74, "rank_1": 11.68 }
    },
    {
      "identifier": "OMP: part int forces",
      "timers": { "rank_0": 3411.12, "rank_1": 3537.23 }
    },
    {
      "identifier": "OMP: part-part forces",
      "timers": { "rank_0": 8701.73, "rank_1": 10178.38 }
    },
    {
      "identifier": "MPI: particle forces (overhead)",
      "timers": { "rank_0": 184.44, "rank_1": 161.30 }
    },
    {
      "identifier": "MPI: particle forces",
      "timers": { "rank_0": 725.62, "rank_1": 40009.01 }
    },
    {
      "identifier": "OMP: particle dynamics",
      "timers": { "rank_0": 2977.54, "rank_1": 2692.44 }
    },
    {
      "identifier": "I/O: output",
      "timers": { "rank_0": 423353.73, "rank_1": 422298.37 }
    },
    {
      "identifier": "ALL: total time",
      "timers": { "rank_0": 899869.02, "rank_1": 900023.60 }
    }
  ]
}
