{
  "experiment_name": "timing",
  "num_ranks": 2,
  "metrics": [
    {
      "identifier": "MPI: particle handling",
      "timers": { "rank_0": 579.71, "rank_1": 1195.05 }
    },
    {
      "identifier": "MPI: particle (overhead)",
      "timers": { "rank_0": 1147.55, "rank_1": 1117.05 }
    },
    {
      "identifier": "MPI: particle",
      "timers": { "rank_0": 5896.26, "rank_1": 4835.01 }
    },
    {
      "identifier": "CPU: particle handling",
      "timers": { "rank_0": 3190.84, "rank_1": 2341.65 }
    },
    {
      "identifier": "CPU: particle mapping",
      "timers": { "rank_0": 222667.76, "rank_1": 255650.73 }
    },
    {
      "identifier": "Copy: CPU -> GPU",
      "timers": { "rank_0": 437138.13, "rank_1": 237671.20 }
    },
    {
      "identifier": "CL: PartMapLP",
      "timers": { "rank_0": 202987.11, "rank_1": 271126.01 }
    },
    {
      "identifier": "Copy: GPU -> CPU",
      "timers": { "rank_0": 344855.98, "rank_1": 300507.18 }
    },
    {
      "identifier": "CL: LEGalilei",
      "timers": { "rank_0": 154854.76, "rank_1": 140237.70 }
    },
    {
      "identifier": "CL: LEShift",
      "timers": { "rank_0": 85790.63, "rank_1": 76081.92 }
    },
    {
      "identifier": "CL: PropagateCollide",
      "timers": { "rank_0": 797310.60, "rank_1": 483630.02 }
    },
    {
      "identifier": "OMP: part ext forces",
      "timers": { "rank_0": 142.55, "rank_1": 108.13 }
    },
    {
      "identifier": "OMP: part int forces",
      "timers": { "rank_0": 32686.46, "rank_1": 37719.41 }
    },
    {
      "identifier": "OMP: part-part forces",
      "timers": { "rank_0": 48971.71, "rank_1": 70888.85 }
    },
    {
      "identifier": "MPI: particle forces (overhead)",
      "timers": { "rank_0": 1242.53, "rank_1": 1168.88 }
    },
    {
      "identifier": "MPI: particle forces",
      "timers": { "rank_0": 9552.42, "rank_1": 504276.37 }
    },
    {
      "identifier": "OMP: particle dynamics",
      "timers": { "rank_0": 33112.63, "rank_1": 32638.01 }
    },
    {
      "identifier": "I/O: output",
      "timers": { "rank_0": 195080.78, "rank_1": 214489.52 }
    },
    {
      "identifier": "ALL: total time",
      "timers": { "rank_0": 4377727.79, "rank_1": 4377401.94 }
    }
  ]
}
