{
  "experiment_name": "timing",
  "num_ranks": 2,
  "metrics": [
    {
      "identifier": "MPI: particle handling",
      "timers": { "rank_0": 5.92, "rank_1": 7.47 }
    },
    {
      "identifier": "MPI: particle (overhead)",
      "timers": { "rank_0": 10.41, "rank_1": 9.73 }
    },
    {
      "identifier": "MPI: particle",
      "timers": { "rank_0": 53.89, "rank_1": 54.11 }
    },
    {
      "identifier": "CPU: particle handling",
      "timers": { "rank_0": 28.23, "rank_1": 21.38 }
    },
    {
      "identifier": "CPU: particle mapping",
      "timers": { "rank_0": 1435.97, "rank_1": 1791.52 }
    },
    {
      "identifier": "Copy: CPU -> GPU",
      "timers": { "rank_0": 3513.80, "rank_1": 1625.03 }
    },
    {
      "identifier": "CL: PartMapLP",
      "timers": { "rank_0": 1252.10, "rank_1": 2224.51 }
    },
    {
      "identifier": "Copy: GPU -> CPU",
      "timers": { "rank_0": 3498.92, "rank_1": 2932.39 }
    },
    {
      "identifier": "CL: LEGalilei",
      "timers": { "rank_0": 1758.62, "rank_1": 1494.20 }
    },
    {
      "identifier": "CL: LEShift",
      "timers": { "rank_0": 796.87, "rank_1": 580.05 }
    },
    {
      "identifier": "CL: PropagateCollide",
      "timers": { "rank_0": 6598.65, "rank_1": 3843.83 }
    },
    {
      "identifier": "OMP: part ext forces",
      "timers": { "rank_0": 1.46, "rank_1": 1.14 }
    },
    {
      "identifier": "OMP: part int forces",
      "timers": { "rank_0": 352.69, "rank_1": 369.83 }
    },
    {
      "identifier": "OMP: part-part forces",
      "timers": { "rank_0": 446.43, "rank_1": 623.78 }
    },
    {
      "identifier": "MPI: particle forces (overhead)",
      "timers": { "rank_0": 11.19, "rank_1": 10.16 }
    },
    {
      "identifier": "MPI: particle forces",
      "timers": { "rank_0": 163.03, "rank_1": 4800.70 }
    },
    {
      "identifier": "OMP: particle dynamics",
      "timers": { "rank_0": 335.60, "rank_1": 311.31 }
    },
    {
      "identifier": "I/O: output",
      "timers": { "rank_0": 146653.28, "rank_1": 158180.15 }
    },
    {
      "identifier": "ALL: total time",
      "timers": { "rank_0": 194278.65, "rank_1": 194023.16 }
    }
  ]
}
