0.000177407246419	1.65e-05	1.4500202e-05
0.000237814598838	1.65e-05	1.4500373e-05
0.000298222227257	1.65e-05	1.4501046e-05
0.000358630627677	1.65e-05	1.4502158e-05
0.000419040230096	1.65e-05	1.4503719e-05
0.000479450988515	1.65e-05	1.450574e-05
0.000539862628934	1.65e-05	1.4507956e-05
0.000600274749353	1.65e-05	1.4510743e-05
0.000660686977772	1.65e-05	1.4514171e-05
0.000721099844192	1.65e-05	1.4518944e-05
0.000781515200611	1.65e-05	1.4525372e-05
0.00084193446103	1.65e-05	1.4532967e-05
0.000902358617449	1.65e-05	1.4541675e-05
0.000962787857868	1.65e-05	1.4550747e-05
0.00102322113629	1.65e-05	1.4560284e-05
0.00108365844471	1.65e-05	1.4570847e-05
0.00114410079313	1.65e-05	1.4582801e-05
0.00120455048954	1.65e-05	1.4596403e-05
0.00126500892996	1.65e-05	1.4610791e-05
0.00132547611238	1.65e-05	1.4625736e-05
0.0013859516988	1.65e-05	1.4640702e-05
0.00144643399522	1.65e-05	1.465621e-05
0.00150692452964	1.65e-05	1.4673068e-05
0.00156742471406	1.65e-05	1.469125e-05
0.00162793706248	1.65e-05	1.4710782e-05
0.0016884620309	1.65e-05	1.4730341e-05
0.00174899885932	1.65e-05	1.4750124e-05
0.00180954650974	1.65e-05	1.4769683e-05
0.00187010520416	1.65e-05	1.4790287e-05
0.00193067653657	1.65e-05	1.4811687e-05
0.00199126280099	1.65e-05	1.4834358e-05
0.00205186536341	1.65e-05	1.4856812e-05
0.00211248334383	1.65e-05	1.4879043e-05
0.00217311561825	1.65e-05	1.4900436e-05
0.00223376185067	1.65e-05	1.492193e-05
0.00229442281309	1.65e-05	1.4943171e-05
0.00235510039951	1.65e-05	1.4964825e-05
0.00241579647993	1.65e-05	1.4985299e-05
0.00247651043235	1.65e-05	1.500445e-05
0.00253724159277	1.65e-05	1.5021176e-05
0.00259798944519	1.65e-05	1.5035838e-05
0.0026587545416	1.65e-05	1.5047917e-05
0.00271953840002	1.65e-05	1.5056734e-05
0.00278034287244	1.65e-05	1.5061599e-05
0.00284116919086	1.65e-05	1.5059621e-05
0.00290201649528	1.65e-05	1.5050111e-05
0.0029628876717	1.65e-05	1.5029839e-05
0.00302378507812	1.65e-05	1.4995443e-05
0.00308471195254	1.65e-05	1.4944045e-05
0.00314568266096	1.65e-05	1.4864276e-05
0.00320670269338	1.65e-05	1.4744573e-05
0.0032677947458	1.65e-05	1.456726e-05
0.00332894066822	1.65e-05	1.4317809e-05
0.00339003661663	1.65e-05	1.4009103e-05
0.00345099277305	1.65e-05	1.366984e-05
0.00351176412947	1.65e-05	1.331469e-05
0.00357229977589	1.65e-05	1.2967615e-05
0.00363256106431	1.65e-05	1.267426e-05
0.00369256034473	1.65e-05	1.2490127e-05
0.00375233540915	1.65e-05	1.2471281e-05
0.00381204510957	1.65e-05	1.2636051e-05
0.00387186658599	1.65e-05	1.2930228e-05
0.00393182808041	1.65e-05	1.3253567e-05
0.00399191342083	1.65e-05	1.3540916e-05
0.00405209456525	1.65e-05	1.3771236e-05
0.00411234072566	1.65e-05	1.3944211e-05
0.00417263205608	1.65e-05	1.4069338e-05
0.0042329535965	1.65e-05	1.4157238e-05
0.00429329499492	1.65e-05	1.4217478e-05
0.00435364992134	1.65e-05	1.4258205e-05
0.00441401427376	1.65e-05	1.4284317e-05
0.00447438351818	1.65e-05	1.4299222e-05
0.0045347534706	1.65e-05	1.4305712e-05
0.00459512006502	1.65e-05	1.4305188e-05
0.00465547953744	1.65e-05	1.4299741e-05
0.00471582980186	1.65e-05	1.429132e-05
0.00477617139828	1.65e-05	1.4280858e-05
0.00483650459069	1.65e-05	1.4268983e-05
0.00489682874311	1.65e-05	1.4255331e-05
0.00495714201553	1.65e-05	1.4239858e-05
0.00501744235995	1.65e-05	1.4223273e-05
0.00507772842237	1.65e-05	1.420612e-05
0.00513800090879	1.65e-05	1.4189462e-05
0.00519826201121	1.65e-05	1.4173693e-05
0.00525851263763	1.65e-05	1.415788e-05
0.00531875227005	1.65e-05	1.4141664e-05
0.00537897968847	1.65e-05	1.4125309e-05
0.00543919386489	1.65e-05	1.4108982e-05
0.00549939506731	1.65e-05	1.4093532e-05
0.00555958543772	1.65e-05	1.407965e-05
0.00561976707814	1.65e-05	1.40668e-05
0.00567994026856	1.65e-05	1.405423e-05
0.00574010434698	1.65e-05	1.4041859e-05
0.0058002587834	1.65e-05	1.4030036e-05
0.00586040340782	1.65e-05	1.4018959e-05
0.00592053933624	1.65e-05	1.4009227e-05
0.00598066862866	1.65e-05	1.4000972e-05
0.00604079249108	1.65e-05	1.3993785e-05
0.0061009110595	1.65e-05	1.3987188e-05
0.00616102435192	1.65e-05	1.3981201e-05
0.00622422475928	1.65e-05	1.3980118e-05
