{
  "experiment_name": "timing",
  "num_ranks": 2,
  "metrics": [
    {
      "identifier": "MPI: particle handling",
      "timers": { "rank_0": 697.51, "rank_1": 741.81 }
    },
    {
      "identifier": "MPI: particle (overhead)",
      "timers": { "rank_0": 2020.96, "rank_1": 1902.20 }
    },
    {
      "identifier": "MPI: particle",
      "timers": { "rank_0": 5659.04, "rank_1": 6093.90 }
    },
    {
      "identifier": "CPU: particle handling",
      "timers": { "rank_0": 4449.17, "rank_1": 3585.75 }
    },
    {
      "identifier": "CPU: particle mapping",
      "timers": { "rank_0": 269358.77, "rank_1": 296828.01 }
    },
    {
      "identifier": "Copy: CPU -> GPU",
      "timers": { "rank_0": 616265.40, "rank_1": 275741.25 }
    },
    {
      "identifier": "CL: PartMapLP",
      "timers": { "rank_0": 246523.31, "rank_1": 488792.78 }
    },
    {
      "identifier": "Copy: GPU -> CPU",
      "timers": { "rank_0": 617757.60, "rank_1": 591164.13 }
    },
    {
      "identifier": "CL: LEGalilei",
      "timers": { "rank_0": 122136.23, "rank_1": 115754.66 }
    },
    {
      "identifier": "CL: LEShift",
      "timers": { "rank_0": 59291.73, "rank_1": 56977.75 }
    },
    {
      "identifier": "CL: PropagateCollide",
      "timers": { "rank_0": 995503.32, "rank_1": 947642.73 }
    },
    {
      "identifier": "OMP: part ext forces",
      "timers": { "rank_0": 153.53, "rank_1": 117.70 }
    },
    {
      "identifier": "OMP: part int forces",
      "timers": { "rank_0": 32598.04, "rank_1": 40336.98 }
    },
    {
      "identifier": "OMP: part-part forces",
      "timers": { "rank_0": 87646.57, "rank_1": 119016.92 }
    },
    {
      "identifier": "MPI: particle forces (overhead)",
      "timers": { "rank_0": 2164.79, "rank_1": 2063.99 }
    },
    {
      "identifier": "MPI: particle forces",
      "timers": { "rank_0": 11722.38, "rank_1": 331607.81 }
    },
    {
      "identifier": "OMP: particle dynamics",
      "timers": { "rank_0": 32879.88, "rank_1": 32207.07 }
    },
    {
      "identifier": "I/O: output",
      "timers": { "rank_0": 455144.28, "rank_1": 480161.54 }
    },
    {
      "identifier": "ALL: total time",
      "timers": { "rank_0": 6093967.94, "rank_1": 6093593.96 }
    }
  ]
}
