5.9798162e-05	1.65e-05	1.8499424e-05
5.8595392e-05	1.65e-05	1.8498342e-05
5.7390358e-05	1.65e-05	1.8495589e-05
5.618025e-05	1.65e-05	1.8493312e-05
5.496735e-05	1.65e-05	1.8493867e-05
5.3757052e-05	1.65e-05	1.8497075e-05
5.2553886e-05	1.65e-05	1.8501772e-05
5.1357782e-05	1.65e-05	1.8503473e-05
5.0161812e-05	1.65e-05	1.8500068e-05
4.8954976e-05	1.65e-05	1.8493412e-05
4.7735958e-05	1.65e-05	1.848989e-05
4.6516254e-05	1.65e-05	1.8493965e-05
4.530784e-05	1.65e-05	1.8502083e-05
4.4114154e-05	1.65e-05	1.8508262e-05
4.2924994e-05	1.65e-05	1.8506467e-05
4.172439e-05	1.65e-05	1.8497394e-05
4.050453e-05	1.65e-05	1.84902e-05
3.9276552e-05	1.65e-05	1.8491684e-05
3.8059474e-05	1.65e-05	1.8502214e-05
3.686301e-05	1.65e-05	1.8512617e-05
3.5676932e-05	1.65e-05	1.851368e-05
3.4481092e-05	1.65e-05	1.8505891e-05
3.326461e-05	1.65e-05	1.849604e-05
3.203244e-05	1.65e-05	1.849459e-05
3.0805252e-05	1.65e-05	1.8504759e-05
2.9601054e-05	1.65e-05	1.8518399e-05
2.8412064e-05	1.65e-05	1.8524101e-05
2.7216378e-05	1.65e-05	1.8519222e-05
2.6002296e-05	1.65e-05	1.8511385e-05
2.4769286e-05	1.65e-05	1.8508378e-05
2.3532446e-05	1.65e-05	1.851713e-05
2.2313918e-05	1.65e-05	1.8534068e-05
2.1113016e-05	1.65e-05	1.8545457e-05
1.9907914e-05	1.65e-05	1.8548606e-05
1.868569e-05	1.65e-05	1.8548682e-05
1.7445722e-05	1.65e-05	1.8552432e-05
1.6192458e-05	1.65e-05	1.85675e-05
1.4945468e-05	1.65e-05	1.8594582e-05
1.3708806e-05	1.65e-05	1.8626017e-05
1.246131e-05	1.65e-05	1.8657481e-05
1.1192548e-05	1.65e-05	1.8697492e-05
9.89364e-06	1.65e-05	1.8756409e-05
8.568848e-06	1.65e-05	1.8845064e-05
7.220132e-06	1.65e-05	1.8984927e-05
5.87672e-06	1.65e-05	1.9184059e-05
4.55233e-06	1.65e-05	1.9462553e-05
3.332912e-06	1.65e-05	1.9814602e-05
2.326198e-06	1.65e-05	2.0186211e-05
1.632602e-06	1.65e-05	2.0466248e-05
1.278106e-06	1.65e-05	2.055563e-05
9.08374e-07	1.65e-05	2.0408224e-05
2.28058e-07	1.65e-05	2.0087229e-05
-7.29196e-07	1.65e-05	1.9718984e-05
-1.873766e-06	1.65e-05	1.9407837e-05
-3.08472e-06	1.65e-05	1.9179622e-05
-4.318504e-06	1.65e-05	1.9014163e-05
-5.55244e-06	1.65e-05	1.8899434e-05
-6.782798e-06	1.65e-05	1.8822659e-05
-7.993908e-06	1.65e-05	1.8776068e-05
-9.184932e-06	1.65e-05	1.8745322e-05
-1.035561e-05	1.65e-05	1.8722608e-05
-1.1512674e-05	1.65e-05	1.8700081e-05
-1.267675e-05	1.65e-05	1.8674153e-05
-1.3854834e-05	1.65e-05	1.865598e-05
-1.503223e-05	1.65e-05	1.8650764e-05
-1.6192642e-05	1.65e-05	1.8652255e-05
-1.7334964e-05	1.65e-05	1.8654589e-05
-1.846571e-05	1.65e-05	1.8649652e-05
-1.9602784e-05	1.65e-05	1.8635059e-05
-2.0764174e-05	1.65e-05	1.8621002e-05
-2.1935912e-05	1.65e-05	1.8617954e-05
-2.3094018e-05	1.65e-05	1.8625204e-05
-2.4233216e-05	1.65e-05	1.8633739e-05
-2.5356424e-05	1.65e-05	1.8634882e-05
-2.648262e-05	1.65e-05	1.8625665e-05
-2.7631882e-05	1.65e-05	1.8612017e-05
-2.8797284e-05	1.65e-05	1.860625e-05
-2.9959218e-05	1.65e-05	1.8612439e-05
-3.1101448e-05	1.65e-05	1.8622291e-05
-3.2225538e-05	1.65e-05	1.8627163e-05
-3.3349696e-05	1.65e-05	1.8622361e-05
-3.4488448e-05	1.65e-05	1.8611331e-05
-3.5644534e-05	1.65e-05	1.8604104e-05
-3.6805696e-05	1.65e-05	1.8606094e-05
-3.7951898e-05	1.65e-05	1.8614288e-05
-3.9082576e-05	1.65e-05	1.8620571e-05
-4.0209424e-05	1.65e-05	1.8619264e-05
-4.1342618e-05	1.65e-05	1.8612935e-05
-4.2489318e-05	1.65e-05	1.8606838e-05
-4.3642078e-05	1.65e-05	1.8605151e-05
-4.4789962e-05	1.65e-05	1.8609239e-05
-4.5929006e-05	1.65e-05	1.8613843e-05
-4.7061884e-05	1.65e-05	1.8615077e-05
-4.8196264e-05	1.65e-05	1.8613802e-05
-4.9335512e-05	1.65e-05	1.8610987e-05
-5.0476722e-05	1.65e-05	1.8608666e-05
-5.162105e-05	1.65e-05	1.8607896e-05
-5.2765464e-05	1.65e-05	1.8608075e-05
-5.3907636e-05	1.65e-05	1.8609964e-05
-5.5048358e-05	1.65e-05	1.8612555e-05
-5.50484210672e-05	1.65e-05	1.8612555e-05
