{
  "experiment_name": "timing",
  "num_ranks": 2,
  "metrics": [
    {
      "identifier": "MPI: particle handling",
      "timers": { "rank_0": 5.79, "rank_1": 8.73 }
    },
    {
      "identifier": "MPI: particle (overhead)",
      "timers": { "rank_0": 18.91, "rank_1": 17.65 }
    },
    {
      "identifier": "MPI: particle",
      "timers": { "rank_0": 62.98, "rank_1": 57.57 }
    },
    {
      "identifier": "CPU: particle handling",
      "timers": { "rank_0": 42.97, "rank_1": 33.47 }
    },
    {
      "identifier": "CPU: particle mapping",
      "timers": { "rank_0": 2652.48, "rank_1": 2956.81 }
    },
    {
      "identifier": "Copy: CPU -> GPU",
      "timers": { "rank_0": 5682.14, "rank_1": 2744.05 }
    },
    {
      "identifier": "CL: PartMapLP",
      "timers": { "rank_0": 2444.00, "rank_1": 4396.57 }
    },
    {
      "identifier": "Copy: GPU -> CPU",
      "timers": { "rank_0": 6698.60, "rank_1": 8158.31 }
    },
    {
      "identifier": "CL: LEGalilei",
      "timers": { "rank_0": 1192.16, "rank_1": 1180.09 }
    },
    {
      "identifier": "CL: LEShift",
      "timers": { "rank_0": 542.09, "rank_1": 599.50 }
    },
    {
      "identifier": "CL: PropagateCollide",
      "timers": { "rank_0": 9445.69, "rank_1": 8374.14 }
    },
    {
      "identifier": "OMP: part ext forces",
      "timers": { "rank_0": 1.45, "rank_1": 1.13 }
    },
    {
      "identifier": "OMP: part int forces",
      "timers": { "rank_0": 344.14, "rank_1": 354.64 }
    },
    {
      "identifier": "OMP: part-part forces",
      "timers": { "rank_0": 863.77, "rank_1": 910.42 }
    },
    {
      "identifier": "MPI: particle forces (overhead)",
      "timers": { "rank_0": 20.58, "rank_1": 18.82 }
    },
    {
      "identifier": "MPI: particle forces",
      "timers": { "rank_0": 89.95, "rank_1": 3810.77 }
    },
    {
      "identifier": "OMP: particle dynamics",
      "timers": { "rank_0": 326.45, "rank_1": 287.23 }
    },
    {
      "identifier": "I/O: output",
      "timers": { "rank_0": 393646.23, "rank_1": 418583.93 }
    },
    {
      "identifier": "ALL: total time",
      "timers": { "rank_0": 472016.07, "rank_1": 471722.21 }
    }
  ]
}
