{
  "experiment_name": "timing",
  "num_ranks": 2,
  "metrics": [
    {
      "identifier": "MPI: particle handling",
      "timers": { "rank_0": 514.78, "rank_1": 1230.77 }
    },
    {
      "identifier": "MPI: particle (overhead)",
      "timers": { "rank_0": 887.20, "rank_1": 806.77 }
    },
    {
      "identifier": "MPI: particle",
      "timers": { "rank_0": 6853.02, "rank_1": 4715.11 }
    },
    {
      "identifier": "CPU: particle handling",
      "timers": { "rank_0": 2454.73, "rank_1": 1679.33 }
    },
    {
      "identifier": "CPU: particle mapping",
      "timers": { "rank_0": 123073.47, "rank_1": 196403.35 }
    },
    {
      "identifier": "Copy: CPU -> GPU",
      "timers": { "rank_0": 412047.08, "rank_1": 178642.00 }
    },
    {
      "identifier": "CL: PartMapLP",
      "timers": { "rank_0": 106363.14, "rank_1": 178418.02 }
    },
    {
      "identifier": "Copy: GPU -> CPU",
      "timers": { "rank_0": 292492.26, "rank_1": 189919.02 }
    },
    {
      "identifier": "CL: LEGalilei",
      "timers": { "rank_0": 216422.62, "rank_1": 130612.32 }
    },
    {
      "identifier": "CL: LEShift",
      "timers": { "rank_0": 132209.28, "rank_1": 110385.08 }
    },
    {
      "identifier": "CL: PropagateCollide",
      "timers": { "rank_0": 701377.95, "rank_1": 341263.41 }
    },
    {
      "identifier": "OMP: part ext forces",
      "timers": { "rank_0": 135.65, "rank_1": 110.40 }
    },
    {
      "identifier": "OMP: part int forces",
      "timers": { "rank_0": 29698.34, "rank_1": 36062.40 }
    },
    {
      "identifier": "OMP: part-part forces",
      "timers": { "rank_0": 35836.80, "rank_1": 48823.28 }
    },
    {
      "identifier": "MPI: particle forces (overhead)",
      "timers": { "rank_0": 865.44, "rank_1": 860.06 }
    },
    {
      "identifier": "MPI: particle forces",
      "timers": { "rank_0": 9088.08, "rank_1": 591535.94 }
    },
    {
      "identifier": "OMP: particle dynamics",
      "timers": { "rank_0": 33730.67, "rank_1": 33515.21 }
    },
    {
      "identifier": "I/O: output",
      "timers": { "rank_0": 98402.04, "rank_1": 108341.48 }
    },
    {
      "identifier": "ALL: total time",
      "timers": { "rank_0": 3544359.26, "rank_1": 3544135.32 }
    }
  ]
}
