4.6398194e-05	1.65e-05	1.9499836e-05
4.729637e-05	1.65e-05	1.9499643e-05
4.8194575e-05	1.65e-05	1.9499407e-05
4.9092864e-05	1.65e-05	1.949909e-05
4.9991168e-05	1.65e-05	1.9498548e-05
5.0889295e-05	1.65e-05	1.9497725e-05
5.1787107e-05	1.65e-05	1.949674e-05
5.268469e-05	1.65e-05	1.9495673e-05
5.3582036e-05	1.65e-05	1.9494472e-05
5.4479107e-05	1.65e-05	1.9493132e-05
5.5375856e-05	1.65e-05	1.9491722e-05
5.6272427e-05	1.65e-05	1.9490315e-05
5.7169182e-05	1.65e-05	1.9488922e-05
5.8066454e-05	1.65e-05	1.9487408e-05
5.8964458e-05	1.65e-05	1.9485195e-05
5.9862871e-05	1.65e-05	1.9481786e-05
6.0761164e-05	1.65e-05	1.9476735e-05
6.1658555e-05	1.65e-05	1.9469755e-05
6.2553808e-05	1.65e-05	1.9460785e-05
6.3445503e-05	1.65e-05	1.9450381e-05
6.4333213e-05	1.65e-05	1.9439434e-05
6.5217918e-05	1.65e-05	1.9428226e-05
6.6100075e-05	1.65e-05	1.9417006e-05
6.6979984e-05	1.65e-05	1.9405536e-05
6.7858018e-05	1.65e-05	1.9393143e-05
6.8733818e-05	1.65e-05	1.9379161e-05
6.9606522e-05	1.65e-05	1.9363028e-05
7.0474764e-05	1.65e-05	1.9344311e-05
7.1336696e-05	1.65e-05	1.9323431e-05
7.2191188e-05	1.65e-05	1.9301483e-05
7.3038867e-05	1.65e-05	1.9279029e-05
7.3880496e-05	1.65e-05	1.9256053e-05
7.4715748e-05	1.65e-05	1.9232816e-05
7.5545e-05	1.65e-05	1.9208543e-05
7.6367877e-05	1.65e-05	1.9183207e-05
7.7183938e-05	1.65e-05	1.9155904e-05
7.7991785e-05	1.65e-05	1.9126239e-05
7.8789534e-05	1.65e-05	1.909447e-05
7.957558e-05	1.65e-05	1.9061481e-05
8.0349443e-05	1.65e-05	1.902811e-05
8.1111306e-05	1.65e-05	1.8994854e-05
8.1860347e-05	1.65e-05	1.8962555e-05
8.2595785e-05	1.65e-05	1.8931745e-05
8.3316455e-05	1.65e-05	1.8903494e-05
8.4020752e-05	1.65e-05	1.8879442e-05
8.4705832e-05	1.65e-05	1.8862298e-05
8.5367266e-05	1.65e-05	1.8856246e-05
8.5994929e-05	1.65e-05	1.8869243e-05
8.6584462e-05	1.65e-05	1.8916028e-05
8.7112091e-05	1.65e-05	1.9021774e-05
8.752917e-05	1.65e-05	1.9255663e-05
8.7914249e-05	1.65e-05	1.9584082e-05
8.8378943e-05	1.65e-05	1.9909655e-05
8.8947953e-05	1.65e-05	2.0201582e-05
8.9626476e-05	1.65e-05	2.042236e-05
9.0403448e-05	1.65e-05	2.0534352e-05
9.1257135e-05	1.65e-05	2.0511027e-05
9.2137442e-05	1.65e-05	2.0362529e-05
9.3008376e-05	1.65e-05	2.0140726e-05
9.3859388e-05	1.65e-05	1.990195e-05
9.4690145e-05	1.65e-05	1.9676681e-05
9.5493083e-05	1.65e-05	1.9483863e-05
9.6278075e-05	1.65e-05	1.9325452e-05
9.7047263e-05	1.65e-05	1.9199309e-05
9.7802174e-05	1.65e-05	1.9101382e-05
9.8545131e-05	1.65e-05	1.9026906e-05
9.9278332e-05	1.65e-05	1.8970975e-05
0.00010000311	1.65e-05	1.8929617e-05
0.00010072006	1.65e-05	1.889981e-05
0.00010143021	1.65e-05	1.8878783e-05
0.00010213461	1.65e-05	1.8864855e-05
0.00010283407	1.65e-05	1.8857003e-05
0.00010352975	1.65e-05	1.8854403e-05
0.00010422323	1.65e-05	1.8856466e-05
0.00010491642	1.65e-05	1.8862901e-05
0.00010561129	1.65e-05	1.8872534e-05
0.00010630896	1.65e-05	1.8883874e-05
0.00010700924	1.65e-05	1.8896443e-05
0.00010771196	1.65e-05	1.8909917e-05
0.00010841748	1.65e-05	1.8923706e-05
0.00010912558	1.65e-05	1.8938268e-05
0.00010983662	1.65e-05	1.8953677e-05
0.00011055103	1.65e-05	1.8970492e-05
0.00011126996	1.65e-05	1.8988882e-05
0.00011199505	1.65e-05	1.9008758e-05
0.00011272766	1.6500001e-05	1.9029067e-05
0.00011346754	1.6500001e-05	1.9048606e-05
0.00011421318	1.6500001e-05	1.9067228e-05
0.0001149641	1.6500001e-05	1.9084711e-05
0.00011571962	1.6500001e-05	1.9101595e-05
0.00011647944	1.6500001e-05	1.9118076e-05
0.0001172435	1.6500001e-05	1.9134974e-05
0.0001180124	1.6500001e-05	1.9152711e-05
0.00011878726	1.6500001e-05	1.917159e-05
0.00011956967	1.6500001e-05	1.9191019e-05
0.00012036022	1.6500001e-05	1.9209747e-05
0.00012115756	1.6500001e-05	1.922722e-05
0.00012196036	1.6500001e-05	1.9243114e-05
0.00012276792	1.6500001e-05	1.9257462e-05
0.00012357935	1.6500001e-05	1.9271112e-05
0.00012375119	1.6500001e-05	1.9273874e-05
