{
  "experiment_name": "timing",
  "num_ranks": 2,
  "metrics": [
    {
      "identifier": "MPI: particle handling",
      "timers": { "rank_0": 3014.90, "rank_1": 3600.38 }
    },
    {
      "identifier": "MPI: particle (overhead)",
      "timers": { "rank_0": 40879.25, "rank_1": 40918.51 }
    },
    {
      "identifier": "MPI: particle",
      "timers": { "rank_0": 145338.54, "rank_1": 115335.97 }
    },
    {
      "identifier": "CPU: particle handling",
      "timers": { "rank_0": 58214.13, "rank_1": 67449.24 }
    },
    {
      "identifier": "CPU: particle mapping",
      "timers": { "rank_0": 6402333.66, "rank_1": 6293026.21 }
    },
    {
      "identifier": "Copy: CPU -> GPU",
      "timers": { "rank_0": 9212726.32, "rank_1": 9124262.09 }
    },
    {
      "identifier": "CL: PartMapLP",
      "timers": { "rank_0": 6191664.69, "rank_1": 6085368.42 }
    },
    {
      "identifier": "Copy: GPU -> CPU",
      "timers": { "rank_0": 15231276.61, "rank_1": 24529451.19 }
    },
    {
      "identifier": "CL: LEGalilei",
      "timers": { "rank_0": 1025651.07, "rank_1": 986935.65 }
    },
    {
      "identifier": "CL: LEShift",
      "timers": { "rank_0": 935784.81, "rank_1": 893708.99 }
    },
    {
      "identifier": "CL: PropagateCollide",
      "timers": { "rank_0": 24453102.14, "rank_1": 23563381.13 }
    },
    {
      "identifier": "OMP: part ext forces",
      "timers": { "rank_0": 1232.06, "rank_1": 1089.23 }
    },
    {
      "identifier": "OMP: part int forces",
      "timers": { "rank_0": 295180.12, "rank_1": 298661.68 }
    },
    {
      "identifier": "OMP: part-part forces",
      "timers": { "rank_0": 1642198.70, "rank_1": 1730659.77 }
    },
    {
      "identifier": "MPI: particle forces (overhead)",
      "timers": { "rank_0": 34189.84, "rank_1": 58820.74 }
    },
    {
      "identifier": "MPI: particle forces",
      "timers": { "rank_0": 171025.66, "rank_1": 4448555.65 }
    },
    {
      "identifier": "OMP: particle dynamics",
      "timers": { "rank_0": 317488.80, "rank_1": 260449.11 }
    },
    {
      "identifier": "I/O: output",
      "timers": { "rank_0": 755315.62, "rank_1": 759909.94 }
    },
    {
      "identifier": "ALL: total time",
      "timers": { "rank_0": 30855252.21, "rank_1": 30855402.96 }
    }
  ]
}
