{
  "experiment_name": "timing",
  "num_ranks": 2,
  "metrics": [
    {
      "identifier": "MPI: particle handling",
      "timers": { "rank_0": 5.06, "rank_1": 4.43 }
    },
    {
      "identifier": "MPI: particle (overhead)",
      "timers": { "rank_0": 11.20, "rank_1": 9.92 }
    },
    {
      "identifier": "MPI: particle",
      "timers": { "rank_0": 42.18, "rank_1": 66.30 }
    },
    {
      "identifier": "CPU: particle handling",
      "timers": { "rank_0": 33.04, "rank_1": 22.81 }
    },
    {
      "identifier": "CPU: particle mapping",
      "timers": { "rank_0": 1759.55, "rank_1": 1389.10 }
    },
    {
      "identifier": "Copy: CPU -> GPU",
      "timers": { "rank_0": 2870.65, "rank_1": 1199.03 }
    },
    {
      "identifier": "CL: PartMapLP",
      "timers": { "rank_0": 1546.25, "rank_1": 2450.43 }
    },
    {
      "identifier": "Copy: GPU -> CPU",
      "timers": { "rank_0": 3810.64, "rank_1": 3288.33 }
    },
    {
      "identifier": "CL: LEGalilei",
      "timers": { "rank_0": 499.50, "rank_1": 502.08 }
    },
    {
      "identifier": "CL: LEShift",
      "timers": { "rank_0": 417.96, "rank_1": 411.60 }
    },
    {
      "identifier": "CL: PropagateCollide",
      "timers": { "rank_0": 7816.89, "rank_1": 4485.74 }
    },
    {
      "identifier": "OMP: part ext forces",
      "timers": { "rank_0": 1.63, "rank_1": 1.30 }
    },
    {
      "identifier": "OMP: part int forces",
      "timers": { "rank_0": 408.55, "rank_1": 376.59 }
    },
    {
      "identifier": "OMP: part-part forces",
      "timers": { "rank_0": 772.98, "rank_1": 739.62 }
    },
    {
      "identifier": "MPI: particle forces (overhead)",
      "timers": { "rank_0": 13.15, "rank_1": 11.28 }
    },
    {
      "identifier": "MPI: particle forces",
      "timers": { "rank_0": 74.12, "rank_1": 5122.90 }
    },
    {
      "identifier": "OMP: particle dynamics",
      "timers": { "rank_0": 396.60, "rank_1": 297.33 }
    },
    {
      "identifier": "I/O: output",
      "timers": { "rank_0": 211826.79, "rank_1": 210365.94 }
    },
    {
      "identifier": "ALL: total time",
      "timers": { "rank_0": 246895.74, "rank_1": 247072.54 }
    }
  ]
}
