{
  "experiment_name": "timing",
  "num_ranks": 2,
  "metrics": [
    {
      "identifier": "MPI: particle handling",
      "timers": { "rank_0": 3066.56, "rank_1": 3236.80 }
    },
    {
      "identifier": "MPI: particle (overhead)",
      "timers": { "rank_0": 41764.11, "rank_1": 39943.49 }
    },
    {
      "identifier": "MPI: particle",
      "timers": { "rank_0": 120388.43, "rank_1": 138922.53 }
    },
    {
      "identifier": "CPU: particle handling",
      "timers": { "rank_0": 59639.06, "rank_1": 60746.10 }
    },
    {
      "identifier": "CPU: particle mapping",
      "timers": { "rank_0": 6566832.08, "rank_1": 6465819.23 }
    },
    {
      "identifier": "Copy: CPU -> GPU",
      "timers": { "rank_0": 9518936.40, "rank_1": 9182552.56 }
    },
    {
      "identifier": "CL: PartMapLP",
      "timers": { "rank_0": 6356279.69, "rank_1": 6259903.61 }
    },
    {
      "identifier": "Copy: GPU -> CPU",
      "timers": { "rank_0": 10666483.35, "rank_1": 29743044.24 }
    },
    {
      "identifier": "CL: LEGalilei",
      "timers": { "rank_0": 1111382.90, "rank_1": 1043638.82 }
    },
    {
      "identifier": "CL: LEShift",
      "timers": { "rank_0": 1028979.80, "rank_1": 944543.53 }
    },
    {
      "identifier": "CL: PropagateCollide",
      "timers": { "rank_0": 24457327.90, "rank_1": 23519625.65 }
    },
    {
      "identifier": "OMP: part ext forces",
      "timers": { "rank_0": 1291.43, "rank_1": 837.73 }
    },
    {
      "identifier": "OMP: part int forces",
      "timers": { "rank_0": 303523.98, "rank_1": 317929.01 }
    },
    {
      "identifier": "OMP: part-part forces",
      "timers": { "rank_0": 1721580.83, "rank_1": 1758398.59 }
    },
    {
      "identifier": "MPI: particle forces (overhead)",
      "timers": { "rank_0": 34084.45, "rank_1": 44545.45 }
    },
    {
      "identifier": "MPI: particle forces",
      "timers": { "rank_0": 179489.03, "rank_1": 3867968.55 }
    },
    {
      "identifier": "OMP: particle dynamics",
      "timers": { "rank_0": 326735.61, "rank_1": 256501.64 }
    },
    {
      "identifier": "I/O: output",
      "timers": { "rank_0": 778160.96, "rank_1": 781298.53 }
    },
    {
      "identifier": "ALL: total time",
      "timers": { "rank_0": 132451493.44, "rank_1": 132451510.66 }
    }
  ]
}
