101
3607
7214
10821
14428
18035
21642
25249
28856
32463
36070
39677
43284
46891
50498
54105
57712
61319
64926
68533
72140
75747
79354
82961
86568
90175
93782
97389
100996
104603
108210
111817
115424
119031
122638
126245
129852
133459
137066
140673
144280
147887
151494
155101
158708
162315
165922
169529
173136
176743
180350
183957
187564
191171
194778
198385
201992
205599
209206
212813
216420
220027
223634
227241
230848
234455
238062
241669
245276
248883
252490
256097
259704
263311
266918
270525
274132
277739
281346
284953
288560
292167
295774
299381
302988
306595
310202
313809
317416
321023
324630
328237
331844
335451
339058
342665
346272
349879
353486
357093
360700
360721
