{
  "experiment_name": "timing",
  "num_ranks": 2,
  "metrics": [
    {
      "identifier": "MPI: particle handling",
      "timers": { "rank_0": 1091.96, "rank_1": 1628.58 }
    },
    {
      "identifier": "MPI: particle (overhead)",
      "timers": { "rank_0": 1927.35, "rank_1": 2041.36 }
    },
    {
      "identifier": "MPI: particle",
      "timers": { "rank_0": 56251.84, "rank_1": 8825.72 }
    },
    {
      "identifier": "CPU: particle handling",
      "timers": { "rank_0": 5469.00, "rank_1": 4618.87 }
    },
    {
      "identifier": "CPU: particle mapping",
      "timers": { "rank_0": 362532.50, "rank_1": 420731.71 }
    },
    {
      "identifier": "Copy: CPU -> GPU",
      "timers": { "rank_0": 718798.52, "rank_1": 385910.49 }
    },
    {
      "identifier": "CL: PartMapLP",
      "timers": { "rank_0": 327568.41, "rank_1": 445752.31 }
    },
    {
      "identifier": "Copy: GPU -> CPU",
      "timers": { "rank_0": 584314.05, "rank_1": 1186034.31 }
    },
    {
      "identifier": "CL: LEGalilei",
      "timers": { "rank_0": 292515.38, "rank_1": 266852.54 }
    },
    {
      "identifier": "CL: LEShift",
      "timers": { "rank_0": 143384.44, "rank_1": 138475.51 }
    },
    {
      "identifier": "CL: PropagateCollide",
      "timers": { "rank_0": 1347308.44, "rank_1": 749227.16 }
    },
    {
      "identifier": "OMP: part ext forces",
      "timers": { "rank_0": 284.31, "rank_1": 227.60 }
    },
    {
      "identifier": "OMP: part int forces",
      "timers": { "rank_0": 66592.38, "rank_1": 73938.92 }
    },
    {
      "identifier": "OMP: part-part forces",
      "timers": { "rank_0": 86345.73, "rank_1": 120058.46 }
    },
    {
      "identifier": "MPI: particle forces (overhead)",
      "timers": { "rank_0": 2189.20, "rank_1": 2172.88 }
    },
    {
      "identifier": "MPI: particle forces",
      "timers": { "rank_0": 18427.74, "rank_1": 810938.30 }
    },
    {
      "identifier": "OMP: particle dynamics",
      "timers": { "rank_0": 71438.33, "rank_1": 63775.55 }
    },
    {
      "identifier": "I/O: output",
      "timers": { "rank_0": 147309.68, "rank_1": 163609.72 }
    },
    {
      "identifier": "ALL: total time",
      "timers": { "rank_0": 8823745.24, "rank_1": 8823745.31 }
    }
  ]
}
