{
  "experiment_name": "timing",
  "num_ranks": 2,
  "metrics": [
    {
      "identifier": "MPI: particle handling",
      "timers": { "rank_0": 12.84, "rank_1": 17.52 }
    },
    {
      "identifier": "MPI: particle (overhead)",
      "timers": { "rank_0": 42.39, "rank_1": 39.13 }
    },
    {
      "identifier": "MPI: particle",
      "timers": { "rank_0": 114.57, "rank_1": 429.19 }
    },
    {
      "identifier": "CPU: particle handling",
      "timers": { "rank_0": 111.81, "rank_1": 68.29 }
    },
    {
      "identifier": "CPU: particle mapping",
      "timers": { "rank_0": 5508.46, "rank_1": 8121.14 }
    },
    {
      "identifier": "Copy: CPU -> GPU",
      "timers": { "rank_0": 15104.57, "rank_1": 7666.73 }
    },
    {
      "identifier": "CL: PartMapLP",
      "timers": { "rank_0": 5031.56, "rank_1": 10293.39 }
    },
    {
      "identifier": "Copy: GPU -> CPU",
      "timers": { "rank_0": 14628.65, "rank_1": 12973.51 }
    },
    {
      "identifier": "CL: LEGalilei",
      "timers": { "rank_0": 4427.03, "rank_1": 4464.89 }
    },
    {
      "identifier": "CL: LEShift",
      "timers": { "rank_0": 1007.01, "rank_1": 1068.11 }
    },
    {
      "identifier": "CL: PropagateCollide",
      "timers": { "rank_0": 19211.31, "rank_1": 18261.94 }
    },
    {
      "identifier": "OMP: part ext forces",
      "timers": { "rank_0": 3.24, "rank_1": 2.24 }
    },
    {
      "identifier": "OMP: part int forces",
      "timers": { "rank_0": 688.48, "rank_1": 783.78 }
    },
    {
      "identifier": "OMP: part-part forces",
      "timers": { "rank_0": 1881.99, "rank_1": 2282.47 }
    },
    {
      "identifier": "MPI: particle forces (overhead)",
      "timers": { "rank_0": 44.54, "rank_1": 40.87 }
    },
    {
      "identifier": "MPI: particle forces",
      "timers": { "rank_0": 182.42, "rank_1": 6725.84 }
    },
    {
      "identifier": "OMP: particle dynamics",
      "timers": { "rank_0": 756.07, "rank_1": 676.66 }
    },
    {
      "identifier": "I/O: output",
      "timers": { "rank_0": 453724.22, "rank_1": 479285.55 }
    },
    {
      "identifier": "ALL: total time",
      "timers": { "rank_0": 596014.12, "rank_1": 595970.33 }
    }
  ]
}
