0.000266812830419	1.65e-05	1.3500258e-05
0.000326616820838	1.65e-05	1.3500562e-05
0.000386424851257	1.65e-05	1.3500952e-05
0.000446232321677	1.65e-05	1.3501762e-05
0.000506040352096	1.65e-05	1.3503593e-05
0.000565851042515	1.65e-05	1.3506195e-05
0.000625664192934	1.65e-05	1.3508879e-05
0.000685478823353	1.65e-05	1.3511787e-05
0.000745295333772	1.65e-05	1.3515271e-05
0.000805114744192	1.65e-05	1.3519137e-05
0.000864936814611	1.65e-05	1.3522874e-05
0.00092476004503	1.65e-05	1.3526151e-05
0.000984582275449	1.65e-05	1.3529134e-05
0.00104440248587	1.65e-05	1.3533165e-05
0.00110422323629	1.65e-05	1.3539553e-05
0.00116404852671	1.65e-05	1.3548443e-05
0.00122388077713	1.65e-05	1.355941e-05
0.00128372218754	1.65e-05	1.3572611e-05
0.00134357639796	1.65e-05	1.3587478e-05
0.00140344474838	1.65e-05	1.3602225e-05
0.0014633236988	1.65e-05	1.3615342e-05
0.00152320834922	1.65e-05	1.3626929e-05
0.00158309615964	1.65e-05	1.3638196e-05
0.00164298677006	1.65e-05	1.3650294e-05
0.00170288178048	1.65e-05	1.3664569e-05
0.0017627855309	1.65e-05	1.3681995e-05
0.00182270300132	1.65e-05	1.3702411e-05
0.00188263791174	1.65e-05	1.3724799e-05
0.00194259218216	1.65e-05	1.3747306e-05
0.00200256333257	1.65e-05	1.3768226e-05
0.00206254684299	1.65e-05	1.3787711e-05
0.00212254045341	1.65e-05	1.3806976e-05
0.00218254384383	1.65e-05	1.3826351e-05
0.00224255671425	1.65e-05	1.3846274e-05
0.00230258044467	1.65e-05	1.3867999e-05
0.00236261971509	1.65e-05	1.3892488e-05
0.00242268054551	1.65e-05	1.3919431e-05
0.00248276551593	1.65e-05	1.3946098e-05
0.00254287234635	1.65e-05	1.3970673e-05
0.00260299781677	1.65e-05	1.3992741e-05
0.00266314062719	1.65e-05	1.4013143e-05
0.0027233008956	1.65e-05	1.4030812e-05
0.00278347880402	1.65e-05	1.4044972e-05
0.00284367495244	1.65e-05	1.4055045e-05
0.00290389201086	1.65e-05	1.4060656e-05
0.00296413557728	1.65e-05	1.4058442e-05
0.0030244114837	1.65e-05	1.404298e-05
0.00308472047012	1.65e-05	1.4007779e-05
0.00314506392454	1.65e-05	1.3941508e-05
0.00320544600496	1.65e-05	1.3829124e-05
0.00326585275138	1.65e-05	1.3653193e-05
0.0033262582338	1.65e-05	1.3391676e-05
0.00338656894022	1.65e-05	1.3048056e-05
0.00344663560663	1.65e-05	1.2704374e-05
0.00350641373505	1.65e-05	1.2472416e-05
0.00356595443747	1.65e-05	1.2447168e-05
0.00362556400389	1.65e-05	1.2639922e-05
0.00368543797431	1.65e-05	1.2953741e-05
0.00374553409673	1.65e-05	1.3259069e-05
0.00380576404115	1.65e-05	1.3491773e-05
0.00386603345557	1.65e-05	1.3651793e-05
0.00392630319799	1.65e-05	1.3752551e-05
0.00398655407441	1.65e-05	1.3812463e-05
0.00404677760683	1.65e-05	1.3843174e-05
0.00410696973725	1.65e-05	1.3854352e-05
0.00416712833366	1.65e-05	1.3854372e-05
0.00422725797008	1.65e-05	1.3848459e-05
0.0042873643425	1.65e-05	1.3838471e-05
0.00434745049292	1.65e-05	1.3825582e-05
0.00440751826734	1.65e-05	1.3811264e-05
0.00446756987976	1.65e-05	1.3795677e-05
0.00452760643418	1.65e-05	1.3778193e-05
0.0045876272886	1.65e-05	1.3758037e-05
0.00464762847102	1.65e-05	1.3735229e-05
0.00470760541144	1.65e-05	1.3711364e-05
0.00476755845986	1.65e-05	1.3688796e-05
0.00482749375428	1.65e-05	1.3668948e-05
0.00488741706269	1.65e-05	1.3651281e-05
0.00494733027111	1.65e-05	1.3634863e-05
0.00500723451553	1.65e-05	1.3619366e-05
0.00506713106995	1.65e-05	1.3604049e-05
0.00512701924637	1.65e-05	1.3587746e-05
0.00518689571479	1.65e-05	1.3569705e-05
0.00524675635321	1.65e-05	1.3550234e-05
0.00530659810763	1.65e-05	1.3530855e-05
0.00536642255405	1.65e-05	1.3513961e-05
0.00542623666847	1.65e-05	1.350074e-05
0.00548604666289	1.65e-05	1.3490252e-05
0.00554585444931	1.65e-05	1.3480872e-05
0.00560565954772	1.65e-05	1.3471598e-05
0.00566546045814	1.65e-05	1.3461789e-05
0.00572525535456	1.65e-05	1.3451118e-05
0.00578504217298	1.65e-05	1.3439383e-05
0.0058448178994	1.65e-05	1.3426953e-05
0.00590458092382	1.65e-05	1.3415281e-05
0.00596433395824	1.65e-05	1.3406028e-05
0.00602408229466	1.65e-05	1.3399798e-05
0.00608383098108	1.65e-05	1.3395623e-05
0.0061435808275	1.65e-05	1.3391698e-05
0.00620332924192	1.65e-05	1.3387418e-05
0.00626645472128	1.65e-05	1.3386615e-05
