8.80108597312e-05	1.65e-05	1.5500879e-05
0.000149027293462	1.65e-05	1.5501387e-05
0.000210043847194	1.65e-05	1.5500632e-05
0.000271059136925	1.65e-05	1.5500399e-05
0.000332075210656	1.65e-05	1.5501212e-05
0.000393092472387	1.65e-05	1.5500577e-05
0.000454107850118	1.65e-05	1.5499254e-05
0.00051512316185	1.65e-05	1.5499676e-05
0.000576140827581	1.65e-05	1.5499164e-05
0.000637156661312	1.65e-05	1.5496949e-05
0.000698171175043	1.65e-05	1.5496268e-05
0.000759188844774	1.65e-05	1.5495995e-05
0.000820205410506	1.65e-05	1.5493034e-05
0.000881219234237	1.65e-05	1.5491124e-05
0.000942236391968	1.65e-05	1.5490317e-05
0.0010032536977	1.65e-05	1.5486911e-05
0.00106426710143	1.65e-05	1.5483167e-05
0.00112528328116	1.65e-05	1.548112e-05
0.00118630098089	1.65e-05	1.5476762e-05
0.00124731442662	1.65e-05	1.5470992e-05
0.00130832935036	1.65e-05	1.546675e-05
0.00136934654609	1.65e-05	1.5460616e-05
0.00143035983182	1.65e-05	1.545236e-05
0.00149137305155	1.65e-05	1.5444351e-05
0.00155238866928	1.65e-05	1.5434749e-05
0.00161340186101	1.65e-05	1.5421923e-05
0.00167441393074	1.65e-05	1.5408163e-05
0.00173542686047	1.65e-05	1.5391634e-05
0.0017964387502	1.65e-05	1.5370963e-05
0.00185745071394	1.65e-05	1.5346802e-05
0.00191846307367	1.65e-05	1.5317127e-05
0.0019794738614	1.65e-05	1.5280489e-05
0.00204048694313	1.65e-05	1.5234588e-05
0.00210150408886	1.65e-05	1.5176222e-05
0.00216251907059	1.65e-05	1.5103866e-05
0.00222354533232	1.65e-05	1.5007518e-05
0.00228458342205	1.65e-05	1.4877165e-05
0.00234562395979	1.65e-05	1.4702132e-05
0.00240667698352	1.65e-05	1.4466809e-05
0.00246770026525	1.65e-05	1.4160923e-05
0.00252858983898	1.65e-05	1.3791943e-05
0.00258926838071	1.65e-05	1.3374294e-05
0.00264964315244	1.65e-05	1.2957963e-05
0.00270966672417	1.65e-05	1.2626377e-05
0.0027693360879	1.65e-05	1.2463095e-05
0.00282889385364	1.65e-05	1.2538591e-05
0.00288876637737	1.65e-05	1.2816911e-05
0.0029489977551	1.6499999e-05	1.3199518e-05
0.00300945870883	1.6499999e-05	1.3580424e-05
0.00307008616456	1.6499999e-05	1.3899718e-05
0.00313076245029	1.6499999e-05	1.4131428e-05
0.00319143963802	1.6499999e-05	1.4292879e-05
0.00325210281175	1.6499999e-05	1.4406545e-05
0.00331274335349	1.6499999e-05	1.4487026e-05
0.00337336826122	1.6499999e-05	1.4543464e-05
0.00343397444095	1.6499999e-05	1.4584682e-05
0.00349457206268	1.6499999e-05	1.4617061e-05
0.00355516498041	1.6499999e-05	1.4639914e-05
0.00361574580014	1.6499999e-05	1.4657006e-05
0.00367632473587	1.6499999e-05	1.467251e-05
0.0037369020736	1.6499999e-05	1.4683171e-05
0.00379747281133	1.6499999e-05	1.4691202e-05
0.00385804101907	1.6499999e-05	1.4699038e-05
0.0039186111748	1.6499999e-05	1.4705508e-05
0.00397917670253	1.6499999e-05	1.4708743e-05
0.00403973976626	1.6499999e-05	1.4713692e-05
0.00410030537599	1.6499999e-05	1.4717e-05
0.00416086863372	1.6499999e-05	1.4719386e-05
0.00422142949145	1.6499999e-05	1.4721025e-05
0.00428199196918	1.6499998e-05	1.4724041e-05
0.00434255450492	1.6499998e-05	1.4724431e-05
0.00440311494465	1.6499998e-05	1.4725768e-05
0.00446367577838	1.6499998e-05	1.4726246e-05
0.00452423802811	1.6499998e-05	1.4727431e-05
0.00458479959184	1.6499998e-05	1.4726365e-05
0.00464536022157	1.6499998e-05	1.4726562e-05
0.0047059225353	1.6499998e-05	1.47259e-05
0.00476648658303	1.6499998e-05	1.4724876e-05
0.00482704842877	1.6499998e-05	1.4722103e-05
0.0048876121465	1.6499998e-05	1.4721002e-05
0.00494817938423	1.6499998e-05	1.4717584e-05
0.00500874517996	1.6499998e-05	1.4712828e-05
0.00506931172969	1.6499998e-05	1.4708173e-05
0.00512988442002	1.6499998e-05	1.470224e-05
0.00519045713915	1.6499998e-05	1.4692372e-05
0.00525103042488	1.6499998e-05	1.4681896e-05
0.00531161258881	1.6499997e-05	1.4668816e-05
0.00537219739935	1.6499997e-05	1.4649013e-05
0.00543278631348	1.6499997e-05	1.4624971e-05
0.00549338593221	1.6499997e-05	1.4593422e-05
0.00555399704794	1.6499997e-05	1.4549101e-05
0.00561461941247	1.6499997e-05	1.4487691e-05
0.0056752614604	1.6499997e-05	1.4405426e-05
0.00573593124413	1.6499997e-05	1.4284271e-05
0.00579660695906	1.6499997e-05	1.41119e-05
0.0058572862032	1.6499997e-05	1.3867213e-05
0.00591791072313	1.6499997e-05	1.3536044e-05
0.00597834768866	1.6499997e-05	1.3148689e-05
0.00603854175259	1.6499996e-05	1.2775214e-05
0.00609848825713	1.6499996e-05	1.252123e-05
