{
  "experiment_name": "timing",
  "num_ranks": 2,
  "metrics": [
    {
      "identifier": "MPI: particle handling",
      "timers": { "rank_0": 32537.58, "rank_1": 28886.17 }
    },
    {
      "identifier": "MPI: particle (overhead)",
      "timers": { "rank_0": 133643.05, "rank_1": 116106.90 }
    },
    {
      "identifier": "MPI: particle",
      "timers": { "rank_0": 266137.60, "rank_1": 331892.43 }
    },
    {
      "identifier": "CPU: particle handling",
      "timers": { "rank_0": 348726.39, "rank_1": 297543.01 }
    },
    {
      "identifier": "CPU: particle mapping",
      "timers": { "rank_0": 2740.21, "rank_1": 2771.40 }
    },
    {
      "identifier": "Copy: CPU -> GPU",
      "timers": { "rank_0": 5331.95, "rank_1": 2603.82 }
    },
    {
      "identifier": "CL: PartMapLP",
      "timers": { "rank_0": 2557.77, "rank_1": 4645.52 }
    },
    {
      "identifier": "Copy: GPU -> CPU",
      "timers": { "rank_0": 7207.51, "rank_1": 6797.12 }
    },
    {
      "identifier": "CL: LEGalilei",
      "timers": { "rank_0": 872.31, "rank_1": 835.86 }
    },
    {
      "identifier": "CL: LEShift",
      "timers": { "rank_0": 487.71, "rank_1": 456.79 }
    },
    {
      "identifier": "CL: PropagateCollide",
      "timers": { "rank_0": 10505.44, "rank_1": 9330.79 }
    },
    {
      "identifier": "OMP: part ext forces",
      "timers": { "rank_0": 9050.57, "rank_1": 9273.59 }
    },
    {
      "identifier": "OMP: part int forces",
      "timers": { "rank_0": 2292196.43, "rank_1": 2290686.25 }
    },
    {
      "identifier": "OMP: part-part forces",
      "timers": { "rank_0": 9631761.38, "rank_1": 9615090.40 }
    },
    {
      "identifier": "MPI: particle forces (overhead)",
      "timers": { "rank_0": 189735.89, "rank_1": 162820.16 }
    },
    {
      "identifier": "MPI: particle forces",
      "timers": { "rank_0": 1426195.29, "rank_1": 1489760.38 }
    },
    {
      "identifier": "OMP: particle dynamics",
      "timers": { "rank_0": 3464484.06, "rank_1": 2286699.97 }
    },
    {
      "identifier": "I/O: output",
      "timers": { "rank_0": 344233.77, "rank_1": 355258.22 }
    },
    {
      "identifier": "ALL: total time",
      "timers": { "rank_0": 20797840.37, "rank_1": 20797673.22 }
    }
  ]
}
