{
  "experiment_name": "timing",
  "num_ranks": 2,
  "metrics": [
    {
      "identifier": "MPI: particle handling",
      "timers": { "rank_0": 53.19, "rank_1": 88.68 }
    },
    {
      "identifier": "MPI: particle (overhead)",
      "timers": { "rank_0": 114.07, "rank_1": 114.97 }
    },
    {
      "identifier": "MPI: particle",
      "timers": { "rank_0": 724.62, "rank_1": 718.68 }
    },
    {
      "identifier": "CPU: particle handling",
      "timers": { "rank_0": 384.25, "rank_1": 312.19 }
    },
    {
      "identifier": "CPU: particle mapping",
      "timers": { "rank_0": 16558.06, "rank_1": 18931.32 }
    },
    {
      "identifier": "Copy: CPU -> GPU",
      "timers": { "rank_0": 35649.85, "rank_1": 17025.69 }
    },
    {
      "identifier": "CL: PartMapLP",
      "timers": { "rank_0": 14720.64, "rank_1": 26668.66 }
    },
    {
      "identifier": "Copy: GPU -> CPU",
      "timers": { "rank_0": 75838.45, "rank_1": 74077.78 }
    },
    {
      "identifier": "CL: LEGalilei",
      "timers": { "rank_0": 10181.94, "rank_1": 10805.39 }
    },
    {
      "identifier": "CL: LEShift",
      "timers": { "rank_0": 7406.37, "rank_1": 6041.74 }
    },
    {
      "identifier": "CL: PropagateCollide",
      "timers": { "rank_0": 70395.27, "rank_1": 48297.19 }
    },
    {
      "identifier": "OMP: part ext forces",
      "timers": { "rank_0": 14.68, "rank_1": 11.19 }
    },
    {
      "identifier": "OMP: part int forces",
      "timers": { "rank_0": 3408.63, "rank_1": 3496.95 }
    },
    {
      "identifier": "OMP: part-part forces",
      "timers": { "rank_0": 5430.09, "rank_1": 6673.14 }
    },
    {
      "identifier": "MPI: particle forces (overhead)",
      "timers": { "rank_0": 139.03, "rank_1": 128.28 }
    },
    {
      "identifier": "MPI: particle forces",
      "timers": { "rank_0": 916.60, "rank_1": 39942.65 }
    },
    {
      "identifier": "OMP: particle dynamics",
      "timers": { "rank_0": 4157.98, "rank_1": 3148.70 }
    },
    {
      "identifier": "I/O: output",
      "timers": { "rank_0": 206492.68, "rank_1": 214560.09 }
    },
    {
      "identifier": "ALL: total time",
      "timers": { "rank_0": 756423.75, "rank_1": 756545.61 }
    }
  ]
}
