{
  "experiment_name": "timing",
  "num_ranks": 2,
  "metrics": [
    {
      "identifier": "MPI: particle handling",
      "timers": { "rank_0": 10.93, "rank_1": 10.77 }
    },
    {
      "identifier": "MPI: particle (overhead)",
      "timers": { "rank_0": 27.88, "rank_1": 27.39 }
    },
    {
      "identifier": "MPI: particle",
      "timers": { "rank_0": 89.40, "rank_1": 83.61 }
    },
    {
      "identifier": "CPU: particle handling",
      "timers": { "rank_0": 69.03, "rank_1": 52.51 }
    },
    {
      "identifier": "CPU: particle mapping",
      "timers": { "rank_0": 1090.08, "rank_1": 1032.09 }
    },
    {
      "identifier": "Copy: CPU -> GPU",
      "timers": { "rank_0": 2117.09, "rank_1": 936.87 }
    },
    {
      "identifier": "CL: PartMapLP",
      "timers": { "rank_0": 992.53, "rank_1": 1717.61 }
    },
    {
      "identifier": "Copy: GPU -> CPU",
      "timers": { "rank_0": 4957.30, "rank_1": 4791.39 }
    },
    {
      "identifier": "CL: LEGalilei",
      "timers": { "rank_0": 363.79, "rank_1": 344.69 }
    },
    {
      "identifier": "CL: LEShift",
      "timers": { "rank_0": 225.34, "rank_1": 227.42 }
    },
    {
      "identifier": "CL: PropagateCollide",
      "timers": { "rank_0": 4131.44, "rank_1": 3244.76 }
    },
    {
      "identifier": "OMP: part ext forces",
      "timers": { "rank_0": 2.32, "rank_1": 2.40 }
    },
    {
      "identifier": "OMP: part int forces",
      "timers": { "rank_0": 671.04, "rank_1": 732.50 }
    },
    {
      "identifier": "OMP: part-part forces",
      "timers": { "rank_0": 1803.19, "rank_1": 1944.36 }
    },
    {
      "identifier": "MPI: particle forces (overhead)",
      "timers": { "rank_0": 31.45, "rank_1": 29.32 }
    },
    {
      "identifier": "MPI: particle forces",
      "timers": { "rank_0": 434.89, "rank_1": 2235.70 }
    },
    {
      "identifier": "OMP: particle dynamics",
      "timers": { "rank_0": 697.64, "rank_1": 620.92 }
    },
    {
      "identifier": "I/O: output",
      "timers": { "rank_0": 322283.73, "rank_1": 327116.30 }
    },
    {
      "identifier": "ALL: total time",
      "timers": { "rank_0": 351999.47, "rank_1": 351936.90 }
    }
  ]
}
