1.5799906e-05	1.65e-05	1.7499981e-05
1.6099368e-05	1.65e-05	1.7499915e-05
1.6398371e-05	1.65e-05	1.749986e-05
1.6696955e-05	1.65e-05	1.7499827e-05
1.6995153e-05	1.65e-05	1.7499766e-05
1.7292952e-05	1.65e-05	1.7499709e-05
1.7590379e-05	1.65e-05	1.7499716e-05
1.7887478e-05	1.65e-05	1.7499729e-05
1.8184219e-05	1.65e-05	1.7499737e-05
1.8480602e-05	1.65e-05	1.7499835e-05
1.8776686e-05	1.65e-05	1.749999e-05
1.9072433e-05	1.65e-05	1.7500142e-05
1.9367811e-05	1.65e-05	1.7500396e-05
1.9662887e-05	1.65e-05	1.7500769e-05
1.9957627e-05	1.65e-05	1.7501165e-05
2.0251961e-05	1.65e-05	1.7501674e-05
2.0545954e-05	1.65e-05	1.7502371e-05
2.0839584e-05	1.65e-05	1.7503152e-05
2.1132742e-05	1.65e-05	1.7504072e-05
2.1425473e-05	1.65e-05	1.7505256e-05
2.171777e-05	1.65e-05	1.7506631e-05
2.2009488e-05	1.65e-05	1.750821e-05
2.2300627e-05	1.65e-05	1.7510157e-05
2.2591186e-05	1.65e-05	1.7512461e-05
2.2880984e-05	1.65e-05	1.7515124e-05
2.3169947e-05	1.65e-05	1.7518331e-05
2.3458043e-05	1.65e-05	1.752216e-05
2.3745042e-05	1.65e-05	1.7526661e-05
2.4030763e-05	1.65e-05	1.753205e-05
2.4315039e-05	1.65e-05	1.7538552e-05
2.4597524e-05	1.65e-05	1.7546359e-05
2.4877836e-05	1.65e-05	1.7555819e-05
2.5155446e-05	1.65e-05	1.7567433e-05
2.542951e-05	1.65e-05	1.7581825e-05
2.5699082e-05	1.65e-05	1.7599793e-05
2.5962588e-05	1.65e-05	1.7622578e-05
2.6216531e-05	1.65e-05	1.7652899e-05
2.6454928e-05	1.65e-05	1.7695471e-05
2.6655314e-05	1.65e-05	1.7764002e-05
2.6743171e-05	1.65e-05	1.7926718e-05
2.681539e-05	1.65e-05	1.8137727e-05
2.6910577e-05	1.65e-05	1.8355167e-05
2.7027102e-05	1.65e-05	1.8576054e-05
2.7165151e-05	1.65e-05	1.8800161e-05
2.7329005e-05	1.65e-05	1.9024686e-05
2.7528314e-05	1.65e-05	1.9240519e-05
2.7760547e-05	1.65e-05	1.9452185e-05
2.8024105e-05	1.65e-05	1.9665138e-05
2.8321025e-05	1.65e-05	1.9878129e-05
2.8660233e-05	1.65e-05	2.0079396e-05
2.9046734e-05	1.65e-05	2.0261553e-05
2.9482272e-05	1.65e-05	2.0418759e-05
2.9967593e-05	1.65e-05	2.0544487e-05
3.0500375e-05	1.65e-05	2.0635695e-05
3.1075538e-05	1.65e-05	2.0693926e-05
3.1688073e-05	1.65e-05	2.0724076e-05
3.2334243e-05	1.65e-05	2.0733217e-05
3.3011232e-05	1.65e-05	2.072749e-05
3.3717016e-05	1.65e-05	2.0711952e-05
3.4449984e-05	1.65e-05	2.0690618e-05
3.5208688e-05	1.65e-05	2.0666536e-05
3.5991976e-05	1.65e-05	2.0641797e-05
3.6798597e-05	1.65e-05	2.061738e-05
3.762699e-05	1.65e-05	2.0593814e-05
3.8475809e-05	1.65e-05	2.0571608e-05
3.9343897e-05	1.65e-05	2.0550818e-05
4.0229805e-05	1.65e-05	2.0531249e-05
4.1132186e-05	1.65e-05	2.0513002e-05
4.2050086e-05	1.65e-05	2.0496065e-05
4.2982402e-05	1.65e-05	2.0480135e-05
4.3927927e-05	1.65e-05	2.0465166e-05
4.4885815e-05	1.65e-05	2.0451232e-05
4.5855268e-05	1.65e-05	2.0438122e-05
4.683526e-05	1.65e-05	2.0425703e-05
4.7824943e-05	1.65e-05	2.04141e-05
4.8823674e-05	1.65e-05	2.0403293e-05
4.9830602e-05	1.65e-05	2.0393164e-05
5.0844776e-05	1.65e-05	2.0383882e-05
5.1865425e-05	1.65e-05	2.0375726e-05
5.2891628e-05	1.65e-05	2.0368896e-05
5.3922045e-05	1.65e-05	2.0363948e-05
5.4955126e-05	1.65e-05	2.0362096e-05
5.5988871e-05	1.65e-05	2.0365273e-05
5.7020153e-05	1.65e-05	2.0377122e-05
5.8044559e-05	1.65e-05	2.0404927e-05
5.9056758e-05	1.65e-05	2.0461421e-05
6.0051318e-05	1.65e-05	2.0562687e-05
1.0411431e-06	1.65e-05	2.0656732e-05
2.032061e-06	1.65e-05	2.0700035e-05
3.025371e-06	1.65e-05	2.0708853e-05
4.0229466e-06	1.65e-05	2.0697403e-05
5.0266006e-06	1.65e-05	2.067518e-05
6.0378409e-06	1.65e-05	2.0647922e-05
7.0574847e-06	1.65e-05	2.0618605e-05
8.0855342e-06	1.65e-05	2.0588732e-05
9.1217094e-06	1.65e-05	2.0559301e-05
1.0165723e-05	1.65e-05	2.0530771e-05
1.1216956e-05	1.65e-05	2.0503188e-05
1.2274663e-05	1.65e-05	2.0476709e-05
1.3315274e-05	1.65e-05	2.0452006e-05
