{
  "experiment_name": "timing",
  "num_ranks": 2,
  "metrics": [
    {
      "identifier": "MPI: particle handling",
      "timers": { "rank_0": 6.42, "rank_1": 5.32 }
    },
    {
      "identifier": "MPI: particle (overhead)",
      "timers": { "rank_0": 14.07, "rank_1": 10.76 }
    },
    {
      "identifier": "MPI: particle",
      "timers": { "rank_0": 59.10, "rank_1": 99.68 }
    },
    {
      "identifier": "CPU: particle handling",
      "timers": { "rank_0": 43.72, "rank_1": 27.93 }
    },
    {
      "identifier": "CPU: particle mapping",
      "timers": { "rank_0": 2721.61, "rank_1": 2071.89 }
    },
    {
      "identifier": "Copy: CPU -> GPU",
      "timers": { "rank_0": 4302.34, "rank_1": 1857.51 }
    },
    {
      "identifier": "CL: PartMapLP",
      "timers": { "rank_0": 2491.34, "rank_1": 3636.02 }
    },
    {
      "identifier": "Copy: GPU -> CPU",
      "timers": { "rank_0": 5154.24, "rank_1": 4452.61 }
    },
    {
      "identifier": "CL: LEGalilei",
      "timers": { "rank_0": 851.78, "rank_1": 846.95 }
    },
    {
      "identifier": "CL: LEShift",
      "timers": { "rank_0": 697.67, "rank_1": 690.56 }
    },
    {
      "identifier": "CL: PropagateCollide",
      "timers": { "rank_0": 14399.69, "rank_1": 6963.38 }
    },
    {
      "identifier": "OMP: part ext forces",
      "timers": { "rank_0": 2.33, "rank_1": 1.59 }
    },
    {
      "identifier": "OMP: part int forces",
      "timers": { "rank_0": 384.54, "rank_1": 343.94 }
    },
    {
      "identifier": "OMP: part-part forces",
      "timers": { "rank_0": 765.42, "rank_1": 740.46 }
    },
    {
      "identifier": "MPI: particle forces (overhead)",
      "timers": { "rank_0": 13.84, "rank_1": 16.66 }
    },
    {
      "identifier": "MPI: particle forces",
      "timers": { "rank_0": 118.05, "rank_1": 10166.71 }
    },
    {
      "identifier": "OMP: particle dynamics",
      "timers": { "rank_0": 431.65, "rank_1": 260.56 }
    },
    {
      "identifier": "I/O: output",
      "timers": { "rank_0": 85929.89, "rank_1": 85973.28 }
    },
    {
      "identifier": "ALL: total time",
      "timers": { "rank_0": 144464.68, "rank_1": 144464.60 }
    }
  ]
}
