{
  "experiment_name": "timing",
  "num_ranks": 2,
  "metrics": [
    {
      "identifier": "MPI: particle handling",
      "timers": { "rank_0": 5069.80, "rank_1": 7248.46 }
    },
    {
      "identifier": "MPI: particle (overhead)",
      "timers": { "rank_0": 11804.62, "rank_1": 11054.10 }
    },
    {
      "identifier": "MPI: particle",
      "timers": { "rank_0": 274644.19, "rank_1": 45356.47 }
    },
    {
      "identifier": "CPU: particle handling",
      "timers": { "rank_0": 31837.01, "rank_1": 20458.36 }
    },
    {
      "identifier": "CPU: particle mapping",
      "timers": { "rank_0": 1670030.66, "rank_1": 2175476.02 }
    },
    {
      "identifier": "Copy: CPU -> GPU",
      "timers": { "rank_0": 4311161.99, "rank_1": 2000241.94 }
    },
    {
      "identifier": "CL: PartMapLP",
      "timers": { "rank_0": 1459392.52, "rank_1": 2713932.16 }
    },
    {
      "identifier": "Copy: GPU -> CPU",
      "timers": { "rank_0": 3468534.80, "rank_1": 8845690.02 }
    },
    {
      "identifier": "CL: LEGalilei",
      "timers": { "rank_0": 1262732.28, "rank_1": 1406524.96 }
    },
    {
      "identifier": "CL: LEShift",
      "timers": { "rank_0": 478958.44, "rank_1": 488912.66 }
    },
    {
      "identifier": "CL: PropagateCollide",
      "timers": { "rank_0": 6775953.62, "rank_1": 4489125.14 }
    },
    {
      "identifier": "OMP: part ext forces",
      "timers": { "rank_0": 1417.93, "rank_1": 1245.49 }
    },
    {
      "identifier": "OMP: part int forces",
      "timers": { "rank_0": 326823.93, "rank_1": 346194.79 }
    },
    {
      "identifier": "OMP: part-part forces",
      "timers": { "rank_0": 538741.32, "rank_1": 617430.23 }
    },
    {
      "identifier": "MPI: particle forces (overhead)",
      "timers": { "rank_0": 12659.20, "rank_1": 12559.63 }
    },
    {
      "identifier": "MPI: particle forces",
      "timers": { "rank_0": 86467.49, "rank_1": 3286139.96 }
    },
    {
      "identifier": "OMP: particle dynamics",
      "timers": { "rank_0": 324639.13, "rank_1": 309112.51 }
    },
    {
      "identifier": "I/O: output",
      "timers": { "rank_0": 193377.95, "rank_1": 217174.83 }
    },
    {
      "identifier": "ALL: total time",
      "timers": { "rank_0": 49143162.78, "rank_1": 49142811.34 }
    }
  ]
}
